v 20100214 2
T 1400 1000 9 16 1 1 0 4 1
device=AD7980
P 100 1300 300 1300 1 0 0
{
T 100 1400 5 10 1 1 0 0 1
pinnumber=3
T 100 1600 5 10 0 1 0 0 1
pintype=in
T 300 1600 5 10 0 1 0 0 1
pinseq=3
T 500 1300 9 8 1 1 0 1 1
pinlabel=IN+
}
P 100 700 300 700 1 0 0
{
T 100 500 5 10 1 1 0 0 1
pinnumber=4
T 100 700 5 10 0 1 0 0 1
pintype=in
T 100 700 5 10 0 1 0 0 1
pinseq=4
T 500 700 9 8 1 1 0 1 1
pinlabel=IN-
}
P 2500 1600 2700 1600 1 0 1
{
T 2600 1400 5 10 1 1 0 0 1
pinnumber=9
T 2800 1500 5 10 0 1 0 0 1
pintype=in
T 2600 1600 5 10 0 1 0 0 1
pinseq=9
T 2400 1600 9 8 1 1 0 7 1
pinlabel=SDI
}
P 1000 1800 1000 2000 1 0 1
{
T 1100 1850 5 10 1 1 0 0 1
pinnumber=1
T 1100 2000 5 10 0 1 0 0 1
pintype=power
T 1000 1800 5 10 0 1 0 0 1
pinseq=1
T 1000 1700 9 8 1 1 0 5 1
pinlabel=REF
}
P 1000 200 1000 0 1 0 1
{
T 1100 0 5 10 1 1 0 0 1
pinnumber=5
T 1500 0 5 10 0 1 0 0 1
pintype=power
T 900 0 5 10 0 1 0 0 1
pinseq=5
T 1000 300 9 8 1 1 0 3 1
pinlabel=GND
}
T 2200 2100 8 10 1 1 0 0 1
refdes=U?
T 2200 1900 8 10 1 1 0 0 1
footprint=MSOP10
L 0 1000 800 1800 3 0 0 0 -1 -1
L 0 1000 800 200 3 0 0 0 -1 -1
P 2500 1200 2700 1200 1 0 1
{
T 2600 1000 5 10 1 1 0 0 1
pinnumber=8
T 2800 1100 5 10 0 1 0 0 1
pintype=in
T 2600 1200 5 10 0 1 0 0 1
pinseq=8
T 2400 1200 9 8 1 1 0 7 1
pinlabel=SCK
}
P 2500 800 2700 800 1 0 1
{
T 2600 600 5 10 1 1 0 0 1
pinnumber=7
T 2800 700 5 10 0 1 0 0 1
pintype=out
T 2600 800 5 10 0 1 0 0 1
pinseq=7
T 2400 800 9 8 1 1 0 7 1
pinlabel=SDO
}
P 2500 400 2700 400 1 0 1
{
T 2600 200 5 10 1 1 0 0 1
pinnumber=6
T 2800 300 5 10 0 1 0 0 1
pintype=in
T 2600 400 5 10 0 1 0 0 1
pinseq=6
T 2400 400 9 8 1 1 0 7 1
pinlabel=CNV
}
L 800 1800 2500 1800 3 0 0 0 -1 -1
L 2500 1800 2500 200 3 0 0 0 -1 -1
L 2500 200 800 200 3 0 0 0 -1 -1
P 1400 1800 1400 2000 1 0 1
{
T 1500 1850 5 10 1 1 0 0 1
pinnumber=2
T 1500 2000 5 10 0 1 0 0 1
pintype=power
T 1400 1800 5 10 0 1 0 0 1
pinseq=2
T 1400 1700 9 8 1 1 0 5 1
pinlabel=VDD
}
P 1800 1800 1800 2000 1 0 1
{
T 1900 1850 5 10 1 1 0 0 1
pinnumber=10
T 1900 2000 5 10 0 1 0 0 1
pintype=power
T 1800 1800 5 10 0 1 0 0 1
pinseq=10
T 1800 1700 9 8 1 1 0 5 1
pinlabel=VIO
}
