v 20121123 2
B 300 200 2400 5600 3 0 0 0 -1 -1 0 -1 -1 -1 -1 -1
T 1500 4650 5 16 1 1 0 4 1
device=CDCM61001
T 2800 4600 8 10 1 1 0 0 1
refdes=U?
T 2800 4400 8 10 1 1 0 0 1
footprint=QFN32_EP.fp
L 300 4000 2700 4000 3 0 0 0 -1 -1
T 1500 4200 9 8 1 0 0 4 2
62.5MHz to 625MHz 
Clock Generator
P 2700 1400 3000 1400 1 0 1
{
T 2800 1450 5 8 1 1 0 0 1
pinnumber=17
T 2800 1450 5 8 0 1 0 0 1
pinseq=17
T 2650 1400 9 8 1 1 0 7 1
pinlabel=REG_CAP2
}
P 0 1000 300 1000 1 0 0
{
T 200 1050 5 8 1 1 0 6 1
pinnumber=21
T 200 1050 5 8 0 1 0 6 1
pinseq=21
T 350 1000 9 8 1 1 0 1 1
pinlabel=XIN
}
P 2700 1000 3000 1000 1 0 1
{
T 2800 1050 5 8 1 1 0 0 1
pinnumber=19
T 2800 1050 5 8 0 1 0 0 1
pinseq=19
T 2650 1000 9 8 1 1 0 7 1
pinlabel=REG_CAP1
}
P 1500 0 1500 200 1 0 0
{
T 1490 170 5 8 1 1 0 8 1
pinnumber=0
T 1490 170 5 8 0 1 0 8 1
pinseq=0
T 1500 270 3 8 1 1 90 1 1
pinlabel=GND
}
P 500 6000 500 5800 1 0 0
{
T 320 5830 5 8 1 1 0 0 1
pinnumber=20
T 320 5830 5 8 0 1 0 0 1
pinseq=20
T 500 5745 3 8 1 1 90 7 1
pinlabel=VCC_IN
}
P 1100 6000 1100 5800 1 0 0
{
T 920 5830 5 8 1 1 0 0 1
pinnumber=18
T 920 5830 5 8 0 1 0 0 1
pinseq=18
T 1100 5745 3 8 1 1 90 7 1
pinlabel=VCC_PLL1
}
P 1500 6000 1500 5800 1 0 0
{
T 1320 5830 5 8 1 1 0 0 1
pinnumber=16
T 1320 5830 5 8 0 1 0 0 1
pinseq=16
T 1500 5745 3 8 1 1 90 7 1
pinlabel=VCC_PLL2
}
P 1900 6000 1900 5800 1 0 0
{
T 1720 5830 5 8 1 1 0 0 1
pinnumber=9
T 1720 5830 5 8 0 1 0 0 1
pinseq=9
T 1900 5745 3 8 1 1 90 7 1
pinlabel=VCC_VCO
}
P 2500 6000 2500 5800 1 0 0
{
T 2320 5830 5 8 1 1 0 0 1
pinnumber=4
T 2320 5830 5 8 0 1 0 0 1
pinseq=4
T 2500 5745 3 8 1 1 90 7 1
pinlabel=VCC_OUT
}
L 300 4900 2700 4900 3 0 0 0 -1 -1
L 300 800 2700 800 3 0 0 0 -1 -1
P 1900 0 1900 200 1 0 0
{
T 1890 170 5 8 1 1 0 8 1
pinnumber=22
T 1890 170 5 8 0 1 0 8 1
pinseq=22
T 1900 270 3 8 1 1 90 1 1
pinlabel=GND1
}
P 0 1400 200 1400 1 0 0
{
T 200 1450 5 8 1 1 0 6 1
pinnumber=12
T 200 1450 5 8 0 1 0 6 1
pinseq=12
T 350 1400 9 8 1 1 0 1 1
pinlabel=RSTN
}
V 250 1400 50 3 0 0 0 -1 -1 0 -1 -1 -1 -1 -1
P 0 1800 200 1800 1 0 0
{
T 200 1850 5 8 1 1 0 6 1
pinnumber=7
T 200 1850 5 8 0 1 0 6 1
pinseq=7
T 350 1800 9 8 1 1 0 1 1
pinlabel=CE
}
V 250 1800 50 3 0 0 0 -1 -1 0 -1 -1 -1 -1 -1
P 0 2200 300 2200 1 0 0
{
T 200 2250 5 8 1 1 0 6 1
pinnumber=26
T 200 2250 5 8 0 1 0 6 1
pinseq=26
T 350 2200 9 8 1 1 0 1 1
pinlabel=PR1
}
P 0 2400 300 2400 1 0 0
{
T 200 2450 5 8 1 1 0 6 1
pinnumber=25
T 200 2450 5 8 0 1 0 6 1
pinseq=25
T 350 2400 9 8 1 1 0 1 1
pinlabel=PR0
}
P 0 2800 300 2800 1 0 0
{
T 200 2850 5 8 1 1 0 6 1
pinnumber=15
T 200 2850 5 8 0 1 0 6 1
pinseq=15
T 350 2800 9 8 1 1 0 1 1
pinlabel=OD2
}
P 0 3000 300 3000 1 0 0
{
T 200 3050 5 8 1 1 0 6 1
pinnumber=14
T 200 3050 5 8 0 1 0 6 1
pinseq=14
T 350 3000 9 8 1 1 0 1 1
pinlabel=OD1
}
P 0 3200 300 3200 1 0 0
{
T 200 3250 5 8 1 1 0 6 1
pinnumber=13
T 200 3250 5 8 0 1 0 6 1
pinseq=13
T 350 3200 9 8 1 1 0 1 1
pinlabel=OD0
}
P 0 3600 300 3600 1 0 0
{
T 200 3650 5 8 1 1 0 6 1
pinnumber=10
T 200 3650 5 8 0 1 0 6 1
pinseq=10
T 350 3600 9 8 1 1 0 1 1
pinlabel=OS1
}
P 0 3800 300 3800 1 0 0
{
T 200 3850 5 8 1 1 0 6 1
pinnumber=11
T 200 3850 5 8 0 1 0 6 1
pinseq=11
T 350 3800 9 8 1 1 0 1 1
pinlabel=OS0
}
P 2700 2800 3000 2800 1 0 1
{
T 2800 2850 5 8 1 1 0 0 1
pinnumber=23
T 2800 2850 5 8 0 1 0 0 1
pinseq=23
T 2650 2800 9 8 1 1 0 7 1
pinlabel=OSC_OUT
}
P 2700 3800 3000 3800 1 0 1
{
T 2800 3850 5 8 1 1 0 0 1
pinnumber=6
T 2800 3850 5 8 0 1 0 0 1
pinseq=6
T 2650 3800 9 8 1 1 0 7 1
pinlabel=OUTP
}
P 2700 3600 3000 3600 1 0 1
{
T 2800 3650 5 8 1 1 0 0 1
pinnumber=5
T 2800 3650 5 8 0 1 0 0 1
pinseq=5
T 2650 3600 9 8 1 1 0 7 1
pinlabel=OUTN
}
