v 20110115 2
T 450 16800 8 10 0 0 0 0 1
device=Connector_FI-R-41
T 400 16500 8 10 1 1 0 0 1
refdes=J?
B 0 15600 400 200 3 0 0 0 -1 -1 0 -1 -1 -1 -1 -1
B 400 16000 400 200 3 0 0 0 -1 -1 0 -1 -1 -1 -1 -1
P 800 16100 1100 16100 1 0 1
{
T 900 16150 5 8 0 0 0 0 1
pinnumber=1
T 700 16050 9 8 1 1 0 6 1
pinlabel=1
}
P 400 15700 1100 15700 1 0 1
{
T 700 15750 5 8 0 0 0 0 1
pinnumber=2
T 300 15650 9 8 1 1 0 6 1
pinlabel=2
}
B 0 14800 400 200 3 0 0 0 -1 -1 0 -1 -1 -1 -1 -1
B 400 15200 400 200 3 0 0 0 -1 -1 0 -1 -1 -1 -1 -1
P 800 15300 1100 15300 1 0 1
{
T 900 15350 5 8 0 0 0 0 1
pinnumber=3
T 700 15250 9 8 1 1 0 6 1
pinlabel=3
}
P 400 14900 1100 14900 1 0 1
{
T 700 14950 5 8 0 0 0 0 1
pinnumber=4
T 300 14850 9 8 1 1 0 6 1
pinlabel=4
}
B 0 14000 400 200 3 0 0 0 -1 -1 0 -1 -1 -1 -1 -1
B 400 14400 400 200 3 0 0 0 -1 -1 0 -1 -1 -1 -1 -1
P 800 14500 1100 14500 1 0 1
{
T 900 14550 5 8 0 0 0 0 1
pinnumber=5
T 700 14450 9 8 1 1 0 6 1
pinlabel=5
}
P 400 14100 1100 14100 1 0 1
{
T 700 14150 5 8 0 0 0 0 1
pinnumber=6
T 300 14050 9 8 1 1 0 6 1
pinlabel=6
}
B 0 13200 400 200 3 0 0 0 -1 -1 0 -1 -1 -1 -1 -1
B 400 13600 400 200 3 0 0 0 -1 -1 0 -1 -1 -1 -1 -1
P 800 13700 1100 13700 1 0 1
{
T 900 13750 5 8 0 0 0 0 1
pinnumber=7
T 700 13650 9 8 1 1 0 6 1
pinlabel=7
}
P 400 13300 1100 13300 1 0 1
{
T 700 13350 5 8 0 0 0 0 1
pinnumber=8
T 300 13250 9 8 1 1 0 6 1
pinlabel=8
}
B 0 12400 400 200 3 0 0 0 -1 -1 0 -1 -1 -1 -1 -1
B 400 12800 400 200 3 0 0 0 -1 -1 0 -1 -1 -1 -1 -1
P 800 12900 1100 12900 1 0 1
{
T 900 12950 5 8 0 0 0 0 1
pinnumber=9
T 700 12850 9 8 1 1 0 6 1
pinlabel=9
}
P 400 12500 1100 12500 1 0 1
{
T 700 12550 5 8 0 0 0 0 1
pinnumber=10
T 300 12450 9 8 1 1 0 6 1
pinlabel=10
}
B 0 11600 400 200 3 0 0 0 -1 -1 0 -1 -1 -1 -1 -1
B 400 12000 400 200 3 0 0 0 -1 -1 0 -1 -1 -1 -1 -1
P 800 12100 1100 12100 1 0 1
{
T 900 12150 5 8 0 0 0 0 1
pinnumber=11
T 700 12050 9 8 1 1 0 6 1
pinlabel=11
}
P 400 11700 1100 11700 1 0 1
{
T 700 11750 5 8 0 0 0 0 1
pinnumber=12
T 300 11650 9 8 1 1 0 6 1
pinlabel=12
}
B 0 10800 400 200 3 0 0 0 -1 -1 0 -1 -1 -1 -1 -1
B 400 11200 400 200 3 0 0 0 -1 -1 0 -1 -1 -1 -1 -1
P 800 11300 1100 11300 1 0 1
{
T 900 11350 5 8 0 0 0 0 1
pinnumber=13
T 700 11250 9 8 1 1 0 6 1
pinlabel=13
}
P 400 10900 1100 10900 1 0 1
{
T 700 10950 5 8 0 0 0 0 1
pinnumber=14
T 300 10850 9 8 1 1 0 6 1
pinlabel=14
}
B 0 10000 400 200 3 0 0 0 -1 -1 0 -1 -1 -1 -1 -1
B 400 10400 400 200 3 0 0 0 -1 -1 0 -1 -1 -1 -1 -1
P 800 10500 1100 10500 1 0 1
{
T 900 10550 5 8 0 0 0 0 1
pinnumber=15
T 700 10450 9 8 1 1 0 6 1
pinlabel=15
}
P 400 10100 1100 10100 1 0 1
{
T 700 10150 5 8 0 0 0 0 1
pinnumber=16
T 300 10050 9 8 1 1 0 6 1
pinlabel=16
}
B 0 9200 400 200 3 0 0 0 -1 -1 0 -1 -1 -1 -1 -1
B 400 9600 400 200 3 0 0 0 -1 -1 0 -1 -1 -1 -1 -1
P 800 9700 1100 9700 1 0 1
{
T 900 9750 5 8 0 0 0 0 1
pinnumber=17
T 700 9650 9 8 1 1 0 6 1
pinlabel=17
}
P 400 9300 1100 9300 1 0 1
{
T 700 9350 5 8 0 0 0 0 1
pinnumber=18
T 300 9250 9 8 1 1 0 6 1
pinlabel=18
}
B 0 8400 400 200 3 0 0 0 -1 -1 0 -1 -1 -1 -1 -1
B 400 8800 400 200 3 0 0 0 -1 -1 0 -1 -1 -1 -1 -1
P 800 8900 1100 8900 1 0 1
{
T 900 8950 5 8 0 0 0 0 1
pinnumber=19
T 700 8850 9 8 1 1 0 6 1
pinlabel=19
}
P 400 8500 1100 8500 1 0 1
{
T 700 8550 5 8 0 0 0 0 1
pinnumber=20
T 300 8450 9 8 1 1 0 6 1
pinlabel=20
}
B 0 7600 400 200 3 0 0 0 -1 -1 0 -1 -1 -1 -1 -1
B 400 8000 400 200 3 0 0 0 -1 -1 0 -1 -1 -1 -1 -1
P 800 8100 1100 8100 1 0 1
{
T 900 8150 5 8 0 0 0 0 1
pinnumber=21
T 700 8050 9 8 1 1 0 6 1
pinlabel=21
}
P 400 7700 1100 7700 1 0 1
{
T 700 7750 5 8 0 0 0 0 1
pinnumber=22
T 300 7650 9 8 1 1 0 6 1
pinlabel=22
}
B 0 6800 400 200 3 0 0 0 -1 -1 0 -1 -1 -1 -1 -1
B 400 7200 400 200 3 0 0 0 -1 -1 0 -1 -1 -1 -1 -1
P 800 7300 1100 7300 1 0 1
{
T 900 7350 5 8 0 0 0 0 1
pinnumber=23
T 700 7250 9 8 1 1 0 6 1
pinlabel=23
}
P 400 6900 1100 6900 1 0 1
{
T 700 6950 5 8 0 0 0 0 1
pinnumber=24
T 300 6850 9 8 1 1 0 6 1
pinlabel=24
}
B 0 6000 400 200 3 0 0 0 -1 -1 0 -1 -1 -1 -1 -1
B 400 6400 400 200 3 0 0 0 -1 -1 0 -1 -1 -1 -1 -1
P 800 6500 1100 6500 1 0 1
{
T 900 6550 5 8 0 0 0 0 1
pinnumber=25
T 700 6450 9 8 1 1 0 6 1
pinlabel=25
}
P 400 6100 1100 6100 1 0 1
{
T 700 6150 5 8 0 0 0 0 1
pinnumber=26
T 300 6050 9 8 1 1 0 6 1
pinlabel=26
}
B 0 5200 400 200 3 0 0 0 -1 -1 0 -1 -1 -1 -1 -1
B 400 5600 400 200 3 0 0 0 -1 -1 0 -1 -1 -1 -1 -1
P 800 5700 1100 5700 1 0 1
{
T 900 5750 5 8 0 0 0 0 1
pinnumber=27
T 700 5650 9 8 1 1 0 6 1
pinlabel=27
}
P 400 5300 1100 5300 1 0 1
{
T 700 5350 5 8 0 0 0 0 1
pinnumber=28
T 300 5250 9 8 1 1 0 6 1
pinlabel=28
}
B 0 4400 400 200 3 0 0 0 -1 -1 0 -1 -1 -1 -1 -1
B 400 4800 400 200 3 0 0 0 -1 -1 0 -1 -1 -1 -1 -1
P 800 4900 1100 4900 1 0 1
{
T 900 4950 5 8 0 0 0 0 1
pinnumber=29
T 700 4850 9 8 1 1 0 6 1
pinlabel=29
}
P 400 4500 1100 4500 1 0 1
{
T 700 4550 5 8 0 0 0 0 1
pinnumber=30
T 300 4450 9 8 1 1 0 6 1
pinlabel=30
}
B 0 3600 400 200 3 0 0 0 -1 -1 0 -1 -1 -1 -1 -1
B 400 4000 400 200 3 0 0 0 -1 -1 0 -1 -1 -1 -1 -1
P 800 4100 1100 4100 1 0 1
{
T 900 4150 5 8 0 0 0 0 1
pinnumber=31
T 700 4050 9 8 1 1 0 6 1
pinlabel=31
}
P 400 3700 1100 3700 1 0 1
{
T 700 3750 5 8 0 0 0 0 1
pinnumber=32
T 300 3650 9 8 1 1 0 6 1
pinlabel=32
}
B 0 2800 400 200 3 0 0 0 -1 -1 0 -1 -1 -1 -1 -1
B 400 3200 400 200 3 0 0 0 -1 -1 0 -1 -1 -1 -1 -1
P 800 3300 1100 3300 1 0 1
{
T 900 3350 5 8 0 0 0 0 1
pinnumber=33
T 700 3250 9 8 1 1 0 6 1
pinlabel=33
}
P 400 2900 1100 2900 1 0 1
{
T 700 2950 5 8 0 0 0 0 1
pinnumber=34
T 300 2850 9 8 1 1 0 6 1
pinlabel=34
}
B 0 2000 400 200 3 0 0 0 -1 -1 0 -1 -1 -1 -1 -1
B 400 2400 400 200 3 0 0 0 -1 -1 0 -1 -1 -1 -1 -1
P 800 2500 1100 2500 1 0 1
{
T 900 2550 5 8 0 0 0 0 1
pinnumber=35
T 700 2450 9 8 1 1 0 6 1
pinlabel=35
}
P 400 2100 1100 2100 1 0 1
{
T 700 2150 5 8 0 0 0 0 1
pinnumber=36
T 300 2050 9 8 1 1 0 6 1
pinlabel=36
}
B 0 1200 400 200 3 0 0 0 -1 -1 0 -1 -1 -1 -1 -1
B 400 1600 400 200 3 0 0 0 -1 -1 0 -1 -1 -1 -1 -1
P 800 1700 1100 1700 1 0 1
{
T 900 1750 5 8 0 0 0 0 1
pinnumber=37
T 700 1650 9 8 1 1 0 6 1
pinlabel=37
}
P 400 1300 1100 1300 1 0 1
{
T 700 1350 5 8 0 0 0 0 1
pinnumber=38
T 300 1250 9 8 1 1 0 6 1
pinlabel=38
}
B 0 400 400 200 3 0 0 0 -1 -1 0 -1 -1 -1 -1 -1
B 400 800 400 200 3 0 0 0 -1 -1 0 -1 -1 -1 -1 -1
P 800 900 1100 900 1 0 1
{
T 900 950 5 8 0 0 0 0 1
pinnumber=39
T 700 850 9 8 1 1 0 6 1
pinlabel=39
}
P 400 500 1100 500 1 0 1
{
T 700 550 5 8 0 0 0 0 1
pinnumber=40
T 300 450 9 8 1 1 0 6 1
pinlabel=40
}
B 400 0 400 200 3 0 0 0 -1 -1 0 -1 -1 -1 -1 -1
P 800 100 1100 100 1 0 1
{
T 900 150 5 8 0 0 0 0 1
pinnumber=41
T 700 50 9 8 1 1 0 6 1
pinlabel=41
}
