v 20121123 2
B 400 200 6000 16200 9 0 0 0 -1 -1 0 -1 -1 -1 -1 -1
T 3400 15850 5 32 1 1 0 3 1
device=76871
T 6500 16000 8 10 1 1 0 0 1
refdes=J?
T 3400 15460 9 12 1 0 180 4 1
Two QSFP+ Cages with integrated Connectors
T 6500 15700 8 10 1 1 0 0 1
footprint=QSFP_2X1_76871.fp
L 400 15200 6400 15200 3 0 0 0 -1 -1
P 6800 14600 6400 14600 1 0 0
{
T 6500 14750 5 8 0 1 0 2 1
pinseq=B10
T 6500 14650 5 8 1 1 0 0 1
pinnumber=B10
T 6350 14700 9 10 1 1 0 7 1
pinlabel=BOT_VCC_RX
}
T 3100 12400 9 20 1 0 90 4 1
Quad TIA and Lim Amp
P 400 13800 0 13800 1 0 1
{
T 300 13850 5 8 1 1 0 6 1
pinnumber=T17
T 300 13950 5 8 0 1 0 8 1
pinseq=T17
T 450 13800 9 10 1 1 0 1 1
pinlabel=TOP_RX1_P
}
P 400 13400 0 13400 1 0 1
{
T 300 13450 5 8 1 1 0 6 1
pinnumber=T18
T 300 13550 5 8 0 1 0 8 1
pinseq=T18
T 450 13400 9 10 1 1 0 1 1
pinlabel=TOP_RX1_N
}
P 3400 0 3400 200 1 0 0
{
T 3365 50 5 8 1 1 180 2 1
pinnumber=0
T 3360 50 5 8 0 1 180 2 1
pinseq=0
T 3405 350 9 10 1 1 0 3 1
pinlabel=SHIELD
}
L 1700 13900 1700 13700 3 0 0 0 -1 -1
L 1800 13900 1800 13700 3 0 0 0 -1 -1
L 1800 13800 2500 13800 3 0 0 0 -1 -1
L 1700 13500 1700 13300 3 0 0 0 -1 -1
L 1800 13500 1800 13300 3 0 0 0 -1 -1
L 1800 13400 2400 13400 3 0 0 0 -1 -1
B 2200 10500 1100 3800 3 0 0 0 -1 -1 0 -1 -1 -1 -1 -1
T 1900 13600 9 10 1 0 0 4 1
0.01u
P 400 13000 0 13000 1 0 1
{
T 300 13150 5 8 0 1 0 8 1
pinseq=T22
T 300 13050 5 8 1 1 0 6 1
pinnumber=T22
T 450 13000 9 10 1 1 0 1 1
pinlabel=TOP_RX2_P
}
P 400 12600 0 12600 1 0 1
{
T 300 12750 5 8 0 1 0 8 1
pinseq=T21
T 300 12650 5 8 1 1 0 6 1
pinnumber=T21
T 450 12600 9 10 1 1 0 1 1
pinlabel=TOP_RX2_N
}
L 1700 13100 1700 12900 3 0 0 0 -1 -1
L 1800 13100 1800 12900 3 0 0 0 -1 -1
L 1800 13000 2500 13000 3 0 0 0 -1 -1
L 1700 12700 1700 12500 3 0 0 0 -1 -1
L 1800 12700 1800 12500 3 0 0 0 -1 -1
L 1800 12600 2400 12600 3 0 0 0 -1 -1
T 1900 12800 9 10 1 0 0 4 1
0.01u
P 400 12200 0 12200 1 0 1
{
T 300 12350 5 8 0 1 0 8 1
pinseq=T14
T 300 12250 5 8 1 1 0 6 1
pinnumber=T14
T 450 12200 9 10 1 1 0 1 1
pinlabel=TOP_RX3_P
}
P 400 11800 0 11800 1 0 1
{
T 300 11950 5 8 0 1 0 8 1
pinseq=T15
T 300 11850 5 8 1 1 0 6 1
pinnumber=T15
T 450 11800 9 10 1 1 0 1 1
pinlabel=TOP_RX3_N
}
L 1700 12300 1700 12100 3 0 0 0 -1 -1
L 1800 12300 1800 12100 3 0 0 0 -1 -1
L 1800 12200 2500 12200 3 0 0 0 -1 -1
L 1700 11900 1700 11700 3 0 0 0 -1 -1
L 1800 11900 1800 11700 3 0 0 0 -1 -1
L 1800 11800 2400 11800 3 0 0 0 -1 -1
P 400 11400 0 11400 1 0 1
{
T 300 11550 5 8 0 1 0 8 1
pinseq=T25
T 300 11450 5 8 1 1 0 6 1
pinnumber=T25
T 450 11400 9 10 1 1 0 1 1
pinlabel=TOP_RX4_P
}
P 400 11000 0 11000 1 0 1
{
T 300 11150 5 8 0 1 0 8 1
pinseq=T24
T 300 11050 5 8 1 1 0 6 1
pinnumber=T24
T 450 11000 9 10 1 1 0 1 1
pinlabel=TOP_RX4_N
}
L 1500 11400 1700 11400 3 0 0 0 -1 -1
L 1700 11500 1700 11300 3 0 0 0 -1 -1
L 1800 11500 1800 11300 3 0 0 0 -1 -1
L 1800 11400 2500 11400 3 0 0 0 -1 -1
L 1500 11000 1700 11000 3 0 0 0 -1 -1
L 1700 11100 1700 10900 3 0 0 0 -1 -1
L 1800 11100 1800 10900 3 0 0 0 -1 -1
L 1800 11000 2400 11000 3 0 0 0 -1 -1
T 1900 12000 9 10 1 0 0 4 1
0.01u
T 1900 11200 9 10 1 0 0 4 1
0.01u
P 400 14600 0 14600 1 0 1
{
T 300 14650 5 8 1 1 0 6 1
pinnumber=T10
T 300 14750 5 8 0 1 0 8 1
pinseq=T10
T 450 14700 9 10 1 1 0 1 1
pinlabel=TOP_VCC_RX
}
L 400 14600 2800 14600 3 0 0 0 -1 -1
P 400 9400 0 9400 1 0 1
{
T 300 9550 5 8 0 1 0 8 1
pinseq=T36
T 300 9450 5 8 1 1 0 6 1
pinnumber=T36
T 450 9400 9 10 1 1 0 1 1
pinlabel=TOP_TX1_P
}
P 400 9000 0 9000 1 0 1
{
T 300 9150 5 8 0 1 0 8 1
pinseq=T37
T 300 9050 5 8 1 1 0 6 1
pinnumber=T37
T 450 9000 9 10 1 1 0 1 1
pinlabel=TOP_TX1_N
}
L 1500 9400 1700 9400 3 0 0 0 -1 -1
L 1700 9500 1700 9300 3 0 0 0 -1 -1
L 1800 9500 1800 9300 3 0 0 0 -1 -1
L 1800 9400 2600 9400 3 0 0 0 -1 -1
L 1500 9000 1700 9000 3 0 0 0 -1 -1
L 1700 9100 1700 8900 3 0 0 0 -1 -1
L 1800 9100 1800 8900 3 0 0 0 -1 -1
L 1800 9000 2500 9000 3 0 0 0 -1 -1
B 2200 6300 1100 3600 3 0 0 0 -1 -1 0 -1 -1 -1 -1 -1
P 400 8600 0 8600 1 0 1
{
T 300 8750 5 8 0 1 0 8 1
pinseq=T3
T 300 8650 5 8 1 1 0 6 1
pinnumber=T3
T 450 8600 9 10 1 1 0 1 1
pinlabel=TOP_TX2_P
}
P 400 8200 0 8200 1 0 1
{
T 300 8350 5 8 0 1 0 8 1
pinseq=T2
T 300 8250 5 8 1 1 0 6 1
pinnumber=T2
T 450 8200 9 10 1 1 0 1 1
pinlabel=TOP_TX2_N
}
L 1500 8600 1700 8600 3 0 0 0 -1 -1
L 1700 8700 1700 8500 3 0 0 0 -1 -1
L 1800 8700 1800 8500 3 0 0 0 -1 -1
L 1800 8600 2600 8600 3 0 0 0 -1 -1
L 1500 8200 1700 8200 3 0 0 0 -1 -1
L 1700 8300 1700 8100 3 0 0 0 -1 -1
L 1800 8300 1800 8100 3 0 0 0 -1 -1
L 1800 8200 2500 8200 3 0 0 0 -1 -1
P 400 7800 0 7800 1 0 1
{
T 300 7950 5 8 0 1 0 8 1
pinseq=T33
T 300 7850 5 8 1 1 0 6 1
pinnumber=T33
T 450 7800 9 10 1 1 0 1 1
pinlabel=TOP_TX3_P
}
P 400 7400 0 7400 1 0 1
{
T 300 7550 5 8 0 1 0 8 1
pinseq=T34
T 300 7450 5 8 1 1 0 6 1
pinnumber=T34
T 450 7400 9 10 1 1 0 1 1
pinlabel=TOP_TX3_N
}
L 1500 7800 1700 7800 3 0 0 0 -1 -1
L 1700 7900 1700 7700 3 0 0 0 -1 -1
L 1800 7900 1800 7700 3 0 0 0 -1 -1
L 1800 7800 2600 7800 3 0 0 0 -1 -1
L 1500 7400 1700 7400 3 0 0 0 -1 -1
L 1700 7500 1700 7300 3 0 0 0 -1 -1
L 1800 7500 1800 7300 3 0 0 0 -1 -1
L 1800 7400 2500 7400 3 0 0 0 -1 -1
P 400 7000 0 7000 1 0 1
{
T 300 7150 5 8 0 1 0 8 1
pinseq=T6
T 300 7050 5 8 1 1 0 6 1
pinnumber=T6
T 450 7000 9 10 1 1 0 1 1
pinlabel=TOP_TX4_P
}
P 400 6600 0 6600 1 0 1
{
T 300 6750 5 8 0 1 0 8 1
pinseq=T5
T 300 6650 5 8 1 1 0 6 1
pinnumber=T5
T 450 6600 9 10 1 1 0 1 1
pinlabel=TOP_TX4_N
}
L 1500 7000 1700 7000 3 0 0 0 -1 -1
L 1700 7100 1700 6900 3 0 0 0 -1 -1
L 1800 7100 1800 6900 3 0 0 0 -1 -1
L 1800 7000 2600 7000 3 0 0 0 -1 -1
L 1500 6600 1700 6600 3 0 0 0 -1 -1
L 1700 6700 1700 6500 3 0 0 0 -1 -1
L 1800 6700 1800 6500 3 0 0 0 -1 -1
L 1800 6600 2500 6600 3 0 0 0 -1 -1
P 400 10200 0 10200 1 0 1
{
T 300 10350 5 8 0 1 0 8 1
pinseq=T29
T 300 10250 5 8 1 1 0 6 1
pinnumber=T29
T 450 10300 9 10 1 1 0 1 1
pinlabel=TOP_VCC_TX
}
L 400 10200 2800 10200 3 0 0 0 -1 -1
T 3100 8000 9 20 1 0 90 4 1
Quad Laser Driver
T 1900 9200 9 10 1 0 0 4 1
0.01u
T 1900 8400 9 10 1 0 0 4 1
0.01u
T 1900 7600 9 10 1 0 0 4 1
0.01u
T 1900 6800 9 10 1 0 0 4 1
0.01u
L 2400 9350 2300 9350 3 0 0 0 -1 -1
L 2300 9350 2500 9300 3 0 0 0 -1 -1
L 2500 9300 2300 9250 3 0 0 0 -1 -1
L 2300 9250 2500 9200 3 0 0 0 -1 -1
L 2500 9200 2300 9150 3 0 0 0 -1 -1
L 2300 9150 2500 9100 3 0 0 0 -1 -1
L 2300 9050 2400 9050 3 0 0 0 -1 -1
L 2500 9100 2300 9050 3 0 0 0 -1 -1
L 2400 9050 2400 9000 3 0 0 0 -1 -1
L 2400 9350 2400 9400 3 0 0 0 -1 -1
T 2700 9200 9 10 1 0 90 4 1
100
L 2400 8550 2300 8550 3 0 0 0 -1 -1
L 2300 8550 2500 8500 3 0 0 0 -1 -1
L 2500 8500 2300 8450 3 0 0 0 -1 -1
L 2300 8450 2500 8400 3 0 0 0 -1 -1
L 2500 8400 2300 8350 3 0 0 0 -1 -1
L 2300 8350 2500 8300 3 0 0 0 -1 -1
L 2300 8250 2400 8250 3 0 0 0 -1 -1
L 2500 8300 2300 8250 3 0 0 0 -1 -1
L 2400 8250 2400 8200 3 0 0 0 -1 -1
L 2400 8550 2400 8600 3 0 0 0 -1 -1
L 2400 7750 2300 7750 3 0 0 0 -1 -1
L 2300 7750 2500 7700 3 0 0 0 -1 -1
L 2500 7700 2300 7650 3 0 0 0 -1 -1
L 2300 7650 2500 7600 3 0 0 0 -1 -1
L 2500 7600 2300 7550 3 0 0 0 -1 -1
L 2300 7550 2500 7500 3 0 0 0 -1 -1
L 2300 7450 2400 7450 3 0 0 0 -1 -1
L 2500 7500 2300 7450 3 0 0 0 -1 -1
L 2400 7450 2400 7400 3 0 0 0 -1 -1
L 2400 7750 2400 7800 3 0 0 0 -1 -1
L 2400 6950 2300 6950 3 0 0 0 -1 -1
L 2300 6950 2500 6900 3 0 0 0 -1 -1
L 2500 6900 2300 6850 3 0 0 0 -1 -1
L 2300 6850 2500 6800 3 0 0 0 -1 -1
L 2500 6800 2300 6750 3 0 0 0 -1 -1
L 2300 6750 2500 6700 3 0 0 0 -1 -1
L 2300 6650 2400 6650 3 0 0 0 -1 -1
L 2500 6700 2300 6650 3 0 0 0 -1 -1
L 2400 6650 2400 6600 3 0 0 0 -1 -1
L 2400 6950 2400 7000 3 0 0 0 -1 -1
L 2300 13600 2600 13900 3 0 0 0 -1 -1
L 2600 13900 2600 13300 3 0 0 0 -1 -1
L 2600 13300 2300 13600 3 0 0 0 -1 -1
L 2300 12800 2600 13100 3 0 0 0 -1 -1
L 2600 13100 2600 12500 3 0 0 0 -1 -1
L 2600 12500 2300 12800 3 0 0 0 -1 -1
L 2300 12000 2600 12300 3 0 0 0 -1 -1
L 2600 12300 2600 11700 3 0 0 0 -1 -1
L 2600 11700 2300 12000 3 0 0 0 -1 -1
L 2300 11200 2600 11500 3 0 0 0 -1 -1
L 2600 11500 2600 10900 3 0 0 0 -1 -1
L 2600 10900 2300 11200 3 0 0 0 -1 -1
B 2200 3000 1100 2700 3 0 0 0 -1 -1 0 -1 -1 -1 -1 -1
T 2700 4300 9 20 1 0 90 4 1
MicroController
P 400 2600 0 2600 1 0 1
{
T 300 2750 5 8 0 1 0 8 1
pinseq=T1
T 300 2650 5 8 1 1 0 6 1
pinnumber=T1
T 450 2600 9 10 1 1 0 1 1
pinlabel=TOP_GND
}
P 400 6000 0 6000 1 0 1
{
T 300 6150 5 8 0 1 0 8 1
pinseq=T30
T 300 6050 5 8 1 1 0 6 1
pinnumber=T30
T 450 6100 9 10 1 1 0 1 1
pinlabel=TOP_VCC1
}
L 400 6000 2800 6000 3 0 0 0 -1 -1
P 400 5400 0 5400 1 0 1
{
T 300 5550 5 8 0 1 0 8 1
pinseq=T27
T 300 5450 5 8 1 1 0 6 1
pinnumber=T27
T 450 5400 9 10 1 1 0 1 1
pinlabel=TOP_ModPrsL
}
P 400 5000 0 5000 1 0 1
{
T 300 5150 5 8 0 1 0 8 1
pinseq=T11
T 300 5050 5 8 1 1 0 6 1
pinnumber=T11
T 450 5000 9 10 1 1 0 1 1
pinlabel=TOP_SCL
}
P 400 4800 0 4800 1 0 1
{
T 300 4950 5 8 0 1 0 8 1
pinseq=T12
T 300 4850 5 8 1 1 0 6 1
pinnumber=T12
T 450 4800 9 10 1 1 0 1 1
pinlabel=TOP_SDA
}
P 400 4400 0 4400 1 0 1
{
T 300 4550 5 8 0 1 0 8 1
pinseq=T8
T 300 4450 5 8 1 1 0 6 1
pinnumber=T8
T 450 4400 9 10 1 1 0 1 1
pinlabel=TOP_ModSelL
}
P 400 4000 0 4000 1 0 1
{
T 300 4150 5 8 0 1 0 8 1
pinseq=T9
T 300 4050 5 8 1 1 0 6 1
pinnumber=T9
T 450 4000 9 10 1 1 0 1 1
pinlabel=TOP_ResetL
}
P 400 3600 0 3600 1 0 1
{
T 300 3750 5 8 0 1 0 8 1
pinseq=T28
T 300 3650 5 8 1 1 0 6 1
pinnumber=T28
T 450 3600 9 10 1 1 0 1 1
pinlabel=TOP_IntL
}
P 400 3200 0 3200 1 0 1
{
T 300 3350 5 8 0 1 0 8 1
pinseq=T31
T 300 3250 5 8 1 1 0 6 1
pinnumber=T31
T 450 3200 9 10 1 1 0 1 1
pinlabel=TOP_LPMode
}
B 3500 10500 1100 3800 3 0 0 0 -1 -1 0 -1 -1 -1 -1 -1
L 4000 14600 6400 14600 3 0 0 0 -1 -1
B 3500 6300 1100 3600 3 0 0 0 -1 -1 0 -1 -1 -1 -1 -1
B 3500 3000 1100 2700 3 0 0 0 -1 -1 0 -1 -1 -1 -1 -1
T 3700 12400 9 20 1 0 270 4 1
Quad TIA and Lim Amp
T 3700 8000 9 20 1 0 270 4 1
Quad Laser Driver
T 4100 4300 9 20 1 0 270 4 1
MicroController
L 4000 6000 6400 6000 3 0 0 0 -1 -1
L 4000 10200 6400 10200 3 0 0 0 -1 -1
L 5100 11400 5300 11400 3 0 0 0 -1 -1
L 5100 11000 5300 11000 3 0 0 0 -1 -1
L 5000 11500 5000 11300 3 0 0 0 -1 -1
L 5100 11500 5100 11300 3 0 0 0 -1 -1
L 5000 11100 5000 10900 3 0 0 0 -1 -1
L 5100 11100 5100 10900 3 0 0 0 -1 -1
L 4400 11000 5000 11000 3 0 0 0 -1 -1
T 4900 11200 9 10 1 0 0 4 1
0.01u
L 4300 11400 5000 11400 3 0 0 0 -1 -1
L 4200 10900 4500 11200 3 0 0 0 -1 -1
L 4500 11200 4200 11500 3 0 0 0 -1 -1
L 4200 11500 4200 10900 3 0 0 0 -1 -1
P 6800 11000 6400 11000 1 0 0
{
T 6500 11150 5 8 0 1 0 2 1
pinseq=B24
T 6500 11050 5 8 1 1 0 0 1
pinnumber=B24
T 6350 11000 9 10 1 1 0 7 1
pinlabel=BOT_RX4_N
}
P 6800 11400 6400 11400 1 0 0
{
T 6500 11550 5 8 0 1 0 2 1
pinseq=B25
T 6500 11450 5 8 1 1 0 0 1
pinnumber=B25
T 6350 11400 9 10 1 1 0 7 1
pinlabel=BOT_RX4_P
}
L 5100 12200 5300 12200 3 0 0 0 -1 -1
L 5100 11800 5300 11800 3 0 0 0 -1 -1
L 5000 12300 5000 12100 3 0 0 0 -1 -1
L 5100 12300 5100 12100 3 0 0 0 -1 -1
L 5000 11900 5000 11700 3 0 0 0 -1 -1
L 5100 11900 5100 11700 3 0 0 0 -1 -1
L 4400 11800 5000 11800 3 0 0 0 -1 -1
L 4300 12200 5000 12200 3 0 0 0 -1 -1
L 4200 11700 4500 12000 3 0 0 0 -1 -1
L 4500 12000 4200 12300 3 0 0 0 -1 -1
L 4200 12300 4200 11700 3 0 0 0 -1 -1
P 6800 11800 6400 11800 1 0 0
{
T 6500 11950 5 8 0 1 0 2 1
pinseq=B15
T 6500 11850 5 8 1 1 0 0 1
pinnumber=B15
T 6350 11800 9 10 1 1 0 7 1
pinlabel=BOT_RX3_N
}
P 6800 12200 6400 12200 1 0 0
{
T 6500 12350 5 8 0 1 0 2 1
pinseq=B14
T 6500 12250 5 8 1 1 0 0 1
pinnumber=B14
T 6350 12200 9 10 1 1 0 7 1
pinlabel=BOT_RX3_P
}
T 4900 12000 9 10 1 0 0 4 1
0.01u
L 5100 13000 5300 13000 3 0 0 0 -1 -1
L 5100 12600 5300 12600 3 0 0 0 -1 -1
L 5000 13100 5000 12900 3 0 0 0 -1 -1
L 5100 13100 5100 12900 3 0 0 0 -1 -1
L 5000 12700 5000 12500 3 0 0 0 -1 -1
L 5100 12700 5100 12500 3 0 0 0 -1 -1
L 4400 12600 5000 12600 3 0 0 0 -1 -1
L 4300 13000 5000 13000 3 0 0 0 -1 -1
L 4200 12500 4500 12800 3 0 0 0 -1 -1
L 4500 12800 4200 13100 3 0 0 0 -1 -1
L 4200 13100 4200 12500 3 0 0 0 -1 -1
P 6800 12600 6400 12600 1 0 0
{
T 6500 12750 5 8 0 1 0 2 1
pinseq=B21
T 6500 12650 5 8 1 1 0 0 1
pinnumber=B21
T 6350 12600 9 10 1 1 0 7 1
pinlabel=BOT_RX2_N
}
P 6800 13000 6400 13000 1 0 0
{
T 6500 13150 5 8 0 1 0 2 1
pinseq=B22
T 6500 13050 5 8 1 1 0 0 1
pinnumber=B22
T 6350 13000 9 10 1 1 0 7 1
pinlabel=BOT_RX2_P
}
T 4900 12800 9 10 1 0 0 4 1
0.01u
L 5100 13800 5300 13800 3 0 0 0 -1 -1
L 5100 13400 5300 13400 3 0 0 0 -1 -1
L 5000 13900 5000 13700 3 0 0 0 -1 -1
L 5100 13900 5100 13700 3 0 0 0 -1 -1
L 5000 13500 5000 13300 3 0 0 0 -1 -1
L 5100 13500 5100 13300 3 0 0 0 -1 -1
L 4400 13400 5000 13400 3 0 0 0 -1 -1
L 4300 13800 5000 13800 3 0 0 0 -1 -1
L 4200 13300 4500 13600 3 0 0 0 -1 -1
L 4500 13600 4200 13900 3 0 0 0 -1 -1
L 4200 13900 4200 13300 3 0 0 0 -1 -1
P 6800 13400 6400 13400 1 0 0
{
T 6500 13550 5 8 0 1 0 2 1
pinseq=B18
T 6500 13450 5 8 1 1 0 0 1
pinnumber=B18
T 6350 13400 9 10 1 1 0 7 1
pinlabel=BOT_RX1_N
}
P 6800 13800 6400 13800 1 0 0
{
T 6500 13950 5 8 0 1 0 2 1
pinseq=B17
T 6500 13850 5 8 1 1 0 0 1
pinnumber=B17
T 6350 13800 9 10 1 1 0 7 1
pinlabel=BOT_RX1_P
}
T 4900 13600 9 10 1 0 0 4 1
0.01u
L 5100 6600 5300 6600 3 0 0 0 -1 -1
L 5100 6700 5100 6500 3 0 0 0 -1 -1
L 5000 6700 5000 6500 3 0 0 0 -1 -1
L 4300 6600 5000 6600 3 0 0 0 -1 -1
L 4200 7000 5000 7000 3 0 0 0 -1 -1
L 5000 7100 5000 6900 3 0 0 0 -1 -1
L 5100 7100 5100 6900 3 0 0 0 -1 -1
L 5100 7000 5300 7000 3 0 0 0 -1 -1
L 4400 6950 4300 6950 3 0 0 0 -1 -1
L 4300 6950 4500 6900 3 0 0 0 -1 -1
L 4500 6900 4300 6850 3 0 0 0 -1 -1
L 4300 6850 4500 6800 3 0 0 0 -1 -1
L 4500 6800 4300 6750 3 0 0 0 -1 -1
L 4300 6750 4500 6700 3 0 0 0 -1 -1
L 4300 6650 4400 6650 3 0 0 0 -1 -1
L 4500 6700 4300 6650 3 0 0 0 -1 -1
L 4400 6650 4400 6600 3 0 0 0 -1 -1
L 4400 6950 4400 7000 3 0 0 0 -1 -1
T 4900 6800 9 10 1 0 0 4 1
0.01u
L 5100 7400 5300 7400 3 0 0 0 -1 -1
L 5100 7500 5100 7300 3 0 0 0 -1 -1
L 5000 7500 5000 7300 3 0 0 0 -1 -1
L 4300 7400 5000 7400 3 0 0 0 -1 -1
L 4200 7800 5000 7800 3 0 0 0 -1 -1
L 5000 7900 5000 7700 3 0 0 0 -1 -1
L 5100 7900 5100 7700 3 0 0 0 -1 -1
L 5100 7800 5300 7800 3 0 0 0 -1 -1
L 4400 7750 4300 7750 3 0 0 0 -1 -1
L 4300 7750 4500 7700 3 0 0 0 -1 -1
L 4500 7700 4300 7650 3 0 0 0 -1 -1
L 4300 7650 4500 7600 3 0 0 0 -1 -1
L 4500 7600 4300 7550 3 0 0 0 -1 -1
L 4300 7550 4500 7500 3 0 0 0 -1 -1
L 4300 7450 4400 7450 3 0 0 0 -1 -1
L 4500 7500 4300 7450 3 0 0 0 -1 -1
L 4400 7450 4400 7400 3 0 0 0 -1 -1
L 4400 7750 4400 7800 3 0 0 0 -1 -1
T 4900 7600 9 10 1 0 0 4 1
0.01u
L 5100 8200 5300 8200 3 0 0 0 -1 -1
L 5100 8300 5100 8100 3 0 0 0 -1 -1
L 5000 8300 5000 8100 3 0 0 0 -1 -1
L 4300 8200 5000 8200 3 0 0 0 -1 -1
L 4200 8600 5000 8600 3 0 0 0 -1 -1
L 5000 8700 5000 8500 3 0 0 0 -1 -1
L 5100 8700 5100 8500 3 0 0 0 -1 -1
L 5100 8600 5300 8600 3 0 0 0 -1 -1
L 4400 8550 4300 8550 3 0 0 0 -1 -1
L 4300 8550 4500 8500 3 0 0 0 -1 -1
L 4500 8500 4300 8450 3 0 0 0 -1 -1
L 4300 8450 4500 8400 3 0 0 0 -1 -1
L 4500 8400 4300 8350 3 0 0 0 -1 -1
L 4300 8350 4500 8300 3 0 0 0 -1 -1
L 4300 8250 4400 8250 3 0 0 0 -1 -1
L 4500 8300 4300 8250 3 0 0 0 -1 -1
L 4400 8250 4400 8200 3 0 0 0 -1 -1
L 4400 8550 4400 8600 3 0 0 0 -1 -1
T 4900 8400 9 10 1 0 0 4 1
0.01u
L 5100 9000 5300 9000 3 0 0 0 -1 -1
L 5100 9100 5100 8900 3 0 0 0 -1 -1
L 5000 9100 5000 8900 3 0 0 0 -1 -1
L 4300 9000 5000 9000 3 0 0 0 -1 -1
L 4200 9400 5000 9400 3 0 0 0 -1 -1
L 5000 9500 5000 9300 3 0 0 0 -1 -1
L 5100 9500 5100 9300 3 0 0 0 -1 -1
L 5100 9400 5300 9400 3 0 0 0 -1 -1
L 4400 9350 4300 9350 3 0 0 0 -1 -1
L 4300 9350 4500 9300 3 0 0 0 -1 -1
L 4500 9300 4300 9250 3 0 0 0 -1 -1
L 4300 9250 4500 9200 3 0 0 0 -1 -1
L 4500 9200 4300 9150 3 0 0 0 -1 -1
L 4300 9150 4500 9100 3 0 0 0 -1 -1
L 4300 9050 4400 9050 3 0 0 0 -1 -1
L 4500 9100 4300 9050 3 0 0 0 -1 -1
L 4400 9050 4400 9000 3 0 0 0 -1 -1
L 4400 9350 4400 9400 3 0 0 0 -1 -1
T 4900 9200 9 10 1 0 0 4 1
0.01u
P 6800 10200 6400 10200 1 0 0
{
T 6500 10350 5 8 0 1 0 2 1
pinseq=B29
T 6500 10250 5 8 1 1 0 0 1
pinnumber=B29
T 6350 10300 9 10 1 1 0 7 1
pinlabel=BOT_VCC_RX
}
P 6800 9400 6400 9400 1 0 0
{
T 6500 9550 5 8 0 1 0 2 1
pinseq=B36
T 6500 9450 5 8 1 1 0 0 1
pinnumber=B36
T 6350 9400 9 10 1 1 0 7 1
pinlabel=BOT_TX1_P
}
V 2450 13400 50 3 0 0 0 -1 -1 0 -1 -1 -1 -1 -1
V 2450 12600 50 3 0 0 0 -1 -1 0 -1 -1 -1 -1 -1
V 2450 11800 50 3 0 0 0 -1 -1 0 -1 -1 -1 -1 -1
V 2450 11000 50 3 0 0 0 -1 -1 0 -1 -1 -1 -1 -1
V 4350 13400 50 3 0 0 0 -1 -1 0 -1 -1 -1 -1 -1
V 4350 12600 50 3 0 0 0 -1 -1 0 -1 -1 -1 -1 -1
V 4350 11800 50 3 0 0 0 -1 -1 0 -1 -1 -1 -1 -1
V 4350 11000 50 3 0 0 0 -1 -1 0 -1 -1 -1 -1 -1
L 2600 9500 2600 8900 3 0 0 0 -1 -1
L 2900 9200 2600 9500 3 0 0 0 -1 -1
L 2600 8900 2900 9200 3 0 0 0 -1 -1
V 2550 9000 50 3 0 0 0 -1 -1 0 -1 -1 -1 -1 -1
V 2550 8200 50 3 0 0 0 -1 -1 0 -1 -1 -1 -1 -1
V 2550 7400 50 3 0 0 0 -1 -1 0 -1 -1 -1 -1 -1
V 2550 6600 50 3 0 0 0 -1 -1 0 -1 -1 -1 -1 -1
L 2900 8400 2600 8700 3 0 0 0 -1 -1
L 2600 8700 2600 8100 3 0 0 0 -1 -1
L 2600 8100 2900 8400 3 0 0 0 -1 -1
L 2900 7600 2600 7900 3 0 0 0 -1 -1
L 2600 7900 2600 7300 3 0 0 0 -1 -1
L 2600 7300 2900 7600 3 0 0 0 -1 -1
L 2900 6800 2600 7100 3 0 0 0 -1 -1
L 2600 7100 2600 6500 3 0 0 0 -1 -1
L 2600 6500 2900 6800 3 0 0 0 -1 -1
V 4250 9000 50 3 0 0 0 -1 -1 0 -1 -1 -1 -1 -1
T 2700 8400 9 10 1 0 90 4 1
100
T 2700 7600 9 10 1 0 90 4 1
100
T 2700 6800 9 10 1 0 90 4 1
100
L 4200 9500 4200 8900 3 0 0 0 -1 -1
L 3900 9200 4200 9500 3 0 0 0 -1 -1
L 4200 8900 3900 9200 3 0 0 0 -1 -1
T 4100 9200 9 10 1 0 270 4 1
100
L 4200 8100 3900 8400 3 0 0 0 -1 -1
L 3900 8400 4200 8700 3 0 0 0 -1 -1
L 4200 8700 4200 8100 3 0 0 0 -1 -1
V 4250 8200 50 3 0 0 0 -1 -1 0 -1 -1 -1 -1 -1
T 4100 8400 9 10 1 0 270 4 1
100
L 4200 7300 3900 7600 3 0 0 0 -1 -1
L 3900 7600 4200 7900 3 0 0 0 -1 -1
L 4200 7900 4200 7300 3 0 0 0 -1 -1
V 4250 7400 50 3 0 0 0 -1 -1 0 -1 -1 -1 -1 -1
T 4100 7600 9 10 1 0 270 4 1
100
L 4200 6500 3900 6800 3 0 0 0 -1 -1
L 3900 6800 4200 7100 3 0 0 0 -1 -1
L 4200 7100 4200 6500 3 0 0 0 -1 -1
V 4250 6600 50 3 0 0 0 -1 -1 0 -1 -1 -1 -1 -1
T 4100 6800 9 10 1 0 270 4 1
100
P 6800 9000 6400 9000 1 0 0
{
T 6500 9150 5 8 0 1 0 2 1
pinseq=B37
T 6500 9050 5 8 1 1 0 0 1
pinnumber=B37
T 6350 9000 9 10 1 1 0 7 1
pinlabel=BOT_TX1_N
}
P 6800 8600 6400 8600 1 0 0
{
T 6500 8750 5 8 0 1 0 2 1
pinseq=B3
T 6500 8650 5 8 1 1 0 0 1
pinnumber=B3
T 6350 8600 9 10 1 1 0 7 1
pinlabel=BOT_TX2_P
}
P 6800 8200 6400 8200 1 0 0
{
T 6500 8350 5 8 0 1 0 2 1
pinseq=B2
T 6500 8250 5 8 1 1 0 0 1
pinnumber=B2
T 6350 8200 9 10 1 1 0 7 1
pinlabel=BOT_TX2_N
}
P 6800 7800 6400 7800 1 0 0
{
T 6500 7950 5 8 0 1 0 2 1
pinseq=B33
T 6500 7850 5 8 1 1 0 0 1
pinnumber=B33
T 6350 7800 9 10 1 1 0 7 1
pinlabel=BOT_TX3_P
}
P 6800 7400 6400 7400 1 0 0
{
T 6500 7550 5 8 0 1 0 2 1
pinseq=B34
T 6500 7450 5 8 1 1 0 0 1
pinnumber=B34
T 6350 7400 9 10 1 1 0 7 1
pinlabel=BOT_TX3_N
}
P 6800 7000 6400 7000 1 0 0
{
T 6500 7150 5 8 0 1 0 2 1
pinseq=B6
T 6500 7050 5 8 1 1 0 0 1
pinnumber=B6
T 6350 7000 9 10 1 1 0 7 1
pinlabel=BOT_TX4_P
}
P 6800 6600 6400 6600 1 0 0
{
T 6500 6750 5 8 0 1 0 2 1
pinseq=B5
T 6500 6650 5 8 1 1 0 0 1
pinnumber=B5
T 6350 6600 9 10 1 1 0 7 1
pinlabel=BOT_TX4_N
}
P 6800 6000 6400 6000 1 0 0
{
T 6500 6150 5 8 0 1 0 2 1
pinseq=B30
T 6500 6050 5 8 1 1 0 0 1
pinnumber=B30
T 6350 5900 9 10 1 1 0 7 1
pinlabel=BOT_VCC1
}
P 6800 2600 6400 2600 1 0 0
{
T 6500 2750 5 8 0 1 0 2 1
pinseq=B1
T 6500 2650 5 8 1 1 0 0 1
pinnumber=B1
T 6350 2600 9 10 1 1 0 7 1
pinlabel=BOT_GND
}
P 6800 5400 6400 5400 1 0 0
{
T 6500 5550 5 8 0 1 0 2 1
pinseq=B27
T 6500 5450 5 8 1 1 0 0 1
pinnumber=B27
T 6350 5400 9 10 1 1 0 7 1
pinlabel=BOT_ModPrsL
}
L 1500 13800 1700 13800 3 0 0 0 -1 -1
L 1500 13400 1700 13400 3 0 0 0 -1 -1
L 1500 13000 1700 13000 3 0 0 0 -1 -1
L 1500 12600 1700 12600 3 0 0 0 -1 -1
L 1500 12200 1700 12200 3 0 0 0 -1 -1
L 1500 11800 1700 11800 3 0 0 0 -1 -1
P 6800 5000 6400 5000 1 0 0
{
T 6500 5150 5 8 0 1 0 2 1
pinseq=B11
T 6500 5050 5 8 1 1 0 0 1
pinnumber=B11
T 6350 5000 9 10 1 1 0 7 1
pinlabel=BOT_SCL
}
P 6800 4800 6400 4800 1 0 0
{
T 6500 4950 5 8 0 1 0 2 1
pinseq=B12
T 6500 4850 5 8 1 1 0 0 1
pinnumber=B12
T 6350 4800 9 10 1 1 0 7 1
pinlabel=BOT_SDA
}
P 6800 4400 6400 4400 1 0 0
{
T 6500 4550 5 8 0 1 0 2 1
pinseq=B8
T 6500 4450 5 8 1 1 0 0 1
pinnumber=B8
T 6350 4400 9 10 1 1 0 7 1
pinlabel=BOT_ModSelL
}
P 6800 4000 6400 4000 1 0 0
{
T 6500 4150 5 8 0 1 0 2 1
pinseq=B9
T 6500 4050 5 8 1 1 0 0 1
pinnumber=B9
T 6350 4000 9 10 1 1 0 7 1
pinlabel=BOT_ResetL
}
P 6800 3600 6400 3600 1 0 0
{
T 6500 3750 5 8 0 1 0 2 1
pinseq=B28
T 6500 3650 5 8 1 1 0 0 1
pinnumber=B28
T 6350 3600 9 10 1 1 0 7 1
pinlabel=BOT_IntL
}
P 6800 3200 6400 3200 1 0 0
{
T 6500 3350 5 8 0 1 0 2 1
pinseq=B31
T 6500 3250 5 8 1 1 0 0 1
pinnumber=B31
T 6350 3200 9 10 1 1 0 7 1
pinlabel=BOT_LPMode
}
B 2900 200 1000 400 3 0 0 0 -1 -1 0 -1 -1 -1 -1 -1
P 400 2400 0 2400 1 0 1
{
T 300 2550 5 8 0 1 0 8 1
pinseq=T4
T 300 2450 5 8 1 1 0 6 1
pinnumber=T4
T 450 2400 9 10 1 1 0 1 1
pinlabel=TOP_GND
}
P 400 2200 0 2200 1 0 1
{
T 300 2350 5 8 0 1 0 8 1
pinseq=T7
T 300 2250 5 8 1 1 0 6 1
pinnumber=T7
T 450 2200 9 10 1 1 0 1 1
pinlabel=TOP_GND
}
P 400 2000 0 2000 1 0 1
{
T 300 2150 5 8 0 1 0 8 1
pinseq=T13
T 300 2050 5 8 1 1 0 6 1
pinnumber=T13
T 450 2000 9 10 1 1 0 1 1
pinlabel=TOP_GND
}
P 400 1800 0 1800 1 0 1
{
T 300 1950 5 8 0 1 0 8 1
pinseq=T16
T 300 1850 5 8 1 1 0 6 1
pinnumber=T16
T 450 1800 9 10 1 1 0 1 1
pinlabel=TOP_GND
}
P 400 1600 0 1600 1 0 1
{
T 300 1750 5 8 0 1 0 8 1
pinseq=T19
T 300 1650 5 8 1 1 0 6 1
pinnumber=T19
T 450 1600 9 10 1 1 0 1 1
pinlabel=TOP_GND
}
P 400 1400 0 1400 1 0 1
{
T 300 1550 5 8 0 1 0 8 1
pinseq=T20
T 300 1450 5 8 1 1 0 6 1
pinnumber=T20
T 450 1400 9 10 1 1 0 1 1
pinlabel=TOP_GND
}
P 400 1200 0 1200 1 0 1
{
T 300 1350 5 8 0 1 0 8 1
pinseq=T23
T 300 1250 5 8 1 1 0 6 1
pinnumber=T23
T 450 1200 9 10 1 1 0 1 1
pinlabel=TOP_GND
}
P 400 1000 0 1000 1 0 1
{
T 300 1150 5 8 0 1 0 8 1
pinseq=T26
T 300 1050 5 8 1 1 0 6 1
pinnumber=T26
T 450 1000 9 10 1 1 0 1 1
pinlabel=TOP_GND
}
P 400 800 0 800 1 0 1
{
T 300 950 5 8 0 1 0 8 1
pinseq=T32
T 300 850 5 8 1 1 0 6 1
pinnumber=T32
T 450 800 9 10 1 1 0 1 1
pinlabel=TOP_GND
}
P 400 600 0 600 1 0 1
{
T 300 750 5 8 0 1 0 8 1
pinseq=T35
T 300 650 5 8 1 1 0 6 1
pinnumber=T35
T 450 600 9 10 1 1 0 1 1
pinlabel=TOP_GND
}
P 400 400 0 400 1 0 1
{
T 300 550 5 8 0 1 0 8 1
pinseq=T38
T 300 450 5 8 1 1 0 6 1
pinnumber=T38
T 450 400 9 10 1 1 0 1 1
pinlabel=TOP_GND
}
L 400 2800 6400 2800 3 0 0 0 -1 -1
P 6800 2400 6400 2400 1 0 0
{
T 6500 2550 5 8 0 1 0 2 1
pinseq=B4
T 6500 2450 5 8 1 1 0 0 1
pinnumber=B4
T 6350 2400 9 10 1 1 0 7 1
pinlabel=BOT_GND
}
P 6800 2200 6400 2200 1 0 0
{
T 6500 2350 5 8 0 1 0 2 1
pinseq=B7
T 6500 2250 5 8 1 1 0 0 1
pinnumber=B7
T 6350 2200 9 10 1 1 0 7 1
pinlabel=BOT_GND
}
P 6800 2000 6400 2000 1 0 0
{
T 6500 2150 5 8 0 1 0 2 1
pinseq=B13
T 6500 2050 5 8 1 1 0 0 1
pinnumber=B13
T 6350 2000 9 10 1 1 0 7 1
pinlabel=BOT_GND
}
P 6800 1800 6400 1800 1 0 0
{
T 6500 1950 5 8 0 1 0 2 1
pinseq=B16
T 6500 1850 5 8 1 1 0 0 1
pinnumber=B16
T 6350 1800 9 10 1 1 0 7 1
pinlabel=BOT_GND
}
P 6800 1600 6400 1600 1 0 0
{
T 6500 1750 5 8 0 1 0 2 1
pinseq=B19
T 6500 1650 5 8 1 1 0 0 1
pinnumber=B19
T 6350 1600 9 10 1 1 0 7 1
pinlabel=BOT_GND
}
P 6800 1400 6400 1400 1 0 0
{
T 6500 1550 5 8 0 1 0 2 1
pinseq=B20
T 6500 1450 5 8 1 1 0 0 1
pinnumber=B20
T 6350 1400 9 10 1 1 0 7 1
pinlabel=BOT_GND
}
P 6800 1200 6400 1200 1 0 0
{
T 6500 1350 5 8 0 1 0 2 1
pinseq=B23
T 6500 1250 5 8 1 1 0 0 1
pinnumber=B23
T 6350 1200 9 10 1 1 0 7 1
pinlabel=BOT_GND
}
P 6800 1000 6400 1000 1 0 0
{
T 6500 1150 5 8 0 1 0 2 1
pinseq=B26
T 6500 1050 5 8 1 1 0 0 1
pinnumber=B26
T 6350 1000 9 10 1 1 0 7 1
pinlabel=BOT_GND
}
P 6800 800 6400 800 1 0 0
{
T 6500 950 5 8 0 1 0 2 1
pinseq=B32
T 6500 850 5 8 1 1 0 0 1
pinnumber=B32
T 6350 800 9 10 1 1 0 7 1
pinlabel=BOT_GND
}
P 6800 600 6400 600 1 0 0
{
T 6500 750 5 8 0 1 0 2 1
pinseq=B35
T 6500 650 5 8 1 1 0 0 1
pinnumber=B35
T 6350 600 9 10 1 1 0 7 1
pinlabel=BOT_GND
}
P 6800 400 6400 400 1 0 0
{
T 6500 550 5 8 0 1 0 2 1
pinseq=B38
T 6500 450 5 8 1 1 0 0 1
pinnumber=B38
T 6350 400 9 10 1 1 0 7 1
pinlabel=BOT_GND
}
L 2800 6000 2800 5700 3 0 0 0 -1 -1
L 4000 6000 4000 5700 3 0 0 0 -1 -1
L 2800 10200 2800 9900 3 0 0 0 -1 -1
L 4000 10200 4000 9900 3 0 0 0 -1 -1
L 4000 14600 4000 14300 3 0 0 0 -1 -1
L 2800 14600 2800 14300 3 0 0 0 -1 -1
