v 20050820 1
L 600 400 500 200 3 0 0 0 -1 -1
L 500 200 400 400 3 0 0 0 -1 -1
L 400 400 300 200 3 0 0 0 -1 -1
L 300 200 200 400 3 0 0 0 -1 -1
T 300 400 5 10 0 0 0 0 1
device=RESISTOR
L 600 400 700 200 3 0 0 0 -1 -1
L 700 200 750 300 3 0 0 0 -1 -1
P 900 300 750 300 1 0 0
{
T 800 350 5 8 0 1 0 0 1
pinnumber=2
T 800 350 5 8 0 0 0 0 1
pinseq=2
T 900 300 5 10 0 1 0 0 1
pinnumber=2
}
P 0 300 152 300 1 0 0
{
T 100 350 5 8 0 1 0 0 1
pinnumber=1
T 100 350 5 8 0 0 0 0 1
pinseq=1
T 0 300 5 10 0 1 0 0 1
pinnumber=1
}
L 201 400 150 300 3 0 0 0 -1 -1
T 200 500 8 10 1 1 0 0 1
refdes=R?
T 0 0 8 10 0 1 0 0 1
pins=2
T 0 0 8 10 0 1 0 0 1
class=DISCRETE
T 600 500 8 10 1 1 0 0 1
value=?
T 200 0 8 10 1 1 0 0 1
footprint=0805
