v 20121123 2
P 0 2100 200 2100 1 0 0
{
T 100 2150 5 8 0 1 0 6 1
pinseq=1
T 250 2100 9 8 1 1 0 1 1
pinlabel=VDDQSNS
T 100 2150 5 8 1 1 0 6 1
pinnumber=1
}
P 0 1900 200 1900 1 0 0
{
T 100 1950 5 8 1 1 0 6 1
pinnumber=2
T 100 2050 5 8 0 1 0 8 1
pinseq=2
T 250 1900 9 8 1 1 0 1 1
pinlabel=VLDOIN
}
P 1600 2100 1800 2100 1 0 1
{
T 1700 2150 5 8 1 1 0 0 1
pinnumber=3
T 1700 2250 5 8 0 1 0 2 1
pinseq=3
T 1550 2100 9 8 1 1 0 7 1
pinlabel=VTT
}
P 1600 1900 1800 1900 1 0 1
{
T 1700 1950 5 8 1 1 0 0 1
pinnumber=5
T 1700 2050 5 8 0 1 0 2 1
pinseq=5
T 1550 1900 9 8 1 1 0 7 1
pinlabel=VTTSNS
}
B 200 200 1400 3000 3 0 0 0 -1 -1 0 -1 -1 -1 -1 -1
T 900 2950 5 12 1 1 0 4 1
device=TPS51206
T 200 3500 8 10 1 1 0 0 1
refdes=U?
T 200 3300 8 10 1 1 0 0 1
footprint=PWSON10_EPT.fp
P 900 0 900 200 1 0 0
{
T 1000 150 5 8 1 1 180 6 1
pinnumber=0
T 1000 50 5 8 0 1 180 8 1
pinseq=0
T 910 250 3 8 1 1 180 5 1
pinlabel=EXP_PAD
}
L 200 2300 1600 2300 3 0 0 0 -1 -1
T 900 2600 9 6 1 0 0 4 2
DDR Termination
    Regulator
P 0 1100 200 1100 1 0 0
{
T 100 1150 5 8 1 1 0 6 1
pinnumber=7
T 100 1250 5 8 0 1 0 8 1
pinseq=7
T 250 1100 9 8 1 1 0 1 1
pinlabel=S3
}
P 0 900 200 900 1 0 0
{
T 100 950 5 8 1 1 0 6 1
pinnumber=9
T 100 1050 5 8 0 1 0 8 1
pinseq=9
T 250 900 9 8 1 1 0 1 1
pinlabel=S5
}
P 0 500 200 500 1 0 0
{
T 100 550 5 8 1 1 0 6 1
pinnumber=10
T 100 650 5 8 0 1 0 8 1
pinseq=10
T 250 500 9 8 1 1 0 1 1
pinlabel=VDD
}
P 1600 1300 1800 1300 1 0 1
{
T 1700 1350 5 8 1 1 0 0 1
pinnumber=4
T 1700 1450 5 8 0 1 0 2 1
pinseq=4
T 1550 1300 9 8 1 1 0 7 1
pinlabel=PGND
}
P 1600 1100 1800 1100 1 0 1
{
T 1700 1150 5 8 1 1 0 0 1
pinnumber=6
T 1700 1250 5 8 0 1 0 2 1
pinseq=6
T 1550 1100 9 8 1 1 0 7 1
pinlabel=VTTREF
}
P 1600 500 1800 500 1 0 1
{
T 1700 550 5 8 1 1 0 0 1
pinnumber=8
T 1700 650 5 8 0 1 0 2 1
pinseq=8
T 1550 500 9 8 1 1 0 7 1
pinlabel=GND
}
