v 20121123 2
B 500 300 5200 10600 9 0 0 0 -1 -1 0 -1 -1 -1 -1 -1
T 3100 9550 5 15 1 1 0 3 1
device=XC7K160T
T 5800 9600 8 10 1 1 0 0 1
refdes=U?
T 3100 9960 9 25 1 0 180 4 1
Kintex 7
T 5800 9400 8 10 1 1 0 0 1
footprint=FBG676.fp
T 1300 9400 9 22 1 0 0 4 1
Bank 34
P 500 8300 100 8300 1 0 1
{
T 300 8350 5 8 1 1 0 6 1
pinnumber=U6
T 300 8450 5 8 0 1 0 8 1
pinseq=U6
T 550 8300 9 10 1 1 0 1 1
pinlabel=IO_L1P_T0_34
}
P 500 8100 100 8100 1 0 1
{
T 300 8150 5 8 1 1 0 6 1
pinnumber=U5
T 300 8250 5 8 0 1 0 8 1
pinseq=U5
T 550 8100 9 10 1 1 0 1 1
pinlabel=IO_L1N_T0_34
}
L 500 8500 5700 8500 3 0 0 0 -1 -1
T 4300 9400 9 16 1 0 0 4 1
(High Perfomance)
L 500 10200 5700 10200 3 0 0 0 -1 -1
P 3200 11200 3200 10900 1 0 0
{
T 3155 11080 5 8 1 1 180 0 1
pinnumber=AC5
T 3160 10970 5 8 0 1 180 2 1
pinseq=AC5
T 3200 10845 9 10 1 1 90 7 1
pinlabel=VCCO
}
P 2800 11200 2800 10900 1 0 0
{
T 2755 11080 5 8 1 1 180 0 1
pinnumber=AA1
T 2760 10970 5 8 0 1 180 2 1
pinseq=AA1
T 2800 10845 9 10 1 1 90 7 1
pinlabel=VCCO
}
P 2400 11200 2400 10900 1 0 0
{
T 2355 11080 5 8 1 1 180 0 1
pinnumber=Y4
T 2360 10970 5 8 0 1 180 2 1
pinseq=Y4
T 2400 10845 9 10 1 1 90 7 1
pinlabel=VCCO
}
P 2000 11200 2000 10900 1 0 0
{
T 1955 11080 5 8 1 1 180 0 1
pinnumber=U3
T 1960 10970 5 8 0 1 180 2 1
pinseq=U3
T 2000 10845 9 10 1 1 90 7 1
pinlabel=VCCO
}
P 3600 11200 3600 10900 1 0 0
{
T 3555 11080 5 8 1 1 180 0 1
pinnumber=AD2
T 3560 10970 5 8 0 1 180 2 1
pinseq=AD2
T 3600 10845 9 10 1 1 90 7 1
pinlabel=VCCO
}
P 4000 11200 4000 10900 1 0 0
{
T 3955 11080 5 8 1 1 180 0 1
pinnumber=AF6
T 3960 10970 5 8 0 1 180 2 1
pinseq=AF6
T 4000 10845 9 10 1 1 90 7 1
pinlabel=VCCO
}
P 500 7500 100 7500 1 0 1
{
T 300 7550 5 8 1 1 0 6 1
pinnumber=U1
T 300 7650 5 8 0 1 0 8 1
pinseq=U1
T 550 7500 9 10 1 1 0 1 1
pinlabel=IO_L2N_T0_34
}
P 500 7700 100 7700 1 0 1
{
T 300 7750 5 8 1 1 0 6 1
pinnumber=U2
T 300 7850 5 8 0 1 0 8 1
pinseq=U2
T 550 7700 9 10 1 1 0 1 1
pinlabel=IO_L2P_T0_34
}
P 500 6900 100 6900 1 0 1
{
T 300 7050 5 8 0 1 0 8 1
pinseq=W5
T 300 6950 5 8 1 1 0 6 1
pinnumber=W5
T 550 6900 9 10 1 1 0 1 1
pinlabel=IO_L3N_T0_DQS_34
}
P 500 7100 100 7100 1 0 1
{
T 300 7250 5 8 0 1 0 8 1
pinseq=W6
T 300 7150 5 8 1 1 0 6 1
pinnumber=W6
T 550 7100 9 10 1 1 0 1 1
pinlabel=IO_L3P_T0_DQS_34
}
P 500 6300 100 6300 1 0 1
{
T 300 6450 5 8 0 1 0 8 1
pinseq=W3
T 300 6350 5 8 1 1 0 6 1
pinnumber=W3
T 550 6300 9 10 1 1 0 1 1
pinlabel=IO_L4N_T0_34
}
P 500 6500 100 6500 1 0 1
{
T 300 6650 5 8 0 1 0 8 1
pinseq=V3
T 300 6550 5 8 1 1 0 6 1
pinnumber=V3
T 550 6500 9 10 1 1 0 1 1
pinlabel=IO_L4P_T0_34
}
P 500 5700 100 5700 1 0 1
{
T 300 5850 5 8 0 1 0 8 1
pinseq=V6
T 300 5750 5 8 1 1 0 6 1
pinnumber=V6
T 550 5700 9 10 1 1 0 1 1
pinlabel=IO_L5N_T0_34
}
P 500 5900 100 5900 1 0 1
{
T 300 6050 5 8 0 1 0 8 1
pinseq=U7
T 300 5950 5 8 1 1 0 6 1
pinnumber=U7
T 550 5900 9 10 1 1 0 1 1
pinlabel=IO_L5P_T0_34
}
P 500 5100 100 5100 1 0 1
{
T 300 5250 5 8 0 1 0 8 1
pinseq=W4
T 300 5150 5 8 1 1 0 6 1
pinnumber=W4
T 550 5100 2 10 1 1 0 1 1
pinlabel=IO_L6N_T0_VREF_34
}
P 500 5300 100 5300 1 0 1
{
T 300 5450 5 8 0 1 0 8 1
pinseq=V4
T 300 5350 5 8 1 1 0 6 1
pinnumber=V4
T 550 5300 9 10 1 1 0 1 1
pinlabel=IO_L6P_T0_34
}
P 500 4500 100 4500 1 0 1
{
T 300 4650 5 8 0 1 0 8 1
pinseq=Y2
T 300 4550 5 8 1 1 0 6 1
pinnumber=Y2
T 550 4500 9 10 1 1 0 1 1
pinlabel=IO_L7N_T1_34
}
P 500 4700 100 4700 1 0 1
{
T 300 4850 5 8 0 1 0 8 1
pinseq=Y3
T 300 4750 5 8 1 1 0 6 1
pinnumber=Y3
T 550 4700 9 10 1 1 0 1 1
pinlabel=IO_L7P_T1_34
}
P 500 3900 100 3900 1 0 1
{
T 300 4050 5 8 0 1 0 8 1
pinseq=V1
T 300 3950 5 8 1 1 0 6 1
pinnumber=V1
T 550 3900 9 10 1 1 0 1 1
pinlabel=IO_L8N_T1_34
}
P 500 4100 100 4100 1 0 1
{
T 300 4250 5 8 0 1 0 8 1
pinseq=V2
T 300 4150 5 8 1 1 0 6 1
pinnumber=V2
T 550 4100 9 10 1 1 0 1 1
pinlabel=IO_L8P_T1_34
}
P 500 3300 100 3300 1 0 1
{
T 300 3450 5 8 0 1 0 8 1
pinseq=AC1
T 300 3350 5 8 1 1 0 6 1
pinnumber=AC1
T 550 3300 9 10 1 1 0 1 1
pinlabel=IO_L9N_T1_DQS_34
}
P 500 3500 100 3500 1 0 1
{
T 300 3650 5 8 0 1 0 8 1
pinseq=AB1
T 300 3550 5 8 1 1 0 6 1
pinnumber=AB1
T 550 3500 9 10 1 1 0 1 1
pinlabel=IO_L9P_T1_DQS_34
}
P 500 2700 100 2700 1 0 1
{
T 300 2850 5 8 0 1 0 8 1
pinseq=Y1
T 300 2750 5 8 1 1 0 6 1
pinnumber=Y1
T 550 2700 9 10 1 1 0 1 1
pinlabel=IO_L10N_T1_34
}
P 500 2900 100 2900 1 0 1
{
T 300 3050 5 8 0 1 0 8 1
pinseq=W1
T 300 2950 5 8 1 1 0 6 1
pinnumber=W1
T 550 2900 9 10 1 1 0 1 1
pinlabel=IO_L10P_T1_34
}
P 300 2100 100 2100 1 0 1
{
T 300 2250 5 8 0 1 0 8 1
pinseq=AC2
T 300 2150 5 8 1 1 0 6 1
pinnumber=AC2
T 550 2100 9 10 1 1 0 1 1
pinlabel=IO_L11N_T1_SRCC_34
}
P 300 2300 100 2300 1 0 1
{
T 300 2450 5 8 0 1 0 8 1
pinseq=AB2
T 300 2350 5 8 1 1 0 6 1
pinnumber=AB2
T 550 2300 9 10 1 1 0 1 1
pinlabel=IO_L11P_T1_SRCC_34
}
L 300 2300 400 2400 3 0 0 0 -1 -1
L 400 2400 500 2300 3 0 0 0 -1 -1
L 500 2300 400 2200 3 0 0 0 -1 -1
L 400 2200 300 2300 3 0 0 0 -1 -1
L 300 2100 400 2200 3 0 0 0 -1 -1
L 400 2200 500 2100 3 0 0 0 -1 -1
L 500 2100 400 2000 3 0 0 0 -1 -1
L 400 2000 300 2100 3 0 0 0 -1 -1
P 300 1500 100 1500 1 0 1
{
T 300 1650 5 8 0 1 0 8 1
pinseq=AA2
T 300 1550 5 8 1 1 0 6 1
pinnumber=AA2
T 550 1500 9 10 1 1 0 1 1
pinlabel=IO_L12N_T1_MRCC_34
}
P 300 1700 100 1700 1 0 1
{
T 300 1850 5 8 0 1 0 8 1
pinseq=AA3
T 300 1750 5 8 1 1 0 6 1
pinnumber=AA3
T 550 1700 9 10 1 1 0 1 1
pinlabel=IO_L12P_T1_MRCC_34
}
L 300 1700 400 1800 3 0 0 0 -1 -1
L 400 1800 500 1700 3 0 0 0 -1 -1
L 500 1700 400 1600 3 0 0 0 -1 -1
L 400 1600 300 1700 3 0 0 0 -1 -1
L 300 1500 400 1600 3 0 0 0 -1 -1
L 400 1600 500 1500 3 0 0 0 -1 -1
L 500 1500 400 1400 3 0 0 0 -1 -1
L 400 1400 300 1500 3 0 0 0 -1 -1
P 6100 1700 5900 1700 1 0 0
{
T 5900 1850 5 8 0 1 0 2 1
pinseq=AA4
T 5900 1750 5 8 1 1 0 0 1
pinnumber=AA4
T 5650 1700 9 10 1 1 0 7 1
pinlabel=IO_L13P_T2_MRCC_34
}
P 6100 1500 5900 1500 1 0 0
{
T 5900 1650 5 8 0 1 0 2 1
pinseq=AB4
T 5900 1550 5 8 1 1 0 0 1
pinnumber=AB4
T 5650 1500 9 10 1 1 0 7 1
pinlabel=IO_L13N_T2_MRCC_34
}
L 5700 1500 5800 1600 3 0 0 0 -1 -1
L 5800 1600 5900 1500 3 0 0 0 -1 -1
L 5900 1500 5800 1400 3 0 0 0 -1 -1
L 5800 1400 5700 1500 3 0 0 0 -1 -1
L 5700 1700 5800 1800 3 0 0 0 -1 -1
L 5800 1800 5900 1700 3 0 0 0 -1 -1
L 5900 1700 5800 1600 3 0 0 0 -1 -1
L 5800 1600 5700 1700 3 0 0 0 -1 -1
P 500 1100 100 1100 1 0 1
{
T 300 1250 5 8 0 1 0 8 1
pinseq=U4
T 300 1150 5 8 1 1 0 6 1
pinnumber=U4
T 550 1100 9 10 1 1 0 1 1
pinlabel=IO_0_VRN_34
}
P 6100 2300 5900 2300 1 0 0
{
T 5900 2450 5 8 0 1 0 2 1
pinseq=AC4
T 5900 2350 5 8 1 1 0 0 1
pinnumber=AC4
T 5650 2300 9 10 1 1 0 7 1
pinlabel=IO_L14P_T2_SRCC_34
}
P 6100 2100 5900 2100 1 0 0
{
T 5900 2250 5 8 0 1 0 2 1
pinseq=AC3
T 5900 2150 5 8 1 1 0 0 1
pinnumber=AC3
T 5650 2100 9 10 1 1 0 7 1
pinlabel=IO_L14N_T2_SRCC_34
}
L 5700 2100 5800 2200 3 0 0 0 -1 -1
L 5800 2200 5900 2100 3 0 0 0 -1 -1
L 5900 2100 5800 2000 3 0 0 0 -1 -1
L 5800 2000 5700 2100 3 0 0 0 -1 -1
L 5700 2300 5800 2400 3 0 0 0 -1 -1
L 5800 2400 5900 2300 3 0 0 0 -1 -1
L 5900 2300 5800 2200 3 0 0 0 -1 -1
L 5800 2200 5700 2300 3 0 0 0 -1 -1
P 6100 2900 5700 2900 1 0 0
{
T 5900 3050 5 8 0 1 0 2 1
pinseq=AA5
T 5900 2950 5 8 1 1 0 0 1
pinnumber=AA5
T 5650 2900 9 10 1 1 0 7 1
pinlabel=IO_L15P_T2_DQS_34
}
P 6100 2700 5700 2700 1 0 0
{
T 5900 2850 5 8 0 1 0 2 1
pinseq=AB5
T 5900 2750 5 8 1 1 0 0 1
pinnumber=AB5
T 5650 2700 9 10 1 1 0 7 1
pinlabel=IO_L15N_T2_DQS_34
}
P 6100 3500 5700 3500 1 0 0
{
T 5900 3650 5 8 0 1 0 2 1
pinseq=AB6
T 5900 3550 5 8 1 1 0 0 1
pinnumber=AB6
T 5650 3500 9 10 1 1 0 7 1
pinlabel=IO_L16P_T2_34
}
P 6100 3300 5700 3300 1 0 0
{
T 5900 3450 5 8 0 1 0 2 1
pinseq=AC6
T 5900 3350 5 8 1 1 0 0 1
pinnumber=AC6
T 5650 3300 9 10 1 1 0 7 1
pinlabel=IO_L16N_T2_34
}
P 2200 0 2200 300 1 0 0
{
T 2165 150 5 8 1 1 180 2 1
pinnumber=V5
T 2160 150 5 8 0 1 180 2 1
pinseq=V5
T 2200 355 9 10 1 1 90 1 1
pinlabel=GND
}
L 500 900 5700 900 3 0 0 0 -1 -1
P 3000 0 3000 300 1 0 0
{
T 2965 150 5 8 1 1 180 2 1
pinnumber=AA6
T 2960 150 5 8 0 1 180 2 1
pinseq=AA6
T 3000 355 9 10 1 1 90 1 1
pinlabel=GND
}
P 3400 0 3400 300 1 0 0
{
T 3365 150 5 8 1 1 180 2 1
pinnumber=AB3
T 3360 150 5 8 0 1 180 2 1
pinseq=AB3
T 3400 355 9 10 1 1 90 1 1
pinlabel=GND
}
P 3800 0 3800 300 1 0 0
{
T 3765 150 5 8 1 1 180 2 1
pinnumber=AE4
T 3760 150 5 8 0 1 180 2 1
pinseq=AE4
T 3800 355 9 10 1 1 90 1 1
pinlabel=GND
}
P 4200 0 4200 300 1 0 0
{
T 4165 150 5 8 1 1 180 2 1
pinnumber=AF1
T 4160 150 5 8 0 1 180 2 1
pinseq=AF1
T 4200 355 9 10 1 1 90 1 1
pinlabel=GND
}
P 6100 4100 5700 4100 1 0 0
{
T 5900 4250 5 8 0 1 0 2 1
pinseq=Y6
T 5900 4150 5 8 1 1 0 0 1
pinnumber=Y6
T 5650 4100 9 10 1 1 0 7 1
pinlabel=IO_L17P_T2_34
}
P 6100 3900 5700 3900 1 0 0
{
T 5900 4050 5 8 0 1 0 2 1
pinseq=Y5
T 5900 3950 5 8 1 1 0 0 1
pinnumber=Y5
T 5650 3900 9 10 1 1 0 7 1
pinlabel=IO_L17N_T2_34
}
P 6100 4700 5700 4700 1 0 0
{
T 5900 4850 5 8 0 1 0 2 1
pinseq=AD6
T 5900 4750 5 8 1 1 0 0 1
pinnumber=AD6
T 5650 4700 9 10 1 1 0 7 1
pinlabel=IO_L18P_T2_34
}
P 6100 4500 5700 4500 1 0 0
{
T 5900 4650 5 8 0 1 0 2 1
pinseq=AD5
T 5900 4550 5 8 1 1 0 0 1
pinnumber=AD5
T 5650 4500 9 10 1 1 0 7 1
pinlabel=IO_L18N_T2_34
}
P 6100 5300 5700 5300 1 0 0
{
T 5900 5450 5 8 0 1 0 2 1
pinseq=AD4
T 5900 5350 5 8 1 1 0 0 1
pinnumber=AD4
T 5650 5300 9 10 1 1 0 7 1
pinlabel=IO_L19P_T3_34
}
P 6100 5100 5700 5100 1 0 0
{
T 5900 5250 5 8 0 1 0 2 1
pinseq=AD3
T 5900 5150 5 8 1 1 0 0 1
pinnumber=AD3
T 5650 5100 2 10 1 1 0 7 1
pinlabel=IO_L19N_T3_VREF_34
}
P 6100 5900 5700 5900 1 0 0
{
T 5900 6050 5 8 0 1 0 2 1
pinseq=AD1
T 5900 5950 5 8 1 1 0 0 1
pinnumber=AD1
T 5650 5900 9 10 1 1 0 7 1
pinlabel=IO_L20P_T3_34
}
P 6100 5700 5700 5700 1 0 0
{
T 5900 5850 5 8 0 1 0 2 1
pinseq=AE1
T 5900 5750 5 8 1 1 0 0 1
pinnumber=AE1
T 5650 5700 9 10 1 1 0 7 1
pinlabel=IO_L20N_T3_34
}
P 6100 6500 5700 6500 1 0 0
{
T 5900 6650 5 8 0 1 0 2 1
pinseq=AF5
T 5900 6550 5 8 1 1 0 0 1
pinnumber=AF5
T 5650 6500 9 10 1 1 0 7 1
pinlabel=IO_L21P_T3_DQS_34
}
P 6100 6300 5700 6300 1 0 0
{
T 5900 6450 5 8 0 1 0 2 1
pinseq=AF4
T 5900 6350 5 8 1 1 0 0 1
pinnumber=AF4
T 5650 6300 9 10 1 1 0 7 1
pinlabel=IO_L21N_T3_DQS_34
}
P 6100 7100 5700 7100 1 0 0
{
T 5900 7250 5 8 0 1 0 2 1
pinseq=AE3
T 5900 7150 5 8 1 1 0 0 1
pinnumber=AE3
T 5650 7100 9 10 1 1 0 7 1
pinlabel=IO_L22P_T3_34
}
P 6100 6900 5700 6900 1 0 0
{
T 5900 7050 5 8 0 1 0 2 1
pinseq=AE2
T 5900 6950 5 8 1 1 0 0 1
pinnumber=AE2
T 5650 6900 9 10 1 1 0 7 1
pinlabel=IO_L22N_T3_34
}
P 6100 7700 5700 7700 1 0 0
{
T 5900 7850 5 8 0 1 0 2 1
pinseq=AE6
T 5900 7750 5 8 1 1 0 0 1
pinnumber=AE6
T 5650 7700 9 10 1 1 0 7 1
pinlabel=IO_L23P_T3_34
}
P 6100 7500 5700 7500 1 0 0
{
T 5900 7650 5 8 0 1 0 2 1
pinseq=AE5
T 5900 7550 5 8 1 1 0 0 1
pinnumber=AE5
T 5650 7500 9 10 1 1 0 7 1
pinlabel=IO_L23N_T3_34
}
P 6100 8300 5700 8300 1 0 0
{
T 5900 8450 5 8 0 1 0 2 1
pinseq=AF3
T 5900 8350 5 8 1 1 0 0 1
pinnumber=AF3
T 5650 8300 9 10 1 1 0 7 1
pinlabel=IO_L24P_T3_34
}
P 6100 8100 5700 8100 1 0 0
{
T 5900 8250 5 8 0 1 0 2 1
pinseq=AF2
T 5900 8150 5 8 1 1 0 0 1
pinnumber=AF2
T 5650 8100 9 10 1 1 0 7 1
pinlabel=IO_L24N_T3_34
}
P 6100 1100 5700 1100 1 0 0
{
T 5900 1250 5 8 0 1 0 2 1
pinseq=T7
T 5900 1150 5 8 1 1 0 0 1
pinnumber=T7
T 5650 1100 9 10 1 1 0 7 1
pinlabel=IO_25_VRP_34
}
T 3200 9100 9 14 1 0 0 5 2
Pads: 62, Power: 12,
Clock: 8(4diff),  IO: 42(20diff + 2se),
P 2600 0 2600 300 1 0 0
{
T 2565 150 5 8 1 1 180 2 1
pinnumber=W2
T 2560 150 5 8 0 1 180 2 1
pinseq=W2
T 2600 355 9 10 1 1 90 1 1
pinlabel=GND
}
