v 20130925 2
C 95400 42900 1 0 0 shield.sym
C 92200 38500 1 0 0 cvstitleblock-1.sym
{
T 92800 38900 5 10 1 1 0 0 1
date=2014-04-17     2014-04-17
T 96700 38900 5 10 1 1 0 0 1
rev=1.0
T 96900 38600 5 10 1 1 0 0 1
auth=Alexei Dorofeev
T 93000 39200 5 10 1 1 0 0 1
fname=drift_knot_08.sch
T 96300 39600 5 14 1 1 0 4 1
title=Drift Knot: Accumulator Connections
T 93100 38600 5 10 1 1 0 0 1
page_number=8
T 94600 38600 5 10 1 1 0 0 1
pages=XX
}
C 78500 43300 1 0 0 connector-RJ45_2by8.sym
{
T 80100 70500 5 10 1 1 0 0 1
refdes=J1
T 80900 70800 5 15 0 1 180 4 1
device=CONNECTOR RJ45_2by8
T 80100 70300 5 10 1 1 0 0 1
footprint=RJ45_2by8.fp
}
C 93100 43200 1 0 0 connector-RJ45_2by8.sym
{
T 95500 70700 5 15 0 1 180 4 1
device=CONNECTOR RJ45_2by8
T 94700 70400 5 10 1 1 0 0 1
refdes=J2
T 94700 70200 5 10 1 1 0 0 1
footprint=RJ45_2by8.fp
}
N 83200 44000 85000 44000 4
N 83500 44400 83200 44400 4
N 83500 45600 83200 45600 4
N 83200 45200 85500 45200 4
{
T 84500 45300 5 10 1 1 0 0 1
netname=diff_out_03_n
}
N 83200 44800 85500 44800 4
{
T 84500 44900 5 10 1 1 0 0 1
netname=diff_out_03_p
}
C 86300 46700 1 0 1 input-1.sym
{
T 86000 46800 5 10 1 1 0 4 1
value=2
}
C 86300 46300 1 0 1 input-1.sym
{
T 86000 46400 5 10 1 1 0 4 1
value=2
}
N 83200 46000 85000 46000 4
{
T 83500 46100 5 10 1 1 0 0 1
netname=common_mode_01
}
C 85000 45900 1 0 0 output-1.sym
{
T 85500 46000 5 10 1 1 0 4 1
value=2
}
N 83200 46400 85500 46400 4
{
T 84500 46500 5 10 1 1 0 0 1
netname=diff_out_01_p
}
N 83200 46800 85500 46800 4
{
T 84500 46900 5 10 1 1 0 0 1
netname=diff_out_01_n
}
C 84800 44000 1 0 0 avcc.sym
{
T 85050 44300 5 9 1 1 0 0 1
net=AVCC_01:1
}
C 83800 44300 1 90 0 agnd.sym
{
T 83800 44410 5 9 1 1 0 0 1
net=AGND_01:1
}
C 83800 45500 1 90 0 agnd.sym
{
T 83800 45610 5 9 1 1 0 0 1
net=AGND_01:1
}
C 86300 45100 1 0 1 input-1.sym
{
T 86000 45200 5 10 1 1 0 4 1
value=2
}
C 86300 44700 1 0 1 input-1.sym
{
T 86000 44800 5 10 1 1 0 4 1
value=2
}
C 85000 43900 1 0 0 output-1.sym
{
T 85500 44000 5 10 1 1 0 4 1
value=2
}
N 76400 45200 78700 45200 4
{
T 76400 45300 5 10 1 1 0 0 1
netname=diff_out_05_n
}
N 76400 44800 78700 44800 4
{
T 76400 44900 5 10 1 1 0 0 1
netname=diff_out_05_p
}
N 76900 46000 78700 46000 4
{
T 76800 46100 5 10 1 1 0 0 1
netname=common_mode_05
}
C 75600 46700 1 0 0 input-1.sym
{
T 75900 46800 5 10 1 1 0 4 1
value=2
}
C 75600 46300 1 0 0 input-1.sym
{
T 75900 46400 5 10 1 1 0 4 1
value=2
}
C 76900 45900 1 0 1 output-1.sym
{
T 76400 46000 5 10 1 1 0 4 1
value=2
}
N 76400 46800 78700 46800 4
{
T 76400 46900 5 10 1 1 0 0 1
netname=diff_out_07_n
}
N 76400 46400 78700 46400 4
{
T 76400 46500 5 10 1 1 0 0 1
netname=diff_out_07_p
}
N 78700 45600 78400 45600 4
N 78700 44400 78400 44400 4
N 76900 44000 78700 44000 4
C 78100 45500 1 270 1 agnd.sym
{
T 78100 45610 5 9 1 1 0 6 1
net=AGND_05:1
}
C 78100 44300 1 270 1 agnd.sym
{
T 78100 44410 5 9 1 1 0 6 1
net=AGND_05:1
}
C 77100 44000 1 0 1 avcc.sym
{
T 76850 44300 5 9 1 1 0 6 1
net=AVCC_05:1
}
C 76900 43900 1 0 1 output-1.sym
{
T 76400 44000 5 10 1 1 0 4 1
value=2
}
C 75600 45100 1 0 0 input-1.sym
{
T 75900 45200 5 10 1 1 0 4 1
value=2
}
C 75600 44700 1 0 0 input-1.sym
{
T 75900 44800 5 10 1 1 0 4 1
value=2
}
N 76400 48500 78700 48500 4
{
T 76400 48600 5 10 1 1 0 0 1
netname=diff_out_13_n
}
N 76400 48100 78700 48100 4
{
T 76400 48200 5 10 1 1 0 0 1
netname=diff_out_13_p
}
N 76900 49300 78700 49300 4
{
T 76800 49400 5 10 1 1 0 0 1
netname=common_mode_13
}
C 75600 50000 1 0 0 input-1.sym
{
T 75900 50100 5 10 1 1 0 4 1
value=2
}
C 75600 49600 1 0 0 input-1.sym
{
T 75900 49700 5 10 1 1 0 4 1
value=2
}
C 76900 49200 1 0 1 output-1.sym
{
T 76400 49300 5 10 1 1 0 4 1
value=2
}
N 76400 50100 78700 50100 4
{
T 76400 50200 5 10 1 1 0 0 1
netname=diff_out_15_n
}
N 76400 49700 78700 49700 4
{
T 76400 49800 5 10 1 1 0 0 1
netname=diff_out_15_p
}
N 78700 48900 78400 48900 4
N 78700 47700 78400 47700 4
N 76900 47300 78700 47300 4
C 78100 48800 1 270 1 agnd.sym
{
T 78100 48910 5 9 1 1 0 6 1
net=AGND_13:1
}
C 78100 47600 1 270 1 agnd.sym
{
T 78100 47710 5 9 1 1 0 6 1
net=AGND_13:1
}
C 77100 47300 1 0 1 avcc.sym
{
T 76850 47600 5 9 1 1 0 6 1
net=AVCC_13:1
}
C 76900 47200 1 0 1 output-1.sym
{
T 76400 47300 5 10 1 1 0 4 1
value=2
}
C 75600 48400 1 0 0 input-1.sym
{
T 75900 48500 5 10 1 1 0 4 1
value=2
}
C 75600 48000 1 0 0 input-1.sym
{
T 75900 48100 5 10 1 1 0 4 1
value=2
}
N 76400 51800 78700 51800 4
{
T 76400 51900 5 10 1 1 0 0 1
netname=diff_out_21_n
}
N 76400 51400 78700 51400 4
{
T 76400 51500 5 10 1 1 0 0 1
netname=diff_out_21_p
}
N 76900 52600 78700 52600 4
{
T 76800 52700 5 10 1 1 0 0 1
netname=common_mode_21
}
C 75600 53300 1 0 0 input-1.sym
{
T 75900 53400 5 10 1 1 0 4 1
value=2
}
C 75600 52900 1 0 0 input-1.sym
{
T 75900 53000 5 10 1 1 0 4 1
value=2
}
C 76900 52500 1 0 1 output-1.sym
{
T 76400 52600 5 10 1 1 0 4 1
value=2
}
N 76400 53400 78700 53400 4
{
T 76400 53500 5 10 1 1 0 0 1
netname=diff_out_23_n
}
N 76400 53000 78700 53000 4
{
T 76400 53100 5 10 1 1 0 0 1
netname=diff_out_23_p
}
N 78700 52200 78400 52200 4
N 78700 51000 78400 51000 4
N 76900 50600 78700 50600 4
C 78100 52100 1 270 1 agnd.sym
{
T 78100 52210 5 9 1 1 0 6 1
net=AGND_21:1
}
C 78100 50900 1 270 1 agnd.sym
{
T 78100 51010 5 9 1 1 0 6 1
net=AGND_21:1
}
C 77100 50600 1 0 1 avcc.sym
{
T 76850 50900 5 9 1 1 0 6 1
net=AVCC_21:1
}
C 76900 50500 1 0 1 output-1.sym
{
T 76400 50600 5 10 1 1 0 4 1
value=2
}
C 75600 51700 1 0 0 input-1.sym
{
T 75900 51800 5 10 1 1 0 4 1
value=2
}
C 75600 51300 1 0 0 input-1.sym
{
T 75900 51400 5 10 1 1 0 4 1
value=2
}
N 83200 47300 85000 47300 4
N 83500 47700 83200 47700 4
N 83500 48900 83200 48900 4
N 83200 48500 85500 48500 4
{
T 84500 48600 5 10 1 1 0 0 1
netname=diff_out_11_n
}
N 83200 48100 85500 48100 4
{
T 84500 48200 5 10 1 1 0 0 1
netname=diff_out_11_p
}
C 86300 50000 1 0 1 input-1.sym
{
T 86000 50100 5 10 1 1 0 4 1
value=2
}
C 86300 49600 1 0 1 input-1.sym
{
T 86000 49700 5 10 1 1 0 4 1
value=2
}
N 83200 49300 85000 49300 4
{
T 83500 49400 5 10 1 1 0 0 1
netname=common_mode_09
}
C 85000 49200 1 0 0 output-1.sym
{
T 85500 49300 5 10 1 1 0 4 1
value=2
}
N 83200 49700 85500 49700 4
{
T 84500 49800 5 10 1 1 0 0 1
netname=diff_out_09_p
}
N 83200 50100 85500 50100 4
{
T 84500 50200 5 10 1 1 0 0 1
netname=diff_out_09_n
}
C 84800 47300 1 0 0 avcc.sym
{
T 85050 47600 5 9 1 1 0 0 1
net=AVCC_09:1
}
C 83800 47600 1 90 0 agnd.sym
{
T 83800 47710 5 9 1 1 0 0 1
net=AGND_09:1
}
C 83800 48800 1 90 0 agnd.sym
{
T 83800 48910 5 9 1 1 0 0 1
net=AGND_09:1
}
C 86300 48400 1 0 1 input-1.sym
{
T 86000 48500 5 10 1 1 0 4 1
value=2
}
C 86300 48000 1 0 1 input-1.sym
{
T 86000 48100 5 10 1 1 0 4 1
value=2
}
C 85000 47200 1 0 0 output-1.sym
{
T 85500 47300 5 10 1 1 0 4 1
value=2
}
N 83200 50600 85000 50600 4
N 83500 51000 83200 51000 4
N 83500 52200 83200 52200 4
N 83200 51800 85500 51800 4
{
T 84500 51900 5 10 1 1 0 0 1
netname=diff_out_19_n
}
N 83200 51400 85500 51400 4
{
T 84500 51500 5 10 1 1 0 0 1
netname=diff_out_19_p
}
C 86300 53300 1 0 1 input-1.sym
{
T 86000 53400 5 10 1 1 0 4 1
value=2
}
C 86300 52900 1 0 1 input-1.sym
{
T 86000 53000 5 10 1 1 0 4 1
value=2
}
N 83200 52600 85000 52600 4
{
T 83500 52700 5 10 1 1 0 0 1
netname=common_mode_17
}
C 85000 52500 1 0 0 output-1.sym
{
T 85500 52600 5 10 1 1 0 4 1
value=2
}
N 83200 53000 85500 53000 4
{
T 84500 53100 5 10 1 1 0 0 1
netname=diff_out_17_p
}
N 83200 53400 85500 53400 4
{
T 84500 53500 5 10 1 1 0 0 1
netname=diff_out_17_n
}
C 84800 50600 1 0 0 avcc.sym
{
T 85050 50900 5 9 1 1 0 0 1
net=AVCC_17:1
}
C 83800 50900 1 90 0 agnd.sym
{
T 83800 51010 5 9 1 1 0 0 1
net=AGND_17:1
}
C 83800 52100 1 90 0 agnd.sym
{
T 83800 52210 5 9 1 1 0 0 1
net=AGND_17:1
}
C 86300 51700 1 0 1 input-1.sym
{
T 86000 51800 5 10 1 1 0 4 1
value=2
}
C 86300 51300 1 0 1 input-1.sym
{
T 86000 51400 5 10 1 1 0 4 1
value=2
}
C 85000 50500 1 0 0 output-1.sym
{
T 85500 50600 5 10 1 1 0 4 1
value=2
}
N 76400 55100 78700 55100 4
{
T 76400 55200 5 10 1 1 0 0 1
netname=diff_out_29_n
}
N 76400 54700 78700 54700 4
{
T 76400 54800 5 10 1 1 0 0 1
netname=diff_out_29_p
}
N 76900 55900 78700 55900 4
{
T 76800 56000 5 10 1 1 0 0 1
netname=common_mode_29
}
C 75600 56600 1 0 0 input-1.sym
{
T 75900 56700 5 10 1 1 0 4 1
value=3
}
C 75600 56200 1 0 0 input-1.sym
{
T 75900 56300 5 10 1 1 0 4 1
value=3
}
C 76900 55800 1 0 1 output-1.sym
{
T 76400 55900 5 10 1 1 0 4 1
value=3
}
N 76400 56700 78700 56700 4
{
T 76400 56800 5 10 1 1 0 0 1
netname=diff_out_31_n
}
N 76400 56300 78700 56300 4
{
T 76400 56400 5 10 1 1 0 0 1
netname=diff_out_31_p
}
N 78700 55500 78400 55500 4
N 78700 54300 78400 54300 4
N 76900 53900 78700 53900 4
C 78100 55400 1 270 1 agnd.sym
{
T 78100 55510 5 9 1 1 0 6 1
net=AGND_29:1
}
C 78100 54200 1 270 1 agnd.sym
{
T 78100 54310 5 9 1 1 0 6 1
net=AGND_29:1
}
C 77100 53900 1 0 1 avcc.sym
{
T 76850 54200 5 9 1 1 0 6 1
net=AVCC_29:1
}
C 76900 53800 1 0 1 output-1.sym
{
T 76400 53900 5 10 1 1 0 4 1
value=3
}
C 75600 55000 1 0 0 input-1.sym
{
T 75900 55100 5 10 1 1 0 4 1
value=3
}
C 75600 54600 1 0 0 input-1.sym
{
T 75900 54700 5 10 1 1 0 4 1
value=3
}
N 76400 58400 78700 58400 4
{
T 76400 58500 5 10 1 1 0 0 1
netname=diff_out_37_n
}
N 76400 58000 78700 58000 4
{
T 76400 58100 5 10 1 1 0 0 1
netname=diff_out_37_p
}
N 76900 59200 78700 59200 4
{
T 76800 59300 5 10 1 1 0 0 1
netname=common_mode_37
}
C 75600 59900 1 0 0 input-1.sym
{
T 75900 60000 5 10 1 1 0 4 1
value=3
}
C 75600 59500 1 0 0 input-1.sym
{
T 75900 59600 5 10 1 1 0 4 1
value=3
}
C 76900 59100 1 0 1 output-1.sym
{
T 76400 59200 5 10 1 1 0 4 1
value=3
}
N 76400 60000 78700 60000 4
{
T 76400 60100 5 10 1 1 0 0 1
netname=diff_out_39_n
}
N 76400 59600 78700 59600 4
{
T 76400 59700 5 10 1 1 0 0 1
netname=diff_out_39_p
}
N 78700 58800 78400 58800 4
N 78700 57600 78400 57600 4
N 76900 57200 78700 57200 4
C 78100 58700 1 270 1 agnd.sym
{
T 78100 58810 5 9 1 1 0 6 1
net=AGND_37:1
}
C 78100 57500 1 270 1 agnd.sym
{
T 78100 57610 5 9 1 1 0 6 1
net=AGND_37:1
}
C 77100 57200 1 0 1 avcc.sym
{
T 76850 57500 5 9 1 1 0 6 1
net=AVCC_37:1
}
C 76900 57100 1 0 1 output-1.sym
{
T 76400 57200 5 10 1 1 0 4 1
value=3
}
C 75600 58300 1 0 0 input-1.sym
{
T 75900 58400 5 10 1 1 0 4 1
value=3
}
C 75600 57900 1 0 0 input-1.sym
{
T 75900 58000 5 10 1 1 0 4 1
value=3
}
N 76400 61700 78700 61700 4
{
T 76400 61800 5 10 1 1 0 0 1
netname=diff_out_45_n
}
N 76400 61300 78700 61300 4
{
T 76400 61400 5 10 1 1 0 0 1
netname=diff_out_45_p
}
N 76900 62500 78700 62500 4
{
T 76800 62600 5 10 1 1 0 0 1
netname=common_mode_45
}
C 75600 63200 1 0 0 input-1.sym
{
T 75900 63300 5 10 1 1 0 4 1
value=3
}
C 75600 62800 1 0 0 input-1.sym
{
T 75900 62900 5 10 1 1 0 4 1
value=3
}
C 76900 62400 1 0 1 output-1.sym
{
T 76400 62500 5 10 1 1 0 4 1
value=3
}
N 76400 63300 78700 63300 4
{
T 76400 63400 5 10 1 1 0 0 1
netname=diff_out_47_n
}
N 76400 62900 78700 62900 4
{
T 76400 63000 5 10 1 1 0 0 1
netname=diff_out_47_p
}
N 78700 62100 78400 62100 4
N 78700 60900 78400 60900 4
N 76900 60500 78700 60500 4
C 78100 62000 1 270 1 agnd.sym
{
T 78100 62110 5 9 1 1 0 6 1
net=AGND_45:1
}
C 78100 60800 1 270 1 agnd.sym
{
T 78100 60910 5 9 1 1 0 6 1
net=AGND_45:1
}
C 77100 60500 1 0 1 avcc.sym
{
T 76850 60800 5 9 1 1 0 6 1
net=AVCC_45:1
}
C 76900 60400 1 0 1 output-1.sym
{
T 76400 60500 5 10 1 1 0 4 1
value=3
}
C 75600 61600 1 0 0 input-1.sym
{
T 75900 61700 5 10 1 1 0 4 1
value=3
}
C 75600 61200 1 0 0 input-1.sym
{
T 75900 61300 5 10 1 1 0 4 1
value=3
}
N 83200 53900 85000 53900 4
N 83500 54300 83200 54300 4
N 83500 55500 83200 55500 4
N 83200 55100 85500 55100 4
{
T 84500 55200 5 10 1 1 0 0 1
netname=diff_out_27_n
}
N 83200 54700 85500 54700 4
{
T 84500 54800 5 10 1 1 0 0 1
netname=diff_out_27_p
}
C 86300 56600 1 0 1 input-1.sym
{
T 86000 56700 5 10 1 1 0 4 1
value=3
}
C 86300 56200 1 0 1 input-1.sym
{
T 86000 56300 5 10 1 1 0 4 1
value=3
}
N 83200 55900 85000 55900 4
{
T 83500 56000 5 10 1 1 0 0 1
netname=common_mode_25
}
C 85000 55800 1 0 0 output-1.sym
{
T 85500 55900 5 10 1 1 0 4 1
value=3
}
N 83200 56300 85500 56300 4
{
T 84500 56400 5 10 1 1 0 0 1
netname=diff_out_25_p
}
N 83200 56700 85500 56700 4
{
T 84500 56800 5 10 1 1 0 0 1
netname=diff_out_25_n
}
C 84800 53900 1 0 0 avcc.sym
{
T 85050 54200 5 9 1 1 0 0 1
net=AVCC_25:1
}
C 83800 54200 1 90 0 agnd.sym
{
T 83800 54310 5 9 1 1 0 0 1
net=AGND_25:1
}
C 83800 55400 1 90 0 agnd.sym
{
T 83800 55510 5 9 1 1 0 0 1
net=AGND_25:1
}
C 86300 55000 1 0 1 input-1.sym
{
T 86000 55100 5 10 1 1 0 4 1
value=3
}
C 86300 54600 1 0 1 input-1.sym
{
T 86000 54700 5 10 1 1 0 4 1
value=3
}
C 85000 53800 1 0 0 output-1.sym
{
T 85500 53900 5 10 1 1 0 4 1
value=3
}
N 83200 57200 85000 57200 4
N 83500 57600 83200 57600 4
N 83500 58800 83200 58800 4
N 83200 58400 85500 58400 4
{
T 84500 58500 5 10 1 1 0 0 1
netname=diff_out_35_n
}
N 83200 58000 85500 58000 4
{
T 84500 58100 5 10 1 1 0 0 1
netname=diff_out_35_p
}
C 86300 59900 1 0 1 input-1.sym
{
T 86000 60000 5 10 1 1 0 4 1
value=3
}
C 86300 59500 1 0 1 input-1.sym
{
T 86000 59600 5 10 1 1 0 4 1
value=3
}
N 83200 59200 85000 59200 4
{
T 83500 59300 5 10 1 1 0 0 1
netname=common_mode_33
}
C 85000 59100 1 0 0 output-1.sym
{
T 85500 59200 5 10 1 1 0 4 1
value=3
}
N 83200 59600 85500 59600 4
{
T 84500 59700 5 10 1 1 0 0 1
netname=diff_out_33_p
}
N 83200 60000 85500 60000 4
{
T 84500 60100 5 10 1 1 0 0 1
netname=diff_out_33_n
}
C 84800 57200 1 0 0 avcc.sym
{
T 85050 57500 5 9 1 1 0 0 1
net=AVCC_33:1
}
C 83800 57500 1 90 0 agnd.sym
{
T 83800 57610 5 9 1 1 0 0 1
net=AGND_33:1
}
C 83800 58700 1 90 0 agnd.sym
{
T 83800 58810 5 9 1 1 0 0 1
net=AGND_33:1
}
C 86300 58300 1 0 1 input-1.sym
{
T 86000 58400 5 10 1 1 0 4 1
value=3
}
C 86300 57900 1 0 1 input-1.sym
{
T 86000 58000 5 10 1 1 0 4 1
value=3
}
C 85000 57100 1 0 0 output-1.sym
{
T 85500 57200 5 10 1 1 0 4 1
value=3
}
N 83200 60500 85000 60500 4
N 83500 60900 83200 60900 4
N 83500 62100 83200 62100 4
N 83200 61700 85500 61700 4
{
T 84500 61800 5 10 1 1 0 0 1
netname=diff_out_43_n
}
N 83200 61300 85500 61300 4
{
T 84500 61400 5 10 1 1 0 0 1
netname=diff_out_43_p
}
C 86300 63200 1 0 1 input-1.sym
{
T 86000 63300 5 10 1 1 0 4 1
value=3
}
C 86300 62800 1 0 1 input-1.sym
{
T 86000 62900 5 10 1 1 0 4 1
value=3
}
N 83200 62500 85000 62500 4
{
T 83500 62600 5 10 1 1 0 0 1
netname=common_mode_41
}
C 85000 62400 1 0 0 output-1.sym
{
T 85500 62500 5 10 1 1 0 4 1
value=3
}
N 83200 62900 85500 62900 4
{
T 84500 63000 5 10 1 1 0 0 1
netname=diff_out_41_p
}
N 83200 63300 85500 63300 4
{
T 84500 63400 5 10 1 1 0 0 1
netname=diff_out_41_n
}
C 84800 60500 1 0 0 avcc.sym
{
T 85050 60800 5 9 1 1 0 0 1
net=AVCC_41:1
}
C 83800 60800 1 90 0 agnd.sym
{
T 83800 60910 5 9 1 1 0 0 1
net=AGND_41:1
}
C 83800 62000 1 90 0 agnd.sym
{
T 83800 62110 5 9 1 1 0 0 1
net=AGND_41:1
}
C 86300 61600 1 0 1 input-1.sym
{
T 86000 61700 5 10 1 1 0 4 1
value=3
}
C 86300 61200 1 0 1 input-1.sym
{
T 86000 61300 5 10 1 1 0 4 1
value=3
}
C 85000 60400 1 0 0 output-1.sym
{
T 85500 60500 5 10 1 1 0 4 1
value=3
}
N 83200 63800 85000 63800 4
N 83500 64200 83200 64200 4
N 83500 65400 83200 65400 4
N 83200 65000 85500 65000 4
{
T 84500 65100 5 10 1 1 0 0 1
netname=diff_out_51_n
}
N 83200 64600 85500 64600 4
{
T 84500 64700 5 10 1 1 0 0 1
netname=diff_out_51_p
}
C 86300 66500 1 0 1 input-1.sym
{
T 86000 66600 5 10 1 1 0 4 1
value=4
}
C 86300 66100 1 0 1 input-1.sym
{
T 86000 66200 5 10 1 1 0 4 1
value=4
}
N 83200 65800 85000 65800 4
{
T 83500 65900 5 10 1 1 0 0 1
netname=common_mode_49
}
C 85000 65700 1 0 0 output-1.sym
{
T 85500 65800 5 10 1 1 0 4 1
value=4
}
N 83200 66200 85500 66200 4
{
T 84500 66300 5 10 1 1 0 0 1
netname=diff_out_49_p
}
N 83200 66600 85500 66600 4
{
T 84500 66700 5 10 1 1 0 0 1
netname=diff_out_49_n
}
C 84800 63800 1 0 0 avcc.sym
{
T 85050 64100 5 9 1 1 0 0 1
net=AVCC_49:1
}
C 83800 64100 1 90 0 agnd.sym
{
T 83800 64210 5 9 1 1 0 0 1
net=AGND_49:1
}
C 83800 65300 1 90 0 agnd.sym
{
T 83800 65410 5 9 1 1 0 0 1
net=AGND_49:1
}
C 86300 64900 1 0 1 input-1.sym
{
T 86000 65000 5 10 1 1 0 4 1
value=4
}
C 86300 64500 1 0 1 input-1.sym
{
T 86000 64600 5 10 1 1 0 4 1
value=4
}
C 85000 63700 1 0 0 output-1.sym
{
T 85500 63800 5 10 1 1 0 4 1
value=4
}
N 83200 67100 85000 67100 4
N 83500 67500 83200 67500 4
N 83500 68700 83200 68700 4
N 83200 68300 85500 68300 4
{
T 84500 68400 5 10 1 1 0 0 1
netname=diff_out_59_n
}
N 83200 67900 85500 67900 4
{
T 84500 68000 5 10 1 1 0 0 1
netname=diff_out_59_p
}
C 86300 69800 1 0 1 input-1.sym
{
T 86000 69900 5 10 1 1 0 4 1
value=4
}
C 86300 69400 1 0 1 input-1.sym
{
T 86000 69500 5 10 1 1 0 4 1
value=4
}
N 83200 69100 85000 69100 4
{
T 83500 69200 5 10 1 1 0 0 1
netname=common_mode_57
}
C 85000 69000 1 0 0 output-1.sym
{
T 85500 69100 5 10 1 1 0 4 1
value=4
}
N 83200 69500 85500 69500 4
{
T 84500 69600 5 10 1 1 0 0 1
netname=diff_out_57_p
}
N 83200 69900 85500 69900 4
{
T 84500 70000 5 10 1 1 0 0 1
netname=diff_out_57_n
}
C 84800 67100 1 0 0 avcc.sym
{
T 85050 67400 5 9 1 1 0 0 1
net=AVCC_57:1
}
C 83800 67400 1 90 0 agnd.sym
{
T 83800 67510 5 9 1 1 0 0 1
net=AGND_57:1
}
C 83800 68600 1 90 0 agnd.sym
{
T 83800 68710 5 9 1 1 0 0 1
net=AGND_57:1
}
C 86300 68200 1 0 1 input-1.sym
{
T 86000 68300 5 10 1 1 0 4 1
value=4
}
C 86300 67800 1 0 1 input-1.sym
{
T 86000 67900 5 10 1 1 0 4 1
value=4
}
C 85000 67000 1 0 0 output-1.sym
{
T 85500 67100 5 10 1 1 0 4 1
value=4
}
N 76400 65000 78700 65000 4
{
T 76400 65100 5 10 1 1 0 0 1
netname=diff_out_53_n
}
N 76400 64600 78700 64600 4
{
T 76400 64700 5 10 1 1 0 0 1
netname=diff_out_53_p
}
N 76900 65800 78700 65800 4
{
T 76800 65900 5 10 1 1 0 0 1
netname=common_mode_53
}
C 75600 66500 1 0 0 input-1.sym
{
T 75900 66600 5 10 1 1 0 4 1
value=4
}
C 75600 66100 1 0 0 input-1.sym
{
T 75900 66200 5 10 1 1 0 4 1
value=4
}
C 76900 65700 1 0 1 output-1.sym
{
T 76400 65800 5 10 1 1 0 4 1
value=4
}
N 76400 66600 78700 66600 4
{
T 76400 66700 5 10 1 1 0 0 1
netname=diff_out_55_n
}
N 76400 66200 78700 66200 4
{
T 76400 66300 5 10 1 1 0 0 1
netname=diff_out_55_p
}
N 78700 65400 78400 65400 4
N 78700 64200 78400 64200 4
N 76900 63800 78700 63800 4
C 78100 65300 1 270 1 agnd.sym
{
T 78100 65410 5 9 1 1 0 6 1
net=AGND_53:1
}
C 78100 64100 1 270 1 agnd.sym
{
T 78100 64210 5 9 1 1 0 6 1
net=AGND_53:1
}
C 77100 63800 1 0 1 avcc.sym
{
T 76850 64100 5 9 1 1 0 6 1
net=AVCC_53:1
}
C 76900 63700 1 0 1 output-1.sym
{
T 76400 63800 5 10 1 1 0 4 1
value=4
}
C 75600 64900 1 0 0 input-1.sym
{
T 75900 65000 5 10 1 1 0 4 1
value=4
}
C 75600 64500 1 0 0 input-1.sym
{
T 75900 64600 5 10 1 1 0 4 1
value=4
}
N 76400 68300 78700 68300 4
{
T 76400 68400 5 10 1 1 0 0 1
netname=diff_out_61_n
}
N 76400 67900 78700 67900 4
{
T 76400 68000 5 10 1 1 0 0 1
netname=diff_out_61_p
}
N 76900 69100 78700 69100 4
{
T 76800 69200 5 10 1 1 0 0 1
netname=common_mode_61
}
C 75600 69800 1 0 0 input-1.sym
{
T 75900 69900 5 10 1 1 0 4 1
value=4
}
C 75600 69400 1 0 0 input-1.sym
{
T 75900 69500 5 10 1 1 0 4 1
value=4
}
C 76900 69000 1 0 1 output-1.sym
{
T 76400 69100 5 10 1 1 0 4 1
value=4
}
N 76400 69900 78700 69900 4
{
T 76400 70000 5 10 1 1 0 0 1
netname=diff_out_63_n
}
N 76400 69500 78700 69500 4
{
T 76400 69600 5 10 1 1 0 0 1
netname=diff_out_63_p
}
N 78700 68700 78400 68700 4
N 78700 67500 78400 67500 4
N 76900 67100 78700 67100 4
C 78100 68600 1 270 1 agnd.sym
{
T 78100 68710 5 9 1 1 0 6 1
net=AGND_61:1
}
C 78100 67400 1 270 1 agnd.sym
{
T 78100 67510 5 9 1 1 0 6 1
net=AGND_61:1
}
C 77100 67100 1 0 1 avcc.sym
{
T 76850 67400 5 9 1 1 0 6 1
net=AVCC_61:1
}
C 76900 67000 1 0 1 output-1.sym
{
T 76400 67100 5 10 1 1 0 4 1
value=4
}
C 75600 68200 1 0 0 input-1.sym
{
T 75900 68300 5 10 1 1 0 4 1
value=4
}
C 75600 67800 1 0 0 input-1.sym
{
T 75900 67900 5 10 1 1 0 4 1
value=4
}
N 91000 68200 93300 68200 4
{
T 91000 68300 5 10 1 1 0 0 1
netname=diff_out_08_n
}
N 91000 67800 93300 67800 4
{
T 91000 67900 5 10 1 1 0 0 1
netname=diff_out_08_p
}
N 91500 69000 93300 69000 4
{
T 91400 69100 5 10 1 1 0 0 1
netname=common_mode_08
}
C 90200 69700 1 0 0 input-1.sym
{
T 90500 69800 5 10 1 1 0 4 1
value=4
}
C 90200 69300 1 0 0 input-1.sym
{
T 90500 69400 5 10 1 1 0 4 1
value=4
}
C 91500 68900 1 0 1 output-1.sym
{
T 91000 69000 5 10 1 1 0 4 1
value=4
}
N 91000 69800 93300 69800 4
{
T 91000 69900 5 10 1 1 0 0 1
netname=diff_out_06_n
}
N 91000 69400 93300 69400 4
{
T 91000 69500 5 10 1 1 0 0 1
netname=diff_out_06_p
}
N 93300 68600 93000 68600 4
C 92700 68500 1 270 1 agnd.sym
{
T 92700 68610 5 9 1 1 0 6 1
net=AGND_08:1
}
C 90200 68100 1 0 0 input-1.sym
{
T 90500 68200 5 10 1 1 0 4 1
value=4
}
C 90200 67700 1 0 0 input-1.sym
{
T 90500 67800 5 10 1 1 0 4 1
value=4
}
N 93300 67400 93000 67400 4
N 91500 67000 93300 67000 4
C 92700 67300 1 270 1 agnd.sym
{
T 92700 67410 5 9 1 1 0 6 1
net=AGND_08:1
}
C 91700 67000 1 0 1 avcc.sym
{
T 91450 67300 5 9 1 1 0 6 1
net=AVCC_08:1
}
C 91500 66900 1 0 1 output-1.sym
{
T 91000 67000 5 10 1 1 0 4 1
value=4
}
N 97800 67000 99600 67000 4
N 98100 67400 97800 67400 4
N 98100 68600 97800 68600 4
N 97800 68200 100100 68200 4
{
T 99100 68300 5 10 1 1 0 0 1
netname=diff_out_02_n
}
N 97800 67800 100100 67800 4
{
T 99100 67900 5 10 1 1 0 0 1
netname=diff_out_02_p
}
C 100900 69700 1 0 1 input-1.sym
{
T 100600 69800 5 10 1 1 0 4 1
value=4
}
C 100900 69300 1 0 1 input-1.sym
{
T 100600 69400 5 10 1 1 0 4 1
value=4
}
N 97800 69000 99600 69000 4
{
T 98100 69100 5 10 1 1 0 0 1
netname=common_mode_04
}
C 99600 68900 1 0 0 output-1.sym
{
T 100100 69000 5 10 1 1 0 4 1
value=4
}
N 97800 69400 100100 69400 4
{
T 99100 69500 5 10 1 1 0 0 1
netname=diff_out_04_p
}
N 97800 69800 100100 69800 4
{
T 99100 69900 5 10 1 1 0 0 1
netname=diff_out_04_n
}
C 99400 67000 1 0 0 avcc.sym
{
T 99650 67300 5 9 1 1 0 0 1
net=AVCC_04:1
}
C 98400 67300 1 90 0 agnd.sym
{
T 98400 67410 5 9 1 1 0 0 1
net=AGND_04:1
}
C 98400 68500 1 90 0 agnd.sym
{
T 98400 68610 5 9 1 1 0 0 1
net=AGND_04:1
}
C 100900 68100 1 0 1 input-1.sym
{
T 100600 68200 5 10 1 1 0 4 1
value=4
}
C 100900 67700 1 0 1 input-1.sym
{
T 100600 67800 5 10 1 1 0 4 1
value=4
}
C 99600 66900 1 0 0 output-1.sym
{
T 100100 67000 5 10 1 1 0 4 1
value=4
}
N 97800 63700 99600 63700 4
N 98100 64100 97800 64100 4
N 98100 65300 97800 65300 4
N 97800 64900 100100 64900 4
{
T 99100 65000 5 10 1 1 0 0 1
netname=diff_out_10_n
}
N 97800 64500 100100 64500 4
{
T 99100 64600 5 10 1 1 0 0 1
netname=diff_out_10_p
}
C 100900 66400 1 0 1 input-1.sym
{
T 100600 66500 5 10 1 1 0 4 1
value=4
}
C 100900 66000 1 0 1 input-1.sym
{
T 100600 66100 5 10 1 1 0 4 1
value=4
}
N 97800 65700 99600 65700 4
{
T 98100 65800 5 10 1 1 0 0 1
netname=common_mode_12
}
C 99600 65600 1 0 0 output-1.sym
{
T 100100 65700 5 10 1 1 0 4 1
value=4
}
N 97800 66100 100100 66100 4
{
T 99100 66200 5 10 1 1 0 0 1
netname=diff_out_12_p
}
N 97800 66500 100100 66500 4
{
T 99100 66600 5 10 1 1 0 0 1
netname=diff_out_12_n
}
C 99400 63700 1 0 0 avcc.sym
{
T 99650 64000 5 9 1 1 0 0 1
net=AVCC_12:1
}
C 98400 64000 1 90 0 agnd.sym
{
T 98400 64110 5 9 1 1 0 0 1
net=AGND_12:1
}
C 98400 65200 1 90 0 agnd.sym
{
T 98400 65310 5 9 1 1 0 0 1
net=AGND_12:1
}
C 100900 64800 1 0 1 input-1.sym
{
T 100600 64900 5 10 1 1 0 4 1
value=4
}
C 100900 64400 1 0 1 input-1.sym
{
T 100600 64500 5 10 1 1 0 4 1
value=4
}
C 99600 63600 1 0 0 output-1.sym
{
T 100100 63700 5 10 1 1 0 4 1
value=4
}
N 97800 60400 99600 60400 4
N 98100 60800 97800 60800 4
N 98100 62000 97800 62000 4
N 97800 61600 100100 61600 4
{
T 99100 61700 5 10 1 1 0 0 1
netname=diff_out_18_n
}
N 97800 61200 100100 61200 4
{
T 99100 61300 5 10 1 1 0 0 1
netname=diff_out_18_p
}
C 100900 63100 1 0 1 input-1.sym
{
T 100600 63200 5 10 1 1 0 4 1
value=4
}
C 100900 62700 1 0 1 input-1.sym
{
T 100600 62800 5 10 1 1 0 4 1
value=4
}
N 97800 62400 99600 62400 4
{
T 98100 62500 5 10 1 1 0 0 1
netname=common_mode_20
}
C 99600 62300 1 0 0 output-1.sym
{
T 100100 62400 5 10 1 1 0 4 1
value=4
}
N 97800 62800 100100 62800 4
{
T 99100 62900 5 10 1 1 0 0 1
netname=diff_out_20_p
}
N 97800 63200 100100 63200 4
{
T 99100 63300 5 10 1 1 0 0 1
netname=diff_out_20_n
}
C 99400 60400 1 0 0 avcc.sym
{
T 99650 60700 5 9 1 1 0 0 1
net=AVCC_20:1
}
C 98400 60700 1 90 0 agnd.sym
{
T 98400 60810 5 9 1 1 0 0 1
net=AGND_20:1
}
C 98400 61900 1 90 0 agnd.sym
{
T 98400 62010 5 9 1 1 0 0 1
net=AGND_20:1
}
C 100900 61500 1 0 1 input-1.sym
{
T 100600 61600 5 10 1 1 0 4 1
value=4
}
C 100900 61100 1 0 1 input-1.sym
{
T 100600 61200 5 10 1 1 0 4 1
value=4
}
C 99600 60300 1 0 0 output-1.sym
{
T 100100 60400 5 10 1 1 0 4 1
value=4
}
N 97800 57100 99600 57100 4
N 98100 57500 97800 57500 4
N 98100 58700 97800 58700 4
N 97800 58300 100100 58300 4
{
T 99100 58400 5 10 1 1 0 0 1
netname=diff_out_26_n
}
N 97800 57900 100100 57900 4
{
T 99100 58000 5 10 1 1 0 0 1
netname=diff_out_26_p
}
C 100900 59800 1 0 1 input-1.sym
{
T 100600 59900 5 10 1 1 0 4 1
value=4
}
C 100900 59400 1 0 1 input-1.sym
{
T 100600 59500 5 10 1 1 0 4 1
value=4
}
N 97800 59100 99600 59100 4
{
T 98100 59200 5 10 1 1 0 0 1
netname=common_mode_28
}
C 99600 59000 1 0 0 output-1.sym
{
T 100100 59100 5 10 1 1 0 4 1
value=4
}
N 97800 59500 100100 59500 4
{
T 99100 59600 5 10 1 1 0 0 1
netname=diff_out_28_p
}
N 97800 59900 100100 59900 4
{
T 99100 60000 5 10 1 1 0 0 1
netname=diff_out_28_n
}
C 99400 57100 1 0 0 avcc.sym
{
T 99650 57400 5 9 1 1 0 0 1
net=AVCC_28:1
}
C 98400 57400 1 90 0 agnd.sym
{
T 98400 57510 5 9 1 1 0 0 1
net=AGND_28:1
}
C 98400 58600 1 90 0 agnd.sym
{
T 98400 58710 5 9 1 1 0 0 1
net=AGND_28:1
}
C 100900 58200 1 0 1 input-1.sym
{
T 100600 58300 5 10 1 1 0 4 1
value=4
}
C 100900 57800 1 0 1 input-1.sym
{
T 100600 57900 5 10 1 1 0 4 1
value=4
}
C 99600 57000 1 0 0 output-1.sym
{
T 100100 57100 5 10 1 1 0 4 1
value=4
}
N 97800 53800 99600 53800 4
N 98100 54200 97800 54200 4
N 98100 55400 97800 55400 4
N 97800 55000 100100 55000 4
{
T 99100 55100 5 10 1 1 0 0 1
netname=diff_out_34_n
}
N 97800 54600 100100 54600 4
{
T 99100 54700 5 10 1 1 0 0 1
netname=diff_out_34_p
}
C 100900 56500 1 0 1 input-1.sym
{
T 100600 56600 5 10 1 1 0 4 1
value=4
}
C 100900 56100 1 0 1 input-1.sym
{
T 100600 56200 5 10 1 1 0 4 1
value=4
}
N 97800 55800 99600 55800 4
{
T 98100 55900 5 10 1 1 0 0 1
netname=common_mode_36
}
C 99600 55700 1 0 0 output-1.sym
{
T 100100 55800 5 10 1 1 0 4 1
value=4
}
N 97800 56200 100100 56200 4
{
T 99100 56300 5 10 1 1 0 0 1
netname=diff_out_36_p
}
N 97800 56600 100100 56600 4
{
T 99100 56700 5 10 1 1 0 0 1
netname=diff_out_36_n
}
C 99400 53800 1 0 0 avcc.sym
{
T 99650 54100 5 9 1 1 0 0 1
net=AVCC_36:1
}
C 98400 54100 1 90 0 agnd.sym
{
T 98400 54210 5 9 1 1 0 0 1
net=AGND_36:1
}
C 98400 55300 1 90 0 agnd.sym
{
T 98400 55410 5 9 1 1 0 0 1
net=AGND_36:1
}
C 100900 54900 1 0 1 input-1.sym
{
T 100600 55000 5 10 1 1 0 4 1
value=4
}
C 100900 54500 1 0 1 input-1.sym
{
T 100600 54600 5 10 1 1 0 4 1
value=4
}
C 99600 53700 1 0 0 output-1.sym
{
T 100100 53800 5 10 1 1 0 4 1
value=4
}
N 97800 50500 99600 50500 4
N 98100 50900 97800 50900 4
N 98100 52100 97800 52100 4
N 97800 51700 100100 51700 4
{
T 99100 51800 5 10 1 1 0 0 1
netname=diff_out_42_n
}
N 97800 51300 100100 51300 4
{
T 99100 51400 5 10 1 1 0 0 1
netname=diff_out_42_p
}
C 100900 53200 1 0 1 input-1.sym
{
T 100600 53300 5 10 1 1 0 4 1
value=4
}
C 100900 52800 1 0 1 input-1.sym
{
T 100600 52900 5 10 1 1 0 4 1
value=4
}
N 97800 52500 99600 52500 4
{
T 98100 52600 5 10 1 1 0 0 1
netname=common_mode_44
}
C 99600 52400 1 0 0 output-1.sym
{
T 100100 52500 5 10 1 1 0 4 1
value=4
}
N 97800 52900 100100 52900 4
{
T 99100 53000 5 10 1 1 0 0 1
netname=diff_out_44_p
}
N 97800 53300 100100 53300 4
{
T 99100 53400 5 10 1 1 0 0 1
netname=diff_out_44_n
}
C 99400 50500 1 0 0 avcc.sym
{
T 99650 50800 5 9 1 1 0 0 1
net=AVCC_44:1
}
C 98400 50800 1 90 0 agnd.sym
{
T 98400 50910 5 9 1 1 0 0 1
net=AGND_44:1
}
C 98400 52000 1 90 0 agnd.sym
{
T 98400 52110 5 9 1 1 0 0 1
net=AGND_44:1
}
C 100900 51600 1 0 1 input-1.sym
{
T 100600 51700 5 10 1 1 0 4 1
value=4
}
C 100900 51200 1 0 1 input-1.sym
{
T 100600 51300 5 10 1 1 0 4 1
value=4
}
C 99600 50400 1 0 0 output-1.sym
{
T 100100 50500 5 10 1 1 0 4 1
value=4
}
N 97800 47200 99600 47200 4
N 98100 47600 97800 47600 4
N 98100 48800 97800 48800 4
N 97800 48400 100100 48400 4
{
T 99100 48500 5 10 1 1 0 0 1
netname=diff_out_50_n
}
N 97800 48000 100100 48000 4
{
T 99100 48100 5 10 1 1 0 0 1
netname=diff_out_50_p
}
C 100900 49900 1 0 1 input-1.sym
{
T 100600 50000 5 10 1 1 0 4 1
value=4
}
C 100900 49500 1 0 1 input-1.sym
{
T 100600 49600 5 10 1 1 0 4 1
value=4
}
N 97800 49200 99600 49200 4
{
T 98100 49300 5 10 1 1 0 0 1
netname=common_mode_52
}
C 99600 49100 1 0 0 output-1.sym
{
T 100100 49200 5 10 1 1 0 4 1
value=4
}
N 97800 49600 100100 49600 4
{
T 99100 49700 5 10 1 1 0 0 1
netname=diff_out_52_p
}
N 97800 50000 100100 50000 4
{
T 99100 50100 5 10 1 1 0 0 1
netname=diff_out_52_n
}
C 99400 47200 1 0 0 avcc.sym
{
T 99650 47500 5 9 1 1 0 0 1
net=AVCC_52:1
}
C 98400 47500 1 90 0 agnd.sym
{
T 98400 47610 5 9 1 1 0 0 1
net=AGND_52:1
}
C 98400 48700 1 90 0 agnd.sym
{
T 98400 48810 5 9 1 1 0 0 1
net=AGND_52:1
}
C 100900 48300 1 0 1 input-1.sym
{
T 100600 48400 5 10 1 1 0 4 1
value=4
}
C 100900 47900 1 0 1 input-1.sym
{
T 100600 48000 5 10 1 1 0 4 1
value=4
}
C 99600 47100 1 0 0 output-1.sym
{
T 100100 47200 5 10 1 1 0 4 1
value=4
}
N 97800 43900 99600 43900 4
N 98100 44300 97800 44300 4
N 98100 45500 97800 45500 4
N 97800 45100 100100 45100 4
{
T 99100 45200 5 10 1 1 0 0 1
netname=diff_out_58_n
}
N 97800 44700 100100 44700 4
{
T 99100 44800 5 10 1 1 0 0 1
netname=diff_out_58_p
}
C 100900 46600 1 0 1 input-1.sym
{
T 100600 46700 5 10 1 1 0 4 1
value=4
}
C 100900 46200 1 0 1 input-1.sym
{
T 100600 46300 5 10 1 1 0 4 1
value=4
}
N 97800 45900 99600 45900 4
{
T 98100 46000 5 10 1 1 0 0 1
netname=common_mode_60
}
C 99600 45800 1 0 0 output-1.sym
{
T 100100 45900 5 10 1 1 0 4 1
value=4
}
N 97800 46300 100100 46300 4
{
T 99100 46400 5 10 1 1 0 0 1
netname=diff_out_60_p
}
N 97800 46700 100100 46700 4
{
T 99100 46800 5 10 1 1 0 0 1
netname=diff_out_60_n
}
C 99400 43900 1 0 0 avcc.sym
{
T 99650 44200 5 9 1 1 0 0 1
net=AVCC_60:1
}
C 98400 44200 1 90 0 agnd.sym
{
T 98400 44310 5 9 1 1 0 0 1
net=AGND_60:1
}
C 98400 45400 1 90 0 agnd.sym
{
T 98400 45510 5 9 1 1 0 0 1
net=AGND_60:1
}
C 100900 45000 1 0 1 input-1.sym
{
T 100600 45100 5 10 1 1 0 4 1
value=4
}
C 100900 44600 1 0 1 input-1.sym
{
T 100600 44700 5 10 1 1 0 4 1
value=4
}
C 99600 43800 1 0 0 output-1.sym
{
T 100100 43900 5 10 1 1 0 4 1
value=4
}
N 91000 64900 93300 64900 4
{
T 91000 65000 5 10 1 1 0 0 1
netname=diff_out_16_n
}
N 91000 64500 93300 64500 4
{
T 91000 64600 5 10 1 1 0 0 1
netname=diff_out_16_p
}
N 91500 65700 93300 65700 4
{
T 91400 65800 5 10 1 1 0 0 1
netname=common_mode_16
}
C 90200 66400 1 0 0 input-1.sym
{
T 90500 66500 5 10 1 1 0 4 1
value=4
}
C 90200 66000 1 0 0 input-1.sym
{
T 90500 66100 5 10 1 1 0 4 1
value=4
}
C 91500 65600 1 0 1 output-1.sym
{
T 91000 65700 5 10 1 1 0 4 1
value=4
}
N 91000 66500 93300 66500 4
{
T 91000 66600 5 10 1 1 0 0 1
netname=diff_out_14_n
}
N 91000 66100 93300 66100 4
{
T 91000 66200 5 10 1 1 0 0 1
netname=diff_out_14_p
}
N 93300 65300 93000 65300 4
C 92700 65200 1 270 1 agnd.sym
{
T 92700 65310 5 9 1 1 0 6 1
net=AGND_16:1
}
C 90200 64800 1 0 0 input-1.sym
{
T 90500 64900 5 10 1 1 0 4 1
value=4
}
C 90200 64400 1 0 0 input-1.sym
{
T 90500 64500 5 10 1 1 0 4 1
value=4
}
N 93300 64100 93000 64100 4
N 91500 63700 93300 63700 4
C 92700 64000 1 270 1 agnd.sym
{
T 92700 64110 5 9 1 1 0 6 1
net=AGND_16:1
}
C 91700 63700 1 0 1 avcc.sym
{
T 91450 64000 5 9 1 1 0 6 1
net=AVCC_16:1
}
C 91500 63600 1 0 1 output-1.sym
{
T 91000 63700 5 10 1 1 0 4 1
value=4
}
N 91000 61600 93300 61600 4
{
T 91000 61700 5 10 1 1 0 0 1
netname=diff_out_24_n
}
N 91000 61200 93300 61200 4
{
T 91000 61300 5 10 1 1 0 0 1
netname=diff_out_24_p
}
N 91500 62400 93300 62400 4
{
T 91400 62500 5 10 1 1 0 0 1
netname=common_mode_24
}
C 90200 63100 1 0 0 input-1.sym
{
T 90500 63200 5 10 1 1 0 4 1
value=4
}
C 90200 62700 1 0 0 input-1.sym
{
T 90500 62800 5 10 1 1 0 4 1
value=4
}
C 91500 62300 1 0 1 output-1.sym
{
T 91000 62400 5 10 1 1 0 4 1
value=4
}
N 91000 63200 93300 63200 4
{
T 91000 63300 5 10 1 1 0 0 1
netname=diff_out_22_n
}
N 91000 62800 93300 62800 4
{
T 91000 62900 5 10 1 1 0 0 1
netname=diff_out_22_p
}
N 93300 62000 93000 62000 4
C 92700 61900 1 270 1 agnd.sym
{
T 92700 62010 5 9 1 1 0 6 1
net=AGND_24:1
}
C 90200 61500 1 0 0 input-1.sym
{
T 90500 61600 5 10 1 1 0 4 1
value=4
}
C 90200 61100 1 0 0 input-1.sym
{
T 90500 61200 5 10 1 1 0 4 1
value=4
}
N 93300 60800 93000 60800 4
N 91500 60400 93300 60400 4
C 92700 60700 1 270 1 agnd.sym
{
T 92700 60810 5 9 1 1 0 6 1
net=AGND_24:1
}
C 91700 60400 1 0 1 avcc.sym
{
T 91450 60700 5 9 1 1 0 6 1
net=AVCC_24:1
}
C 91500 60300 1 0 1 output-1.sym
{
T 91000 60400 5 10 1 1 0 4 1
value=4
}
N 91000 58300 93300 58300 4
{
T 91000 58400 5 10 1 1 0 0 1
netname=diff_out_32_n
}
N 91000 57900 93300 57900 4
{
T 91000 58000 5 10 1 1 0 0 1
netname=diff_out_32_p
}
N 91500 59100 93300 59100 4
{
T 91400 59200 5 10 1 1 0 0 1
netname=common_mode_32
}
C 90200 59800 1 0 0 input-1.sym
{
T 90500 59900 5 10 1 1 0 4 1
value=4
}
C 90200 59400 1 0 0 input-1.sym
{
T 90500 59500 5 10 1 1 0 4 1
value=4
}
C 91500 59000 1 0 1 output-1.sym
{
T 91000 59100 5 10 1 1 0 4 1
value=4
}
N 91000 59900 93300 59900 4
{
T 91000 60000 5 10 1 1 0 0 1
netname=diff_out_30_n
}
N 91000 59500 93300 59500 4
{
T 91000 59600 5 10 1 1 0 0 1
netname=diff_out_30_p
}
N 93300 58700 93000 58700 4
C 92700 58600 1 270 1 agnd.sym
{
T 92700 58710 5 9 1 1 0 6 1
net=AGND_32:1
}
C 90200 58200 1 0 0 input-1.sym
{
T 90500 58300 5 10 1 1 0 4 1
value=4
}
C 90200 57800 1 0 0 input-1.sym
{
T 90500 57900 5 10 1 1 0 4 1
value=4
}
N 93300 57500 93000 57500 4
N 91500 57100 93300 57100 4
C 92700 57400 1 270 1 agnd.sym
{
T 92700 57510 5 9 1 1 0 6 1
net=AGND_32:1
}
C 91700 57100 1 0 1 avcc.sym
{
T 91450 57400 5 9 1 1 0 6 1
net=AVCC_32:1
}
C 91500 57000 1 0 1 output-1.sym
{
T 91000 57100 5 10 1 1 0 4 1
value=4
}
N 91000 55000 93300 55000 4
{
T 91000 55100 5 10 1 1 0 0 1
netname=diff_out_40_n
}
N 91000 54600 93300 54600 4
{
T 91000 54700 5 10 1 1 0 0 1
netname=diff_out_40_p
}
N 91500 55800 93300 55800 4
{
T 91400 55900 5 10 1 1 0 0 1
netname=common_mode_40
}
C 90200 56500 1 0 0 input-1.sym
{
T 90500 56600 5 10 1 1 0 4 1
value=4
}
C 90200 56100 1 0 0 input-1.sym
{
T 90500 56200 5 10 1 1 0 4 1
value=4
}
C 91500 55700 1 0 1 output-1.sym
{
T 91000 55800 5 10 1 1 0 4 1
value=4
}
N 91000 56600 93300 56600 4
{
T 91000 56700 5 10 1 1 0 0 1
netname=diff_out_38_n
}
N 91000 56200 93300 56200 4
{
T 91000 56300 5 10 1 1 0 0 1
netname=diff_out_38_p
}
N 93300 55400 93000 55400 4
C 92700 55300 1 270 1 agnd.sym
{
T 92700 55410 5 9 1 1 0 6 1
net=AGND_40:1
}
C 90200 54900 1 0 0 input-1.sym
{
T 90500 55000 5 10 1 1 0 4 1
value=4
}
C 90200 54500 1 0 0 input-1.sym
{
T 90500 54600 5 10 1 1 0 4 1
value=4
}
N 93300 54200 93000 54200 4
N 91500 53800 93300 53800 4
C 92700 54100 1 270 1 agnd.sym
{
T 92700 54210 5 9 1 1 0 6 1
net=AGND_40:1
}
C 91700 53800 1 0 1 avcc.sym
{
T 91450 54100 5 9 1 1 0 6 1
net=AVCC_40:1
}
C 91500 53700 1 0 1 output-1.sym
{
T 91000 53800 5 10 1 1 0 4 1
value=4
}
N 91000 51700 93300 51700 4
{
T 91000 51800 5 10 1 1 0 0 1
netname=diff_out_48_n
}
N 91000 51300 93300 51300 4
{
T 91000 51400 5 10 1 1 0 0 1
netname=diff_out_48_p
}
N 91500 52500 93300 52500 4
{
T 91400 52600 5 10 1 1 0 0 1
netname=common_mode_48
}
C 90200 53200 1 0 0 input-1.sym
{
T 90500 53300 5 10 1 1 0 4 1
value=4
}
C 90200 52800 1 0 0 input-1.sym
{
T 90500 52900 5 10 1 1 0 4 1
value=4
}
C 91500 52400 1 0 1 output-1.sym
{
T 91000 52500 5 10 1 1 0 4 1
value=4
}
N 91000 53300 93300 53300 4
{
T 91000 53400 5 10 1 1 0 0 1
netname=diff_out_46_n
}
N 91000 52900 93300 52900 4
{
T 91000 53000 5 10 1 1 0 0 1
netname=diff_out_46_p
}
N 93300 52100 93000 52100 4
C 92700 52000 1 270 1 agnd.sym
{
T 92700 52110 5 9 1 1 0 6 1
net=AGND_48:1
}
C 90200 51600 1 0 0 input-1.sym
{
T 90500 51700 5 10 1 1 0 4 1
value=4
}
C 90200 51200 1 0 0 input-1.sym
{
T 90500 51300 5 10 1 1 0 4 1
value=4
}
N 93300 50900 93000 50900 4
N 91500 50500 93300 50500 4
C 92700 50800 1 270 1 agnd.sym
{
T 92700 50910 5 9 1 1 0 6 1
net=AGND_48:1
}
C 91700 50500 1 0 1 avcc.sym
{
T 91450 50800 5 9 1 1 0 6 1
net=AVCC_48:1
}
C 91500 50400 1 0 1 output-1.sym
{
T 91000 50500 5 10 1 1 0 4 1
value=4
}
N 91000 48400 93300 48400 4
{
T 91000 48500 5 10 1 1 0 0 1
netname=diff_out_56_n
}
N 91000 48000 93300 48000 4
{
T 91000 48100 5 10 1 1 0 0 1
netname=diff_out_56_p
}
N 91500 49200 93300 49200 4
{
T 91400 49300 5 10 1 1 0 0 1
netname=common_mode_56
}
C 90200 49900 1 0 0 input-1.sym
{
T 90500 50000 5 10 1 1 0 4 1
value=4
}
C 90200 49500 1 0 0 input-1.sym
{
T 90500 49600 5 10 1 1 0 4 1
value=4
}
C 91500 49100 1 0 1 output-1.sym
{
T 91000 49200 5 10 1 1 0 4 1
value=4
}
N 91000 50000 93300 50000 4
{
T 91000 50100 5 10 1 1 0 0 1
netname=diff_out_54_n
}
N 91000 49600 93300 49600 4
{
T 91000 49700 5 10 1 1 0 0 1
netname=diff_out_54_p
}
N 93300 48800 93000 48800 4
C 92700 48700 1 270 1 agnd.sym
{
T 92700 48810 5 9 1 1 0 6 1
net=AGND_56:1
}
C 90200 48300 1 0 0 input-1.sym
{
T 90500 48400 5 10 1 1 0 4 1
value=4
}
C 90200 47900 1 0 0 input-1.sym
{
T 90500 48000 5 10 1 1 0 4 1
value=4
}
N 93300 47600 93000 47600 4
N 91500 47200 93300 47200 4
C 92700 47500 1 270 1 agnd.sym
{
T 92700 47610 5 9 1 1 0 6 1
net=AGND_56:1
}
C 91700 47200 1 0 1 avcc.sym
{
T 91450 47500 5 9 1 1 0 6 1
net=AVCC_56:1
}
C 91500 47100 1 0 1 output-1.sym
{
T 91000 47200 5 10 1 1 0 4 1
value=4
}
N 91000 45100 93300 45100 4
{
T 91000 45200 5 10 1 1 0 0 1
netname=diff_out_64_n
}
N 91000 44700 93300 44700 4
{
T 91000 44800 5 10 1 1 0 0 1
netname=diff_out_64_p
}
N 91500 45900 93300 45900 4
{
T 91400 46000 5 10 1 1 0 0 1
netname=common_mode_64
}
C 90200 46600 1 0 0 input-1.sym
{
T 90500 46700 5 10 1 1 0 4 1
value=4
}
C 90200 46200 1 0 0 input-1.sym
{
T 90500 46300 5 10 1 1 0 4 1
value=4
}
C 91500 45800 1 0 1 output-1.sym
{
T 91000 45900 5 10 1 1 0 4 1
value=4
}
N 91000 46700 93300 46700 4
{
T 91000 46800 5 10 1 1 0 0 1
netname=diff_out_62_n
}
N 91000 46300 93300 46300 4
{
T 91000 46400 5 10 1 1 0 0 1
netname=diff_out_62_p
}
N 93300 45500 93000 45500 4
C 92700 45400 1 270 1 agnd.sym
{
T 92700 45510 5 9 1 1 0 6 1
net=AGND_64:1
}
C 90200 45000 1 0 0 input-1.sym
{
T 90500 45100 5 10 1 1 0 4 1
value=4
}
C 90200 44600 1 0 0 input-1.sym
{
T 90500 44700 5 10 1 1 0 4 1
value=4
}
N 93300 44300 93000 44300 4
N 91500 43900 93300 43900 4
C 92700 44200 1 270 1 agnd.sym
{
T 92700 44310 5 9 1 1 0 6 1
net=AGND_64:1
}
C 91700 43900 1 0 1 avcc.sym
{
T 91450 44200 5 9 1 1 0 6 1
net=AVCC_64:1
}
C 91500 43800 1 0 1 output-1.sym
{
T 91000 43900 5 10 1 1 0 4 1
value=4
}
T 93300 41400 9 30 1 0 0 0 2
For RJ-45 Connectors,
Digikey#: 609-4634-ND
C 80800 43000 1 0 0 shield.sym
