v 20130925 2
C 65500 44500 1 0 0 cvstitleblock-1.sym
{
T 66100 44900 5 10 1 1 0 0 1
date=2011-12-22     2013-08-06
T 70100 44900 5 10 1 1 0 0 1
rev=0.3
T 70100 44600 5 10 1 1 0 0 1
auth=Alexei Dorofeev
T 66300 45200 5 10 1 1 0 0 1
fname=drift_accumulator_00_pld.sch
T 69300 45600 5 14 1 1 0 4 1
title=Drift Accumulator: PLD Banks usage
T 66100 44600 5 10 1 1 0 0 1
page_number=0
T 67600 44600 5 10 1 1 0 0 1
pages=16
}
B 56900 56700 5000 2700 3 0 0 0 -1 -1 0 -1 -1 -1 -1 -1
T 59400 59200 9 30 1 0 0 5 1
Bank 34
T 59300 56900 9 20 1 0 0 3 1
Page 8
T 59300 58300 9 20 1 0 0 3 1
1.8V
T 59500 58000 9 35 1 0 0 5 1
ADC1, ADC2
B 56900 53600 5000 2700 3 0 0 0 -1 -1 0 -1 -1 -1 -1 -1
T 59400 56100 9 30 1 0 0 5 1
Bank 33
T 59300 53800 9 20 1 0 0 3 1
Page 8
T 59300 55200 9 20 1 0 0 3 1
1.8V
T 59500 54900 9 35 1 0 0 5 1
ADC3, ADC4
B 56900 50500 5000 2700 3 0 0 0 -1 -1 0 -1 -1 -1 -1 -1
T 59400 53000 9 30 1 0 0 5 1
Bank 32
T 59300 50700 9 20 1 0 0 3 1
Page 8
T 59300 52100 9 20 1 0 0 3 1
1.8V
T 59500 51800 9 35 1 0 0 5 1
ADC5, ADC6
B 56900 47400 5000 2700 3 0 0 0 -1 -1 0 -1 -1 -1 -1 -1
T 59400 49900 9 30 1 0 0 5 1
Bank 12
T 59300 47600 9 20 1 0 0 3 1
Page 9
T 59300 49000 9 20 1 0 0 3 1
1.8V
T 59500 48700 9 35 1 0 0 5 1
QDRII 1
B 62300 47400 5000 2700 3 0 0 0 -1 -1 0 -1 -1 -1 -1 -1
T 64800 49900 9 30 1 0 0 5 1
Bank 13
T 64700 47600 9 20 1 0 0 3 1
Page 10
T 64700 49000 9 20 1 0 0 3 1
1.8V
T 64900 48700 9 35 1 0 0 5 1
QDRII 2
B 67700 47400 5000 2700 3 0 0 0 -1 -1 0 -1 -1 -1 -1 -1
T 70200 49900 9 30 1 0 0 5 1
Bank 14
T 70100 47600 9 20 1 0 0 3 1
Page 12
T 70100 49100 9 20 1 0 0 3 1
3.3V
T 70300 49000 9 30 1 0 0 5 2
Config, SPI, UART
PowMan, xADCs
B 67700 50500 5000 2700 3 0 0 0 -1 -1 0 -1 -1 -1 -1 -1
T 70200 53000 9 30 1 0 0 5 1
Bank 15
T 70100 50700 9 20 1 0 0 3 1
Page 14
T 70100 52100 9 20 1 0 0 3 1
3.3V
T 70300 51800 9 30 1 0 0 5 1
PowMan, xADCs
B 67700 53600 5000 2700 3 0 0 0 -1 -1 0 -1 -1 -1 -1 -1
T 70200 56100 9 30 1 0 0 5 1
Bank 16
T 70100 53800 9 20 1 0 0 3 1
Page 11
T 70100 55200 9 20 1 0 0 3 1
3.3V
T 70300 54900 9 35 1 0 0 5 1
Ethernet 1
B 67700 56700 5000 2700 3 0 0 0 -1 -1 0 -1 -1 -1 -1 -1
T 70200 59200 9 30 1 0 0 5 1
Bank 116
T 70100 56900 9 20 1 0 0 3 1
Page 16
T 70100 58300 9 20 1 0 0 3 1
1.0V
T 70300 58000 9 35 1 0 0 5 1
QSFP 1
B 62300 56700 5000 2700 3 0 0 0 -1 -1 0 -1 -1 -1 -1 -1
T 64800 59200 9 30 1 0 0 5 1
Bank 115
T 64700 56900 9 20 1 0 0 3 1
Page 16
T 64700 58300 9 20 1 0 0 3 1
1.0V
T 64900 58000 9 35 1 0 0 5 1
QSFP 2
B 62300 53600 5000 2700 3 0 0 0 -1 -1 0 -1 -1 -1 -1 -1
T 64800 56100 9 30 1 0 0 5 1
Bank 0
T 64700 53800 9 20 1 0 0 3 1
Page 14
T 64700 55200 9 20 1 0 0 3 1
3.3V
T 64900 54900 9 35 1 0 0 5 1
Config, JTAG
B 62300 50500 5000 2700 3 0 0 0 -1 -1 0 -1 -1 -1 -1 -1
T 64800 53000 9 30 1 0 0 5 1
Power
T 64700 50700 9 20 1 0 0 3 1
Page 15
