v 20130925 2
C 70300 57800 1 0 0 XC7K160T_bank115.sym
{
T 73700 63450 5 15 1 1 0 3 1
device=XC7K160T
T 76900 63600 5 10 1 1 0 0 1
refdes=U1
T 76900 63400 5 10 1 1 0 0 1
footprint=FBG676.fp
}
C 67400 82900 1 0 0 XC7K160T_bank116.sym
{
T 70800 88550 5 15 1 1 0 3 1
device=XC7K160T
T 74000 88700 5 10 1 1 0 0 1
refdes=U1
T 74000 88500 5 10 1 1 0 0 1
footprint=FBG676.fp
}
C 85200 58100 1 0 0 cvstitleblock-1.sym
{
T 85800 58500 5 10 1 1 0 0 1
date=2013-08-06
T 89800 58500 5 10 1 1 0 0 1
rev=0.1
T 89800 58200 5 10 1 1 0 0 1
auth=Alexei Dorofeev
T 86000 58800 5 10 1 1 0 0 1
fname=drift_accumulator_16_qsfp.sch
T 89300 59200 5 14 1 1 0 4 1
title=Drift Accumulator: QSFP+ Modules
T 86100 58200 5 10 1 1 0 0 1
page_number=16
T 87500 58200 5 10 1 1 0 0 1
pages=16
}
N 68400 82900 72800 82900 4
N 70900 57800 76500 57800 4
T 79900 82700 9 30 1 0 0 0 3
Cage is 
Molex# 0768710006
DK# WM6170-ND
C 70800 57500 1 0 0 agnd.sym
{
T 70900 57410 5 8 1 1 0 5 1
net=AGND_MGT:1
}
C 68300 82600 1 0 0 agnd.sym
{
T 68400 82510 5 8 1 1 0 5 1
net=AGND_MGT:1
}
C 72400 75900 1 0 0 inductor.sym
{
T 72600 76600 5 10 0 0 0 0 1
device=INDUCTOR
T 72800 76150 5 10 1 1 0 6 1
refdes=L1610
T 73000 76146 5 10 1 1 0 0 1
value=1u
T 72800 75881 5 10 1 1 0 5 1
footprint=1210
}
C 71200 76000 1 0 0 dvcc.sym
{
T 71450 76320 5 10 1 1 0 3 1
net=VCCO_3P3:1
}
C 74100 75100 1 90 0 capacitor.sym
{
T 73800 75700 5 10 1 1 180 2 1
refdes=C1610
T 73800 75400 5 10 1 1 180 0 1
value=47u
T 74100 75000 5 10 1 1 90 0 1
footprint=1210
T 73400 75400 5 10 0 0 90 0 1
device=CAPACITOR
}
C 75200 75100 1 90 0 capacitor.sym
{
T 74500 75400 5 10 0 0 90 0 1
device=CAPACITOR
T 74900 75700 5 10 1 1 180 2 1
refdes=C1611
T 74900 75400 5 10 1 1 180 0 1
value=0.1u
T 75200 75000 5 10 1 1 90 0 1
footprint=0603
}
N 71400 76000 72400 76000 4
N 73300 76000 78900 76000 4
C 73800 74600 1 0 0 dgnd.sym
N 73900 75100 73900 74900 4
N 75000 75100 75000 74900 4
N 75000 74900 73900 74900 4
C 72400 80300 1 0 0 inductor.sym
{
T 72600 81000 5 10 0 0 0 0 1
device=INDUCTOR
T 72800 80550 5 10 1 1 0 6 1
refdes=L1614
T 73000 80546 5 10 1 1 0 0 1
value=1u
T 72800 80281 5 10 1 1 0 5 1
footprint=1210
}
C 71200 80400 1 0 0 dvcc.sym
{
T 71450 80720 5 10 1 1 0 3 1
net=VCCO_3P3:1
}
C 74100 79500 1 90 0 capacitor.sym
{
T 73400 79800 5 10 0 0 90 0 1
device=CAPACITOR
T 73800 80100 5 10 1 1 180 2 1
refdes=C1614
T 73800 79800 5 10 1 1 180 0 1
value=47u
T 74100 79400 5 10 1 1 90 0 1
footprint=1210
}
C 75200 79500 1 90 0 capacitor.sym
{
T 74500 79800 5 10 0 0 90 0 1
device=CAPACITOR
T 74900 80100 5 10 1 1 180 2 1
refdes=C1615
T 74900 79800 5 10 1 1 180 0 1
value=0.1u
T 75200 79400 5 10 1 1 90 0 1
footprint=0603
}
N 71400 80400 72400 80400 4
N 73300 80400 78900 80400 4
C 73800 79000 1 0 0 dgnd.sym
N 73900 79500 73900 79300 4
N 75000 79500 75000 79300 4
N 75000 79300 73900 79300 4
C 72400 71700 1 0 0 inductor.sym
{
T 72600 72400 5 10 0 0 0 0 1
device=INDUCTOR
T 72800 71950 5 10 1 1 0 6 1
refdes=L1612
T 73000 71946 5 10 1 1 0 0 1
value=1u
T 72800 71681 5 10 1 1 0 5 1
footprint=1210
}
C 71200 71800 1 0 0 dvcc.sym
{
T 71450 72120 5 10 1 1 0 3 1
net=VCCO_3P3:1
}
C 74100 70900 1 90 0 capacitor.sym
{
T 73400 71200 5 10 0 0 90 0 1
device=CAPACITOR
T 73800 71500 5 10 1 1 180 2 1
refdes=C1612
T 73800 71200 5 10 1 1 180 0 1
value=47u
T 74100 70800 5 10 1 1 90 0 1
footprint=1210
}
C 75200 70900 1 90 0 capacitor.sym
{
T 74500 71200 5 10 0 0 90 0 1
device=CAPACITOR
T 74900 71500 5 10 1 1 180 2 1
refdes=C1613
T 74900 71200 5 10 1 1 180 0 1
value=0.1u
T 75200 70800 5 10 1 1 90 0 1
footprint=0603
}
N 71400 71800 72400 71800 4
N 73300 71800 78900 71800 4
C 73800 70400 1 0 0 dgnd.sym
N 73900 70900 73900 70700 4
N 75000 70900 75000 70700 4
N 75000 70700 73900 70700 4
C 91000 71700 1 0 0 inductor.sym
{
T 91200 72400 5 10 0 0 0 0 1
device=INDUCTOR
T 91400 71950 5 10 1 1 0 6 1
refdes=L1624
T 91600 71946 5 10 1 1 0 0 1
value=1u
T 91400 71681 5 10 1 1 0 5 1
footprint=1210
}
C 92300 71800 1 0 0 dvcc.sym
{
T 92550 72120 5 10 1 1 0 3 1
net=VCCO_3P3:1
}
N 85700 71800 91000 71800 4
N 89500 70900 89500 70700 4
N 90600 70900 90600 70700 4
N 90600 70700 89500 70700 4
C 78900 65800 1 0 0 connector-2xQSFP.sym
{
T 82300 81650 5 32 1 1 0 3 1
device=76871
T 85400 81800 5 10 1 1 0 0 1
refdes=J1600
T 85400 81500 5 10 1 1 0 0 1
footprint=QSFP_2X1_76871.fp
}
N 78900 68400 78900 66200 4
C 78800 65900 1 0 0 dgnd.sym
C 85600 65900 1 0 0 dgnd.sym
N 85700 68400 85700 66200 4
C 83300 64900 1 0 0 dgnd.sym
C 90500 70400 1 0 0 dgnd.sym
N 91900 71800 92500 71800 4
C 91000 75900 1 0 0 inductor.sym
{
T 91200 76600 5 10 0 0 0 0 1
device=INDUCTOR
T 91400 76150 5 10 1 1 0 6 1
refdes=L1622
T 91600 76146 5 10 1 1 0 0 1
value=1u
T 91400 75881 5 10 1 1 0 5 1
footprint=1210
}
C 92300 76000 1 0 0 dvcc.sym
{
T 92550 76320 5 10 1 1 0 3 1
net=VCCO_3P3:1
}
N 85700 76000 91000 76000 4
N 89500 75100 89500 74900 4
N 90600 75100 90600 74900 4
N 90600 74900 89500 74900 4
C 90500 74600 1 0 0 dgnd.sym
N 91900 76000 92500 76000 4
C 90800 75100 1 90 0 capacitor.sym
{
T 90100 75400 5 10 0 0 90 0 1
device=CAPACITOR
T 90500 75700 5 10 1 1 180 2 1
refdes=C1622
T 90500 75400 5 10 1 1 180 0 1
value=47u
T 90800 75000 5 10 1 1 90 0 1
footprint=1210
}
C 89700 75100 1 90 0 capacitor.sym
{
T 89000 75400 5 10 0 0 90 0 1
device=CAPACITOR
T 89400 75700 5 10 1 1 180 2 1
refdes=C1623
T 89400 75400 5 10 1 1 180 0 1
value=0.1u
T 89700 75000 5 10 1 1 90 0 1
footprint=0603
}
C 89700 70900 1 90 0 capacitor.sym
{
T 89000 71200 5 10 0 0 90 0 1
device=CAPACITOR
T 89400 71500 5 10 1 1 180 2 1
refdes=C1625
T 89400 71200 5 10 1 1 180 0 1
value=0.1u
T 89700 70800 5 10 1 1 90 0 1
footprint=0603
}
C 90800 70900 1 90 0 capacitor.sym
{
T 90100 71200 5 10 0 0 90 0 1
device=CAPACITOR
T 90500 71500 5 10 1 1 180 2 1
refdes=C1624
T 90500 71200 5 10 1 1 180 0 1
value=47u
T 90800 70800 5 10 1 1 90 0 1
footprint=1210
}
C 91000 80300 1 0 0 inductor.sym
{
T 91200 81000 5 10 0 0 0 0 1
device=INDUCTOR
T 91400 80550 5 10 1 1 0 6 1
refdes=L1620
T 91600 80546 5 10 1 1 0 0 1
value=1u
T 91400 80281 5 10 1 1 0 5 1
footprint=1210
}
C 92300 80400 1 0 0 dvcc.sym
{
T 92550 80720 5 10 1 1 0 3 1
net=VCCO_3P3:1
}
N 85700 80400 91000 80400 4
N 89500 79500 89500 79300 4
N 90600 79500 90600 79300 4
N 90600 79300 89500 79300 4
C 90500 79000 1 0 0 dgnd.sym
N 91900 80400 92500 80400 4
C 90800 79500 1 90 0 capacitor.sym
{
T 90100 79800 5 10 0 0 90 0 1
device=CAPACITOR
T 90500 80100 5 10 1 1 180 2 1
refdes=C1620
T 90500 79800 5 10 1 1 180 0 1
value=47u
T 90800 79400 5 10 1 1 90 0 1
footprint=1210
}
C 89700 79500 1 90 0 capacitor.sym
{
T 89000 79800 5 10 0 0 90 0 1
device=CAPACITOR
T 89400 80100 5 10 1 1 180 2 1
refdes=C1621
T 89400 79800 5 10 1 1 180 0 1
value=0.1u
T 89700 79400 5 10 1 1 90 0 1
footprint=0603
}
N 76800 79600 78900 79600 4
{
T 77100 79650 5 10 1 1 0 0 1
netname=qsfp1_rx1_i_p
}
N 76800 79200 78900 79200 4
{
T 77100 79250 5 10 1 1 0 0 1
netname=qsfp1_rx1_i_n
}
N 76800 78800 78900 78800 4
{
T 77100 78850 5 10 1 1 0 0 1
netname=qsfp1_rx2_i_p
}
N 76800 78400 78900 78400 4
{
T 77100 78450 5 10 1 1 0 0 1
netname=qsfp1_rx2_i_n
}
N 76800 78000 78900 78000 4
{
T 77100 78050 5 10 1 1 0 0 1
netname=qsfp1_rx3_i_p
}
N 76800 77600 78900 77600 4
{
T 77100 77650 5 10 1 1 0 0 1
netname=qsfp1_rx3_i_n
}
N 76800 77200 78900 77200 4
{
T 77100 77250 5 10 1 1 0 0 1
netname=qsfp1_rx4_i_p
}
N 76800 76800 78900 76800 4
{
T 77100 76850 5 10 1 1 0 0 1
netname=qsfp1_rx4_i_n
}
N 65300 87200 67400 87200 4
{
T 65600 87250 5 10 1 1 0 0 1
netname=qsfp1_rx1_i_p
}
N 65300 87000 67400 87000 4
{
T 65600 87050 5 10 1 1 0 0 1
netname=qsfp1_rx1_i_n
}
N 65300 86600 67400 86600 4
{
T 65600 86650 5 10 1 1 0 0 1
netname=qsfp1_rx2_i_p
}
N 65300 86400 67400 86400 4
{
T 65600 86450 5 10 1 1 0 0 1
netname=qsfp1_rx2_i_n
}
N 65300 86000 67400 86000 4
{
T 65600 86050 5 10 1 1 0 0 1
netname=qsfp1_rx3_i_p
}
N 65300 85800 67400 85800 4
{
T 65600 85850 5 10 1 1 0 0 1
netname=qsfp1_rx3_i_n
}
N 65300 85400 67400 85400 4
{
T 65600 85450 5 10 1 1 0 0 1
netname=qsfp1_rx4_i_p
}
N 65300 85200 67400 85200 4
{
T 65600 85250 5 10 1 1 0 0 1
netname=qsfp1_rx4_i_n
}
N 76800 75200 78900 75200 4
{
T 77100 75250 5 10 1 1 0 0 1
netname=qsfp1_tx1_o_p
}
N 76800 74800 78900 74800 4
{
T 77100 74850 5 10 1 1 0 0 1
netname=qsfp1_tx1_o_n
}
N 76800 74400 78900 74400 4
{
T 77100 74450 5 10 1 1 0 0 1
netname=qsfp1_tx2_o_p
}
N 76800 74000 78900 74000 4
{
T 77100 74050 5 10 1 1 0 0 1
netname=qsfp1_tx2_o_n
}
N 76800 73600 78900 73600 4
{
T 77100 73650 5 10 1 1 0 0 1
netname=qsfp1_tx3_o_p
}
N 76800 73200 78900 73200 4
{
T 77100 73250 5 10 1 1 0 0 1
netname=qsfp1_tx3_o_n
}
N 76800 72800 78900 72800 4
{
T 77100 72850 5 10 1 1 0 0 1
netname=qsfp1_tx4_o_p
}
N 76800 72400 78900 72400 4
{
T 77100 72450 5 10 1 1 0 0 1
netname=qsfp1_tx4_o_n
}
N 74200 86600 76300 86600 4
{
T 74500 86650 5 10 1 1 0 0 1
netname=qsfp1_tx1_o_p
}
N 74200 86400 76300 86400 4
{
T 74500 86450 5 10 1 1 0 0 1
netname=qsfp1_tx1_o_n
}
N 74200 87200 76300 87200 4
{
T 74500 87250 5 10 1 1 0 0 1
netname=qsfp1_tx2_o_p
}
N 74200 87000 76300 87000 4
{
T 74500 87050 5 10 1 1 0 0 1
netname=qsfp1_tx2_o_n
}
N 74200 85400 76300 85400 4
{
T 74500 85450 5 10 1 1 0 0 1
netname=qsfp1_tx3_o_p
}
N 74200 85200 76300 85200 4
{
T 74500 85250 5 10 1 1 0 0 1
netname=qsfp1_tx3_o_n
}
N 74200 86000 76300 86000 4
{
T 74500 86050 5 10 1 1 0 0 1
netname=qsfp1_tx4_o_p
}
N 74200 85800 76300 85800 4
{
T 74500 85850 5 10 1 1 0 0 1
netname=qsfp1_tx4_o_n
}
N 85700 79600 87800 79600 4
{
T 86000 79650 5 10 1 1 0 0 1
netname=qsfp2_rx1_i_p
}
N 85700 79200 87800 79200 4
{
T 86000 79250 5 10 1 1 0 0 1
netname=qsfp2_rx1_i_n
}
N 85700 78800 87800 78800 4
{
T 86000 78850 5 10 1 1 0 0 1
netname=qsfp2_rx2_i_p
}
N 85700 78400 87800 78400 4
{
T 86000 78450 5 10 1 1 0 0 1
netname=qsfp2_rx2_i_n
}
N 85700 78000 87800 78000 4
{
T 86000 78050 5 10 1 1 0 0 1
netname=qsfp2_rx3_i_p
}
N 85700 77600 87800 77600 4
{
T 86000 77650 5 10 1 1 0 0 1
netname=qsfp2_rx3_i_n
}
N 85700 77200 87800 77200 4
{
T 86000 77250 5 10 1 1 0 0 1
netname=qsfp2_rx4_i_p
}
N 85700 76800 87800 76800 4
{
T 86000 76850 5 10 1 1 0 0 1
netname=qsfp2_rx4_i_n
}
N 68200 62100 70300 62100 4
{
T 68500 62150 5 10 1 1 0 0 1
netname=qsfp2_rx1_i_p
}
N 68200 61900 70300 61900 4
{
T 68500 61950 5 10 1 1 0 0 1
netname=qsfp2_rx1_i_n
}
N 68200 61500 70300 61500 4
{
T 68500 61550 5 10 1 1 0 0 1
netname=qsfp2_rx2_i_p
}
N 68200 61300 70300 61300 4
{
T 68500 61350 5 10 1 1 0 0 1
netname=qsfp2_rx2_i_n
}
N 68200 60900 70300 60900 4
{
T 68500 60950 5 10 1 1 0 0 1
netname=qsfp2_rx3_i_p
}
N 68200 60700 70300 60700 4
{
T 68500 60750 5 10 1 1 0 0 1
netname=qsfp2_rx3_i_n
}
N 68200 60300 70300 60300 4
{
T 68500 60350 5 10 1 1 0 0 1
netname=qsfp2_rx4_i_p
}
N 68200 60100 70300 60100 4
{
T 68500 60150 5 10 1 1 0 0 1
netname=qsfp2_rx4_i_n
}
N 85700 75200 87800 75200 4
{
T 86000 75250 5 10 1 1 0 0 1
netname=qsfp2_tx1_o_p
}
N 85700 74800 87800 74800 4
{
T 86000 74850 5 10 1 1 0 0 1
netname=qsfp2_tx1_o_n
}
N 85700 74400 87800 74400 4
{
T 86000 74450 5 10 1 1 0 0 1
netname=qsfp2_tx2_o_p
}
N 85700 74000 87800 74000 4
{
T 86000 74050 5 10 1 1 0 0 1
netname=qsfp2_tx2_o_n
}
N 85700 73600 87800 73600 4
{
T 86000 73650 5 10 1 1 0 0 1
netname=qsfp2_tx3_o_p
}
N 85700 73200 87800 73200 4
{
T 86000 73250 5 10 1 1 0 0 1
netname=qsfp2_tx3_o_n
}
N 85700 72800 87800 72800 4
{
T 86000 72850 5 10 1 1 0 0 1
netname=qsfp2_tx4_o_p
}
N 85700 72400 87800 72400 4
{
T 86000 72450 5 10 1 1 0 0 1
netname=qsfp2_tx4_o_n
}
N 77100 61500 79200 61500 4
{
T 77400 61550 5 10 1 1 0 0 1
netname=qsfp2_tx1_o_p
}
N 77100 61300 79200 61300 4
{
T 77400 61350 5 10 1 1 0 0 1
netname=qsfp2_tx1_o_n
}
N 77100 62100 79200 62100 4
{
T 77400 62150 5 10 1 1 0 0 1
netname=qsfp2_tx2_o_p
}
N 77100 61900 79200 61900 4
{
T 77400 61950 5 10 1 1 0 0 1
netname=qsfp2_tx2_o_n
}
N 77100 60300 79200 60300 4
{
T 77400 60350 5 10 1 1 0 0 1
netname=qsfp2_tx3_o_p
}
N 77100 60100 79200 60100 4
{
T 77400 60150 5 10 1 1 0 0 1
netname=qsfp2_tx3_o_n
}
N 77100 60900 79200 60900 4
{
T 77400 60950 5 10 1 1 0 0 1
netname=qsfp2_tx4_o_p
}
N 77100 60700 79200 60700 4
{
T 77400 60750 5 10 1 1 0 0 1
netname=qsfp2_tx4_o_n
}
N 76800 70200 78900 70200 4
{
T 77100 70250 5 10 1 1 0 0 1
netname=qsfp1_cs_o
}
N 76800 69800 78900 69800 4
{
T 77100 69850 5 10 1 1 0 0 1
netname=qsfp1_reset_o
}
N 76800 69000 78900 69000 4
{
T 77100 69050 5 10 1 1 0 0 1
netname=qsfp1_mode_o
}
N 76800 71200 78900 71200 4
{
T 77100 71250 5 10 1 1 0 0 1
netname=qsfp1_present_i
}
N 76800 69400 78900 69400 4
{
T 77100 69450 5 10 1 1 0 0 1
netname=qsfp1_interrupt_i
}
N 76800 70800 78900 70800 4
{
T 77100 70850 5 10 1 1 0 0 1
netname=qsfp1_scl_o
}
N 76800 70600 78900 70600 4
{
T 77100 70650 5 10 1 1 0 0 1
netname=qsfp1_sda_io
}
C 76800 71100 1 0 1 output-1.sym
{
T 76300 71200 5 10 1 1 0 4 1
value=11
}
C 76000 70700 1 0 0 input-1.sym
{
T 76300 70800 5 10 1 1 0 4 1
value=11
}
C 76000 70500 1 0 0 input-1.sym
{
T 76300 70600 5 10 1 1 0 4 1
value=11
}
C 76000 70100 1 0 0 input-1.sym
{
T 76300 70200 5 10 1 1 0 4 1
value=11
}
C 76000 69700 1 0 0 input-1.sym
{
T 76300 69800 5 10 1 1 0 4 1
value=11
}
C 76800 69300 1 0 1 output-1.sym
{
T 76300 69400 5 10 1 1 0 4 1
value=11
}
C 76000 68900 1 0 0 input-1.sym
{
T 76300 69000 5 10 1 1 0 4 1
value=11
}
N 86700 86300 93200 86300 4
{
T 91400 86350 5 10 1 1 0 0 1
netname=qsfp1_present_i
}
C 91600 86600 1 90 0 resistor.sym
{
T 91200 86900 5 10 0 0 90 0 1
device=RESISTOR
T 91200 87300 5 10 1 1 180 0 1
refdes=R1613
T 91200 86900 5 10 1 1 180 0 1
value=4.7K
T 91600 86900 5 10 1 1 90 0 1
footprint=0603
}
C 91100 87500 1 0 0 dvcc.sym
{
T 91350 87820 5 10 1 1 0 3 1
net=VCCO_3P3:1
}
N 86700 85900 93200 85900 4
{
T 91400 85950 5 10 1 1 0 0 1
netname=qsfp1_scl_o
}
C 90600 86600 1 90 0 resistor.sym
{
T 90200 86900 5 10 0 0 90 0 1
device=RESISTOR
T 90200 87300 5 10 1 1 180 0 1
refdes=R1612
T 90200 86900 5 10 1 1 180 0 1
value=4.7K
T 90600 86900 5 10 1 1 90 0 1
footprint=0603
}
N 91300 87500 88300 87500 4
N 91300 86600 91300 86300 4
N 90300 86600 90300 85900 4
N 86700 85500 93200 85500 4
{
T 91400 85550 5 10 1 1 0 0 1
netname=qsfp1_sda_io
}
C 89600 86600 1 90 0 resistor.sym
{
T 89200 86900 5 10 0 0 90 0 1
device=RESISTOR
T 89200 87300 5 10 1 1 180 0 1
refdes=R1611
T 89200 86900 5 10 1 1 180 0 1
value=4.7K
T 89600 86900 5 10 1 1 90 0 1
footprint=0603
}
N 89300 86600 89300 85500 4
N 86700 85100 93200 85100 4
{
T 91400 85150 5 10 1 1 0 0 1
netname=qsfp1_interrupt_i
}
C 88600 86600 1 90 0 resistor.sym
{
T 88200 86900 5 10 0 0 90 0 1
device=RESISTOR
T 88200 87300 5 10 1 1 180 0 1
refdes=R1610
T 88200 86900 5 10 1 1 180 0 1
value=4.7K
T 88600 86900 5 10 1 1 90 0 1
footprint=0603
}
N 88300 86600 88300 85100 4
N 87100 66600 93600 66600 4
{
T 91800 66650 5 10 1 1 0 0 1
netname=qsfp2_present_i
}
C 92000 66900 1 90 0 resistor.sym
{
T 91600 67200 5 10 0 0 90 0 1
device=RESISTOR
T 91600 67600 5 10 1 1 180 0 1
refdes=R1623
T 91600 67200 5 10 1 1 180 0 1
value=4.7K
T 92000 67200 5 10 1 1 90 0 1
footprint=0603
}
C 91500 67800 1 0 0 dvcc.sym
{
T 91750 68120 5 10 1 1 0 3 1
net=VCCO_3P3:1
}
N 87100 66200 93600 66200 4
{
T 91800 66250 5 10 1 1 0 0 1
netname=qsfp2_scl_o
}
C 91000 66900 1 90 0 resistor.sym
{
T 90600 67200 5 10 0 0 90 0 1
device=RESISTOR
T 90600 67600 5 10 1 1 180 0 1
refdes=R1622
T 90600 67200 5 10 1 1 180 0 1
value=4.7K
T 91000 67200 5 10 1 1 90 0 1
footprint=0603
}
N 91700 67800 88700 67800 4
N 91700 66900 91700 66600 4
N 90700 66900 90700 66200 4
N 87100 65800 93600 65800 4
{
T 91800 65850 5 10 1 1 0 0 1
netname=qsfp2_sda_io
}
C 90000 66900 1 90 0 resistor.sym
{
T 89600 67200 5 10 0 0 90 0 1
device=RESISTOR
T 89600 67600 5 10 1 1 180 0 1
refdes=R1621
T 89600 67200 5 10 1 1 180 0 1
value=4.7K
T 90000 67200 5 10 1 1 90 0 1
footprint=0603
}
N 89700 66900 89700 65800 4
N 87100 65400 93600 65400 4
{
T 91800 65450 5 10 1 1 0 0 1
netname=qsfp2_interrupt_i
}
C 89000 66900 1 90 0 resistor.sym
{
T 88600 67200 5 10 0 0 90 0 1
device=RESISTOR
T 88600 67600 5 10 1 1 180 0 1
refdes=R1620
T 88600 67200 5 10 1 1 180 0 1
value=4.7K
T 89000 67200 5 10 1 1 90 0 1
footprint=0603
}
N 88700 66900 88700 65400 4
N 85700 70200 87800 70200 4
{
T 86000 70250 5 10 1 1 0 0 1
netname=qsfp2_cs_o
}
N 85700 69800 87800 69800 4
{
T 86000 69850 5 10 1 1 0 0 1
netname=qsfp2_reset_o
}
N 85700 69000 87800 69000 4
{
T 86000 69050 5 10 1 1 0 0 1
netname=qsfp2_mode_o
}
N 85700 71200 87800 71200 4
{
T 86000 71250 5 10 1 1 0 0 1
netname=qsfp2_present_i
}
N 85700 69400 87800 69400 4
{
T 86000 69450 5 10 1 1 0 0 1
netname=qsfp2_interrupt_i
}
N 85700 70800 87800 70800 4
{
T 86000 70850 5 10 1 1 0 0 1
netname=qsfp2_scl_o
}
N 85700 70600 87800 70600 4
{
T 86000 70650 5 10 1 1 0 0 1
netname=qsfp2_sda_io
}
C 87800 71100 1 0 0 output-1.sym
{
T 88300 71200 5 10 1 1 0 4 1
value=11
}
C 88600 70700 1 0 1 input-1.sym
{
T 88300 70800 5 10 1 1 0 4 1
value=11
}
C 88600 70500 1 0 1 input-1.sym
{
T 88300 70600 5 10 1 1 0 4 1
value=11
}
C 88600 70100 1 0 1 input-1.sym
{
T 88300 70200 5 10 1 1 0 4 1
value=11
}
C 88600 69700 1 0 1 input-1.sym
{
T 88300 69800 5 10 1 1 0 4 1
value=11
}
C 87800 69300 1 0 0 output-1.sym
{
T 88300 69400 5 10 1 1 0 4 1
value=11
}
C 88600 68900 1 0 1 input-1.sym
{
T 88300 69000 5 10 1 1 0 4 1
value=11
}
N 65300 84800 67400 84800 4
{
T 65600 84850 5 10 1 1 0 0 1
netname=qsfp1_clk_i_p
}
N 65300 84600 67400 84600 4
{
T 65600 84650 5 10 1 1 0 0 1
netname=qsfp1_clk_i_n
}
C 61100 74000 1 0 0 clock_gen-CDCM61001.sym
{
T 62600 78650 5 16 1 1 0 4 1
device=CDCM61001
T 63900 78600 5 10 1 1 0 0 1
refdes=U1630
T 63900 78400 5 10 1 1 0 0 1
footprint=QFN32_EP.fp
}
C 56100 74300 1 0 0 crystal.sym
{
T 55900 75700 5 10 1 1 0 0 1
device=ECS-250-8-30B-CKM
T 56800 75400 5 10 1 1 0 0 1
refdes=Y1630
T 56595 74500 5 10 1 1 0 5 1
footprint=ECX30B.fp
T 56795 74700 5 10 1 1 0 8 1
value=25MHz
}
C 56000 73800 1 0 0 dgnd.sym
N 56100 75400 56100 74100 4
N 57100 74600 57100 74100 4
N 56100 74100 57800 74100 4
C 58000 74100 1 90 0 capacitor.sym
{
T 57300 74400 5 10 0 0 90 0 1
device=CAPACITOR
T 57700 74700 5 10 1 1 180 2 1
refdes=C1630
T 57700 74400 5 10 1 1 180 0 1
value=22p
T 58000 74000 5 10 1 1 90 0 1
footprint=0603
}
N 57100 75000 61100 75000 4
C 58000 81800 1 0 0 ferrite_bead.sym
{
T 58200 82700 5 10 0 0 0 0 1
device=INDUCTOR
T 58200 82546 5 10 0 0 0 0 1
value=0 H
T 58200 82200 5 10 1 1 0 0 1
refdes=L1630
T 58400 81781 5 10 1 1 0 3 1
footprint=0603
}
N 61600 80000 59600 80000 4
C 59400 80000 1 0 0 dvcc.sym
{
T 59650 80320 5 10 1 1 0 3 1
net=VCCO_3P3:1
}
C 57800 82100 1 0 0 dvcc.sym
{
T 58050 82420 5 10 1 1 0 3 1
net=VCCO_3P3:1
}
N 58900 82100 63000 82100 4
N 63000 82100 63000 80000 4
N 63000 80000 62200 80000 4
C 65900 80000 1 0 0 dvcc.sym
{
T 66150 80320 5 10 1 1 0 3 1
net=VCCO_3P3:1
}
N 63600 80000 66100 80000 4
C 59800 81200 1 90 0 capacitor.sym
{
T 59100 81500 5 10 0 0 90 0 1
device=CAPACITOR
T 59500 81800 5 10 1 1 180 2 1
refdes=C1631
T 59500 81500 5 10 1 1 180 0 1
value=10u
T 59800 81100 5 10 1 1 90 0 1
footprint=0603
}
C 60700 81200 1 90 0 capacitor.sym
{
T 60000 81500 5 10 0 0 90 0 1
device=CAPACITOR
T 60400 81800 5 10 1 1 180 2 1
refdes=C1632
T 60400 81500 5 10 1 1 180 0 1
value=0.1u
T 60700 81100 5 10 1 1 90 0 1
footprint=0603
}
C 61600 81200 1 90 0 capacitor.sym
{
T 60900 81500 5 10 0 0 90 0 1
device=CAPACITOR
T 61300 81800 5 10 1 1 180 2 1
refdes=C1633
T 61300 81500 5 10 1 1 180 0 1
value=0.1u
T 61600 81100 5 10 1 1 90 0 1
footprint=0603
}
C 62500 81200 1 90 0 capacitor.sym
{
T 61800 81500 5 10 0 0 90 0 1
device=CAPACITOR
T 62200 81800 5 10 1 1 180 2 1
refdes=C1634
T 62200 81500 5 10 1 1 180 0 1
value=0.1u
T 62500 81100 5 10 1 1 90 0 1
footprint=0603
}
C 62500 73700 1 0 0 dgnd.sym
C 62900 73700 1 0 0 dgnd.sym
N 62300 81200 62300 81000 4
N 62300 81000 59600 81000 4
N 59600 81000 59600 81200 4
N 60500 81200 60500 81000 4
N 61400 81200 61400 81000 4
C 59500 80700 1 0 0 dgnd.sym
C 59800 79100 1 90 0 capacitor.sym
{
T 59100 79400 5 10 0 0 90 0 1
device=CAPACITOR
T 59500 79700 5 10 1 1 180 2 1
refdes=C1635
T 59500 79400 5 10 1 1 180 0 1
value=10u
T 59800 79000 5 10 1 1 90 0 1
footprint=0603
}
C 60700 79100 1 90 0 capacitor.sym
{
T 60000 79400 5 10 0 0 90 0 1
device=CAPACITOR
T 60400 79700 5 10 1 1 180 2 1
refdes=C1636
T 60400 79400 5 10 1 1 180 0 1
value=0.1u
T 60700 79000 5 10 1 1 90 0 1
footprint=0603
}
N 59600 79100 59600 78900 4
N 59600 78900 60500 78900 4
N 60500 78900 60500 79100 4
C 59500 78600 1 0 0 dgnd.sym
C 66300 79100 1 90 0 capacitor.sym
{
T 65600 79400 5 10 0 0 90 0 1
device=CAPACITOR
T 66000 79700 5 10 1 1 180 2 1
refdes=C1637
T 66000 79400 5 10 1 1 180 0 1
value=10u
T 66300 79000 5 10 1 1 90 0 1
footprint=0603
}
C 65400 79100 1 90 0 capacitor.sym
{
T 64700 79400 5 10 0 0 90 0 1
device=CAPACITOR
T 65100 79700 5 10 1 1 180 2 1
refdes=C1638
T 65100 79400 5 10 1 1 180 0 1
value=0.1u
T 65400 79000 5 10 1 1 90 0 1
footprint=0603
}
N 65200 78900 66100 78900 4
N 65200 79100 65200 78900 4
N 66100 78900 66100 79100 4
C 66000 78600 1 0 0 dgnd.sym
C 65100 74100 1 90 0 capacitor.sym
{
T 64400 74400 5 10 0 0 90 0 1
device=CAPACITOR
T 64800 74700 5 10 1 1 180 2 1
refdes=C1639
T 64800 74400 5 10 1 1 180 0 1
value=10u
T 65100 74000 5 10 1 1 90 0 1
footprint=0603
}
C 64800 73800 1 0 0 dgnd.sym
N 64100 75000 64900 75000 4
C 66100 74500 1 90 0 capacitor.sym
{
T 65400 74800 5 10 0 0 90 0 1
device=CAPACITOR
T 65800 75100 5 10 1 1 180 2 1
refdes=C1640
T 65800 74800 5 10 1 1 180 0 1
value=10u
T 66100 74400 5 10 1 1 90 0 1
footprint=0603
}
C 65800 74200 1 0 0 dgnd.sym
N 64100 75400 65900 75400 4
N 59000 77800 61100 77800 4
{
T 59200 77850 5 10 1 1 0 0 1
netname=QSFP1_CLK_OS0
}
N 59000 77600 61100 77600 4
{
T 59200 77650 5 10 1 1 0 0 1
netname=QSFP1_CLK_OS1
}
N 59000 77200 61100 77200 4
{
T 59200 77250 5 10 1 1 0 0 1
netname=QSFP1_CLK_OD0
}
N 59000 77000 61100 77000 4
{
T 59200 77050 5 10 1 1 0 0 1
netname=QSFP1_CLK_OD1
}
N 59000 76800 61100 76800 4
{
T 59200 76850 5 10 1 1 0 0 1
netname=QSFP1_CLK_OD2
}
N 59000 76400 61100 76400 4
{
T 59200 76450 5 10 1 1 0 0 1
netname=QSFP1_CLK_PR0
}
N 59000 76200 61100 76200 4
{
T 59200 76250 5 10 1 1 0 0 1
netname=QSFP1_CLK_PR1
}
C 57200 82000 1 0 0 input-1.sym
{
T 57500 82100 5 10 1 1 0 4 1
value=13
}
C 58800 79900 1 0 0 input-1.sym
{
T 59100 80000 5 10 1 1 0 4 1
value=13
}
C 66900 79900 1 0 1 input-1.sym
{
T 66600 80000 5 10 1 1 0 4 1
value=13
}
C 64600 76700 1 0 1 nc-left-1.sym
{
T 64600 77100 5 10 0 0 0 6 1
value=NoConnection
T 64600 77500 5 10 0 0 0 6 1
device=DRC_Directive
}
N 59500 88200 61700 88200 4
{
T 59800 88250 5 10 1 1 0 0 1
netname=QSFP1_CLK_OS0
}
N 59500 87300 61700 87300 4
{
T 59800 87350 5 10 1 1 0 0 1
netname=QSFP1_CLK_OS1
}
N 54700 85500 56800 85500 4
{
T 54900 85550 5 10 1 1 0 0 1
netname=QSFP1_CLK_OD0
}
N 54700 84600 56800 84600 4
{
T 54900 84650 5 10 1 1 0 0 1
netname=QSFP1_CLK_OD1
}
N 54700 83700 56800 83700 4
{
T 54900 83750 5 10 1 1 0 0 1
netname=QSFP1_CLK_OD2
}
N 54700 88200 56800 88200 4
{
T 54900 88250 5 10 1 1 0 0 1
netname=QSFP1_CLK_PR0
}
N 54700 87300 56800 87300 4
{
T 54900 87350 5 10 1 1 0 0 1
netname=QSFP1_CLK_PR1
}
C 61600 87700 1 0 0 resistor_switch.sym
{
T 62000 88300 5 10 0 0 0 0 1
device=RESISTOR
T 62100 88400 5 10 1 1 0 6 1
refdes=R1630
T 62300 88400 5 10 1 1 0 0 1
value=10.0K
T 62200 87800 5 10 1 1 0 4 1
footprint=1_5_0603.fp
}
C 61600 86800 1 0 0 resistor_switch.sym
{
T 62000 87400 5 10 0 0 0 0 1
device=RESISTOR
T 62100 87500 5 10 1 1 0 6 1
refdes=R1631
T 62300 87500 5 10 1 1 0 0 1
value=10.0K
T 62200 86900 5 10 1 1 0 4 1
footprint=1_5_0603.fp
}
C 56700 85000 1 0 0 resistor_switch.sym
{
T 57100 85600 5 10 0 0 0 0 1
device=RESISTOR
T 57200 85700 5 10 1 1 0 6 1
refdes=R1632
T 57400 85700 5 10 1 1 0 0 1
value=10.0K
T 57300 85100 5 10 1 1 0 4 1
footprint=1_5_0603.fp
}
C 56700 84100 1 0 0 resistor_switch.sym
{
T 57100 84700 5 10 0 0 0 0 1
device=RESISTOR
T 57200 84800 5 10 1 1 0 6 1
refdes=R1633
T 57400 84800 5 10 1 1 0 0 1
value=10.0K
T 57300 84200 5 10 1 1 0 4 1
footprint=1_5_0603.fp
}
C 56700 83200 1 0 0 resistor_switch.sym
{
T 57100 83800 5 10 0 0 0 0 1
device=RESISTOR
T 57200 83900 5 10 1 1 0 6 1
refdes=R1634
T 57400 83900 5 10 1 1 0 0 1
value=10.0K
T 57300 83300 5 10 1 1 0 4 1
footprint=1_5_0603.fp
}
C 56700 87700 1 0 0 resistor_switch.sym
{
T 57100 88300 5 10 0 0 0 0 1
device=RESISTOR
T 57200 88400 5 10 1 1 0 6 1
refdes=R1635
T 57400 88400 5 10 1 1 0 0 1
value=10.0K
T 57300 87800 5 10 1 1 0 4 1
footprint=1_5_0603.fp
}
C 56700 86800 1 0 0 resistor_switch.sym
{
T 57100 87400 5 10 0 0 0 0 1
device=RESISTOR
T 57200 87500 5 10 1 1 0 6 1
refdes=R1636
T 57400 87500 5 10 1 1 0 0 1
value=10.0K
T 57300 86900 5 10 1 1 0 4 1
footprint=1_5_0603.fp
}
C 61600 85000 1 0 0 resistor_switch.sym
{
T 62000 85600 5 10 0 0 0 0 1
device=RESISTOR
T 62100 85700 5 10 1 1 0 6 1
refdes=R1637
T 62300 85700 5 10 1 1 0 0 1
value=10.0K
T 62200 85100 5 10 1 1 0 4 1
footprint=1_5_0603.fp
}
C 61600 84100 1 0 0 resistor_switch.sym
{
T 62000 84700 5 10 0 0 0 0 1
device=RESISTOR
T 62100 84800 5 10 1 1 0 6 1
refdes=R1638
T 62300 84800 5 10 1 1 0 0 1
value=DNP
T 62200 84200 5 10 1 1 0 4 1
footprint=1_5_0603.fp
}
C 62700 88600 1 0 0 dvcc.sym
{
T 62950 88920 5 10 1 1 0 3 1
net=VCCO_3P3:1
}
C 63300 86800 1 0 0 dgnd.sym
C 58400 83200 1 0 0 dgnd.sym
C 57800 85900 1 0 0 dvcc.sym
{
T 58050 86220 5 10 1 1 0 3 1
net=VCCO_3P3:1
}
C 57800 88600 1 0 0 dvcc.sym
{
T 58050 88920 5 10 1 1 0 3 1
net=VCCO_3P3:1
}
C 62700 85900 1 0 0 dvcc.sym
{
T 62950 86220 5 10 1 1 0 3 1
net=VCCO_3P3:1
}
C 58400 86700 1 0 0 dgnd.sym
C 63300 84100 1 0 0 dgnd.sym
N 62900 84600 62900 85900 4
N 62900 85500 62600 85500 4
N 62600 84600 62900 84600 4
N 62600 85300 63400 85300 4
N 63400 85300 63400 84400 4
N 62600 84400 63400 84400 4
N 62600 87300 63400 87300 4
N 63400 87100 63400 88000 4
N 62600 88200 62900 88200 4
N 62900 87100 62900 88600 4
N 62600 87100 62900 87100 4
N 62600 88000 63400 88000 4
C 61300 83700 1 90 0 capacitor.sym
{
T 60600 84000 5 10 0 0 90 0 1
device=CAPACITOR
T 61000 84300 5 10 1 1 180 2 1
refdes=C1643
T 61000 84000 5 10 1 1 180 0 1
value=47n
T 61300 83600 5 10 1 1 90 0 1
footprint=0603
}
C 61000 83400 1 0 0 dgnd.sym
N 57700 88200 58500 88200 4
N 58500 88200 58500 87000 4
N 57700 87300 58500 87300 4
N 58000 87100 58000 88600 4
N 58000 88000 57700 88000 4
N 58000 87100 57700 87100 4
N 57700 85500 58000 85500 4
N 58000 83700 58000 85900 4
N 57700 84600 58500 84600 4
N 58500 83500 58500 85300 4
N 57700 83700 58000 83700 4
N 57700 85300 58500 85300 4
N 57700 84400 58000 84400 4
N 57700 83500 58500 83500 4
T 60100 88800 9 10 1 0 0 0 1
LVDS output, Osc Out Off
T 60200 86100 9 10 1 0 0 0 1
Normal Operation
T 55000 88900 9 10 1 0 0 0 2
Prescale Divider: 3
Feedback Divider: 24
T 55200 86200 9 10 1 0 0 0 1
Output Divider: 6
T 57900 89600 9 10 1 0 0 0 1
Resulting System clock is 100MHz
C 70600 75900 1 0 0 input-1.sym
{
T 70900 76000 5 10 1 1 0 4 1
value=13
}
C 70600 71700 1 0 0 input-1.sym
{
T 70900 71800 5 10 1 1 0 4 1
value=13
}
C 70600 80300 1 0 0 input-1.sym
{
T 70900 80400 5 10 1 1 0 4 1
value=13
}
C 93300 80300 1 0 1 input-1.sym
{
T 93000 80400 5 10 1 1 0 4 1
value=13
}
C 93300 75900 1 0 1 input-1.sym
{
T 93000 76000 5 10 1 1 0 4 1
value=13
}
C 93300 71700 1 0 1 input-1.sym
{
T 93000 71800 5 10 1 1 0 4 1
value=13
}
N 67300 77400 68800 77400 4
{
T 67600 77450 5 10 1 1 0 0 1
netname=qsfp1_clk_i_n
}
N 67300 78000 68800 78000 4
{
T 67600 78050 5 10 1 1 0 0 1
netname=qsfp1_clk_i_p
}
C 66400 77800 1 0 0 capacitor.sym
{
T 66700 78500 5 10 0 0 0 0 1
device=CAPACITOR
T 66700 78100 5 10 1 1 180 2 1
refdes=C1641
T 67000 78100 5 10 1 1 0 0 1
value=0.1u
T 67000 77800 5 10 1 1 0 0 1
footprint=0603
}
C 66400 77200 1 0 0 capacitor.sym
{
T 66700 77900 5 10 0 0 0 0 1
device=CAPACITOR
T 66700 77500 5 10 1 1 180 2 1
refdes=C1642
T 67000 77500 5 10 1 1 0 0 1
value=0.1u
T 67000 77200 5 10 1 1 0 0 1
footprint=0603
}
N 64100 77800 65800 77800 4
{
T 64400 77850 5 10 1 1 0 0 1
netname=QSFP1_CLK_P
}
N 64100 77600 65800 77600 4
{
T 64400 77650 5 10 1 1 0 0 1
netname=QSFP1_CLK_N
}
N 65800 77800 65800 78000 4
N 65800 78000 66400 78000 4
N 65800 77600 65800 77400 4
N 65800 77400 66400 77400 4
N 58900 75400 61100 75400 4
{
T 58900 75450 5 10 1 1 0 0 1
netname=pow_qsfp1_clkresetn_o
}
N 58900 75800 61100 75800 4
{
T 58900 75850 5 10 1 1 0 0 1
netname=pow_qsfp1_clken_o
}
C 58100 75700 1 0 0 input-1.sym
{
T 58400 75800 5 10 1 1 0 4 1
value=14
}
C 58100 75300 1 0 0 input-1.sym
{
T 58400 75400 5 10 1 1 0 4 1
value=14
}
N 59500 85500 61700 85500 4
{
T 59600 85550 5 10 1 1 0 0 1
netname=pow_qsfp1_clken_o
}
N 59500 84600 61700 84600 4
{
T 59600 84650 5 10 1 1 0 0 1
netname=pow_qsfp1_clkresetn_o
}
C 62800 64600 1 0 0 clock_gen-CDCM61001.sym
{
T 64300 69250 5 16 1 1 0 4 1
device=CDCM61001
T 65600 69200 5 10 1 1 0 0 1
refdes=U1650
T 65600 69000 5 10 1 1 0 0 1
footprint=QFN32_EP.fp
}
C 57800 64900 1 0 0 crystal.sym
{
T 57600 66300 5 10 1 1 0 0 1
device=ECS-250-8-30B-CKM
T 58500 66000 5 10 1 1 0 0 1
refdes=Y1650
T 58295 65100 5 10 1 1 0 5 1
footprint=ECX30B.fp
T 58495 65300 5 10 1 1 0 8 1
value=25MHz
}
C 57700 64400 1 0 0 dgnd.sym
N 57800 66000 57800 64700 4
N 58800 65200 58800 64700 4
N 57800 64700 59500 64700 4
C 59700 64700 1 90 0 capacitor.sym
{
T 59000 65000 5 10 0 0 90 0 1
device=CAPACITOR
T 59400 65300 5 10 1 1 180 2 1
refdes=C1650
T 59400 65000 5 10 1 1 180 0 1
value=22p
T 59700 64600 5 10 1 1 90 0 1
footprint=0603
}
N 58800 65600 62800 65600 4
C 59700 72400 1 0 0 ferrite_bead.sym
{
T 59900 73300 5 10 0 0 0 0 1
device=INDUCTOR
T 59900 73146 5 10 0 0 0 0 1
value=0 H
T 59900 72800 5 10 1 1 0 0 1
refdes=L1650
T 60100 72381 5 10 1 1 0 3 1
footprint=0603
}
N 63300 70600 61300 70600 4
C 61100 70600 1 0 0 dvcc.sym
{
T 61350 70920 5 10 1 1 0 3 1
net=VCCO_3P3:1
}
C 59500 72700 1 0 0 dvcc.sym
{
T 59750 73020 5 10 1 1 0 3 1
net=VCCO_3P3:1
}
N 60600 72700 64700 72700 4
N 64700 72700 64700 70600 4
N 64700 70600 63900 70600 4
C 67600 70600 1 0 0 dvcc.sym
{
T 67850 70920 5 10 1 1 0 3 1
net=VCCO_3P3:1
}
N 65300 70600 67800 70600 4
C 61500 71800 1 90 0 capacitor.sym
{
T 60800 72100 5 10 0 0 90 0 1
device=CAPACITOR
T 61200 72400 5 10 1 1 180 2 1
refdes=C1651
T 61200 72100 5 10 1 1 180 0 1
value=10u
T 61500 71700 5 10 1 1 90 0 1
footprint=0603
}
C 62400 71800 1 90 0 capacitor.sym
{
T 61700 72100 5 10 0 0 90 0 1
device=CAPACITOR
T 62100 72400 5 10 1 1 180 2 1
refdes=C1652
T 62100 72100 5 10 1 1 180 0 1
value=0.1u
T 62400 71700 5 10 1 1 90 0 1
footprint=0603
}
C 63300 71800 1 90 0 capacitor.sym
{
T 62600 72100 5 10 0 0 90 0 1
device=CAPACITOR
T 63000 72400 5 10 1 1 180 2 1
refdes=C1653
T 63000 72100 5 10 1 1 180 0 1
value=0.1u
T 63300 71700 5 10 1 1 90 0 1
footprint=0603
}
C 64200 71800 1 90 0 capacitor.sym
{
T 63500 72100 5 10 0 0 90 0 1
device=CAPACITOR
T 63900 72400 5 10 1 1 180 2 1
refdes=C1654
T 63900 72100 5 10 1 1 180 0 1
value=0.1u
T 64200 71700 5 10 1 1 90 0 1
footprint=0603
}
C 64200 64300 1 0 0 dgnd.sym
C 64600 64300 1 0 0 dgnd.sym
N 64000 71800 64000 71600 4
N 64000 71600 61300 71600 4
N 61300 71600 61300 71800 4
N 62200 71800 62200 71600 4
N 63100 71800 63100 71600 4
C 61200 71300 1 0 0 dgnd.sym
C 61500 69700 1 90 0 capacitor.sym
{
T 60800 70000 5 10 0 0 90 0 1
device=CAPACITOR
T 61200 70300 5 10 1 1 180 2 1
refdes=C1655
T 61200 70000 5 10 1 1 180 0 1
value=10u
T 61500 69600 5 10 1 1 90 0 1
footprint=0603
}
C 62400 69700 1 90 0 capacitor.sym
{
T 61700 70000 5 10 0 0 90 0 1
device=CAPACITOR
T 62100 70300 5 10 1 1 180 2 1
refdes=C1656
T 62100 70000 5 10 1 1 180 0 1
value=0.1u
T 62400 69600 5 10 1 1 90 0 1
footprint=0603
}
N 61300 69700 61300 69500 4
N 61300 69500 62200 69500 4
N 62200 69500 62200 69700 4
C 61200 69200 1 0 0 dgnd.sym
C 68000 69700 1 90 0 capacitor.sym
{
T 67300 70000 5 10 0 0 90 0 1
device=CAPACITOR
T 67700 70300 5 10 1 1 180 2 1
refdes=C1657
T 67700 70000 5 10 1 1 180 0 1
value=10u
T 68000 69600 5 10 1 1 90 0 1
footprint=0603
}
C 67100 69700 1 90 0 capacitor.sym
{
T 66400 70000 5 10 0 0 90 0 1
device=CAPACITOR
T 66800 70300 5 10 1 1 180 2 1
refdes=C1658
T 66800 70000 5 10 1 1 180 0 1
value=0.1u
T 67100 69600 5 10 1 1 90 0 1
footprint=0603
}
N 66900 69500 67800 69500 4
N 66900 69700 66900 69500 4
N 67800 69500 67800 69700 4
C 67700 69200 1 0 0 dgnd.sym
C 66800 64700 1 90 0 capacitor.sym
{
T 66100 65000 5 10 0 0 90 0 1
device=CAPACITOR
T 66500 65300 5 10 1 1 180 2 1
refdes=C1659
T 66500 65000 5 10 1 1 180 0 1
value=10u
T 66800 64600 5 10 1 1 90 0 1
footprint=0603
}
C 66500 64400 1 0 0 dgnd.sym
N 65800 65600 66600 65600 4
C 67800 65100 1 90 0 capacitor.sym
{
T 67100 65400 5 10 0 0 90 0 1
device=CAPACITOR
T 67500 65700 5 10 1 1 180 2 1
refdes=C1660
T 67500 65400 5 10 1 1 180 0 1
value=10u
T 67800 65000 5 10 1 1 90 0 1
footprint=0603
}
C 67500 64800 1 0 0 dgnd.sym
N 65800 66000 67600 66000 4
N 60700 68400 62800 68400 4
{
T 60900 68450 5 10 1 1 0 0 1
netname=QSFP2_CLK_OS0
}
N 60700 68200 62800 68200 4
{
T 60900 68250 5 10 1 1 0 0 1
netname=QSFP2_CLK_OS1
}
N 60700 67800 62800 67800 4
{
T 60900 67850 5 10 1 1 0 0 1
netname=QSFP2_CLK_OD0
}
N 60700 67600 62800 67600 4
{
T 60900 67650 5 10 1 1 0 0 1
netname=QSFP2_CLK_OD1
}
N 60700 67400 62800 67400 4
{
T 60900 67450 5 10 1 1 0 0 1
netname=QSFP2_CLK_OD2
}
N 60700 67000 62800 67000 4
{
T 60900 67050 5 10 1 1 0 0 1
netname=QSFP2_CLK_PR0
}
N 60700 66800 62800 66800 4
{
T 60900 66850 5 10 1 1 0 0 1
netname=QSFP2_CLK_PR1
}
C 58900 72600 1 0 0 input-1.sym
{
T 59200 72700 5 10 1 1 0 4 1
value=13
}
C 60500 70500 1 0 0 input-1.sym
{
T 60800 70600 5 10 1 1 0 4 1
value=13
}
C 68600 70500 1 0 1 input-1.sym
{
T 68300 70600 5 10 1 1 0 4 1
value=13
}
C 66300 67300 1 0 1 nc-left-1.sym
{
T 66300 67700 5 10 0 0 0 6 1
value=NoConnection
T 66300 68100 5 10 0 0 0 6 1
device=DRC_Directive
}
N 69000 68000 70500 68000 4
{
T 69300 68050 5 10 1 1 0 0 1
netname=qsfp2_clk_i_n
}
N 69000 68600 70500 68600 4
{
T 69300 68650 5 10 1 1 0 0 1
netname=qsfp2_clk_i_p
}
C 68100 68400 1 0 0 capacitor.sym
{
T 68400 69100 5 10 0 0 0 0 1
device=CAPACITOR
T 68400 68700 5 10 1 1 180 2 1
refdes=C1661
T 68700 68700 5 10 1 1 0 0 1
value=0.1u
T 68700 68400 5 10 1 1 0 0 1
footprint=0603
}
C 68100 67800 1 0 0 capacitor.sym
{
T 68400 68500 5 10 0 0 0 0 1
device=CAPACITOR
T 68400 68100 5 10 1 1 180 2 1
refdes=C1662
T 68700 68100 5 10 1 1 0 0 1
value=0.1u
T 68700 67800 5 10 1 1 0 0 1
footprint=0603
}
N 65800 68400 67500 68400 4
{
T 66100 68450 5 10 1 1 0 0 1
netname=QSFP2_CLK_P
}
N 65800 68200 67500 68200 4
{
T 66100 68250 5 10 1 1 0 0 1
netname=QSFP2_CLK_N
}
N 67500 68400 67500 68600 4
N 67500 68600 68100 68600 4
N 67500 68200 67500 68000 4
N 67500 68000 68100 68000 4
N 60600 66000 62800 66000 4
{
T 60600 66050 5 10 1 1 0 0 1
netname=pow_qsfp2_clkresetn_o
}
N 60600 66400 62800 66400 4
{
T 60600 66450 5 10 1 1 0 0 1
netname=pow_qsfp2_clken_o
}
C 59800 66300 1 0 0 input-1.sym
{
T 60100 66400 5 10 1 1 0 4 1
value=14
}
C 59800 65900 1 0 0 input-1.sym
{
T 60100 66000 5 10 1 1 0 4 1
value=14
}
N 62100 62000 64300 62000 4
{
T 62400 62050 5 10 1 1 0 0 1
netname=QSFP2_CLK_OS0
}
N 62100 61100 64300 61100 4
{
T 62400 61150 5 10 1 1 0 0 1
netname=QSFP2_CLK_OS1
}
N 57300 59300 59400 59300 4
{
T 57500 59350 5 10 1 1 0 0 1
netname=QSFP2_CLK_OD0
}
N 57300 58400 59400 58400 4
{
T 57500 58450 5 10 1 1 0 0 1
netname=QSFP2_CLK_OD1
}
N 57300 57500 59400 57500 4
{
T 57500 57550 5 10 1 1 0 0 1
netname=QSFP2_CLK_OD2
}
N 57300 62000 59400 62000 4
{
T 57500 62050 5 10 1 1 0 0 1
netname=QSFP2_CLK_PR0
}
N 57300 61100 59400 61100 4
{
T 57500 61150 5 10 1 1 0 0 1
netname=QSFP2_CLK_PR1
}
C 64200 61500 1 0 0 resistor_switch.sym
{
T 64600 62100 5 10 0 0 0 0 1
device=RESISTOR
T 64700 62200 5 10 1 1 0 6 1
refdes=R1650
T 64900 62200 5 10 1 1 0 0 1
value=10.0K
T 64800 61600 5 10 1 1 0 4 1
footprint=1_5_0603.fp
}
C 64200 60600 1 0 0 resistor_switch.sym
{
T 64600 61200 5 10 0 0 0 0 1
device=RESISTOR
T 64700 61300 5 10 1 1 0 6 1
refdes=R1651
T 64900 61300 5 10 1 1 0 0 1
value=10.0K
T 64800 60700 5 10 1 1 0 4 1
footprint=1_5_0603.fp
}
C 59300 58800 1 0 0 resistor_switch.sym
{
T 59700 59400 5 10 0 0 0 0 1
device=RESISTOR
T 59800 59500 5 10 1 1 0 6 1
refdes=R1652
T 60000 59500 5 10 1 1 0 0 1
value=10.0K
T 59900 58900 5 10 1 1 0 4 1
footprint=1_5_0603.fp
}
C 59300 57900 1 0 0 resistor_switch.sym
{
T 59700 58500 5 10 0 0 0 0 1
device=RESISTOR
T 59800 58600 5 10 1 1 0 6 1
refdes=R1653
T 60000 58600 5 10 1 1 0 0 1
value=10.0K
T 59900 58000 5 10 1 1 0 4 1
footprint=1_5_0603.fp
}
C 59300 57000 1 0 0 resistor_switch.sym
{
T 59700 57600 5 10 0 0 0 0 1
device=RESISTOR
T 59800 57700 5 10 1 1 0 6 1
refdes=R1654
T 60000 57700 5 10 1 1 0 0 1
value=10.0K
T 59900 57100 5 10 1 1 0 4 1
footprint=1_5_0603.fp
}
C 59300 61500 1 0 0 resistor_switch.sym
{
T 59700 62100 5 10 0 0 0 0 1
device=RESISTOR
T 59800 62200 5 10 1 1 0 6 1
refdes=R1655
T 60000 62200 5 10 1 1 0 0 1
value=10.0K
T 59900 61600 5 10 1 1 0 4 1
footprint=1_5_0603.fp
}
C 59300 60600 1 0 0 resistor_switch.sym
{
T 59700 61200 5 10 0 0 0 0 1
device=RESISTOR
T 59800 61300 5 10 1 1 0 6 1
refdes=R1656
T 60000 61300 5 10 1 1 0 0 1
value=10.0K
T 59900 60700 5 10 1 1 0 4 1
footprint=1_5_0603.fp
}
C 64200 58800 1 0 0 resistor_switch.sym
{
T 64600 59400 5 10 0 0 0 0 1
device=RESISTOR
T 64700 59500 5 10 1 1 0 6 1
refdes=R1657
T 64900 59500 5 10 1 1 0 0 1
value=10.0K
T 64800 58900 5 10 1 1 0 4 1
footprint=1_5_0603.fp
}
C 64200 57900 1 0 0 resistor_switch.sym
{
T 64600 58500 5 10 0 0 0 0 1
device=RESISTOR
T 64700 58600 5 10 1 1 0 6 1
refdes=R1658
T 64900 58600 5 10 1 1 0 0 1
value=DNP
T 64800 58000 5 10 1 1 0 4 1
footprint=1_5_0603.fp
}
C 65300 62400 1 0 0 dvcc.sym
{
T 65550 62720 5 10 1 1 0 3 1
net=VCCO_3P3:1
}
C 65900 60600 1 0 0 dgnd.sym
C 61000 57000 1 0 0 dgnd.sym
C 60400 59700 1 0 0 dvcc.sym
{
T 60650 60020 5 10 1 1 0 3 1
net=VCCO_3P3:1
}
C 60400 62400 1 0 0 dvcc.sym
{
T 60650 62720 5 10 1 1 0 3 1
net=VCCO_3P3:1
}
C 65300 59700 1 0 0 dvcc.sym
{
T 65550 60020 5 10 1 1 0 3 1
net=VCCO_3P3:1
}
C 61000 60500 1 0 0 dgnd.sym
C 65900 57900 1 0 0 dgnd.sym
N 65500 58400 65500 59700 4
N 65500 59300 65200 59300 4
N 65200 58400 65500 58400 4
N 65200 59100 66000 59100 4
N 66000 59100 66000 58200 4
N 65200 58200 66000 58200 4
N 65200 61100 66000 61100 4
N 66000 60900 66000 61800 4
N 65200 62000 65500 62000 4
N 65500 60900 65500 62400 4
N 65200 60900 65500 60900 4
N 65200 61800 66000 61800 4
C 63900 57500 1 90 0 capacitor.sym
{
T 63200 57800 5 10 0 0 90 0 1
device=CAPACITOR
T 63600 58100 5 10 1 1 180 2 1
refdes=C1663
T 63600 57800 5 10 1 1 180 0 1
value=47n
T 63900 57400 5 10 1 1 90 0 1
footprint=0603
}
C 63600 57200 1 0 0 dgnd.sym
N 60300 62000 61100 62000 4
N 61100 62000 61100 60800 4
N 60300 61100 61100 61100 4
N 60600 60900 60600 62400 4
N 60600 61800 60300 61800 4
N 60600 60900 60300 60900 4
N 60300 59300 60600 59300 4
N 60600 57500 60600 59700 4
N 60300 58400 61100 58400 4
N 61100 57300 61100 59100 4
N 60300 57500 60600 57500 4
N 60300 59100 61100 59100 4
N 60300 58200 60600 58200 4
N 60300 57300 61100 57300 4
N 62100 59300 64300 59300 4
{
T 62200 59350 5 10 1 1 0 0 1
netname=pow_qsfp2_clken_o
}
N 62100 58400 64300 58400 4
{
T 62200 58450 5 10 1 1 0 0 1
netname=pow_qsfp2_clkresetn_o
}
T 62700 62600 9 10 1 0 0 0 1
LVDS output, Osc Out Off
T 62800 59900 9 10 1 0 0 0 1
Normal Operation
T 57600 62700 9 10 1 0 0 0 2
Prescale Divider: 3
Feedback Divider: 24
T 57800 60000 9 10 1 0 0 0 1
Output Divider: 6
T 60500 63400 9 10 1 0 0 0 1
Resulting System clock is 100MHz
N 68200 59700 70300 59700 4
{
T 68500 59750 5 10 1 1 0 0 1
netname=qsfp2_clk_i_p
}
N 68200 59500 70300 59500 4
{
T 68500 59550 5 10 1 1 0 0 1
netname=qsfp2_clk_i_n
}
C 69800 59000 1 0 0 nc-left-1.sym
{
T 69800 59400 5 10 0 0 0 0 1
value=NoConnection
T 69800 59800 5 10 0 0 0 0 1
device=DRC_Directive
}
C 69800 58800 1 0 0 nc-left-1.sym
{
T 69800 59200 5 10 0 0 0 0 1
value=NoConnection
T 69800 59600 5 10 0 0 0 0 1
device=DRC_Directive
}
C 66900 83900 1 0 0 nc-left-1.sym
{
T 66900 84300 5 10 0 0 0 0 1
value=NoConnection
T 66900 84700 5 10 0 0 0 0 1
device=DRC_Directive
}
C 66900 84100 1 0 0 nc-left-1.sym
{
T 66900 84500 5 10 0 0 0 0 1
value=NoConnection
T 66900 84900 5 10 0 0 0 0 1
device=DRC_Directive
}
C 79800 59200 1 0 0 resistor.sym
{
T 80100 59600 5 10 0 0 0 0 1
device=RESISTOR
T 80100 59700 5 10 1 1 0 6 1
refdes=R1600
T 80300 59700 5 10 1 1 0 0 1
value=100
T 80000 59200 5 10 1 1 0 0 1
footprint=0603
}
N 80700 59100 80700 59800 4
C 80500 59800 1 0 0 dvcc.sym
{
T 80750 60120 5 10 1 1 0 3 1
net=VMGTAVTT_1P2:1
}
N 77100 59500 79800 59500 4
{
T 77400 59550 5 10 1 1 0 0 1
netname=qsfp_cal_ref_i
}
N 77100 59100 80700 59100 4
T 77000 58700 9 10 1 0 0 0 1
The lengths of the wires that runs from R1600 should be equal
C 82500 65100 1 0 0 inductor.sym
{
T 82700 65800 5 10 0 0 0 0 1
device=INDUCTOR
T 82900 65350 5 10 1 1 0 6 1
refdes=L1600
T 83100 65346 5 10 1 1 0 0 1
value=1u
T 82900 65081 5 10 1 1 0 5 1
footprint=1210
}
N 82300 65800 82300 65200 4
N 82300 65200 82500 65200 4
