v 20130925 2
C 105500 51400 1 0 0 XC7K160T_bank15.sym
{
T 108600 60950 5 15 1 1 0 3 1
device=XC7K160T
T 111300 61000 5 10 1 1 0 0 1
refdes=U1
T 111300 60800 5 10 1 1 0 0 1
footprint=FBG676.fp
}
C 105300 61700 1 90 0 capacitor.sym
{
T 104600 62000 5 10 0 0 90 0 1
device=CAPACITOR
T 105000 62300 5 10 1 1 180 2 1
refdes=C1400
T 105000 62000 5 10 1 1 180 0 1
value=100u
T 105300 61600 5 10 1 1 90 0 1
footprint=1210
}
C 105000 61400 1 0 0 dgnd.sym
C 104300 62500 1 0 0 input-1.sym
{
T 104600 62600 5 10 1 1 0 4 1
value=13
}
C 104900 62600 1 0 0 dvcc.sym
{
T 105150 62920 5 10 1 1 0 3 1
net=VCCO_3P3:1
}
N 105100 62600 109500 62600 4
C 108000 51100 1 0 0 dgnd.sym
N 108100 51400 110100 51400 4
C 114000 59600 1 0 0 output-1.sym
{
T 114500 59700 5 10 1 1 0 4 1
value=1
}
C 114000 59000 1 0 0 output-1.sym
{
T 114500 59100 5 10 1 1 0 4 1
value=1
}
C 114000 59400 1 0 0 output-1.sym
{
T 114500 59500 5 10 1 1 0 4 1
value=1
}
C 114000 58400 1 0 0 output-1.sym
{
T 114500 58500 5 10 1 1 0 4 1
value=1
}
C 114000 58800 1 0 0 output-1.sym
{
T 114500 58900 5 10 1 1 0 4 1
value=1
}
C 103200 52400 1 0 1 output-1.sym
{
T 102700 52500 5 10 1 1 0 4 1
value=2
}
C 114000 57600 1 0 0 output-1.sym
{
T 114500 57700 5 10 1 1 0 4 1
value=2
}
C 114000 55800 1 0 0 output-1.sym
{
T 114500 55900 5 10 1 1 0 4 1
value=2
}
C 114000 55200 1 0 0 output-1.sym
{
T 114500 55300 5 10 1 1 0 4 1
value=2
}
C 114000 58200 1 0 0 output-1.sym
{
T 114500 58300 5 10 1 1 0 4 1
value=2
}
C 114000 56000 1 0 0 output-1.sym
{
T 114500 56100 5 10 1 1 0 4 1
value=3
}
C 114000 57000 1 0 0 output-1.sym
{
T 114500 57100 5 10 1 1 0 4 1
value=3
}
C 114000 55400 1 0 0 output-1.sym
{
T 114500 55500 5 10 1 1 0 4 1
value=3
}
C 114000 57200 1 0 0 output-1.sym
{
T 114500 57300 5 10 1 1 0 4 1
value=3
}
C 114000 54000 1 0 0 output-1.sym
{
T 114500 54100 5 10 1 1 0 4 1
value=4
}
C 114000 54800 1 0 0 output-1.sym
{
T 114500 54900 5 10 1 1 0 4 1
value=4
}
C 114000 54200 1 0 0 output-1.sym
{
T 114500 54300 5 10 1 1 0 4 1
value=4
}
C 114000 54600 1 0 0 output-1.sym
{
T 114500 54700 5 10 1 1 0 4 1
value=4
}
C 114000 52400 1 0 0 output-1.sym
{
T 114500 52500 5 10 1 1 0 4 1
value=4
}
C 108500 49100 1 0 0 cvstitleblock-1.sym
{
T 109100 49500 5 10 1 1 0 0 1
date=2013-07-28
T 113100 49500 5 10 1 1 0 0 1
rev=0.1
T 113100 49200 5 10 1 1 0 0 1
auth=Alexei Dorofeev
T 109300 49800 5 10 1 1 0 0 1
fname=drift_accumulator_14_power2.sch
T 112300 50200 5 14 1 1 0 4 1
title=Drift Accumulator: Power Controls, XADCs
T 109400 49200 5 10 1 1 0 0 1
page_number=14
T 110800 49200 5 10 1 1 0 0 1
pages=16
}
C 114000 57800 1 0 0 output-1.sym
{
T 114500 57900 5 10 1 1 0 4 1
value=3
}
C 92600 49100 1 0 0 connector-28pins.sym
{
T 88950 52000 5 10 0 0 0 0 1
device=HEADER28
T 93100 54800 5 10 1 1 0 0 1
refdes=J1430
T 92000 48900 5 10 1 1 0 0 1
footprint=CON_HDR_2mm_28pos_2row.fp
}
C 94000 49500 1 270 0 dvcc.sym
{
T 94350 49320 5 10 1 1 0 1 1
net=VCCO_3P3:1
}
C 92600 54300 1 90 0 dvcc.sym
{
T 92350 54520 5 10 1 1 0 7 1
net=VCCO_3P3:1
}
N 103900 53100 105600 53100 4
{
T 104000 53140 5 10 1 1 0 0 1
netname=xadc_ad00_i_p
}
N 103900 52900 105600 52900 4
{
T 104000 52940 5 10 1 1 0 0 1
netname=xadc_ad00_i_n
}
N 103900 56100 105600 56100 4
{
T 104000 56140 5 10 1 1 0 0 1
netname=xadc_ad08_i_p
}
N 103900 55900 105600 55900 4
{
T 104000 55940 5 10 1 1 0 0 1
netname=xadc_ad08_i_n
}
N 103900 55500 105600 55500 4
{
T 104000 55540 5 10 1 1 0 0 1
netname=xadc_ad01_i_p
}
N 103900 55300 105600 55300 4
{
T 104000 55340 5 10 1 1 0 0 1
netname=xadc_ad01_i_n
}
N 94000 53300 95500 53300 4
{
T 94200 53340 5 10 1 1 0 0 1
netname=xadc_aux09_p
}
N 103900 53700 105600 53700 4
{
T 104000 53740 5 10 1 1 0 0 1
netname=xadc_ad09_i_p
}
N 103900 53500 105600 53500 4
{
T 104000 53540 5 10 1 1 0 0 1
netname=xadc_ad09_i_n
}
N 94000 52900 95500 52900 4
{
T 94200 52940 5 10 1 1 0 0 1
netname=xadc_aux09_n
}
N 103900 57900 105600 57900 4
{
T 104000 57940 5 10 1 1 0 0 1
netname=xadc_ad02_i_p
}
N 103900 57700 105600 57700 4
{
T 104000 57740 5 10 1 1 0 0 1
netname=xadc_ad02_i_n
}
N 90800 52500 92600 52500 4
{
T 91000 52540 5 10 1 1 0 0 1
netname=xadc_aux10_p
}
N 90800 52100 92600 52100 4
{
T 91000 52140 5 10 1 1 0 0 1
netname=xadc_aux10_n
}
N 103900 54300 105600 54300 4
{
T 104000 54340 5 10 1 1 0 0 1
netname=xadc_ad10_i_p
}
N 103900 54100 105600 54100 4
{
T 104000 54140 5 10 1 1 0 0 1
netname=xadc_ad10_i_n
}
C 92300 49400 1 270 0 dgnd.sym
C 94300 54600 1 90 1 dgnd.sym
N 103900 59700 105600 59700 4
{
T 104000 59740 5 10 1 1 0 0 1
netname=xadc_ad03_i_p
}
N 103900 59500 105600 59500 4
{
T 104000 59540 5 10 1 1 0 0 1
netname=xadc_ad03_i_n
}
N 94000 51700 95500 51700 4
{
T 94200 51740 5 10 1 1 0 0 1
netname=xadc_aux11_n
}
N 94000 51300 95500 51300 4
{
T 94200 51340 5 10 1 1 0 0 1
netname=xadc_aux11_p
}
N 103900 59100 105600 59100 4
{
T 104000 59140 5 10 1 1 0 0 1
netname=xadc_ad11_i_p
}
N 103900 58900 105600 58900 4
{
T 104000 58940 5 10 1 1 0 0 1
netname=xadc_ad11_i_n
}
N 103900 54900 105600 54900 4
{
T 104000 54940 5 10 1 1 0 0 1
netname=xadc_ad04_i_p
}
N 103900 54700 105600 54700 4
{
T 104000 54740 5 10 1 1 0 0 1
netname=xadc_ad04_i_n
}
N 103900 58500 105600 58500 4
{
T 104000 58540 5 10 1 1 0 0 1
netname=xadc_ad12_i_p
}
N 103900 58300 105600 58300 4
{
T 104000 58340 5 10 1 1 0 0 1
netname=xadc_ad12_i_n
}
N 90800 50500 92600 50500 4
{
T 91000 50540 5 10 1 1 0 0 1
netname=xadc_aux12_p
}
N 90800 50900 92600 50900 4
{
T 91000 50940 5 10 1 1 0 0 1
netname=xadc_aux12_n
}
N 103900 57300 105600 57300 4
{
T 104000 57340 5 10 1 1 0 0 1
netname=xadc_ad05_i_p
}
N 103900 57100 105600 57100 4
{
T 104000 57140 5 10 1 1 0 0 1
netname=xadc_ad05_i_n
}
C 94300 54200 1 90 1 dgnd.sym
C 94300 53800 1 90 1 dgnd.sym
C 92300 53400 1 270 0 dgnd.sym
C 92300 53000 1 270 0 dgnd.sym
C 94300 52600 1 90 1 dgnd.sym
C 94300 52200 1 90 1 dgnd.sym
C 94300 51000 1 90 1 dgnd.sym
C 94300 50600 1 90 1 dgnd.sym
C 92300 51800 1 270 0 dgnd.sym
C 92300 51400 1 270 0 dgnd.sym
C 92300 50200 1 270 0 dgnd.sym
C 92300 49800 1 270 0 dgnd.sym
T 91800 62500 9 10 1 0 0 0 2
Filter Networks Should Be placed close
to PLD
N 90800 54100 92600 54100 4
{
T 91000 54140 5 10 1 1 0 0 1
netname=xadc_aux08_p
}
N 90800 53700 92600 53700 4
{
T 91000 53740 5 10 1 1 0 0 1
netname=xadc_aux08_n
}
N 90800 54100 90800 54400 4
N 90800 53700 90800 53400 4
C 89600 54100 1 0 0 resistor.sym
{
T 89900 54500 5 10 0 0 0 0 1
device=RESISTOR
T 89800 54500 5 10 1 1 0 6 1
refdes=R1430
T 90200 54500 5 10 1 1 0 0 1
value=100
T 89800 54100 5 10 1 1 0 0 1
footprint=0603
}
C 89600 53100 1 0 0 resistor.sym
{
T 89900 53500 5 10 0 0 0 0 1
device=RESISTOR
T 89800 53600 5 10 1 1 0 6 1
refdes=R1431
T 90200 53600 5 10 1 1 0 0 1
value=100
T 89800 53100 5 10 1 1 0 0 1
footprint=0603
}
C 89000 53500 1 90 0 capacitor.sym
{
T 88300 53800 5 10 0 0 90 0 1
device=CAPACITOR
T 88700 54100 5 10 1 1 180 2 1
refdes=C1430
T 88700 53800 5 10 1 1 180 0 1
value=10.0n
T 89000 53400 5 10 1 1 90 0 1
footprint=0603
}
N 86700 54400 89600 54400 4
{
T 86900 54440 5 10 1 1 0 0 1
netname=xadc_ad08_i_p
}
N 88800 53500 88800 53400 4
N 86700 53400 89600 53400 4
{
T 86900 53440 5 10 1 1 0 0 1
netname=xadc_ad08_i_n
}
N 90500 53400 90800 53400 4
N 90500 54400 90800 54400 4
N 90800 52500 90800 52800 4
N 90800 52100 90800 51800 4
C 89600 52500 1 0 0 resistor.sym
{
T 89900 52900 5 10 0 0 0 0 1
device=RESISTOR
T 89800 52900 5 10 1 1 0 6 1
refdes=R1434
T 90200 52900 5 10 1 1 0 0 1
value=100
T 89800 52500 5 10 1 1 0 0 1
footprint=0603
}
C 89600 51500 1 0 0 resistor.sym
{
T 89900 51900 5 10 0 0 0 0 1
device=RESISTOR
T 89800 52000 5 10 1 1 0 6 1
refdes=R1435
T 90200 52000 5 10 1 1 0 0 1
value=100
T 89800 51500 5 10 1 1 0 0 1
footprint=0603
}
C 89000 51900 1 90 0 capacitor.sym
{
T 88300 52200 5 10 0 0 90 0 1
device=CAPACITOR
T 88700 52500 5 10 1 1 180 2 1
refdes=C1434
T 88700 52200 5 10 1 1 180 0 1
value=10.0n
T 89000 51800 5 10 1 1 90 0 1
footprint=0603
}
N 86700 52800 89600 52800 4
{
T 86900 52840 5 10 1 1 0 0 1
netname=xadc_ad10_i_p
}
N 88800 51900 88800 51800 4
N 86700 51800 89600 51800 4
{
T 86900 51840 5 10 1 1 0 0 1
netname=xadc_ad10_i_n
}
N 90500 51800 90800 51800 4
N 90500 52800 90800 52800 4
N 90800 50900 90800 51200 4
N 90800 50500 90800 50200 4
C 89600 50900 1 0 0 resistor.sym
{
T 89900 51300 5 10 0 0 0 0 1
device=RESISTOR
T 89800 51300 5 10 1 1 0 6 1
refdes=R1438
T 90200 51300 5 10 1 1 0 0 1
value=100
T 89800 50900 5 10 1 1 0 0 1
footprint=0603
}
C 89000 50300 1 90 0 capacitor.sym
{
T 88300 50600 5 10 0 0 90 0 1
device=CAPACITOR
T 88700 50900 5 10 1 1 180 2 1
refdes=C1438
T 88700 50600 5 10 1 1 180 0 1
value=10.0n
T 89000 50200 5 10 1 1 90 0 1
footprint=0603
}
N 86700 51200 89600 51200 4
{
T 86900 51240 5 10 1 1 0 0 1
netname=xadc_ad12_i_n
}
N 88800 50300 88800 50200 4
N 86700 50200 89600 50200 4
{
T 86900 50240 5 10 1 1 0 0 1
netname=xadc_ad12_i_p
}
N 90500 50200 90800 50200 4
N 90500 51200 90800 51200 4
N 95500 53300 95500 53600 4
N 95500 52900 95500 52600 4
C 96000 53300 1 0 0 resistor.sym
{
T 96300 53700 5 10 0 0 0 0 1
device=RESISTOR
T 96200 53700 5 10 1 1 0 6 1
refdes=R1432
T 96600 53700 5 10 1 1 0 0 1
value=100
T 96200 53300 5 10 1 1 0 0 1
footprint=0603
}
C 96000 52300 1 0 0 resistor.sym
{
T 96300 52700 5 10 0 0 0 0 1
device=RESISTOR
T 96200 52800 5 10 1 1 0 6 1
refdes=R1433
T 96600 52800 5 10 1 1 0 0 1
value=100
T 96200 52300 5 10 1 1 0 0 1
footprint=0603
}
C 98000 52700 1 90 0 capacitor.sym
{
T 97300 53000 5 10 0 0 90 0 1
device=CAPACITOR
T 97700 53300 5 10 1 1 180 2 1
refdes=C1432
T 97700 53000 5 10 1 1 180 0 1
value=10.0n
T 98000 52600 5 10 1 1 90 0 1
footprint=0603
}
N 99800 53600 96900 53600 4
{
T 98400 53640 5 10 1 1 0 0 1
netname=xadc_ad09_i_p
}
N 97800 52700 97800 52600 4
N 99800 52600 96900 52600 4
{
T 98400 52640 5 10 1 1 0 0 1
netname=xadc_ad09_i_n
}
N 96000 52600 95500 52600 4
N 96000 53600 95500 53600 4
N 95500 51700 95500 52000 4
N 95500 51300 95500 51000 4
C 96000 51700 1 0 0 resistor.sym
{
T 96300 52100 5 10 0 0 0 0 1
device=RESISTOR
T 96200 52100 5 10 1 1 0 6 1
refdes=R1436
T 96600 52100 5 10 1 1 0 0 1
value=100
T 96200 51700 5 10 1 1 0 0 1
footprint=0603
}
C 96000 50700 1 0 0 resistor.sym
{
T 96300 51100 5 10 0 0 0 0 1
device=RESISTOR
T 96200 51200 5 10 1 1 0 6 1
refdes=R1437
T 96600 51200 5 10 1 1 0 0 1
value=100
T 96200 50700 5 10 1 1 0 0 1
footprint=0603
}
C 98000 51100 1 90 0 capacitor.sym
{
T 97300 51400 5 10 0 0 90 0 1
device=CAPACITOR
T 97700 51700 5 10 1 1 180 2 1
refdes=C1436
T 97700 51400 5 10 1 1 180 0 1
value=10.0n
T 98000 51000 5 10 1 1 90 0 1
footprint=0603
}
N 99800 52000 96900 52000 4
{
T 98400 52040 5 10 1 1 0 0 1
netname=xadc_ad11_i_n
}
N 97800 51100 97800 51000 4
N 99800 51000 96900 51000 4
{
T 98400 51040 5 10 1 1 0 0 1
netname=xadc_ad11_i_p
}
N 95500 51000 96000 51000 4
N 95500 52000 96000 52000 4
C 95300 49600 1 0 0 output-1.sym
{
T 95800 49700 5 10 1 1 0 4 1
value=12
}
C 95300 50000 1 0 0 output-1.sym
{
T 95800 50100 5 10 1 1 0 4 1
value=12
}
N 94000 49700 95300 49700 4
{
T 94200 49750 5 10 1 1 0 0 1
netname=xadc_inp_p
}
N 94000 50100 95300 50100 4
{
T 94200 50150 5 10 1 1 0 0 1
netname=xadc_inp_n
}
C 92600 55700 1 0 0 connector-28pins.sym
{
T 88950 58600 5 10 0 0 0 0 1
device=HEADER28
T 93100 61400 5 10 1 1 0 0 1
refdes=J1410
T 92000 55500 5 10 1 1 0 0 1
footprint=CON_HDR_2mm_28pos_2row.fp
}
C 94000 56100 1 270 0 dvcc.sym
{
T 94350 55920 5 10 1 1 0 1 1
net=VCCO_3P3:1
}
C 92600 60900 1 90 0 dvcc.sym
{
T 92350 61120 5 10 1 1 0 7 1
net=VCCO_3P3:1
}
N 94000 59900 95500 59900 4
{
T 94100 59940 5 10 1 1 0 0 1
netname=xadc_aux01_p
}
N 94000 59500 95500 59500 4
{
T 94100 59540 5 10 1 1 0 0 1
netname=xadc_aux01_n
}
N 90800 59100 92600 59100 4
{
T 91000 59140 5 10 1 1 0 0 1
netname=xadc_aux02_p
}
N 90800 58700 92600 58700 4
{
T 91000 58740 5 10 1 1 0 0 1
netname=xadc_aux02_n
}
C 92300 56000 1 270 0 dgnd.sym
C 94300 61200 1 90 1 dgnd.sym
N 94000 58300 95500 58300 4
{
T 94100 58340 5 10 1 1 0 0 1
netname=xadc_aux03_n
}
N 94000 57900 95500 57900 4
{
T 94100 57940 5 10 1 1 0 0 1
netname=xadc_aux03_p
}
N 90800 57100 92600 57100 4
{
T 91000 57140 5 10 1 1 0 0 1
netname=xadc_aux04_p
}
N 90800 57500 92600 57500 4
{
T 91000 57540 5 10 1 1 0 0 1
netname=xadc_aux04_n
}
N 94000 56300 95500 56300 4
{
T 94100 56340 5 10 1 1 0 0 1
netname=xadc_aux05_p
}
N 94000 56700 95500 56700 4
{
T 94100 56740 5 10 1 1 0 0 1
netname=xadc_aux05_n
}
C 94300 60800 1 90 1 dgnd.sym
C 94300 60400 1 90 1 dgnd.sym
C 92300 60000 1 270 0 dgnd.sym
C 92300 59600 1 270 0 dgnd.sym
C 94300 59200 1 90 1 dgnd.sym
C 94300 58800 1 90 1 dgnd.sym
C 94300 57600 1 90 1 dgnd.sym
C 94300 57200 1 90 1 dgnd.sym
C 92300 58400 1 270 0 dgnd.sym
C 92300 58000 1 270 0 dgnd.sym
C 92300 56800 1 270 0 dgnd.sym
C 92300 56400 1 270 0 dgnd.sym
N 90800 60700 92600 60700 4
{
T 91000 60740 5 10 1 1 0 0 1
netname=xadc_aux00_p
}
N 90800 60300 92600 60300 4
{
T 91000 60340 5 10 1 1 0 0 1
netname=xadc_aux00_n
}
N 90800 60700 90800 61000 4
N 90800 60300 90800 60000 4
C 89600 60700 1 0 0 resistor.sym
{
T 89900 61100 5 10 0 0 0 0 1
device=RESISTOR
T 89800 61100 5 10 1 1 0 6 1
refdes=R1410
T 90200 61100 5 10 1 1 0 0 1
value=100
T 89800 60700 5 10 1 1 0 0 1
footprint=0603
}
C 89600 59700 1 0 0 resistor.sym
{
T 89900 60100 5 10 0 0 0 0 1
device=RESISTOR
T 89800 60200 5 10 1 1 0 6 1
refdes=R1411
T 90200 60200 5 10 1 1 0 0 1
value=100
T 89800 59700 5 10 1 1 0 0 1
footprint=0603
}
C 89000 60100 1 90 0 capacitor.sym
{
T 88300 60400 5 10 0 0 90 0 1
device=CAPACITOR
T 88700 60700 5 10 1 1 180 2 1
refdes=C1410
T 88700 60400 5 10 1 1 180 0 1
value=10.0n
T 89000 60000 5 10 1 1 90 0 1
footprint=0603
}
N 86700 61000 89600 61000 4
{
T 86900 61040 5 10 1 1 0 0 1
netname=xadc_ad00_i_p
}
N 88800 60100 88800 60000 4
N 86700 60000 89600 60000 4
{
T 86900 60040 5 10 1 1 0 0 1
netname=xadc_ad00_i_n
}
N 90500 60000 90800 60000 4
N 90500 61000 90800 61000 4
N 90800 59100 90800 59400 4
N 90800 58700 90800 58400 4
C 89600 59100 1 0 0 resistor.sym
{
T 89900 59500 5 10 0 0 0 0 1
device=RESISTOR
T 89800 59500 5 10 1 1 0 6 1
refdes=R1414
T 90200 59500 5 10 1 1 0 0 1
value=100
T 89800 59100 5 10 1 1 0 0 1
footprint=0603
}
C 89600 58100 1 0 0 resistor.sym
{
T 89900 58500 5 10 0 0 0 0 1
device=RESISTOR
T 89800 58600 5 10 1 1 0 6 1
refdes=R1415
T 90200 58600 5 10 1 1 0 0 1
value=100
T 89800 58100 5 10 1 1 0 0 1
footprint=0603
}
C 89000 58500 1 90 0 capacitor.sym
{
T 88300 58800 5 10 0 0 90 0 1
device=CAPACITOR
T 88700 59100 5 10 1 1 180 2 1
refdes=C1414
T 88700 58800 5 10 1 1 180 0 1
value=10.0n
T 89000 58400 5 10 1 1 90 0 1
footprint=0603
}
N 86700 59400 89600 59400 4
{
T 86900 59440 5 10 1 1 0 0 1
netname=xadc_ad02_i_p
}
N 88800 58500 88800 58400 4
N 86700 58400 89600 58400 4
{
T 86900 58440 5 10 1 1 0 0 1
netname=xadc_ad02_i_n
}
N 90500 58400 90800 58400 4
N 90500 59400 90800 59400 4
N 90800 57500 90800 57800 4
N 90800 57100 90800 56800 4
C 89600 57500 1 0 0 resistor.sym
{
T 89900 57900 5 10 0 0 0 0 1
device=RESISTOR
T 89800 57900 5 10 1 1 0 6 1
refdes=R1418
T 90200 57900 5 10 1 1 0 0 1
value=100
T 89800 57500 5 10 1 1 0 0 1
footprint=0603
}
C 89000 56900 1 90 0 capacitor.sym
{
T 88300 57200 5 10 0 0 90 0 1
device=CAPACITOR
T 88700 57500 5 10 1 1 180 2 1
refdes=C1418
T 88700 57200 5 10 1 1 180 0 1
value=10.0n
T 89000 56800 5 10 1 1 90 0 1
footprint=0603
}
N 86700 57800 89600 57800 4
{
T 86900 57840 5 10 1 1 0 0 1
netname=xadc_ad04_i_n
}
N 88800 56900 88800 56800 4
N 86700 56800 89600 56800 4
{
T 86900 56840 5 10 1 1 0 0 1
netname=xadc_ad04_i_p
}
N 90500 56800 90800 56800 4
N 90500 57800 90800 57800 4
N 95500 59900 95500 60200 4
N 95500 59500 95500 59200 4
C 96000 59900 1 0 0 resistor.sym
{
T 96300 60300 5 10 0 0 0 0 1
device=RESISTOR
T 96200 60300 5 10 1 1 0 6 1
refdes=R1412
T 96600 60300 5 10 1 1 0 0 1
value=100
T 96200 59900 5 10 1 1 0 0 1
footprint=0603
}
C 96000 58900 1 0 0 resistor.sym
{
T 96300 59300 5 10 0 0 0 0 1
device=RESISTOR
T 96200 59400 5 10 1 1 0 6 1
refdes=R1413
T 96600 59400 5 10 1 1 0 0 1
value=100
T 96200 58900 5 10 1 1 0 0 1
footprint=0603
}
C 98000 59300 1 90 0 capacitor.sym
{
T 97300 59600 5 10 0 0 90 0 1
device=CAPACITOR
T 97700 59900 5 10 1 1 180 2 1
refdes=C1412
T 97700 59600 5 10 1 1 180 0 1
value=10.0n
T 98000 59200 5 10 1 1 90 0 1
footprint=0603
}
N 99800 60200 96900 60200 4
{
T 98400 60240 5 10 1 1 0 0 1
netname=xadc_ad01_i_p
}
N 97800 59300 97800 59200 4
N 99800 59200 96900 59200 4
{
T 98400 59240 5 10 1 1 0 0 1
netname=xadc_ad01_i_n
}
N 96000 59200 95500 59200 4
N 96000 60200 95500 60200 4
N 95500 58300 95500 58600 4
N 95500 57900 95500 57600 4
C 96000 58300 1 0 0 resistor.sym
{
T 96300 58700 5 10 0 0 0 0 1
device=RESISTOR
T 96200 58700 5 10 1 1 0 6 1
refdes=R1416
T 96600 58700 5 10 1 1 0 0 1
value=100
T 96200 58300 5 10 1 1 0 0 1
footprint=0603
}
C 96000 57300 1 0 0 resistor.sym
{
T 96300 57700 5 10 0 0 0 0 1
device=RESISTOR
T 96200 57800 5 10 1 1 0 6 1
refdes=R1417
T 96600 57800 5 10 1 1 0 0 1
value=100
T 96200 57300 5 10 1 1 0 0 1
footprint=0603
}
C 98000 57700 1 90 0 capacitor.sym
{
T 97300 58000 5 10 0 0 90 0 1
device=CAPACITOR
T 97700 58300 5 10 1 1 180 2 1
refdes=C1416
T 97700 58000 5 10 1 1 180 0 1
value=10.0n
T 98000 57600 5 10 1 1 90 0 1
footprint=0603
}
N 99800 58600 96900 58600 4
{
T 98400 58640 5 10 1 1 0 0 1
netname=xadc_ad03_i_n
}
N 97800 57700 97800 57600 4
N 99800 57600 96900 57600 4
{
T 98400 57640 5 10 1 1 0 0 1
netname=xadc_ad03_i_p
}
N 95500 57600 96000 57600 4
N 95500 56700 95500 57000 4
N 95500 56300 95500 56000 4
C 96000 56700 1 0 0 resistor.sym
{
T 96300 57100 5 10 0 0 0 0 1
device=RESISTOR
T 96200 57100 5 10 1 1 0 6 1
refdes=R1420
T 96600 57100 5 10 1 1 0 0 1
value=100
T 96200 56700 5 10 1 1 0 0 1
footprint=0603
}
C 98000 56100 1 90 0 capacitor.sym
{
T 97300 56400 5 10 0 0 90 0 1
device=CAPACITOR
T 97700 56700 5 10 1 1 180 2 1
refdes=C1420
T 97700 56400 5 10 1 1 180 0 1
value=10.0n
T 98000 56000 5 10 1 1 90 0 1
footprint=0603
}
N 99800 57000 96900 57000 4
{
T 98400 57040 5 10 1 1 0 0 1
netname=xadc_ad05_i_n
}
N 97800 56100 97800 56000 4
N 99800 56000 96900 56000 4
{
T 98400 56040 5 10 1 1 0 0 1
netname=xadc_ad05_i_p
}
N 96000 56000 95500 56000 4
N 96000 57000 95500 57000 4
N 95500 58600 96000 58600 4
N 111600 58900 114000 58900 4
{
T 111790 58940 5 10 1 1 0 0 1
netname=pow_adc1_vdd_enable_o
}
C 89600 49900 1 0 0 resistor.sym
{
T 89900 50300 5 10 0 0 0 0 1
device=RESISTOR
T 89800 50300 5 10 1 1 0 6 1
refdes=R1439
T 90200 50300 5 10 1 1 0 0 1
value=100
T 89800 49900 5 10 1 1 0 0 1
footprint=0603
}
C 89600 56500 1 0 0 resistor.sym
{
T 89900 56900 5 10 0 0 0 0 1
device=RESISTOR
T 89800 56900 5 10 1 1 0 6 1
refdes=R1419
T 90200 56900 5 10 1 1 0 0 1
value=100
T 89800 56500 5 10 1 1 0 0 1
footprint=0603
}
C 96000 55700 1 0 0 resistor.sym
{
T 96300 56100 5 10 0 0 0 0 1
device=RESISTOR
T 96200 56100 5 10 1 1 0 6 1
refdes=R1421
T 96600 56100 5 10 1 1 0 0 1
value=100
T 96200 55700 5 10 1 1 0 0 1
footprint=0603
}
N 111600 59700 114000 59700 4
{
T 111790 59740 5 10 1 1 0 0 1
netname=pow_adc1_g1_enable_o
}
N 111600 59100 114000 59100 4
{
T 111790 59140 5 10 1 1 0 0 1
netname=pow_adc1_g2_enable_o
}
N 111600 59500 114000 59500 4
{
T 111790 59540 5 10 1 1 0 0 1
netname=pow_adc1_g3_enable_o
}
N 111600 58500 114000 58500 4
{
T 111790 58540 5 10 1 1 0 0 1
netname=pow_adc1_g4_enable_o
}
N 105600 52500 103200 52500 4
{
T 105410 52540 5 10 1 1 0 6 1
netname=pow_adc2_g1_enable_o
}
N 111600 57700 114000 57700 4
{
T 111790 57740 5 10 1 1 0 0 1
netname=pow_adc2_g2_enable_o
}
N 111600 55900 114000 55900 4
{
T 111790 55940 5 10 1 1 0 0 1
netname=pow_adc2_g3_enable_o
}
N 111600 55300 114000 55300 4
{
T 111790 55340 5 10 1 1 0 0 1
netname=pow_adc2_g4_enable_o
}
N 111600 58300 114000 58300 4
{
T 111790 58340 5 10 1 1 0 0 1
netname=pow_adc2_vdd_enable_o
}
N 111600 52500 114000 52500 4
{
T 111790 52540 5 10 1 1 0 0 1
netname=pow_adc4_vdd_enable_o
}
N 111600 56100 114000 56100 4
{
T 111790 56140 5 10 1 1 0 0 1
netname=pow_adc3_g1_enable_o
}
N 111600 57100 114000 57100 4
{
T 111790 57140 5 10 1 1 0 0 1
netname=pow_adc3_g2_enable_o
}
N 111600 55500 114000 55500 4
{
T 111790 55540 5 10 1 1 0 0 1
netname=pow_adc3_g3_enable_o
}
N 111600 57300 114000 57300 4
{
T 111790 57340 5 10 1 1 0 0 1
netname=pow_adc3_g4_enable_o
}
N 114000 57900 111600 57900 4
{
T 113910 57940 5 10 1 1 0 6 1
netname=pow_adc3_vdd_enable_o
}
N 111600 54100 114000 54100 4
{
T 111790 54140 5 10 1 1 0 0 1
netname=pow_adc4_g1_enable_o
}
N 111600 54900 114000 54900 4
{
T 111790 54940 5 10 1 1 0 0 1
netname=pow_adc4_g2_enable_o
}
N 111600 54300 114000 54300 4
{
T 111790 54340 5 10 1 1 0 0 1
netname=pow_adc4_g3_enable_o
}
N 111600 54700 114000 54700 4
{
T 111790 54740 5 10 1 1 0 0 1
netname=pow_adc4_g4_enable_o
}
C 114000 56600 1 0 0 output-1.sym
{
T 114500 56700 5 10 1 1 0 4 1
value=16
}
C 114000 56400 1 0 0 output-1.sym
{
T 114500 56500 5 10 1 1 0 4 1
value=16
}
N 111600 56500 114000 56500 4
{
T 111800 56550 5 10 1 1 0 0 1
netname=pow_qsfp1_clken_o
}
N 111600 56700 114000 56700 4
{
T 111800 56750 5 10 1 1 0 0 1
netname=pow_qsfp1_clkresetn_o
}
N 103200 56700 105600 56700 4
{
T 103400 56750 5 10 1 1 0 0 1
netname=pow_qsfp2_clkresetn_o
}
N 103200 56500 105600 56500 4
{
T 103400 56550 5 10 1 1 0 0 1
netname=pow_qsfp2_clken_o
}
C 103200 56600 1 0 1 output-1.sym
{
T 102700 56700 5 10 1 1 0 4 1
value=16
}
C 103200 56400 1 0 1 output-1.sym
{
T 102700 56500 5 10 1 1 0 4 1
value=16
}
C 112100 53400 1 0 1 nc-left-1.sym
{
T 112100 53800 5 10 0 0 0 6 1
value=NoConnection
T 112100 54200 5 10 0 0 0 6 1
device=DRC_Directive
}
C 112100 52800 1 0 1 nc-left-1.sym
{
T 112100 53200 5 10 0 0 0 6 1
value=NoConnection
T 112100 53600 5 10 0 0 0 6 1
device=DRC_Directive
}
C 112100 53600 1 0 1 nc-left-1.sym
{
T 112100 54000 5 10 0 0 0 6 1
value=NoConnection
T 112100 54400 5 10 0 0 0 6 1
device=DRC_Directive
}
C 112100 53000 1 0 1 nc-left-1.sym
{
T 112100 53400 5 10 0 0 0 6 1
value=NoConnection
T 112100 53800 5 10 0 0 0 6 1
device=DRC_Directive
}
