v 20121123 2
C 70200 59100 1 0 0 XC7K160T_bank16.sym
{
T 73300 68650 5 15 1 1 0 3 1
device=XC7K160T
T 76000 68700 5 10 1 1 0 0 1
refdes=U1
T 76000 68500 5 10 1 1 0 0 1
footprint=FBG676.fp
}
N 72400 59100 74400 59100 4
C 70100 69400 1 90 0 capacitor.sym
{
T 69400 69700 5 10 0 0 90 0 1
device=CAPACITOR
T 69800 70000 5 10 1 1 180 2 1
refdes=C1100
T 69800 69700 5 10 1 1 180 0 1
value=100u
T 70100 69300 5 10 1 1 90 0 1
footprint=1210
}
C 69800 69100 1 0 0 dgnd.sym
C 69100 70200 1 0 0 input-1.sym
{
T 69400 70300 5 10 1 1 0 4 1
value=13
}
C 69700 70300 1 0 0 dvcc.sym
{
T 69950 70620 5 10 1 1 0 3 1
net=VCCO_3P3:1
}
N 69900 70300 74600 70300 4
C 85600 54800 1 0 0 ethernet_phy-KSZ9021GN.sym
{
T 88600 65850 5 32 1 1 0 3 1
device=KSZ9021GN
T 91300 66300 5 10 1 1 0 0 1
refdes=U1100
T 91300 66100 5 10 1 1 0 0 1
footprint=SQFN64_EPT.fp
}
C 77700 56600 1 0 0 dvcc.sym
{
T 77950 56920 5 10 1 1 0 3 1
net=VCCO_3P3:1
}
C 78100 55700 1 90 0 capacitor.sym
{
T 77400 56000 5 10 0 0 90 0 1
device=CAPACITOR
T 77800 56300 5 10 1 1 180 2 1
refdes=C1115
T 77800 56000 5 10 1 1 180 0 1
value=0.1u
T 78100 55600 5 10 1 1 90 0 1
footprint=0603
}
C 77800 55400 1 0 0 dgnd.sym
N 76700 55000 78800 55000 4
{
T 77000 55050 5 10 1 1 0 0 1
netname=eth1_reset_o
}
N 76300 65400 78400 65400 4
{
T 76600 65450 5 10 1 1 0 0 1
netname=eth1_reset_o
}
C 83700 51400 1 0 0 resistor_switch.sym
{
T 84100 52000 5 10 0 0 0 0 1
device=RESISTOR
T 84200 52100 5 10 1 1 0 6 1
refdes=R1100
T 84400 52100 5 10 1 1 0 0 1
value=10.0K
T 84300 51500 5 10 1 1 0 4 1
footprint=1_5_0603.fp
}
N 83500 61400 85600 61400 4
{
T 83800 61450 5 10 1 1 0 0 1
netname=eth1_rx_d0_i
}
N 83500 61200 85600 61200 4
{
T 83800 61250 5 10 1 1 0 0 1
netname=eth1_rx_d1_i
}
N 83500 61000 85600 61000 4
{
T 83800 61050 5 10 1 1 0 0 1
netname=eth1_rx_d2_i
}
N 83500 60800 85600 60800 4
{
T 83800 60850 5 10 1 1 0 0 1
netname=eth1_rx_d3_i
}
C 83700 50400 1 0 0 resistor_switch.sym
{
T 84100 51000 5 10 0 0 0 0 1
device=RESISTOR
T 84200 51100 5 10 1 1 0 6 1
refdes=R1101
T 84400 51100 5 10 1 1 0 0 1
value=10.0K
T 84300 50500 5 10 1 1 0 4 1
footprint=1_5_0603.fp
}
T 86400 51700 9 10 1 0 0 0 1
MODE0->1
T 86400 50700 9 10 1 0 0 0 1
MODE1->0
C 83700 48400 1 0 0 resistor_switch.sym
{
T 84100 49000 5 10 0 0 0 0 1
device=RESISTOR
T 84200 49100 5 10 1 1 0 6 1
refdes=R1103
T 84400 49100 5 10 1 1 0 0 1
value=10.0K
T 84300 48500 5 10 1 1 0 4 1
footprint=1_5_0603.fp
}
C 83700 49400 1 0 0 resistor_switch.sym
{
T 84100 50000 5 10 0 0 0 0 1
device=RESISTOR
T 84200 50100 5 10 1 1 0 6 1
refdes=R1102
T 84400 50100 5 10 1 1 0 0 1
value=10.0K
T 84300 49500 5 10 1 1 0 4 1
footprint=1_5_0603.fp
}
T 86400 49800 9 10 1 0 0 0 1
MODE2->0
T 86400 48800 9 10 1 0 0 0 1
MODE3->0
C 85900 51900 1 0 0 dvcc.sym
{
T 86150 52220 5 10 1 1 0 3 1
net=VCCO_3P3:1
}
N 84700 51900 86100 51900 4
N 86100 48700 86100 51900 4
C 85400 48200 1 0 0 dgnd.sym
N 84700 50900 85500 50900 4
N 85500 48500 85500 51700 4
N 84700 49900 85500 49900 4
N 84700 48900 85500 48900 4
N 84700 51700 85500 51700 4
N 84700 48700 86100 48700 4
N 84700 49700 86100 49700 4
N 84700 50700 86100 50700 4
N 83500 60600 85600 60600 4
{
T 83800 60650 5 10 1 1 0 0 1
netname=eth1_rx_d4_i
}
N 83500 60400 85600 60400 4
{
T 83800 60450 5 10 1 1 0 0 1
netname=eth1_rx_d5_i
}
N 83500 60200 85600 60200 4
{
T 83800 60250 5 10 1 1 0 0 1
netname=eth1_rx_d6_i
}
N 83500 60000 85600 60000 4
{
T 83800 60050 5 10 1 1 0 0 1
netname=eth1_rx_d7_i
}
N 68200 63800 70300 63800 4
{
T 68300 63850 5 10 1 1 0 0 1
netname=eth1_rx_d0_i
}
N 68200 63600 70300 63600 4
{
T 68300 63650 5 10 1 1 0 0 1
netname=eth1_rx_d1_i
}
N 68200 63200 70300 63200 4
{
T 68300 63250 5 10 1 1 0 0 1
netname=eth1_rx_d2_i
}
N 68200 63000 70300 63000 4
{
T 68300 63050 5 10 1 1 0 0 1
netname=eth1_rx_d3_i
}
N 68200 62600 70300 62600 4
{
T 68300 62650 5 10 1 1 0 0 1
netname=eth1_rx_d4_i
}
N 68200 62400 70300 62400 4
{
T 68300 62450 5 10 1 1 0 0 1
netname=eth1_rx_d5_i
}
N 68200 62000 70300 62000 4
{
T 68300 62050 5 10 1 1 0 0 1
netname=eth1_rx_d6_i
}
N 68200 61800 70300 61800 4
{
T 68300 61850 5 10 1 1 0 0 1
netname=eth1_rx_d7_i
}
N 81700 51900 83800 51900 4
{
T 82000 51950 5 10 1 1 0 0 1
netname=eth1_rx_d0_i
}
N 81700 50900 83800 50900 4
{
T 82000 50950 5 10 1 1 0 0 1
netname=eth1_rx_d1_i
}
N 81700 49900 83800 49900 4
{
T 82000 49950 5 10 1 1 0 0 1
netname=eth1_rx_d2_i
}
N 81700 48900 83800 48900 4
{
T 82000 48950 5 10 1 1 0 0 1
netname=eth1_rx_d3_i
}
N 83500 65000 85600 65000 4
{
T 83800 65050 5 10 1 1 0 0 1
netname=eth1_tx_d0_o
}
N 83500 64800 85600 64800 4
{
T 83800 64850 5 10 1 1 0 0 1
netname=eth1_tx_d1_o
}
N 83500 64600 85600 64600 4
{
T 83800 64650 5 10 1 1 0 0 1
netname=eth1_tx_d2_o
}
N 83500 64400 85600 64400 4
{
T 83800 64450 5 10 1 1 0 0 1
netname=eth1_tx_d3_o
}
N 83500 64200 85600 64200 4
{
T 83800 64250 5 10 1 1 0 0 1
netname=eth1_tx_d4_o
}
N 83500 64000 85600 64000 4
{
T 83800 64050 5 10 1 1 0 0 1
netname=eth1_tx_d5_o
}
N 83500 63800 85600 63800 4
{
T 83800 63850 5 10 1 1 0 0 1
netname=eth1_tx_d6_o
}
N 83500 63600 85600 63600 4
{
T 83800 63650 5 10 1 1 0 0 1
netname=eth1_tx_d7_o
}
N 76300 63800 78400 63800 4
{
T 76600 63850 5 10 1 1 0 0 1
netname=eth1_tx_d0_o
}
N 76300 63600 78400 63600 4
{
T 76600 63650 5 10 1 1 0 0 1
netname=eth1_tx_d1_o
}
N 76300 63200 78400 63200 4
{
T 76600 63250 5 10 1 1 0 0 1
netname=eth1_tx_d2_o
}
N 76300 63000 78400 63000 4
{
T 76600 63050 5 10 1 1 0 0 1
netname=eth1_tx_d3_o
}
N 76300 62600 78400 62600 4
{
T 76600 62650 5 10 1 1 0 0 1
netname=eth1_tx_d4_o
}
N 76300 62400 78400 62400 4
{
T 76600 62450 5 10 1 1 0 0 1
netname=eth1_tx_d5_o
}
N 76300 62000 78400 62000 4
{
T 76600 62050 5 10 1 1 0 0 1
netname=eth1_tx_d6_o
}
N 76300 61800 78400 61800 4
{
T 76600 61850 5 10 1 1 0 0 1
netname=eth1_tx_d7_o
}
N 83500 63200 85600 63200 4
{
T 83800 63250 5 10 1 1 0 0 1
netname=eth1_tx_error_o
}
N 76300 65000 78400 65000 4
{
T 76600 65050 5 10 1 1 0 0 1
netname=eth1_tx_error_o
}
N 83500 62800 85600 62800 4
{
T 83800 62850 5 10 1 1 0 0 1
netname=eth1_gtx_clk_o
}
N 76300 64400 78400 64400 4
{
T 76600 64450 5 10 1 1 0 0 1
netname=eth1_gtx_clk_o
}
N 83500 62400 85600 62400 4
{
T 83800 62450 5 10 1 1 0 0 1
netname=eth1_tx_enable_o
}
N 83500 62000 85600 62000 4
{
T 83800 62050 5 10 1 1 0 0 1
netname=eth1_tx_ref_clk_i
}
N 76300 61400 78400 61400 4
{
T 76600 61450 5 10 1 1 0 0 1
netname=eth1_tx_ref_clk_i
}
N 83500 59600 85600 59600 4
{
T 83800 59650 5 10 1 1 0 0 1
netname=eth1_rx_error_i
}
N 68200 64800 70300 64800 4
{
T 68300 64850 5 10 1 1 0 0 1
netname=eth1_rx_error_i
}
N 83500 59200 85600 59200 4
{
T 83800 59250 5 10 1 1 0 0 1
netname=eth1_rx_ref_clk_i
}
N 68200 60800 70300 60800 4
{
T 68300 60850 5 10 1 1 0 0 1
netname=eth1_rx_ref_clk_i
}
N 88200 49900 90300 49900 4
{
T 88500 49950 5 10 1 1 0 0 1
netname=eth1_rx_ref_clk_i
}
C 90200 51400 1 0 0 resistor_switch.sym
{
T 90600 52000 5 10 0 0 0 0 1
device=RESISTOR
T 90700 52100 5 10 1 1 0 6 1
refdes=R1104
T 90900 52100 5 10 1 1 0 0 1
value=10.0K
T 90800 51500 5 10 1 1 0 4 1
footprint=1_5_0603.fp
}
C 92400 52200 1 0 0 dvcc.sym
{
T 92650 52520 5 10 1 1 0 3 1
net=VCCO_3P3:1
}
N 92600 49700 92600 52200 4
C 91900 49200 1 0 0 dgnd.sym
N 91200 51900 92600 51900 4
N 92000 49500 92000 51700 4
N 91200 50900 92600 50900 4
N 91200 49900 92000 49900 4
N 91200 49700 92600 49700 4
N 91200 50700 92000 50700 4
N 91200 51700 92000 51700 4
T 92900 51700 9 10 1 0 0 0 1
PHYAD0->1
T 92900 50800 9 10 1 0 0 0 1
PHYAD1->1
T 92900 49800 9 10 1 0 0 0 1
PHYAD2->0
C 90200 50400 1 0 0 resistor_switch.sym
{
T 90600 51000 5 10 0 0 0 0 1
device=RESISTOR
T 90700 51100 5 10 1 1 0 6 1
refdes=R1105
T 90900 51100 5 10 1 1 0 0 1
value=10.0K
T 90800 50500 5 10 1 1 0 4 1
footprint=1_5_0603.fp
}
C 90200 49400 1 0 0 resistor_switch.sym
{
T 90600 50000 5 10 0 0 0 0 1
device=RESISTOR
T 90700 50100 5 10 1 1 0 6 1
refdes=R1106
T 90900 50100 5 10 1 1 0 0 1
value=10.0K
T 90800 49500 5 10 1 1 0 4 1
footprint=1_5_0603.fp
}
N 91600 60400 93700 60400 4
{
T 91900 60450 5 10 1 1 0 0 1
netname=ETH1_LED1
}
N 91600 60200 93700 60200 4
{
T 91900 60250 5 10 1 1 0 0 1
netname=ETH1_LED2
}
N 88200 51900 90300 51900 4
{
T 88500 51950 5 10 1 1 0 0 1
netname=ETH1_LED1
}
N 88200 50900 90300 50900 4
{
T 88500 50950 5 10 1 1 0 0 1
netname=ETH1_LED2
}
N 83500 58800 85600 58800 4
{
T 83800 58850 5 10 1 1 0 0 1
netname=eth1_rx_data_valid_i
}
N 68200 65000 70300 65000 4
{
T 68300 65050 5 10 1 1 0 0 1
netname=eth1_rx_data_valid_i
}
N 94500 51800 96600 51800 4
{
T 94600 51850 5 10 1 1 0 0 1
netname=eth1_rx_data_valid_i
}
C 96500 51300 1 0 0 resistor_switch.sym
{
T 96900 51900 5 10 0 0 0 0 1
device=RESISTOR
T 97000 52000 5 10 1 1 0 6 1
refdes=R1107
T 97200 52000 5 10 1 1 0 0 1
value=10.0K
T 97100 51400 5 10 1 1 0 4 1
footprint=1_5_0603.fp
}
C 98700 51800 1 0 0 dvcc.sym
{
T 98950 52120 5 10 1 1 0 3 1
net=VCCO_3P3:1
}
N 97500 51800 98900 51800 4
N 97500 51600 98300 51600 4
N 98300 50200 98300 51600 4
C 98200 49900 1 0 0 dgnd.sym
N 98900 50500 98900 51800 4
T 99200 51700 9 10 1 0 0 0 1
125MhZ Clock Output Enabled
N 83500 56600 85600 56600 4
{
T 83800 56650 5 10 1 1 0 0 1
netname=eth1_125MHz_clk_i
}
N 76300 60800 78400 60800 4
{
T 76600 60850 5 10 1 1 0 0 1
netname=eth1_125MHz_clk_i
}
N 94500 50700 96600 50700 4
{
T 94600 50750 5 10 1 1 0 0 1
netname=eth1_125MHz_clk_i
}
C 96500 50200 1 0 0 resistor_switch.sym
{
T 96900 50800 5 10 0 0 0 0 1
device=RESISTOR
T 97000 50900 5 10 1 1 0 6 1
refdes=R1108
T 97200 50900 5 10 1 1 0 0 1
value=10.0K
T 97100 50300 5 10 1 1 0 4 1
footprint=1_5_0603.fp
}
N 97500 50700 98300 50700 4
N 97500 50500 98900 50500 4
T 99200 50600 9 10 1 0 0 0 1
Bicolor LED Mode
N 83500 58400 85600 58400 4
{
T 83800 58450 5 10 1 1 0 0 1
netname=eth1_md_clk_o
}
N 68200 65400 70300 65400 4
{
T 68300 65450 5 10 1 1 0 0 1
netname=eth1_md_clk_o
}
N 82300 58200 85600 58200 4
{
T 83800 58250 5 10 1 1 0 0 1
netname=eth1_md_data_io
}
N 68200 65600 70300 65600 4
{
T 68300 65650 5 10 1 1 0 0 1
netname=eth1_md_data_io
}
C 83100 58200 1 90 0 resistor.sym
{
T 82700 58500 5 10 0 0 90 0 1
device=RESISTOR
T 82700 58900 5 10 1 1 180 0 1
refdes=R1120
T 82700 58500 5 10 1 1 180 0 1
value=4.7K
T 83100 58500 5 10 1 1 90 0 1
footprint=0603
}
C 82600 59100 1 0 0 dvcc.sym
{
T 82850 59420 5 10 1 1 0 3 1
net=VCCO_3P3:1
}
N 83500 57800 85600 57800 4
{
T 83800 57850 5 10 1 1 0 0 1
netname=eth1_crs_i
}
N 68200 64400 70300 64400 4
{
T 68300 64450 5 10 1 1 0 0 1
netname=eth1_crs_i
}
N 83500 57400 85600 57400 4
{
T 83800 57450 5 10 1 1 0 0 1
netname=eth1_col_i
}
N 68200 64200 70300 64200 4
{
T 68300 64250 5 10 1 1 0 0 1
netname=eth1_col_i
}
N 81000 57000 85600 57000 4
{
T 83800 57050 5 10 1 1 0 0 1
netname=eth1_int_i
}
N 76300 65600 78400 65600 4
{
T 76600 65650 5 10 1 1 0 0 1
netname=eth1_int_i
}
C 81700 57000 1 90 0 resistor.sym
{
T 81300 57300 5 10 0 0 90 0 1
device=RESISTOR
T 81300 57700 5 10 1 1 180 0 1
refdes=R1121
T 81300 57300 5 10 1 1 180 0 1
value=4.7K
T 81700 57300 5 10 1 1 90 0 1
footprint=0603
}
C 81200 57900 1 0 0 dvcc.sym
{
T 81450 58220 5 10 1 1 0 3 1
net=VCCO_3P3:1
}
C 71100 47700 1 0 0 voltage_reg-MIC38150.sym
{
T 72400 52750 5 16 1 1 0 4 1
device=MIC38150
T 71800 53200 5 10 1 1 0 0 1
refdes=U1101
T 71800 53000 5 10 1 1 0 0 1
footprint=MLF28_3EPT.fp
}
N 69400 51900 71200 51900 4
N 71200 50900 70900 50900 4
N 70900 50900 70900 51900 4
N 71200 51700 70900 51700 4
N 71200 51500 70900 51500 4
N 71200 51300 70900 51300 4
N 71200 51100 70900 51100 4
N 69400 50300 71200 50300 4
N 70900 50300 70900 50500 4
N 69400 50300 69400 51900 4
N 71200 49900 68200 49900 4
N 71200 48900 68400 48900 4
N 71200 49100 70900 49100 4
N 70900 49100 70900 48900 4
N 71200 48500 70900 48500 4
N 70900 48500 70900 48900 4
C 71100 47600 1 90 0 capacitor.sym
{
T 70400 47900 5 10 0 0 90 0 1
device=CAPACITOR
T 70800 48200 5 10 1 1 180 2 1
refdes=C1113
T 70800 47900 5 10 1 1 180 0 1
value=1.0u
T 71100 47500 5 10 1 1 90 0 1
footprint=0603
}
C 70800 47300 1 0 0 dgnd.sym
C 71500 47400 1 0 0 dgnd.sym
N 71600 47700 73200 47700 4
C 75200 48800 1 90 0 resistor.sym
{
T 74800 49100 5 10 0 0 90 0 1
device=RESISTOR
T 74800 49500 5 10 1 1 180 0 1
refdes=R1113
T 74800 49100 5 10 1 1 180 0 1
value=2.0K
T 75200 49100 5 10 1 1 90 0 1
footprint=0603
}
C 75200 47600 1 90 0 resistor.sym
{
T 74800 47900 5 10 0 0 90 0 1
device=RESISTOR
T 74800 48300 5 10 1 1 180 0 1
refdes=R1114
T 74800 47900 5 10 1 1 180 0 1
value=10.0K
T 75200 47900 5 10 1 1 90 0 1
footprint=0603
}
N 73600 48500 74900 48500 4
N 74900 48500 74900 48800 4
N 73600 49700 77200 49700 4
N 73600 49500 73800 49500 4
N 73800 49500 73800 49700 4
C 74800 47300 1 0 0 dgnd.sym
C 76600 48500 1 0 0 dgnd.sym
C 75200 50600 1 90 0 resistor.sym
{
T 74800 50900 5 10 0 0 90 0 1
device=RESISTOR
T 74800 51300 5 10 1 1 180 0 1
refdes=R1112
T 74800 50900 5 10 1 1 180 0 1
value=24.9K
T 75200 50900 5 10 1 1 90 0 1
footprint=0603
}
N 73600 50100 74900 50100 4
N 73600 50500 73800 50500 4
N 73800 50500 73800 51900 4
N 73600 51900 74900 51900 4
N 74900 51900 74900 51500 4
N 73800 51700 73600 51700 4
N 73800 51500 73600 51500 4
N 73800 51300 73600 51300 4
N 73800 51100 73600 51100 4
N 73800 50900 73600 50900 4
N 73800 50700 73600 50700 4
C 70500 48900 1 90 0 resistor.sym
{
T 70100 49200 5 10 0 0 90 0 1
device=RESISTOR
T 70100 49600 5 10 1 1 180 0 1
refdes=R1111
T 70100 49200 5 10 1 1 180 0 1
value=10.0K
T 70500 49200 5 10 1 1 90 0 1
footprint=0603
}
N 70200 49800 70200 49900 4
N 70900 50500 71200 50500 4
C 70100 50700 1 0 0 dgnd.sym
C 92200 69600 1 90 0 capacitor.sym
{
T 91500 69900 5 10 0 0 90 0 1
device=CAPACITOR
T 91900 70200 5 10 1 1 180 2 1
refdes=C1130
T 91900 69900 5 10 1 1 180 0 1
value=0.1u
T 92200 69500 5 10 1 1 90 0 1
footprint=0603
}
C 93000 69600 1 90 0 capacitor.sym
{
T 92300 69900 5 10 0 0 90 0 1
device=CAPACITOR
T 92700 70200 5 10 1 1 180 2 1
refdes=C1131
T 92700 69900 5 10 1 1 180 0 1
value=0.1u
T 93000 69500 5 10 1 1 90 0 1
footprint=0603
}
C 93800 69600 1 90 0 capacitor.sym
{
T 93100 69900 5 10 0 0 90 0 1
device=CAPACITOR
T 93500 70200 5 10 1 1 180 2 1
refdes=C1132
T 93500 69900 5 10 1 1 180 0 1
value=0.1u
T 93800 69500 5 10 1 1 90 0 1
footprint=0603
}
C 94600 69600 1 90 0 capacitor.sym
{
T 93900 69900 5 10 0 0 90 0 1
device=CAPACITOR
T 94300 70200 5 10 1 1 180 2 1
refdes=C1133
T 94300 69900 5 10 1 1 180 0 1
value=0.1u
T 94600 69500 5 10 1 1 90 0 1
footprint=0603
}
N 88800 70500 94400 70500 4
N 92000 69600 92000 69400 4
N 92000 69400 94400 69400 4
N 94400 69400 94400 69600 4
N 92800 69600 92800 69400 4
N 93600 69600 93600 69400 4
C 82000 68300 1 0 0 dvcc.sym
{
T 82250 68620 5 10 1 1 0 3 1
net=ETH1_DVDDL_1P2:1
}
C 82400 67400 1 90 0 capacitor.sym
{
T 81700 67700 5 10 0 0 90 0 1
device=CAPACITOR
T 82100 68000 5 10 1 1 180 2 1
refdes=C1124
T 82100 67700 5 10 1 1 180 0 1
value=0.1u
T 82400 67300 5 10 1 1 90 0 1
footprint=0603
}
C 83200 67400 1 90 0 capacitor.sym
{
T 82500 67700 5 10 0 0 90 0 1
device=CAPACITOR
T 82900 68000 5 10 1 1 180 2 1
refdes=C1125
T 82900 67700 5 10 1 1 180 0 1
value=0.1u
T 83200 67300 5 10 1 1 90 0 1
footprint=0603
}
C 84000 67400 1 90 0 capacitor.sym
{
T 83300 67700 5 10 0 0 90 0 1
device=CAPACITOR
T 83700 68000 5 10 1 1 180 2 1
refdes=C1126
T 83700 67700 5 10 1 1 180 0 1
value=0.1u
T 84000 67300 5 10 1 1 90 0 1
footprint=0603
}
C 84800 67400 1 90 0 capacitor.sym
{
T 84100 67700 5 10 0 0 90 0 1
device=CAPACITOR
T 84500 68000 5 10 1 1 180 2 1
refdes=C1127
T 84500 67700 5 10 1 1 180 0 1
value=0.1u
T 84800 67300 5 10 1 1 90 0 1
footprint=0603
}
C 85600 67400 1 90 0 capacitor.sym
{
T 84900 67700 5 10 0 0 90 0 1
device=CAPACITOR
T 85300 68000 5 10 1 1 180 2 1
refdes=C1128
T 85300 67700 5 10 1 1 180 0 1
value=0.1u
T 85600 67300 5 10 1 1 90 0 1
footprint=0603
}
C 82100 66900 1 0 0 dgnd.sym
N 82200 67400 82200 67200 4
N 82200 67200 85400 67200 4
N 82200 68300 87400 68300 4
N 83000 67400 83000 67200 4
N 83800 67400 83800 67200 4
N 84600 67400 84600 67200 4
N 85400 67400 85400 67200 4
N 88800 68300 88800 70500 4
C 94200 70500 1 0 0 avcc.sym
{
T 94350 70900 5 10 1 1 0 3 1
net=ETH1_AVDDL_1P2:1
}
N 88800 68300 89400 68300 4
C 94300 69100 1 0 0 dgnd.sym
C 77200 49400 1 0 0 ferrite_bead.sym
{
T 77400 50300 5 10 0 0 0 0 1
device=INDUCTOR
T 77400 49900 5 10 1 1 0 0 1
refdes=L1113
T 77400 50146 5 10 0 0 0 0 1
value=0 H
T 77400 49381 5 10 1 1 0 0 1
footprint=0603
}
C 77900 49700 1 0 0 avcc.sym
{
T 78050 50100 5 10 1 1 0 3 1
net=ETH1_AVDDL_1P2:1
}
C 77900 50700 1 0 0 avcc.sym
{
T 78050 51100 5 10 1 1 0 3 1
net=ETH1_AVDDL_PLL_1P2:1
}
C 77200 50400 1 0 0 ferrite_bead.sym
{
T 77400 51300 5 10 0 0 0 0 1
device=INDUCTOR
T 77400 50900 5 10 1 1 0 0 1
refdes=L1112
T 77400 51146 5 10 0 0 0 0 1
value=0 H
T 77400 50381 5 10 1 1 0 0 1
footprint=0603
}
N 77200 50700 76700 50700 4
N 76700 49700 76700 51700 4
C 89600 69800 1 0 0 avcc.sym
{
T 90050 70200 5 10 1 1 0 3 1
net=ETH1_AVDDL_PLL_1P2:1
}
N 89800 69800 89800 68300 4
C 90800 68900 1 90 0 capacitor.sym
{
T 90100 69200 5 10 0 0 90 0 1
device=CAPACITOR
T 90500 69500 5 10 1 1 180 2 1
refdes=C1129
T 90500 69200 5 10 1 1 180 0 1
value=0.1u
T 90800 68800 5 10 1 1 90 0 1
footprint=0603
}
C 90500 68600 1 0 0 dgnd.sym
N 90600 69800 89800 69800 4
C 77900 51800 1 0 0 dvcc.sym
{
T 78150 52120 5 10 1 1 0 3 1
net=ETH1_DVDDL_1P2:1
}
N 78100 51800 78100 51700 4
N 77200 51700 76700 51700 4
C 84200 70000 1 0 0 dvcc.sym
{
T 84450 70320 5 10 1 1 0 3 1
net=VCCO_3P3:1
}
C 84600 69100 1 90 0 capacitor.sym
{
T 83900 69400 5 10 0 0 90 0 1
device=CAPACITOR
T 84300 69700 5 10 1 1 180 2 1
refdes=C1120
T 84300 69400 5 10 1 1 180 0 1
value=0.1u
T 84600 69000 5 10 1 1 90 0 1
footprint=0603
}
C 85400 69100 1 90 0 capacitor.sym
{
T 84700 69400 5 10 0 0 90 0 1
device=CAPACITOR
T 85100 69700 5 10 1 1 180 2 1
refdes=C1121
T 85100 69400 5 10 1 1 180 0 1
value=0.1u
T 85400 69000 5 10 1 1 90 0 1
footprint=0603
}
C 86200 69100 1 90 0 capacitor.sym
{
T 85500 69400 5 10 0 0 90 0 1
device=CAPACITOR
T 85900 69700 5 10 1 1 180 2 1
refdes=C1122
T 85900 69400 5 10 1 1 180 0 1
value=0.1u
T 86200 69000 5 10 1 1 90 0 1
footprint=0603
}
C 87000 69100 1 90 0 capacitor.sym
{
T 86300 69400 5 10 0 0 90 0 1
device=CAPACITOR
T 86700 69700 5 10 1 1 180 2 1
refdes=C1123
T 86700 69400 5 10 1 1 180 0 1
value=0.1u
T 87000 69000 5 10 1 1 90 0 1
footprint=0603
}
C 84300 68600 1 0 0 dgnd.sym
N 84400 69100 84400 68900 4
N 84400 68900 86800 68900 4
N 85200 69100 85200 68900 4
N 86000 69100 86000 68900 4
N 86800 69100 86800 68900 4
N 84400 70000 87800 70000 4
N 87800 70000 87800 68300 4
N 87800 68300 88400 68300 4
C 95100 68400 1 0 0 dvcc.sym
{
T 95350 68720 5 10 1 1 0 3 1
net=VCCO_3P3:1
}
C 94400 68000 1 0 0 ferrite_bead.sym
{
T 94600 68900 5 10 0 0 0 0 1
device=INDUCTOR
T 94500 68500 5 10 1 1 0 0 1
refdes=L1110
T 94600 68746 5 10 0 0 0 0 1
value=0 H
T 94600 67981 5 10 1 1 0 0 1
footprint=0603
}
C 92200 67400 1 90 0 capacitor.sym
{
T 91500 67700 5 10 0 0 90 0 1
device=CAPACITOR
T 91900 68000 5 10 1 1 180 2 1
refdes=C1134
T 91900 67700 5 10 1 1 180 0 1
value=0.1u
T 92200 67300 5 10 1 1 90 0 1
footprint=0603
}
C 93000 67400 1 90 0 capacitor.sym
{
T 92300 67700 5 10 0 0 90 0 1
device=CAPACITOR
T 92700 68000 5 10 1 1 180 2 1
refdes=C1135
T 92700 67700 5 10 1 1 180 0 1
value=0.1u
T 93000 67300 5 10 1 1 90 0 1
footprint=0603
}
C 93800 67400 1 90 0 capacitor.sym
{
T 93100 67700 5 10 0 0 90 0 1
device=CAPACITOR
T 93500 68000 5 10 1 1 180 2 1
refdes=C1136
T 93500 67700 5 10 1 1 180 0 1
value=0.1u
T 93800 67300 5 10 1 1 90 0 1
footprint=0603
}
N 94400 68300 90200 68300 4
C 93500 66900 1 0 0 dgnd.sym
N 92000 67200 93600 67200 4
N 92000 67400 92000 67200 4
N 92800 67400 92800 67200 4
N 93600 67400 93600 67200 4
C 83600 69900 1 0 0 input-1.sym
{
T 83900 70000 5 10 1 1 0 4 1
value=13
}
C 96100 68200 1 0 1 input-1.sym
{
T 95800 68300 5 10 1 1 0 4 1
value=13
}
C 67600 48800 1 0 0 input-1.sym
{
T 67900 48900 5 10 1 1 0 4 1
value=13
}
C 68200 48900 1 0 0 dvcc.sym
{
T 68450 49220 5 10 1 1 0 3 1
net=VCCO_3P3:1
}
C 88500 54500 1 0 0 dgnd.sym
C 90300 54500 1 0 0 dgnd.sym
N 90400 54800 90600 54800 4
C 86900 53900 1 90 0 resistor.sym
{
T 86500 54200 5 10 0 0 90 0 1
device=RESISTOR
T 86500 54600 5 10 1 1 180 0 1
refdes=R1109
T 86500 54200 5 10 1 1 180 0 1
value=4.99K
T 86900 54200 5 10 1 1 90 0 1
footprint=0603
}
C 86500 53600 1 0 0 dgnd.sym
C 77200 51400 1 0 0 ferrite_bead.sym
{
T 77400 52300 5 10 0 0 0 0 1
device=INDUCTOR
T 77400 51900 5 10 1 1 0 0 1
refdes=L1111
T 77400 52146 5 10 0 0 0 0 1
value=0 H
T 77400 51381 5 10 1 1 0 0 1
footprint=0603
}
N 76300 64800 78400 64800 4
{
T 76600 64850 5 10 1 1 0 0 1
netname=eth1_tx_enable_o
}
C 72300 58800 1 0 0 dgnd.sym
C 68300 47700 1 0 0 dgnd.sym
C 70400 51000 1 90 0 capacitor.sym
{
T 69700 51300 5 10 0 0 90 0 1
device=CAPACITOR
T 70100 51600 5 10 1 1 180 2 1
refdes=C1112
T 70100 51300 5 10 1 1 180 0 1
value=47u
T 70400 50900 5 10 1 1 90 0 1
footprint=1210
}
C 68600 48000 1 90 0 capacitor.sym
{
T 67900 48300 5 10 0 0 90 0 1
device=CAPACITOR
T 68300 48600 5 10 1 1 180 2 1
refdes=C1111
T 68300 48300 5 10 1 1 180 0 1
value=47u
T 68600 47900 5 10 1 1 90 0 1
footprint=1210
}
C 76900 48800 1 90 0 capacitor.sym
{
T 76200 49100 5 10 0 0 90 0 1
device=CAPACITOR
T 76600 49400 5 10 1 1 180 2 1
refdes=C1114
T 76600 49100 5 10 1 1 180 0 1
value=47u
T 76900 48700 5 10 1 1 90 0 1
footprint=1210
}
N 74900 50100 74900 50600 4
T 73900 49800 9 10 1 0 0 0 1
Vout -> 1.0V x (1 + R1113/R1114)
N 95300 68300 95300 68400 4
C 78800 54500 1 0 0 supply_monit-TPS3125.sym
{
T 79700 56050 5 10 1 1 0 4 1
device=TPS3125
T 79000 56600 5 10 1 1 0 0 1
refdes=U1102
T 79000 56400 5 10 1 1 0 0 1
footprint=SOT25
}
N 77900 56600 78500 56600 4
N 78500 56600 78500 55400 4
N 78500 55400 78800 55400 4
C 79600 54200 1 0 0 dgnd.sym
N 83500 55000 83500 56200 4
N 83500 56200 85600 56200 4
C 93300 54900 1 0 0 crystal.sym
{
T 93100 56300 5 10 1 1 0 0 1
device=ECS-250-8-30B-CKM
T 94000 56000 5 10 1 1 0 0 1
refdes=Y1100
T 93795 55100 5 10 1 1 0 5 1
footprint=ECX30B.fp
T 93995 55300 5 10 1 1 0 8 1
value=25MHz
}
N 93300 55600 92600 55600 4
N 92600 55600 92600 56200 4
N 92600 56200 91600 56200 4
N 91600 57800 95000 57800 4
N 95000 57800 95000 55600 4
N 95000 55600 94300 55600 4
C 92800 54700 1 90 0 capacitor.sym
{
T 92100 55000 5 10 0 0 90 0 1
device=CAPACITOR
T 92500 55300 5 10 1 1 180 2 1
refdes=C1140
T 92500 55000 5 10 1 1 180 0 1
value=22p
T 92800 54600 5 10 1 1 90 0 1
footprint=0603
}
C 95200 54700 1 90 0 capacitor.sym
{
T 94500 55000 5 10 0 0 90 0 1
device=CAPACITOR
T 94900 55300 5 10 1 1 180 2 1
refdes=C1141
T 94900 55000 5 10 1 1 180 0 1
value=22p
T 95200 54600 5 10 1 1 90 0 1
footprint=0603
}
C 94900 54400 1 0 0 dgnd.sym
C 92500 54400 1 0 0 dgnd.sym
C 99900 60800 1 0 0 connector-RJ45MAG1.sym
{
T 104200 64500 5 10 1 1 0 0 1
refdes=J1100
T 103700 63300 5 15 1 1 90 4 1
device=1840408-6
T 104200 64300 5 10 1 1 0 0 1
footprint=RJ45_4G05ETP1.fp
}
N 99900 61800 94500 61800 4
N 94500 60300 94500 61800 4
N 99900 62200 94100 62200 4
N 94100 62200 94100 61400 4
N 99900 62600 93500 62600 4
N 93500 62600 93500 62200 4
N 99900 63000 93100 63000 4
N 93100 62600 93100 63000 4
N 99900 64600 93500 64600 4
N 93500 64600 93500 66000 4
N 99900 64200 93100 64200 4
N 93100 64200 93100 64600 4
N 91600 63800 99900 63800 4
{
T 91900 63850 5 10 1 1 0 0 1
netname=ETH1_MDI1P
}
N 91600 63400 99900 63400 4
{
T 91900 63450 5 10 1 1 0 0 1
netname=ETH1_MDI1N
}
N 99900 65200 99700 65200 4
C 99600 60900 1 0 0 dgnd.sym
N 99900 61200 99700 61200 4
C 93400 68300 1 0 0 avcc.sym
{
T 93550 68700 5 10 1 1 0 3 1
net=ETH1_AVDDH_3P3:1
}
C 99500 65200 1 0 0 avcc.sym
{
T 100250 65600 5 10 1 1 0 3 1
net=ETH1_AVDDH_3P3:1
}
C 96400 59500 1 0 0 resistor_pack_04_03.sym
{
T 96600 61500 5 10 0 0 0 0 1
device=RESP
T 96800 61300 5 10 1 1 0 6 1
refdes=R1151
T 97000 61300 5 10 1 1 0 0 1
value=49.9
T 96800 59600 5 10 1 1 0 3 1
footprint=CRA06E.fp
}
C 96500 64800 1 0 0 resistor_pack_04_03.sym
{
T 96700 66800 5 10 0 0 0 0 1
device=RESP
T 96900 66600 5 10 1 1 0 6 1
refdes=R1150
T 97100 66600 5 10 1 1 0 0 1
value=49.9
T 96900 64900 5 10 1 1 0 3 1
footprint=CRA06E.fp
}
N 96500 66000 93500 66000 4
N 93900 64200 93900 66400 4
N 93900 66400 96500 66400 4
N 97400 66000 97400 66400 4
N 97400 65600 97400 65200 4
C 97700 66000 1 0 0 capacitor.sym
{
T 98000 66700 5 10 0 0 0 0 1
device=CAPACITOR
T 98000 66300 5 10 1 1 180 2 1
refdes=C1150
T 98300 66300 5 10 1 1 0 0 1
value=0.01u
T 98300 66000 5 10 1 1 0 0 1
footprint=0603
}
N 97700 66200 97400 66200 4
C 98900 66100 1 90 0 dgnd.sym
C 98900 65300 1 90 0 dgnd.sym
C 97700 65200 1 0 0 capacitor.sym
{
T 98000 65900 5 10 0 0 0 0 1
device=CAPACITOR
T 98000 65500 5 10 1 1 180 2 1
refdes=C1151
T 98300 65500 5 10 1 1 0 0 1
value=0.01u
T 98300 65200 5 10 1 1 0 0 1
footprint=0603
}
N 97700 65400 97400 65400 4
C 98900 60800 1 90 0 dgnd.sym
C 97700 60700 1 0 0 capacitor.sym
{
T 98000 61400 5 10 0 0 0 0 1
device=CAPACITOR
T 98000 61000 5 10 1 1 180 2 1
refdes=C1152
T 98300 61000 5 10 1 1 0 0 1
value=0.01u
T 98300 60700 5 10 1 1 0 0 1
footprint=0603
}
N 97700 60900 97300 60900 4
C 98900 60000 1 90 0 dgnd.sym
C 97700 59900 1 0 0 capacitor.sym
{
T 98000 60600 5 10 0 0 0 0 1
device=CAPACITOR
T 98000 60200 5 10 1 1 180 2 1
refdes=C1153
T 98300 60200 5 10 1 1 0 0 1
value=0.01u
T 98300 59900 5 10 1 1 0 0 1
footprint=0603
}
N 97700 60100 97300 60100 4
N 97300 61100 97300 60700 4
N 97300 60300 97300 59900 4
N 96500 65600 95500 65600 4
N 95500 65600 95500 63800 4
N 96500 65200 95900 65200 4
N 95900 65200 95900 63400 4
N 96400 61100 95900 61100 4
N 95900 61100 95900 63000 4
N 96400 60700 95500 60700 4
N 95500 60700 95500 62600 4
N 96400 59900 94900 59900 4
N 94900 59900 94900 61400 4
N 96400 60300 94500 60300 4
N 91600 65000 93500 65000 4
{
T 91900 65050 5 10 1 1 0 0 1
netname=ETH1_MDI0P
}
N 91600 64600 93100 64600 4
{
T 91900 64650 5 10 1 1 0 0 1
netname=ETH1_MDI0N
}
N 91600 62600 93100 62600 4
{
T 91900 62650 5 10 1 1 0 0 1
netname=ETH1_MDI2P
}
N 91600 62200 93500 62200 4
{
T 91900 62250 5 10 1 1 0 0 1
netname=ETH1_MDI2N
}
N 91600 61400 94900 61400 4
{
T 91900 61450 5 10 1 1 0 0 1
netname=ETH1_MDI3P
}
N 91600 61000 94500 61000 4
{
T 91900 61050 5 10 1 1 0 0 1
netname=ETH1_MDI3N
}
C 102400 59900 1 90 0 ferrite_bead.sym
{
T 101500 60100 5 10 0 0 90 0 1
device=INDUCTOR
T 101900 60100 5 10 1 1 90 0 1
refdes=L1100
T 101654 60100 5 10 0 0 90 0 1
value=0 H
T 102419 60100 5 10 1 1 90 0 1
footprint=0603
}
C 102000 59600 1 0 0 dgnd.sym
N 100800 66500 102900 66500 4
{
T 101100 66550 5 10 1 1 0 0 1
netname=ETH1_LED2
}
N 100800 58700 102900 58700 4
{
T 101100 58750 5 10 1 1 0 0 1
netname=ETH1_LED1
}
C 103200 58800 1 90 0 resistor.sym
{
T 102800 59100 5 10 0 0 90 0 1
device=RESISTOR
T 102800 59500 5 10 1 1 180 0 1
refdes=R1152
T 102800 59100 5 10 1 1 180 0 1
value=200
T 103200 59100 5 10 1 1 90 0 1
footprint=0603
}
N 102900 59700 102900 60800 4
N 103700 59900 103700 58700 4
N 103700 58700 105800 58700 4
{
T 103900 58750 5 10 1 1 0 0 1
netname=ETH1_LED2
}
N 102900 58800 102900 58700 4
C 103200 65600 1 90 0 resistor.sym
{
T 102800 65900 5 10 0 0 90 0 1
device=RESISTOR
T 102800 66300 5 10 1 1 180 0 1
refdes=R1153
T 102800 65900 5 10 1 1 180 0 1
value=200
T 103200 65900 5 10 1 1 90 0 1
footprint=0603
}
C 103500 67400 1 0 0 dvcc.sym
{
T 103750 67720 5 10 1 1 0 3 1
net=VCCO_3P3:1
}
N 80600 55000 83500 55000 4
{
T 81000 55050 5 10 1 1 0 0 1
netname=ETH1_pon_reset
}
T 100300 56900 9 10 1 0 0 0 4
ETH1_LED2
ETH1_LED1
LED Top
LED Bottom
T 102200 56900 9 10 1 0 0 3 6
Link Off

H
H
0
0
T 102900 56900 9 10 1 0 0 3 6
1Gbit

L
H
Y
G
T 103800 56900 9 10 1 0 0 3 6
100Mbit

H
L
0
Y
T 104600 56900 9 10 1 0 0 3 6
10Mbit

L
L
Y
0
C 104000 59900 1 90 0 resistor.sym
{
T 103600 60200 5 10 0 0 90 0 1
device=RESISTOR
T 103600 60600 5 10 1 1 180 0 1
refdes=R1154
T 103600 60200 5 10 1 1 180 0 1
value=0
T 104000 60200 5 10 1 1 90 0 1
footprint=0603
}
C 104000 66500 1 90 0 resistor.sym
{
T 103600 66800 5 10 0 0 90 0 1
device=RESISTOR
T 103600 67200 5 10 1 1 180 0 1
refdes=R1155
T 103600 66800 5 10 1 1 180 0 1
value=0
T 104000 66800 5 10 1 1 90 0 1
footprint=0603
}
N 103700 66500 103700 65600 4
C 94600 55100 1 90 0 dgnd.sym
C 93000 56100 1 270 0 dgnd.sym
C 98300 47200 1 0 0 cvstitleblock-1.sym
{
T 98900 47600 5 10 1 1 0 0 1
date=2013-07-24
T 102900 47600 5 10 1 1 0 0 1
rev=0.1
T 102900 47300 5 10 1 1 0 0 1
auth=Alexei Dorofeev
T 99100 47900 5 10 1 1 0 0 1
fname=drift_accumulator_11_eth1.sch
T 102100 48300 5 14 1 1 0 4 1
title=Drift Accumulator: 1Gbps Ethernet
T 99200 47300 5 10 1 1 0 0 1
page_number=11
T 100700 47300 5 10 1 1 0 0 1
pages=16
}
C 69800 60500 1 0 0 nc-left-1.sym
{
T 69800 60900 5 10 0 0 0 0 1
value=NoConnection
T 69800 61300 5 10 0 0 0 0 1
device=DRC_Directive
}
C 76800 60500 1 0 1 nc-left-1.sym
{
T 76800 60900 5 10 0 0 0 6 1
value=NoConnection
T 76800 61300 5 10 0 0 0 6 1
device=DRC_Directive
}
C 76800 61100 1 0 1 nc-left-1.sym
{
T 76800 61500 5 10 0 0 0 6 1
value=NoConnection
T 76800 61900 5 10 0 0 0 6 1
device=DRC_Directive
}
N 68200 67400 70300 67400 4
{
T 68500 67450 5 10 1 1 0 0 1
netname=qsfp1_cs_o
}
N 68200 66600 70300 66600 4
{
T 68500 66650 5 10 1 1 0 0 1
netname=qsfp1_reset_o
}
N 68200 67200 70300 67200 4
{
T 68500 67250 5 10 1 1 0 0 1
netname=qsfp1_mode_o
}
N 78400 60200 76300 60200 4
{
T 77900 60250 5 10 1 1 0 6 1
netname=qsfp1_present_i
}
N 68200 60200 70300 60200 4
{
T 68500 60250 5 10 1 1 0 0 1
netname=qsfp1_interrupt_i
}
N 78400 66800 76300 66800 4
{
T 76600 66850 5 10 1 1 0 0 1
netname=qsfp1_scl_o
}
N 68200 66000 70300 66000 4
{
T 68500 66050 5 10 1 1 0 0 1
netname=qsfp1_sda_io
}
C 79200 60100 1 0 1 input-1.sym
{
T 78900 60200 5 10 1 1 0 4 1
value=16
}
C 68200 66500 1 0 1 output-1.sym
{
T 67700 66600 5 10 1 1 0 4 1
value=16
}
C 67400 60100 1 0 0 input-1.sym
{
T 67700 60200 5 10 1 1 0 4 1
value=16
}
C 68200 67300 1 0 1 output-1.sym
{
T 67700 67400 5 10 1 1 0 4 1
value=16
}
C 78400 66700 1 0 0 output-1.sym
{
T 78900 66800 5 10 1 1 0 4 1
value=16
}
C 68200 65900 1 0 1 output-1.sym
{
T 67700 66000 5 10 1 1 0 4 1
value=16
}
C 68200 67100 1 0 1 output-1.sym
{
T 67700 67200 5 10 1 1 0 4 1
value=16
}
N 70300 66800 68200 66800 4
{
T 69700 66850 5 10 1 1 0 6 1
netname=qsfp2_mode_o
}
C 68200 66700 1 0 1 output-1.sym
{
T 67700 66800 5 10 1 1 0 4 1
value=16
}
N 76300 67200 78400 67200 4
{
T 76600 67250 5 10 1 1 0 0 1
netname=qsfp2_cs_o
}
N 70300 66200 68200 66200 4
{
T 69600 66250 5 10 1 1 0 6 1
netname=qsfp2_reset_o
}
N 76300 67400 78400 67400 4
{
T 76600 67450 5 10 1 1 0 0 1
netname=qsfp2_present_i
}
N 76300 66600 78400 66600 4
{
T 76600 66650 5 10 1 1 0 0 1
netname=qsfp2_interrupt_i
}
N 76300 66200 78400 66200 4
{
T 76600 66250 5 10 1 1 0 0 1
netname=qsfp2_scl_o
}
N 76300 66000 78400 66000 4
{
T 76600 66050 5 10 1 1 0 0 1
netname=qsfp2_sda_io
}
C 79200 67300 1 0 1 input-1.sym
{
T 78900 67400 5 10 1 1 0 4 1
value=16
}
C 68200 66100 1 0 1 output-1.sym
{
T 67700 66200 5 10 1 1 0 4 1
value=16
}
C 79200 66500 1 0 1 input-1.sym
{
T 78900 66600 5 10 1 1 0 4 1
value=16
}
C 78400 67100 1 0 0 output-1.sym
{
T 78900 67200 5 10 1 1 0 4 1
value=16
}
C 78400 66100 1 0 0 output-1.sym
{
T 78900 66200 5 10 1 1 0 4 1
value=16
}
C 78400 65900 1 0 0 output-1.sym
{
T 78900 66000 5 10 1 1 0 4 1
value=16
}
C 69800 61100 1 0 0 nc-left-1.sym
{
T 69800 61500 5 10 0 0 0 0 1
value=NoConnection
T 69800 61900 5 10 0 0 0 0 1
device=DRC_Directive
}
C 69800 61300 1 0 0 nc-left-1.sym
{
T 69800 61700 5 10 0 0 0 0 1
value=NoConnection
T 69800 62100 5 10 0 0 0 0 1
device=DRC_Directive
}
C 76800 64100 1 0 1 nc-left-1.sym
{
T 76800 64500 5 10 0 0 0 6 1
value=NoConnection
T 76800 64900 5 10 0 0 0 6 1
device=DRC_Directive
}
C 81100 55300 1 0 1 nc-left-1.sym
{
T 81100 55700 5 10 0 0 0 6 1
value=NoConnection
T 81100 56100 5 10 0 0 0 6 1
device=DRC_Directive
}
C 92100 59300 1 0 1 nc-left-1.sym
{
T 92100 59700 5 10 0 0 0 6 1
value=NoConnection
T 92100 60100 5 10 0 0 0 6 1
device=DRC_Directive
}
