v 20130925 2
C 87000 37100 1 0 0 cvstitleblock-1.sym
{
T 87600 37500 5 10 1 1 0 0 1
date=2013-02-14     2013-08-06
T 91500 37500 5 10 1 1 0 0 1
rev=0.4
T 91700 37200 5 10 1 1 0 0 1
auth=Alexei Dorofeev
T 87800 37800 5 10 1 1 0 0 1
fname=drift_accumulator_02_analog_adc2.sch
T 90800 38200 5 14 1 1 0 4 1
title=Drift Accumulator : ADC2 Analog Part
T 87900 37200 5 10 1 1 0 0 1
page_number=2
T 89400 37200 5 10 1 1 0 0 1
pages=16
}
C 88500 46300 1 0 0 adc-AD9637.sym
{
T 90300 57300 5 26 1 1 0 4 1
device=AD9637
T 91000 58800 5 10 1 1 0 0 1
refdes=U200
T 91000 58600 5 10 1 1 0 0 1
footprint=QFN64_EPT.fp
}
C 83000 48100 1 0 1 opamp-AD8061.sym
{
T 82500 49800 5 10 0 0 0 6 1
device=OPAMP
T 82200 49000 5 10 1 1 0 6 1
refdes=U201
T 82200 48800 5 10 1 1 0 6 1
footprint=SOT235
T 82500 49400 5 10 0 0 0 6 1
model-name=AD8062
}
N 88500 48700 83000 48700 4
C 82100 46700 1 0 0 resistor.sym
{
T 82400 47100 5 10 0 0 0 0 1
device=RESISTOR
T 82400 47200 5 10 1 1 0 6 1
refdes=R200
T 82700 47200 5 10 1 1 0 0 1
value=0
T 82300 46700 5 10 1 1 0 0 1
footprint=0603
}
C 80900 49900 1 90 0 capacitor.sym
{
T 80200 50200 5 10 0 0 90 0 1
device=CAPACITOR
T 80600 50500 5 10 1 1 180 2 1
refdes=C200
T 80600 50200 5 10 1 1 180 0 1
value=0.1u
T 80900 49800 5 10 1 1 90 0 1
footprint=0603
}
N 80700 49900 80700 49700 4
C 81900 49900 1 90 0 capacitor.sym
{
T 81200 50200 5 10 0 0 90 0 1
device=CAPACITOR
T 81600 50500 5 10 1 1 180 2 1
refdes=C201
T 81600 50200 5 10 1 1 180 0 1
value=10.0u
T 81900 49800 5 10 1 1 90 0 1
footprint=0603
}
N 81700 49900 81700 49700 4
N 80700 49700 81700 49700 4
N 83000 48300 83400 48300 4
N 83400 48300 83400 47000 4
N 83400 47000 83000 47000 4
N 82100 47000 81700 47000 4
N 81700 47000 81700 48500 4
N 79500 48500 82000 48500 4
{
T 79700 48600 5 10 1 1 0 0 1
netname=ADC2_Vocm_buf
}
N 82500 50800 82500 48900 4
C 45100 44500 1 0 0 difopamp-ADA4930.sym
{
T 47595 49195 5 10 0 0 0 0 1
model-name=ADA4930
T 46600 46900 5 10 1 1 0 4 1
device=ADA4930
T 45300 48100 5 10 1 1 0 0 1
refdes=U250
T 45292 47900 5 10 1 1 0 0 1
footprint=QFN16_3_EP
}
N 46500 49300 47700 49300 4
C 45000 47500 1 90 0 resistor.sym
{
T 44600 47800 5 10 0 0 90 0 1
device=RESISTOR
T 44600 48200 5 10 1 1 180 0 1
refdes=R253
T 44600 47900 5 10 1 1 180 0 1
value=330
T 45000 47700 5 10 1 1 90 0 1
footprint=0603
}
C 45000 45300 1 90 0 resistor.sym
{
T 44600 45600 5 10 0 0 90 0 1
device=RESISTOR
T 44600 46000 5 10 1 1 180 0 1
refdes=R254
T 44600 45700 5 10 1 1 180 0 1
value=330
T 45000 45600 5 10 1 1 90 0 1
footprint=0603
}
N 44700 45300 44700 45100 4
N 44700 48400 44700 48700 4
C 43400 47000 1 0 0 resistor.sym
{
T 43700 47400 5 10 0 0 0 0 1
device=RESISTOR
T 43700 47500 5 10 1 1 0 6 1
refdes=R251
T 44000 47500 5 10 1 1 0 0 1
value=150
T 43600 47000 5 10 1 1 0 0 1
footprint=0603
}
C 43400 46200 1 0 0 resistor.sym
{
T 43700 46600 5 10 0 0 0 0 1
device=RESISTOR
T 43700 46700 5 10 1 1 0 6 1
refdes=R252
T 44000 46700 5 10 1 1 0 0 1
value=150
T 43600 46200 5 10 1 1 0 0 1
footprint=0603
}
N 44300 47300 45100 47300 4
N 44300 46500 45100 46500 4
N 44700 46200 44700 46500 4
N 44700 47500 44700 47300 4
C 41600 47100 1 0 0 capacitor.sym
{
T 41900 47800 5 10 0 0 0 0 1
device=CAPACITOR
T 41900 47400 5 10 1 1 180 2 1
refdes=C252
T 42200 47400 5 10 1 1 0 0 1
value=2.2u
T 42200 47100 5 10 1 1 0 0 1
footprint=0612.fp
}
C 41600 46300 1 0 0 capacitor.sym
{
T 41900 47000 5 10 0 0 0 0 1
device=CAPACITOR
T 41900 46600 5 10 1 1 180 2 1
refdes=C253
T 42200 46600 5 10 1 1 0 0 1
value=2.2u
T 42200 46300 5 10 1 1 0 0 1
footprint=0612.fp
}
N 42500 47300 43400 47300 4
N 42500 46500 43400 46500 4
N 44700 48700 45100 48700 4
N 44700 45100 45100 45100 4
N 47700 48100 47700 49300 4
N 47500 48100 47700 48100 4
C 41000 46400 1 90 0 resistor.sym
{
T 40600 46700 5 10 0 0 90 0 1
device=RESISTOR
T 40600 47100 5 10 1 1 180 0 1
refdes=R250
T 40600 46800 5 10 1 1 180 0 1
value=100
T 41000 46600 5 10 1 1 90 0 1
footprint=0603
}
N 41600 47300 41200 47300 4
N 41200 47300 41200 47600 4
N 39500 47600 41200 47600 4
{
T 39300 47700 5 10 1 1 0 0 1
netname=ADC2_inp5_p
}
N 41600 46500 41200 46500 4
N 41200 46500 41200 46100 4
N 40700 46400 40700 46100 4
N 40700 47300 40700 47600 4
C 48600 49200 1 90 0 capacitor.sym
{
T 47900 49500 5 10 0 0 90 0 1
device=CAPACITOR
T 48300 49800 5 10 1 1 180 2 1
refdes=C250
T 48300 49500 5 10 1 1 180 0 1
value=0.1u
T 48600 49100 5 10 1 1 90 0 1
footprint=0603
}
N 48400 49200 48400 49000 4
C 49600 49200 1 90 0 capacitor.sym
{
T 48900 49500 5 10 0 0 90 0 1
device=CAPACITOR
T 49300 49800 5 10 1 1 180 2 1
refdes=C251
T 49300 49500 5 10 1 1 180 0 1
value=10.0u
T 49600 49100 5 10 1 1 90 0 1
footprint=0603
}
N 49400 49200 49400 49000 4
N 48400 49000 49400 49000 4
C 50700 47900 1 0 0 coil-1.sym
{
T 50900 48300 5 10 0 0 0 0 1
device=COIL
T 50900 48500 5 10 0 0 0 0 1
symversion=0.1
T 51100 48100 5 10 1 1 0 6 1
refdes=L250
T 51300 48100 5 10 1 1 0 0 1
value=160n
T 51000 47700 5 10 1 1 0 0 1
footprint=0402
}
C 50400 46800 1 90 0 capacitor.sym
{
T 49700 47100 5 10 0 0 90 0 1
device=CAPACITOR
T 50100 47400 5 10 1 1 180 2 1
refdes=C254
T 50100 47100 5 10 1 1 180 0 1
value=30p
T 50400 46700 5 10 1 1 90 0 1
footprint=0603
}
C 52400 46800 1 90 0 capacitor.sym
{
T 51700 47100 5 10 0 0 90 0 1
device=CAPACITOR
T 52100 47400 5 10 1 1 180 2 1
refdes=C255
T 52100 47100 5 10 1 1 180 0 1
value=90p
T 52400 46700 5 10 1 1 90 0 1
footprint=0603
}
C 50700 46500 1 0 0 coil-1.sym
{
T 50900 46900 5 10 0 0 0 0 1
device=COIL
T 50900 47100 5 10 0 0 0 0 1
symversion=0.1
T 51100 46700 5 10 1 1 0 6 1
refdes=L251
T 51300 46700 5 10 1 1 0 0 1
value=160n
T 51000 46300 5 10 1 1 0 0 1
footprint=0402
}
N 48100 47900 48100 47300 4
N 48100 47300 47500 47300 4
N 49700 47900 50700 47900 4
N 47500 46500 48800 46500 4
N 49700 46500 50700 46500 4
N 50200 46800 50200 46500 4
N 50200 47700 50200 47900 4
N 51700 47900 53900 47900 4
{
T 52700 48000 5 10 1 1 0 0 1
netname=ADC2_out5_n
}
N 52200 47900 52200 47700 4
N 52200 46500 52200 46800 4
N 39500 46100 41200 46100 4
{
T 39300 46200 5 10 1 1 0 0 1
netname=ADC2_inp5_n
}
N 51700 46500 53900 46500 4
{
T 52700 46600 5 10 1 1 0 0 1
netname=ADC2_out5_p
}
C 48800 47600 1 0 0 resistor.sym
{
T 49100 48000 5 10 0 0 0 0 1
device=RESISTOR
T 49100 48100 5 10 1 1 0 6 1
refdes=R255
T 49400 48100 5 10 1 1 0 0 1
value=33
T 49000 47600 5 10 1 1 0 0 1
footprint=0603
}
N 48100 47900 48800 47900 4
C 48800 46200 1 0 0 resistor.sym
{
T 49100 46600 5 10 0 0 0 0 1
device=RESISTOR
T 49100 46700 5 10 1 1 0 6 1
refdes=R256
T 49400 46700 5 10 1 1 0 0 1
value=33
T 49000 46200 5 10 1 1 0 0 1
footprint=0603
}
C 45100 36700 1 0 0 difopamp-ADA4930.sym
{
T 47595 41395 5 10 0 0 0 0 1
model-name=ADA4930
T 46600 39100 5 10 1 1 0 4 1
device=ADA4930
T 45300 40300 5 10 1 1 0 0 1
refdes=U260
T 45292 40100 5 10 1 1 0 0 1
footprint=QFN16_3_EP
}
N 46500 41500 47700 41500 4
C 45000 39700 1 90 0 resistor.sym
{
T 44600 40000 5 10 0 0 90 0 1
device=RESISTOR
T 44600 40400 5 10 1 1 180 0 1
refdes=R263
T 44600 40100 5 10 1 1 180 0 1
value=330
T 45000 39900 5 10 1 1 90 0 1
footprint=0603
}
C 45000 37500 1 90 0 resistor.sym
{
T 44600 37800 5 10 0 0 90 0 1
device=RESISTOR
T 44600 38200 5 10 1 1 180 0 1
refdes=R264
T 44600 37900 5 10 1 1 180 0 1
value=330
T 45000 37800 5 10 1 1 90 0 1
footprint=0603
}
N 44700 37500 44700 37300 4
N 44700 40600 44700 40900 4
C 43400 39200 1 0 0 resistor.sym
{
T 43700 39600 5 10 0 0 0 0 1
device=RESISTOR
T 43700 39700 5 10 1 1 0 6 1
refdes=R261
T 44000 39700 5 10 1 1 0 0 1
value=330
T 43600 39200 5 10 1 1 0 0 1
footprint=0603
}
C 43400 38400 1 0 0 resistor.sym
{
T 43700 38800 5 10 0 0 0 0 1
device=RESISTOR
T 43700 38900 5 10 1 1 0 6 1
refdes=R262
T 44000 38900 5 10 1 1 0 0 1
value=330
T 43600 38400 5 10 1 1 0 0 1
footprint=0603
}
N 44300 39500 45100 39500 4
N 44300 38700 45100 38700 4
N 44700 38400 44700 38700 4
N 44700 39700 44700 39500 4
C 41600 39300 1 0 0 capacitor.sym
{
T 41900 40000 5 10 0 0 0 0 1
device=CAPACITOR
T 41900 39600 5 10 1 1 180 2 1
refdes=C262
T 42200 39600 5 10 1 1 0 0 1
value=2.2u
T 42200 39300 5 10 1 1 0 0 1
footprint=0612.fp
}
C 41600 38500 1 0 0 capacitor.sym
{
T 41900 39200 5 10 0 0 0 0 1
device=CAPACITOR
T 41900 38800 5 10 1 1 180 2 1
refdes=C263
T 42200 38800 5 10 1 1 0 0 1
value=2.2u
T 42200 38500 5 10 1 1 0 0 1
footprint=0612.fp
}
N 42500 39500 43400 39500 4
N 42500 38700 43400 38700 4
N 44700 40900 45100 40900 4
N 44700 37300 45100 37300 4
N 47700 40300 47700 41500 4
N 47500 40300 47700 40300 4
C 41000 38600 1 90 0 resistor.sym
{
T 40600 38900 5 10 0 0 90 0 1
device=RESISTOR
T 40600 39300 5 10 1 1 180 0 1
refdes=R260
T 40600 39000 5 10 1 1 180 0 1
value=100
T 41000 38800 5 10 1 1 90 0 1
footprint=0603
}
N 41600 39500 41200 39500 4
N 41200 39500 41200 39800 4
N 39500 39800 41200 39800 4
{
T 39300 39900 5 10 1 1 0 0 1
netname=ADC2_inp6_p
}
N 41600 38700 41200 38700 4
N 41200 38700 41200 38300 4
N 40700 38600 40700 38300 4
N 40700 39500 40700 39800 4
C 48800 41300 1 90 0 capacitor.sym
{
T 48100 41600 5 10 0 0 90 0 1
device=CAPACITOR
T 48500 41900 5 10 1 1 180 2 1
refdes=C260
T 48500 41600 5 10 1 1 180 0 1
value=0.1u
T 48800 41200 5 10 1 1 90 0 1
footprint=0603
}
N 48600 41300 48600 41100 4
C 49800 41300 1 90 0 capacitor.sym
{
T 49100 41600 5 10 0 0 90 0 1
device=CAPACITOR
T 49500 41900 5 10 1 1 180 2 1
refdes=C261
T 49500 41600 5 10 1 1 180 0 1
value=10.0u
T 49800 41200 5 10 1 1 90 0 1
footprint=0603
}
N 49600 41300 49600 41100 4
N 48600 41100 49600 41100 4
C 50700 40100 1 0 0 coil-1.sym
{
T 50900 40500 5 10 0 0 0 0 1
device=COIL
T 50900 40700 5 10 0 0 0 0 1
symversion=0.1
T 51100 40300 5 10 1 1 0 6 1
refdes=L260
T 51300 40300 5 10 1 1 0 0 1
value=160n
T 51000 39900 5 10 1 1 0 0 1
footprint=0402
}
C 50400 39000 1 90 0 capacitor.sym
{
T 49700 39300 5 10 0 0 90 0 1
device=CAPACITOR
T 50100 39600 5 10 1 1 180 2 1
refdes=C264
T 50100 39300 5 10 1 1 180 0 1
value=30p
T 50400 38900 5 10 1 1 90 0 1
footprint=0603
}
C 52400 39000 1 90 0 capacitor.sym
{
T 51700 39300 5 10 0 0 90 0 1
device=CAPACITOR
T 52100 39600 5 10 1 1 180 2 1
refdes=C265
T 52100 39300 5 10 1 1 180 0 1
value=90p
T 52400 38900 5 10 1 1 90 0 1
footprint=0603
}
C 50700 38700 1 0 0 coil-1.sym
{
T 50900 39100 5 10 0 0 0 0 1
device=COIL
T 50900 39300 5 10 0 0 0 0 1
symversion=0.1
T 51100 38900 5 10 1 1 0 6 1
refdes=L261
T 51300 38900 5 10 1 1 0 0 1
value=160n
T 51000 38500 5 10 1 1 0 0 1
footprint=0402
}
N 48100 40100 48100 39500 4
N 48100 39500 47500 39500 4
N 49700 40100 50700 40100 4
N 47500 38700 48800 38700 4
N 49700 38700 50700 38700 4
N 50200 39000 50200 38700 4
N 50200 39900 50200 40100 4
N 51700 40100 53900 40100 4
{
T 52700 40200 5 10 1 1 0 0 1
netname=ADC2_out6_n
}
N 52200 40100 52200 39900 4
N 52200 38700 52200 39000 4
N 39500 38300 41200 38300 4
{
T 39300 38400 5 10 1 1 0 0 1
netname=ADC2_inp6_n
}
N 51700 38700 53900 38700 4
{
T 52700 38800 5 10 1 1 0 0 1
netname=ADC2_out6_p
}
C 48800 39800 1 0 0 resistor.sym
{
T 49100 40200 5 10 0 0 0 0 1
device=RESISTOR
T 49100 40300 5 10 1 1 0 6 1
refdes=R265
T 49400 40300 5 10 1 1 0 0 1
value=33
T 49000 39800 5 10 1 1 0 0 1
footprint=0603
}
N 48100 40100 48800 40100 4
C 48800 38400 1 0 0 resistor.sym
{
T 49100 38800 5 10 0 0 0 0 1
device=RESISTOR
T 49100 38900 5 10 1 1 0 6 1
refdes=R266
T 49400 38900 5 10 1 1 0 0 1
value=33
T 49000 38400 5 10 1 1 0 0 1
footprint=0603
}
N 46500 42200 46500 41500 4
N 46500 50100 46500 49300 4
N 48300 36700 48300 37000 4
N 46500 36700 48300 36700 4
C 48500 37000 1 90 0 capacitor.sym
{
T 47800 37300 5 10 0 0 90 0 1
device=CAPACITOR
T 48200 37600 5 10 1 1 180 2 1
refdes=C266
T 48200 37300 5 10 1 1 180 0 1
value=0.1u
T 48500 36900 5 10 1 1 90 0 1
footprint=0603
}
N 48300 44500 48300 44800 4
N 46500 44500 48300 44500 4
C 48500 44800 1 90 0 capacitor.sym
{
T 47800 45100 5 10 0 0 90 0 1
device=CAPACITOR
T 48200 45400 5 10 1 1 180 2 1
refdes=C256
T 48200 45100 5 10 1 1 180 0 1
value=0.1u
T 48500 44700 5 10 1 1 90 0 1
footprint=0603
}
C 53700 42900 1 0 1 opamp-AD8061.sym
{
T 53200 44600 5 10 0 0 0 6 1
device=OPAMP
T 53200 44200 5 10 0 0 0 6 1
model-name=AD8062
T 52900 43800 5 10 1 1 0 6 1
refdes=U261
T 52900 43600 5 10 1 1 0 6 1
footprint=SOT235
}
C 52800 41800 1 0 0 resistor.sym
{
T 53100 42200 5 10 0 0 0 0 1
device=RESISTOR
T 53100 42300 5 10 1 1 0 6 1
refdes=R268
T 53400 42300 5 10 1 1 0 0 1
value=1.0K
T 53000 41800 5 10 1 1 0 0 1
footprint=0603
}
C 54300 44700 1 90 0 capacitor.sym
{
T 53600 45000 5 10 0 0 90 0 1
device=CAPACITOR
T 54000 45300 5 10 1 1 180 2 1
refdes=C267
T 54000 45000 5 10 1 1 180 0 1
value=0.1u
T 54300 44600 5 10 1 1 90 0 1
footprint=0603
}
N 54100 44700 54100 44500 4
C 55300 44700 1 90 0 capacitor.sym
{
T 54600 45000 5 10 0 0 90 0 1
device=CAPACITOR
T 55000 45300 5 10 1 1 180 2 1
refdes=C268
T 55000 45000 5 10 1 1 180 0 1
value=10.0u
T 55300 44600 5 10 1 1 90 0 1
footprint=0603
}
N 55100 44700 55100 44500 4
N 54100 44500 55100 44500 4
N 53700 43100 54100 43100 4
N 54100 43100 54100 42100 4
N 54100 42100 53700 42100 4
N 52800 42100 52400 42100 4
N 52400 42100 52400 43300 4
N 53200 43700 53200 45600 4
T 50500 38000 9 10 1 0 0 0 2
Inductors:
DK# 445-6321-1-ND
C 54400 41200 1 90 0 resistor.sym
{
T 54000 41500 5 10 0 0 90 0 1
device=RESISTOR
T 54000 41900 5 10 1 1 180 0 1
refdes=R267
T 54000 41600 5 10 1 1 180 0 1
value=1.5K
T 54400 41500 5 10 1 1 90 0 1
footprint=0603
}
C 83700 46100 1 90 0 resistor.sym
{
T 83300 46400 5 10 0 0 90 0 1
device=RESISTOR
T 83300 46800 5 10 1 1 180 0 1
refdes=R201
T 83300 46500 5 10 1 1 180 0 1
value=DNP
T 83700 46400 5 10 1 1 90 0 1
footprint=0603
}
N 87300 55500 89500 55500 4
{
T 87300 55600 5 10 1 1 0 0 1
netname=ADC2_out1_n
}
N 87300 55100 89500 55100 4
{
T 87300 55200 5 10 1 1 0 0 1
netname=ADC2_out1_p
}
N 87300 54700 89500 54700 4
{
T 87300 54800 5 10 1 1 0 0 1
netname=ADC2_out2_n
}
N 87300 54300 89500 54300 4
{
T 87300 54400 5 10 1 1 0 0 1
netname=ADC2_out2_p
}
C 66000 44400 1 0 0 difopamp-ADA4930.sym
{
T 68495 49095 5 10 0 0 0 0 1
model-name=ADA4930
T 67500 46800 5 10 1 1 0 4 1
device=ADA4930
T 66200 48000 5 10 1 1 0 0 1
refdes=U270
T 66192 47800 5 10 1 1 0 0 1
footprint=QFN16_3_EP
}
N 67400 49200 68600 49200 4
C 65900 47400 1 90 0 resistor.sym
{
T 65500 47700 5 10 0 0 90 0 1
device=RESISTOR
T 65500 48100 5 10 1 1 180 0 1
refdes=R273
T 65500 47800 5 10 1 1 180 0 1
value=330
T 65900 47600 5 10 1 1 90 0 1
footprint=0603
}
C 65900 45200 1 90 0 resistor.sym
{
T 65500 45500 5 10 0 0 90 0 1
device=RESISTOR
T 65500 45900 5 10 1 1 180 0 1
refdes=R274
T 65500 45600 5 10 1 1 180 0 1
value=330
T 65900 45500 5 10 1 1 90 0 1
footprint=0603
}
N 65600 45200 65600 45000 4
N 65600 48300 65600 48600 4
C 64300 46900 1 0 0 resistor.sym
{
T 64600 47300 5 10 0 0 0 0 1
device=RESISTOR
T 64600 47400 5 10 1 1 0 6 1
refdes=R271
T 64900 47400 5 10 1 1 0 0 1
value=150
T 64500 46900 5 10 1 1 0 0 1
footprint=0603
}
C 64300 46100 1 0 0 resistor.sym
{
T 64600 46500 5 10 0 0 0 0 1
device=RESISTOR
T 64600 46600 5 10 1 1 0 6 1
refdes=R272
T 64900 46600 5 10 1 1 0 0 1
value=150
T 64500 46100 5 10 1 1 0 0 1
footprint=0603
}
N 65200 47200 66000 47200 4
N 65200 46400 66000 46400 4
N 65600 46100 65600 46400 4
N 65600 47400 65600 47200 4
C 62500 47000 1 0 0 capacitor.sym
{
T 62800 47700 5 10 0 0 0 0 1
device=CAPACITOR
T 62800 47300 5 10 1 1 180 2 1
refdes=C272
T 63100 47300 5 10 1 1 0 0 1
value=2.2u
T 63100 47000 5 10 1 1 0 0 1
footprint=0612.fp
}
C 62500 46200 1 0 0 capacitor.sym
{
T 62800 46900 5 10 0 0 0 0 1
device=CAPACITOR
T 62800 46500 5 10 1 1 180 2 1
refdes=C273
T 63100 46500 5 10 1 1 0 0 1
value=2.2u
T 63100 46200 5 10 1 1 0 0 1
footprint=0612.fp
}
N 63400 47200 64300 47200 4
N 63400 46400 64300 46400 4
N 65600 48600 66000 48600 4
N 65600 45000 66000 45000 4
N 68600 48000 68600 49200 4
N 68400 48000 68600 48000 4
C 61900 46300 1 90 0 resistor.sym
{
T 61500 46600 5 10 0 0 90 0 1
device=RESISTOR
T 61500 47000 5 10 1 1 180 0 1
refdes=R270
T 61500 46700 5 10 1 1 180 0 1
value=100
T 61900 46500 5 10 1 1 90 0 1
footprint=0603
}
N 62500 47200 62100 47200 4
N 62100 47200 62100 47500 4
N 59700 47500 62100 47500 4
{
T 59600 47600 5 10 1 1 0 0 1
netname=ADC2_inp7_p
}
N 62500 46400 62100 46400 4
N 62100 46400 62100 46000 4
N 61600 46300 61600 46000 4
N 61600 47200 61600 47500 4
C 69200 49300 1 90 0 capacitor.sym
{
T 68500 49600 5 10 0 0 90 0 1
device=CAPACITOR
T 68900 49900 5 10 1 1 180 2 1
refdes=C270
T 68900 49600 5 10 1 1 180 0 1
value=0.1u
T 69200 49200 5 10 1 1 90 0 1
footprint=0603
}
N 69000 49300 69000 49100 4
C 70200 49300 1 90 0 capacitor.sym
{
T 69500 49600 5 10 0 0 90 0 1
device=CAPACITOR
T 69900 49900 5 10 1 1 180 2 1
refdes=C271
T 69900 49600 5 10 1 1 180 0 1
value=10.0u
T 70200 49200 5 10 1 1 90 0 1
footprint=0603
}
N 70000 49300 70000 49100 4
N 69000 49100 70000 49100 4
C 71600 47800 1 0 0 coil-1.sym
{
T 71800 48200 5 10 0 0 0 0 1
device=COIL
T 71800 48400 5 10 0 0 0 0 1
symversion=0.1
T 72000 48000 5 10 1 1 0 6 1
refdes=L270
T 72200 48000 5 10 1 1 0 0 1
value=160n
T 71900 47600 5 10 1 1 0 0 1
footprint=0402
}
C 71300 46700 1 90 0 capacitor.sym
{
T 70600 47000 5 10 0 0 90 0 1
device=CAPACITOR
T 71000 47300 5 10 1 1 180 2 1
refdes=C274
T 71000 47000 5 10 1 1 180 0 1
value=30p
T 71300 46600 5 10 1 1 90 0 1
footprint=0603
}
C 73300 46700 1 90 0 capacitor.sym
{
T 72600 47000 5 10 0 0 90 0 1
device=CAPACITOR
T 73000 47300 5 10 1 1 180 2 1
refdes=C275
T 73000 47000 5 10 1 1 180 0 1
value=90p
T 73300 46600 5 10 1 1 90 0 1
footprint=0603
}
C 71600 46400 1 0 0 coil-1.sym
{
T 71800 46800 5 10 0 0 0 0 1
device=COIL
T 71800 47000 5 10 0 0 0 0 1
symversion=0.1
T 72000 46600 5 10 1 1 0 6 1
refdes=L271
T 72200 46600 5 10 1 1 0 0 1
value=160n
T 71900 46200 5 10 1 1 0 0 1
footprint=0402
}
N 69000 47800 69000 47200 4
N 69000 47200 68400 47200 4
N 70600 47800 71600 47800 4
N 68400 46400 69700 46400 4
N 70600 46400 71600 46400 4
N 71100 46700 71100 46400 4
N 71100 47600 71100 47800 4
N 72600 47800 74800 47800 4
{
T 73600 47900 5 10 1 1 0 0 1
netname=ADC2_out7_n
}
N 73100 47800 73100 47600 4
N 73100 46400 73100 46700 4
N 59700 46000 62100 46000 4
{
T 59600 46100 5 10 1 1 0 0 1
netname=ADC2_inp7_n
}
N 72600 46400 74800 46400 4
{
T 73600 46500 5 10 1 1 0 0 1
netname=ADC2_out7_p
}
C 69700 47500 1 0 0 resistor.sym
{
T 70000 47900 5 10 0 0 0 0 1
device=RESISTOR
T 70000 48000 5 10 1 1 0 6 1
refdes=R275
T 70300 48000 5 10 1 1 0 0 1
value=33
T 69900 47500 5 10 1 1 0 0 1
footprint=0603
}
N 69000 47800 69700 47800 4
C 69700 46100 1 0 0 resistor.sym
{
T 70000 46500 5 10 0 0 0 0 1
device=RESISTOR
T 70000 46600 5 10 1 1 0 6 1
refdes=R276
T 70300 46600 5 10 1 1 0 0 1
value=33
T 69900 46100 5 10 1 1 0 0 1
footprint=0603
}
C 66000 36600 1 0 0 difopamp-ADA4930.sym
{
T 68495 41295 5 10 0 0 0 0 1
model-name=ADA4930
T 67500 39000 5 10 1 1 0 4 1
device=ADA4930
T 66200 40200 5 10 1 1 0 0 1
refdes=U280
T 66192 40000 5 10 1 1 0 0 1
footprint=QFN16_3_EP
}
N 67400 41400 68600 41400 4
C 65900 39600 1 90 0 resistor.sym
{
T 65500 39900 5 10 0 0 90 0 1
device=RESISTOR
T 65500 40300 5 10 1 1 180 0 1
refdes=R283
T 65500 40000 5 10 1 1 180 0 1
value=330
T 65900 39800 5 10 1 1 90 0 1
footprint=0603
}
C 65900 37400 1 90 0 resistor.sym
{
T 65500 37700 5 10 0 0 90 0 1
device=RESISTOR
T 65500 38100 5 10 1 1 180 0 1
refdes=R284
T 65500 37800 5 10 1 1 180 0 1
value=330
T 65900 37700 5 10 1 1 90 0 1
footprint=0603
}
N 65600 37400 65600 37200 4
N 65600 40500 65600 40800 4
C 64300 39100 1 0 0 resistor.sym
{
T 64600 39500 5 10 0 0 0 0 1
device=RESISTOR
T 64600 39600 5 10 1 1 0 6 1
refdes=R281
T 64900 39600 5 10 1 1 0 0 1
value=330
T 64500 39100 5 10 1 1 0 0 1
footprint=0603
}
C 64300 38300 1 0 0 resistor.sym
{
T 64600 38700 5 10 0 0 0 0 1
device=RESISTOR
T 64600 38800 5 10 1 1 0 6 1
refdes=R282
T 64900 38800 5 10 1 1 0 0 1
value=330
T 64500 38300 5 10 1 1 0 0 1
footprint=0603
}
N 65200 39400 66000 39400 4
N 65200 38600 66000 38600 4
N 65600 38300 65600 38600 4
N 65600 39600 65600 39400 4
C 62500 39200 1 0 0 capacitor.sym
{
T 62800 39900 5 10 0 0 0 0 1
device=CAPACITOR
T 62800 39500 5 10 1 1 180 2 1
refdes=C282
T 63100 39500 5 10 1 1 0 0 1
value=2.2u
T 63100 39200 5 10 1 1 0 0 1
footprint=0612.fp
}
C 62500 38400 1 0 0 capacitor.sym
{
T 62800 39100 5 10 0 0 0 0 1
device=CAPACITOR
T 62800 38700 5 10 1 1 180 2 1
refdes=C283
T 63100 38700 5 10 1 1 0 0 1
value=2.2u
T 63100 38400 5 10 1 1 0 0 1
footprint=0612.fp
}
N 63400 39400 64300 39400 4
N 63400 38600 64300 38600 4
N 65600 40800 66000 40800 4
N 65600 37200 66000 37200 4
N 68600 40200 68600 41400 4
N 68400 40200 68600 40200 4
C 61900 38500 1 90 0 resistor.sym
{
T 61500 38800 5 10 0 0 90 0 1
device=RESISTOR
T 61500 39200 5 10 1 1 180 0 1
refdes=R280
T 61500 38900 5 10 1 1 180 0 1
value=100
T 61900 38700 5 10 1 1 90 0 1
footprint=0603
}
N 62500 39400 62100 39400 4
N 62100 39400 62100 39700 4
N 59700 39700 62100 39700 4
{
T 59700 39800 5 10 1 1 0 0 1
netname=ADC2_inp8_p
}
N 62500 38600 62100 38600 4
N 62100 38600 62100 38200 4
N 61600 38500 61600 38200 4
N 61600 39400 61600 39700 4
C 69200 41700 1 90 0 capacitor.sym
{
T 68500 42000 5 10 0 0 90 0 1
device=CAPACITOR
T 68900 42300 5 10 1 1 180 2 1
refdes=C280
T 68900 42000 5 10 1 1 180 0 1
value=0.1u
T 69200 41600 5 10 1 1 90 0 1
footprint=0603
}
N 69000 41700 69000 41500 4
C 70200 41700 1 90 0 capacitor.sym
{
T 69500 42000 5 10 0 0 90 0 1
device=CAPACITOR
T 69900 42300 5 10 1 1 180 2 1
refdes=C281
T 69900 42000 5 10 1 1 180 0 1
value=10.0u
T 70200 41600 5 10 1 1 90 0 1
footprint=0603
}
N 70000 41700 70000 41500 4
N 69000 41500 70000 41500 4
C 71600 40000 1 0 0 coil-1.sym
{
T 71800 40400 5 10 0 0 0 0 1
device=COIL
T 71800 40600 5 10 0 0 0 0 1
symversion=0.1
T 72000 40200 5 10 1 1 0 6 1
refdes=L280
T 72200 40200 5 10 1 1 0 0 1
value=160n
T 71900 39800 5 10 1 1 0 0 1
footprint=0402
}
C 71300 38900 1 90 0 capacitor.sym
{
T 70600 39200 5 10 0 0 90 0 1
device=CAPACITOR
T 71000 39500 5 10 1 1 180 2 1
refdes=C284
T 71000 39200 5 10 1 1 180 0 1
value=30p
T 71300 38800 5 10 1 1 90 0 1
footprint=0603
}
C 73300 38900 1 90 0 capacitor.sym
{
T 72600 39200 5 10 0 0 90 0 1
device=CAPACITOR
T 73000 39500 5 10 1 1 180 2 1
refdes=C285
T 73000 39200 5 10 1 1 180 0 1
value=90p
T 73300 38800 5 10 1 1 90 0 1
footprint=0603
}
C 71600 38600 1 0 0 coil-1.sym
{
T 71800 39000 5 10 0 0 0 0 1
device=COIL
T 71800 39200 5 10 0 0 0 0 1
symversion=0.1
T 72000 38800 5 10 1 1 0 6 1
refdes=L281
T 72200 38800 5 10 1 1 0 0 1
value=160n
T 71900 38400 5 10 1 1 0 0 1
footprint=0402
}
N 69000 40000 69000 39400 4
N 69000 39400 68400 39400 4
N 70600 40000 71600 40000 4
N 68400 38600 69700 38600 4
N 70600 38600 71600 38600 4
N 71100 38900 71100 38600 4
N 71100 39800 71100 40000 4
N 72600 40000 74800 40000 4
{
T 73600 40100 5 10 1 1 0 0 1
netname=ADC2_out8_n
}
N 73100 40000 73100 39800 4
N 73100 38600 73100 38900 4
N 59700 38200 62100 38200 4
{
T 59700 38300 5 10 1 1 0 0 1
netname=ADC2_inp8_n
}
N 72600 38600 74800 38600 4
{
T 73600 38700 5 10 1 1 0 0 1
netname=ADC2_out8_p
}
C 69700 39700 1 0 0 resistor.sym
{
T 70000 40100 5 10 0 0 0 0 1
device=RESISTOR
T 70000 40200 5 10 1 1 0 6 1
refdes=R285
T 70300 40200 5 10 1 1 0 0 1
value=33
T 69900 39700 5 10 1 1 0 0 1
footprint=0603
}
N 69000 40000 69700 40000 4
C 69700 38300 1 0 0 resistor.sym
{
T 70000 38700 5 10 0 0 0 0 1
device=RESISTOR
T 70000 38800 5 10 1 1 0 6 1
refdes=R286
T 70300 38800 5 10 1 1 0 0 1
value=33
T 69900 38300 5 10 1 1 0 0 1
footprint=0603
}
N 67400 42600 67400 41400 4
N 67400 50200 67400 49200 4
N 68400 45600 70400 45600 4
{
T 68900 45700 5 10 1 1 0 0 1
netname=ADC2_Vocm_buf
}
N 69200 36600 69200 36900 4
N 67400 36600 69200 36600 4
C 69400 36900 1 90 0 capacitor.sym
{
T 68700 37200 5 10 0 0 90 0 1
device=CAPACITOR
T 69100 37500 5 10 1 1 180 2 1
refdes=C286
T 69100 37200 5 10 1 1 180 0 1
value=0.1u
T 69400 36800 5 10 1 1 90 0 1
footprint=0603
}
N 69200 44400 69200 44700 4
N 67400 44400 69200 44400 4
C 69400 44700 1 90 0 capacitor.sym
{
T 68700 45000 5 10 0 0 90 0 1
device=CAPACITOR
T 69100 45300 5 10 1 1 180 2 1
refdes=C276
T 69100 45000 5 10 1 1 180 0 1
value=0.1u
T 69400 44600 5 10 1 1 90 0 1
footprint=0603
}
N 68400 37800 70400 37800 4
{
T 68900 37900 5 10 1 1 0 0 1
netname=ADC2_Vocm_buf
}
C 74400 42700 1 0 1 opamp-AD8061.sym
{
T 73900 44400 5 10 0 0 0 6 1
device=OPAMP
T 73900 44000 5 10 0 0 0 6 1
model-name=AD8062
T 73600 43600 5 10 1 1 0 6 1
refdes=U281
T 73600 43400 5 10 1 1 0 6 1
footprint=SOT235
}
C 73500 41600 1 0 0 resistor.sym
{
T 73800 42000 5 10 0 0 0 0 1
device=RESISTOR
T 73800 42100 5 10 1 1 0 6 1
refdes=R288
T 74100 42100 5 10 1 1 0 0 1
value=1.0K
T 73700 41600 5 10 1 1 0 0 1
footprint=0603
}
C 74900 44400 1 90 0 capacitor.sym
{
T 74200 44700 5 10 0 0 90 0 1
device=CAPACITOR
T 74600 45000 5 10 1 1 180 2 1
refdes=C287
T 74600 44700 5 10 1 1 180 0 1
value=0.1u
T 74900 44300 5 10 1 1 90 0 1
footprint=0603
}
N 74700 44400 74700 44200 4
C 75900 44400 1 90 0 capacitor.sym
{
T 75200 44700 5 10 0 0 90 0 1
device=CAPACITOR
T 75600 45000 5 10 1 1 180 2 1
refdes=C288
T 75600 44700 5 10 1 1 180 0 1
value=10.0u
T 75900 44300 5 10 1 1 90 0 1
footprint=0603
}
N 75700 44400 75700 44200 4
N 74700 44200 75700 44200 4
N 74400 42900 74800 42900 4
N 74800 42900 74800 41900 4
N 74800 41900 74400 41900 4
N 73500 41900 73100 41900 4
N 73100 41900 73100 43100 4
N 71600 43100 73400 43100 4
{
T 71500 43200 5 10 1 1 0 0 1
netname=ADC2_Vref_G4
}
N 73900 43500 73900 45300 4
N 74400 43300 76300 43300 4
{
T 74600 43400 5 10 1 1 0 0 1
netname=ADC2_Vocm_buf
}
C 75100 41000 1 90 0 resistor.sym
{
T 74700 41300 5 10 0 0 90 0 1
device=RESISTOR
T 74700 41700 5 10 1 1 180 0 1
refdes=R287
T 74700 41400 5 10 1 1 180 0 1
value=1.5K
T 75100 41300 5 10 1 1 90 0 1
footprint=0603
}
T 71400 37800 9 10 1 0 0 0 2
Inductors:
DK# 445-6321-1-ND
N 87300 53900 89500 53900 4
{
T 87300 54000 5 10 1 1 0 0 1
netname=ADC2_out3_n
}
N 87300 53500 89500 53500 4
{
T 87300 53600 5 10 1 1 0 0 1
netname=ADC2_out3_p
}
N 87300 53100 89500 53100 4
{
T 87300 53200 5 10 1 1 0 0 1
netname=ADC2_out4_n
}
N 87300 52700 89500 52700 4
{
T 87300 52800 5 10 1 1 0 0 1
netname=ADC2_out4_p
}
N 91200 55500 92900 55500 4
{
T 91800 55600 5 10 1 1 0 0 1
netname=adc2_d1_i_p
}
N 91200 55100 92900 55100 4
{
T 91800 55200 5 10 1 1 0 0 1
netname=adc2_d1_i_n
}
C 92900 55400 1 0 0 output-1.sym
{
T 93400 55500 5 10 1 1 0 4 1
value=8
}
N 91200 54700 92900 54700 4
{
T 91800 54800 5 10 1 1 0 0 1
netname=adc2_d2_i_p
}
N 91200 54300 92900 54300 4
{
T 91800 54400 5 10 1 1 0 0 1
netname=adc2_d2_i_n
}
N 91200 53900 92900 53900 4
{
T 91800 54000 5 10 1 1 0 0 1
netname=adc2_d3_i_p
}
N 91200 53500 92900 53500 4
{
T 91800 53600 5 10 1 1 0 0 1
netname=adc2_d3_i_n
}
N 91200 53100 92900 53100 4
{
T 91800 53200 5 10 1 1 0 0 1
netname=adc2_d4_i_p
}
N 91200 52700 92900 52700 4
{
T 91800 52800 5 10 1 1 0 0 1
netname=adc2_d4_i_n
}
N 91200 52300 92900 52300 4
{
T 91800 52400 5 10 1 1 0 0 1
netname=adc2_d5_i_p
}
N 91200 51900 92900 51900 4
{
T 91800 52000 5 10 1 1 0 0 1
netname=adc2_d5_i_n
}
N 91200 51500 92900 51500 4
{
T 91800 51600 5 10 1 1 0 0 1
netname=adc2_d6_i_p
}
N 91200 51100 92900 51100 4
{
T 91800 51200 5 10 1 1 0 0 1
netname=adc2_d6_i_n
}
N 91200 50700 92900 50700 4
{
T 91800 50800 5 10 1 1 0 0 1
netname=adc2_d7_i_p
}
N 91200 50300 92900 50300 4
{
T 91800 50400 5 10 1 1 0 0 1
netname=adc2_d7_i_n
}
N 91200 49900 92900 49900 4
{
T 91800 50000 5 10 1 1 0 0 1
netname=adc2_d8_i_p
}
N 91200 49500 92900 49500 4
{
T 91800 49600 5 10 1 1 0 0 1
netname=adc2_d8_i_n
}
N 87300 52300 89500 52300 4
{
T 87300 52400 5 10 1 1 0 0 1
netname=ADC2_out5_n
}
N 87300 51900 89500 51900 4
{
T 87300 52000 5 10 1 1 0 0 1
netname=ADC2_out5_p
}
N 87300 51500 89500 51500 4
{
T 87300 51600 5 10 1 1 0 0 1
netname=ADC2_out6_n
}
N 87300 51100 89500 51100 4
{
T 87300 51200 5 10 1 1 0 0 1
netname=ADC2_out6_p
}
N 87300 50700 89500 50700 4
{
T 87300 50800 5 10 1 1 0 0 1
netname=ADC2_out7_n
}
N 87300 50300 89500 50300 4
{
T 87300 50400 5 10 1 1 0 0 1
netname=ADC2_out7_p
}
N 87300 49900 89500 49900 4
{
T 87300 50000 5 10 1 1 0 0 1
netname=ADC2_out8_n
}
N 87300 49500 89500 49500 4
{
T 87300 49600 5 10 1 1 0 0 1
netname=ADC2_out8_p
}
N 88500 48000 85900 48000 4
N 85900 48000 85900 45400 4
T 84900 44300 9 10 1 0 0 0 2
SENSE to GND choses the 
internal ref voltage
C 88400 45400 1 90 0 resistor.sym
{
T 88000 45700 5 10 0 0 90 0 1
device=RESISTOR
T 88000 46100 5 10 1 1 180 0 1
refdes=R202
T 88000 45800 5 10 1 1 180 0 1
value=10.0K
T 88400 45700 5 10 1 1 90 0 1
footprint=0603
}
N 88100 46300 88100 47200 4
N 88100 47200 88500 47200 4
C 84600 47800 1 90 0 capacitor.sym
{
T 83900 48100 5 10 0 0 90 0 1
device=CAPACITOR
T 84300 48400 5 10 1 1 180 2 1
refdes=C202
T 84300 48100 5 10 1 1 180 0 1
value=1.0u
T 84600 47700 5 10 1 1 90 0 1
footprint=0603
}
C 85600 47800 1 90 0 capacitor.sym
{
T 84900 48100 5 10 0 0 90 0 1
device=CAPACITOR
T 85300 48400 5 10 1 1 180 2 1
refdes=C203
T 85300 48100 5 10 1 1 180 0 1
value=0.1u
T 85600 47700 5 10 1 1 90 0 1
footprint=0603
}
N 84400 47600 85400 47600 4
N 84400 47600 84400 47800 4
N 85400 47600 85400 47800 4
C 87200 45400 1 90 0 capacitor.sym
{
T 86500 45700 5 10 0 0 90 0 1
device=CAPACITOR
T 86900 46000 5 10 1 1 180 2 1
refdes=C204
T 86900 45700 5 10 1 1 180 0 1
value=0.1u
T 87200 45300 5 10 1 1 90 0 1
footprint=0603
}
N 88500 47600 87000 47600 4
N 87000 47600 87000 46300 4
C 95800 44900 1 90 0 resistor.sym
{
T 95400 45200 5 10 0 0 90 0 1
device=RESISTOR
T 95400 45600 5 10 1 1 180 0 1
refdes=R203
T 95400 45300 5 10 1 1 180 0 1
value=100
T 95800 45200 5 10 1 1 90 0 1
footprint=0603
}
C 93500 45600 1 0 0 capacitor.sym
{
T 93800 46300 5 10 0 0 0 0 1
device=CAPACITOR
T 93800 45900 5 10 1 1 180 2 1
refdes=C205
T 94100 45900 5 10 1 1 0 0 1
value=0.1u
T 94100 45600 5 10 1 1 0 0 1
footprint=0603
}
C 93500 44700 1 0 0 capacitor.sym
{
T 93800 45400 5 10 0 0 0 0 1
device=CAPACITOR
T 93800 45000 5 10 1 1 180 2 1
refdes=C206
T 94100 45000 5 10 1 1 0 0 1
value=0.1u
T 94100 44700 5 10 1 1 0 0 1
footprint=0603
}
N 92000 47100 93200 47100 4
N 93200 47100 93200 45800 4
N 93200 45800 93500 45800 4
N 92000 46700 92700 46700 4
N 92700 46700 92700 44900 4
N 92700 44900 93500 44900 4
N 94400 44900 97600 44900 4
{
T 96600 45000 5 10 1 1 0 0 1
netname=adc2_clk_o_n
}
N 94400 45800 97600 45800 4
{
T 96600 45900 5 10 1 1 0 0 1
netname=adc2_clk_o_p
}
N 92000 48700 94100 48700 4
{
T 92800 48800 5 10 1 1 0 0 1
netname=adc2_fco_i_p
}
N 92000 48300 94100 48300 4
{
T 92800 48400 5 10 1 1 0 0 1
netname=adc2_fco_i_n
}
N 92000 47900 94100 47900 4
{
T 92800 48000 5 10 1 1 0 0 1
netname=adc2_dco_i_p
}
N 92000 47500 94100 47500 4
{
T 92800 47600 5 10 1 1 0 0 1
netname=adc2_dco_i_n
}
N 90900 58000 90900 63200 4
C 82100 61400 1 0 0 voltage_reg-LT1763.sym
{
T 82900 64050 5 12 1 1 0 4 1
device=LT1763_18
T 83200 64600 5 10 1 1 0 0 1
refdes=U291
T 83200 64400 5 10 1 1 0 0 1
footprint=SO8
}
N 81600 63200 82100 63200 4
N 80100 61400 83200 61400 4
N 82100 62800 81600 62800 4
N 83700 62800 84700 62800 4
C 85600 62000 1 90 0 capacitor.sym
{
T 84900 62300 5 10 0 0 90 0 1
device=CAPACITOR
T 85300 62600 5 10 1 1 180 2 1
refdes=C294
T 85300 62300 5 10 1 1 180 0 1
value=0.01u
T 85600 61900 5 10 1 1 90 0 1
footprint=0603
}
N 83700 62000 85400 62000 4
N 84700 62800 85400 63200 4
N 89900 63200 89900 58000 4
C 87100 61800 1 0 0 capacitor.sym
{
T 87400 62500 5 10 0 0 0 0 1
device=CAPACITOR
T 87400 62100 5 10 1 1 180 2 1
refdes=C219
T 87700 62100 5 10 1 1 0 0 1
value=0.1u
T 87700 61800 5 10 1 1 0 0 1
footprint=0603
}
C 87100 61100 1 0 0 capacitor.sym
{
T 87400 61800 5 10 0 0 0 0 1
device=CAPACITOR
T 87400 61400 5 10 1 1 180 2 1
refdes=C229
T 87700 61400 5 10 1 1 0 0 1
value=0.1u
T 87700 61100 5 10 1 1 0 0 1
footprint=0603
}
C 87100 60300 1 0 0 capacitor.sym
{
T 87400 61000 5 10 0 0 0 0 1
device=CAPACITOR
T 87400 60600 5 10 1 1 180 2 1
refdes=C239
T 87700 60600 5 10 1 1 0 0 1
value=0.1u
T 87700 60300 5 10 1 1 0 0 1
footprint=0603
}
C 86700 62300 1 90 0 capacitor.sym
{
T 86000 62600 5 10 0 0 90 0 1
device=CAPACITOR
T 86400 62900 5 10 1 1 180 2 1
refdes=C295
T 86400 62600 5 10 1 1 180 0 1
value=10.0u
T 86700 62200 5 10 1 1 90 0 1
footprint=1206
}
C 87100 59600 1 0 0 capacitor.sym
{
T 87400 60300 5 10 0 0 0 0 1
device=CAPACITOR
T 87400 59900 5 10 1 1 180 2 1
refdes=C249
T 87700 59900 5 10 1 1 0 0 1
value=0.1u
T 87700 59600 5 10 1 1 0 0 1
footprint=0603
}
C 87100 58900 1 0 0 capacitor.sym
{
T 87400 59600 5 10 0 0 0 0 1
device=CAPACITOR
T 87400 59200 5 10 1 1 180 2 1
refdes=C259
T 87700 59200 5 10 1 1 0 0 1
value=0.1u
T 87700 58900 5 10 1 1 0 0 1
footprint=0603
}
N 91200 58000 91200 58400 4
N 91200 58400 90900 58400 4
N 86500 62300 86500 58400 4
N 87100 62000 86500 62000 4
N 87100 61300 86500 61300 4
N 87100 60500 86500 60500 4
N 87100 59800 86500 59800 4
N 87100 59100 86500 59100 4
N 88500 55900 88500 58400 4
N 88000 58400 89900 58400 4
N 89600 58000 89600 58400 4
N 89300 58000 89300 58400 4
N 89000 58000 89000 58400 4
N 88000 62000 89900 62000 4
N 88000 61300 89900 61300 4
N 88000 60500 89900 60500 4
N 88000 59800 89900 59800 4
N 88000 59100 89900 59100 4
N 83700 63200 89900 63200 4
C 93400 56500 1 0 0 resistor.sym
{
T 93700 56900 5 10 0 0 0 0 1
device=RESISTOR
T 93700 57000 5 10 1 1 0 6 1
refdes=R291
T 94000 57000 5 10 1 1 0 0 1
value=49.9
T 93600 56500 5 10 1 1 0 0 1
footprint=0603
}
N 94300 56800 95600 56800 4
{
T 94500 56900 5 10 1 1 0 0 1
netname=adc2_spi_dat_io
}
N 92000 56500 93100 56500 4
N 92000 56300 92800 56300 4
N 92800 56000 92800 56300 4
N 94300 56000 95600 56000 4
{
T 94500 56100 5 10 1 1 0 0 1
netname=adc2_spi_clk_o
}
N 92000 56700 92900 56700 4
N 92900 56700 92900 57600 4
N 94300 57600 95600 57600 4
{
T 94500 57700 5 10 1 1 0 0 1
netname=adc2_spi_csb_o
}
T 94600 54700 9 10 1 0 0 0 3
SCLK, SYNC and PDWN
are pulled-down internally
by 30K resistor
T 94600 53800 9 10 1 0 0 0 2
SDIO is pulled-down
by 31K resistor
T 94600 53000 9 10 1 0 0 0 2
CSB is pulled-up
by 30K resistor
C 93400 57300 1 0 0 resistor.sym
{
T 93700 57700 5 10 0 0 0 0 1
device=RESISTOR
T 93700 57800 5 10 1 1 0 6 1
refdes=R290
T 94000 57800 5 10 1 1 0 0 1
value=0
T 93600 57300 5 10 1 1 0 0 1
footprint=0603
}
C 93400 55700 1 0 0 resistor.sym
{
T 93700 56100 5 10 0 0 0 0 1
device=RESISTOR
T 93700 56200 5 10 1 1 0 6 1
refdes=R292
T 94000 56200 5 10 1 1 0 0 1
value=0
T 93600 55700 5 10 1 1 0 0 1
footprint=0603
}
N 93100 56500 93100 56800 4
N 93100 56800 93400 56800 4
N 92800 56000 93400 56000 4
N 92900 57600 93400 57600 4
C 93300 59300 1 0 0 resistor_switch.sym
{
T 93700 59900 5 10 0 0 0 0 1
device=RESISTOR
T 93800 60000 5 10 1 1 0 6 1
refdes=R294
T 94000 60000 5 10 1 1 0 0 1
value=0
T 93900 59400 5 10 1 1 0 4 1
footprint=1_5_0603.fp
}
N 94300 59800 95600 59800 4
N 95600 61300 95600 62300 4
N 92000 57100 92600 57100 4
N 92600 57100 92600 58700 4
N 92600 58700 93400 58700 4
N 92000 57500 92300 57500 4
N 92300 57500 92300 59800 4
N 92300 59800 93400 59800 4
N 94300 59600 96400 59600 4
C 87100 58200 1 0 0 capacitor.sym
{
T 87400 58900 5 10 0 0 0 0 1
device=CAPACITOR
T 87400 58500 5 10 1 1 180 2 1
refdes=C269
T 87700 58500 5 10 1 1 0 0 1
value=0.1u
T 87700 58200 5 10 1 1 0 0 1
footprint=0603
}
N 87100 58400 86500 58400 4
C 93400 58400 1 0 0 resistor.sym
{
T 93700 58800 5 10 0 0 0 0 1
device=RESISTOR
T 93700 58900 5 10 1 1 0 6 1
refdes=R293
T 94000 58900 5 10 1 1 0 0 1
value=DNP
T 93600 58400 5 10 1 1 0 0 1
footprint=0603
}
C 96400 56700 1 0 1 input-1.sym
{
T 96100 56800 5 10 1 1 0 4 1
value=8
}
C 96400 57500 1 0 1 input-1.sym
{
T 96100 57600 5 10 1 1 0 4 1
value=8
}
C 92900 55000 1 0 0 output-1.sym
{
T 93400 55100 5 10 1 1 0 4 1
value=8
}
C 92900 54600 1 0 0 output-1.sym
{
T 93400 54700 5 10 1 1 0 4 1
value=8
}
C 92900 54200 1 0 0 output-1.sym
{
T 93400 54300 5 10 1 1 0 4 1
value=8
}
C 92900 53800 1 0 0 output-1.sym
{
T 93400 53900 5 10 1 1 0 4 1
value=8
}
C 92900 53400 1 0 0 output-1.sym
{
T 93400 53500 5 10 1 1 0 4 1
value=8
}
C 92900 53000 1 0 0 output-1.sym
{
T 93400 53100 5 10 1 1 0 4 1
value=8
}
C 92900 52600 1 0 0 output-1.sym
{
T 93400 52700 5 10 1 1 0 4 1
value=8
}
C 92900 52200 1 0 0 output-1.sym
{
T 93400 52300 5 10 1 1 0 4 1
value=8
}
C 92900 51800 1 0 0 output-1.sym
{
T 93400 51900 5 10 1 1 0 4 1
value=8
}
C 92900 51400 1 0 0 output-1.sym
{
T 93400 51500 5 10 1 1 0 4 1
value=8
}
C 92900 51000 1 0 0 output-1.sym
{
T 93400 51100 5 10 1 1 0 4 1
value=8
}
C 92900 50600 1 0 0 output-1.sym
{
T 93400 50700 5 10 1 1 0 4 1
value=8
}
C 92900 50200 1 0 0 output-1.sym
{
T 93400 50300 5 10 1 1 0 4 1
value=8
}
C 92900 49800 1 0 0 output-1.sym
{
T 93400 49900 5 10 1 1 0 4 1
value=8
}
C 92900 49400 1 0 0 output-1.sym
{
T 93400 49500 5 10 1 1 0 4 1
value=8
}
C 94100 48600 1 0 0 output-1.sym
{
T 94600 48700 5 10 1 1 0 4 1
value=8
}
C 94100 48200 1 0 0 output-1.sym
{
T 94600 48300 5 10 1 1 0 4 1
value=8
}
C 94100 47800 1 0 0 output-1.sym
{
T 94600 47900 5 10 1 1 0 4 1
value=8
}
C 94100 47400 1 0 0 output-1.sym
{
T 94600 47500 5 10 1 1 0 4 1
value=8
}
C 98400 45700 1 0 1 input-1.sym
{
T 98100 45800 5 10 1 1 0 4 1
value=8
}
C 98400 44800 1 0 1 input-1.sym
{
T 98100 44900 5 10 1 1 0 4 1
value=8
}
C 96400 55900 1 0 1 input-1.sym
{
T 96100 56000 5 10 1 1 0 4 1
value=8
}
T 87000 38700 9 10 1 0 0 0 5
Input and Outputs to other Pages:
Page 7 (FE Connector): 24
Page 8 (PLD):  25
Page 13 (Power): 2
Page 14 (Power Control): 5
C 58900 47400 1 0 0 input-1.sym
{
T 59200 47500 5 10 1 1 0 4 1
value=7
}
C 58900 45900 1 0 0 input-1.sym
{
T 59200 46000 5 10 1 1 0 4 1
value=7
}
C 58900 39600 1 0 0 input-1.sym
{
T 59200 39700 5 10 1 1 0 4 1
value=7
}
C 58900 38100 1 0 0 input-1.sym
{
T 59200 38200 5 10 1 1 0 4 1
value=7
}
C 38700 39700 1 0 0 input-1.sym
{
T 39000 39800 5 10 1 1 0 4 1
value=7
}
C 38700 38200 1 0 0 input-1.sym
{
T 39000 38300 5 10 1 1 0 4 1
value=7
}
C 38700 46000 1 0 0 input-1.sym
{
T 39000 46100 5 10 1 1 0 4 1
value=7
}
C 38700 47500 1 0 0 input-1.sym
{
T 39000 47600 5 10 1 1 0 4 1
value=7
}
C 69300 42600 1 0 0 avcc.sym
{
T 69450 43000 5 10 1 1 0 3 1
net=ADC2_VG4_5P0:1
}
N 75700 45300 73900 45300 4
C 75000 45300 1 0 0 avcc.sym
{
T 75150 45700 5 10 1 1 0 3 1
net=ADC2_VG4_5P0:1
}
C 69300 50200 1 0 0 avcc.sym
{
T 69450 50600 5 10 1 1 0 3 1
net=ADC2_VG4_5P0:1
}
N 70000 50200 67400 50200 4
C 81000 50800 1 0 0 avcc.sym
{
T 81150 51200 5 10 1 1 0 3 1
net=ADC2_VG3_5P0:1
}
N 80700 50800 82500 50800 4
N 67400 42600 70000 42600 4
T 79400 48200 9 10 1 0 0 0 1
Reference voltage is 1.0V
C 71600 43000 1 0 1 output-1.sym
{
T 71100 43100 5 10 1 1 0 4 1
value=7
}
T 81000 60200 9 10 1 0 0 0 3
Power Consumption of the ADC (80MSPS)
Analog: 234mA
Digital:   85mA
C 80300 64900 1 0 0 input-1.sym
{
T 80600 65000 5 10 1 1 0 4 1
value=13
}
N 53700 43500 55600 43500 4
{
T 53900 43600 5 10 1 1 0 0 1
netname=ADC2_Vocm_buf
}
C 54400 45600 1 0 0 avcc.sym
{
T 54550 46000 5 10 1 1 0 3 1
net=ADC2_VG3_5P0:1
}
N 55100 45600 53200 45600 4
N 47500 37900 49400 37900 4
{
T 47700 38000 5 10 1 1 0 0 1
netname=ADC2_Vocm_buf
}
C 51000 43200 1 0 1 output-1.sym
{
T 50500 43300 5 10 1 1 0 4 1
value=7
}
N 51000 43300 52700 43300 4
{
T 50900 43400 5 10 1 1 0 0 1
netname=ADC2_Vref_G3
}
N 46500 42200 49600 42200 4
C 48900 42200 1 0 0 avcc.sym
{
T 49050 42600 5 10 1 1 0 3 1
net=ADC2_VG3_5P0:1
}
N 46500 50100 49400 50100 4
C 48700 50100 1 0 0 avcc.sym
{
T 48850 50500 5 10 1 1 0 3 1
net=ADC2_VG3_5P0:1
}
N 47500 45700 49400 45700 4
{
T 47700 45800 5 10 1 1 0 0 1
netname=ADC2_Vocm_buf
}
T 71000 42700 9 10 1 0 0 0 1
Reference Voltage: 1.2V
T 50200 42900 9 10 1 0 0 0 1
Reference Voltage: 1.2V
C 45100 61200 1 0 0 difopamp-ADA4930.sym
{
T 47595 65895 5 10 0 0 0 0 1
model-name=ADA4930
T 46600 63600 5 10 1 1 0 4 1
device=ADA4930
T 45300 64800 5 10 1 1 0 0 1
refdes=U210
T 45292 64600 5 10 1 1 0 0 1
footprint=QFN16_3_EP
}
N 46500 66000 47700 66000 4
C 45000 64200 1 90 0 resistor.sym
{
T 44600 64500 5 10 0 0 90 0 1
device=RESISTOR
T 44600 64900 5 10 1 1 180 0 1
refdes=R213
T 44600 64600 5 10 1 1 180 0 1
value=330
T 45000 64400 5 10 1 1 90 0 1
footprint=0603
}
C 45000 62000 1 90 0 resistor.sym
{
T 44600 62300 5 10 0 0 90 0 1
device=RESISTOR
T 44600 62700 5 10 1 1 180 0 1
refdes=R214
T 44600 62400 5 10 1 1 180 0 1
value=330
T 45000 62300 5 10 1 1 90 0 1
footprint=0603
}
N 44700 62000 44700 61800 4
N 44700 65100 44700 65400 4
C 43400 63700 1 0 0 resistor.sym
{
T 43700 64100 5 10 0 0 0 0 1
device=RESISTOR
T 43700 64200 5 10 1 1 0 6 1
refdes=R211
T 44000 64200 5 10 1 1 0 0 1
value=150
T 43600 63700 5 10 1 1 0 0 1
footprint=0603
}
C 43400 62900 1 0 0 resistor.sym
{
T 43700 63300 5 10 0 0 0 0 1
device=RESISTOR
T 43700 63400 5 10 1 1 0 6 1
refdes=R212
T 44000 63400 5 10 1 1 0 0 1
value=150
T 43600 62900 5 10 1 1 0 0 1
footprint=0603
}
N 44300 64000 45100 64000 4
N 44300 63200 45100 63200 4
N 44700 62900 44700 63200 4
N 44700 64200 44700 64000 4
C 41600 63800 1 0 0 capacitor.sym
{
T 41900 64500 5 10 0 0 0 0 1
device=CAPACITOR
T 41900 64100 5 10 1 1 180 2 1
refdes=C212
T 42200 64100 5 10 1 1 0 0 1
value=2.2u
T 42200 63800 5 10 1 1 0 0 1
footprint=0612.fp
}
C 41600 63000 1 0 0 capacitor.sym
{
T 41900 63700 5 10 0 0 0 0 1
device=CAPACITOR
T 41900 63300 5 10 1 1 180 2 1
refdes=C213
T 42200 63300 5 10 1 1 0 0 1
value=2.2u
T 42200 63000 5 10 1 1 0 0 1
footprint=0612.fp
}
N 42500 64000 43400 64000 4
N 42500 63200 43400 63200 4
N 44700 65400 45100 65400 4
N 44700 61800 45100 61800 4
N 47700 64800 47700 66000 4
N 47500 64800 47700 64800 4
C 41000 63100 1 90 0 resistor.sym
{
T 40600 63400 5 10 0 0 90 0 1
device=RESISTOR
T 40600 63800 5 10 1 1 180 0 1
refdes=R210
T 40600 63500 5 10 1 1 180 0 1
value=100
T 41000 63300 5 10 1 1 90 0 1
footprint=0603
}
N 41600 64000 41200 64000 4
N 41200 64000 41200 64300 4
N 39500 64300 41200 64300 4
{
T 39300 64400 5 10 1 1 0 0 1
netname=ADC2_inp1_p
}
N 41600 63200 41200 63200 4
N 41200 63200 41200 62800 4
N 40700 63100 40700 62800 4
N 40700 64000 40700 64300 4
C 48300 66400 1 90 0 capacitor.sym
{
T 47600 66700 5 10 0 0 90 0 1
device=CAPACITOR
T 48000 67000 5 10 1 1 180 2 1
refdes=C210
T 48000 66700 5 10 1 1 180 0 1
value=0.1u
T 48300 66300 5 10 1 1 90 0 1
footprint=0603
}
N 48100 66400 48100 66200 4
C 49300 66400 1 90 0 capacitor.sym
{
T 48600 66700 5 10 0 0 90 0 1
device=CAPACITOR
T 49000 67000 5 10 1 1 180 2 1
refdes=C211
T 49000 66700 5 10 1 1 180 0 1
value=10.0u
T 49300 66300 5 10 1 1 90 0 1
footprint=0603
}
N 49100 66400 49100 66200 4
N 48100 66200 49100 66200 4
C 50700 64600 1 0 0 coil-1.sym
{
T 50900 65000 5 10 0 0 0 0 1
device=COIL
T 50900 65200 5 10 0 0 0 0 1
symversion=0.1
T 51100 64800 5 10 1 1 0 6 1
refdes=L210
T 51300 64800 5 10 1 1 0 0 1
value=160n
T 51000 64400 5 10 1 1 0 0 1
footprint=0402
}
C 50400 63500 1 90 0 capacitor.sym
{
T 49700 63800 5 10 0 0 90 0 1
device=CAPACITOR
T 50100 64100 5 10 1 1 180 2 1
refdes=C214
T 50100 63800 5 10 1 1 180 0 1
value=30p
T 50400 63400 5 10 1 1 90 0 1
footprint=0603
}
C 52400 63500 1 90 0 capacitor.sym
{
T 51700 63800 5 10 0 0 90 0 1
device=CAPACITOR
T 52100 64100 5 10 1 1 180 2 1
refdes=C215
T 52100 63800 5 10 1 1 180 0 1
value=90p
T 52400 63400 5 10 1 1 90 0 1
footprint=0603
}
C 50700 63200 1 0 0 coil-1.sym
{
T 50900 63600 5 10 0 0 0 0 1
device=COIL
T 50900 63800 5 10 0 0 0 0 1
symversion=0.1
T 51100 63400 5 10 1 1 0 6 1
refdes=L211
T 51300 63400 5 10 1 1 0 0 1
value=160n
T 51000 63000 5 10 1 1 0 0 1
footprint=0402
}
N 48100 64600 48100 64000 4
N 48100 64000 47500 64000 4
N 49700 64600 50700 64600 4
N 47500 63200 48800 63200 4
N 49700 63200 50700 63200 4
N 50200 63500 50200 63200 4
N 50200 64400 50200 64600 4
N 51700 64600 53900 64600 4
{
T 52700 64700 5 10 1 1 0 0 1
netname=ADC2_out1_n
}
N 52200 64600 52200 64400 4
N 52200 63200 52200 63500 4
N 39500 62800 41200 62800 4
{
T 39300 62900 5 10 1 1 0 0 1
netname=ADC2_inp1_n
}
N 51700 63200 53900 63200 4
{
T 52700 63300 5 10 1 1 0 0 1
netname=ADC2_out1_p
}
C 48800 64300 1 0 0 resistor.sym
{
T 49100 64700 5 10 0 0 0 0 1
device=RESISTOR
T 49100 64800 5 10 1 1 0 6 1
refdes=R215
T 49400 64800 5 10 1 1 0 0 1
value=33
T 49000 64300 5 10 1 1 0 0 1
footprint=0603
}
N 48100 64600 48800 64600 4
C 48800 62900 1 0 0 resistor.sym
{
T 49100 63300 5 10 0 0 0 0 1
device=RESISTOR
T 49100 63400 5 10 1 1 0 6 1
refdes=R216
T 49400 63400 5 10 1 1 0 0 1
value=33
T 49000 62900 5 10 1 1 0 0 1
footprint=0603
}
C 45100 53400 1 0 0 difopamp-ADA4930.sym
{
T 47595 58095 5 10 0 0 0 0 1
model-name=ADA4930
T 46600 55800 5 10 1 1 0 4 1
device=ADA4930
T 45300 57000 5 10 1 1 0 0 1
refdes=U220
T 45292 56800 5 10 1 1 0 0 1
footprint=QFN16_3_EP
}
N 46500 58200 47700 58200 4
C 45000 56400 1 90 0 resistor.sym
{
T 44600 56700 5 10 0 0 90 0 1
device=RESISTOR
T 44600 57100 5 10 1 1 180 0 1
refdes=R223
T 44600 56800 5 10 1 1 180 0 1
value=330
T 45000 56600 5 10 1 1 90 0 1
footprint=0603
}
C 45000 54200 1 90 0 resistor.sym
{
T 44600 54500 5 10 0 0 90 0 1
device=RESISTOR
T 44600 54900 5 10 1 1 180 0 1
refdes=R224
T 44600 54600 5 10 1 1 180 0 1
value=330
T 45000 54500 5 10 1 1 90 0 1
footprint=0603
}
N 44700 54200 44700 54000 4
N 44700 57300 44700 57600 4
C 43400 55900 1 0 0 resistor.sym
{
T 43700 56300 5 10 0 0 0 0 1
device=RESISTOR
T 43700 56400 5 10 1 1 0 6 1
refdes=R221
T 44000 56400 5 10 1 1 0 0 1
value=330
T 43600 55900 5 10 1 1 0 0 1
footprint=0603
}
C 43400 55100 1 0 0 resistor.sym
{
T 43700 55500 5 10 0 0 0 0 1
device=RESISTOR
T 43700 55600 5 10 1 1 0 6 1
refdes=R222
T 44000 55600 5 10 1 1 0 0 1
value=330
T 43600 55100 5 10 1 1 0 0 1
footprint=0603
}
N 44300 56200 45100 56200 4
N 44300 55400 45100 55400 4
N 44700 55100 44700 55400 4
N 44700 56400 44700 56200 4
C 41600 56000 1 0 0 capacitor.sym
{
T 41900 56700 5 10 0 0 0 0 1
device=CAPACITOR
T 41900 56300 5 10 1 1 180 2 1
refdes=C222
T 42200 56300 5 10 1 1 0 0 1
value=2.2u
T 42200 56000 5 10 1 1 0 0 1
footprint=0612.fp
}
C 41600 55200 1 0 0 capacitor.sym
{
T 41900 55900 5 10 0 0 0 0 1
device=CAPACITOR
T 41900 55500 5 10 1 1 180 2 1
refdes=C223
T 42200 55500 5 10 1 1 0 0 1
value=2.2u
T 42200 55200 5 10 1 1 0 0 1
footprint=0612.fp
}
N 42500 56200 43400 56200 4
N 42500 55400 43400 55400 4
N 44700 57600 45100 57600 4
N 44700 54000 45100 54000 4
N 47700 57000 47700 58200 4
N 47500 57000 47700 57000 4
C 41000 55300 1 90 0 resistor.sym
{
T 40600 55600 5 10 0 0 90 0 1
device=RESISTOR
T 40600 56000 5 10 1 1 180 0 1
refdes=R220
T 40600 55700 5 10 1 1 180 0 1
value=100
T 41000 55500 5 10 1 1 90 0 1
footprint=0603
}
N 41600 56200 41200 56200 4
N 41200 56200 41200 56500 4
N 39500 56500 41200 56500 4
{
T 39300 56600 5 10 1 1 0 0 1
netname=ADC2_inp2_p
}
N 41600 55400 41200 55400 4
N 41200 55400 41200 55000 4
N 40700 55300 40700 55000 4
N 40700 56200 40700 56500 4
C 48300 58600 1 90 0 capacitor.sym
{
T 47600 58900 5 10 0 0 90 0 1
device=CAPACITOR
T 48000 59200 5 10 1 1 180 2 1
refdes=C220
T 48000 58900 5 10 1 1 180 0 1
value=0.1u
T 48300 58500 5 10 1 1 90 0 1
footprint=0603
}
N 48100 58600 48100 58400 4
C 49300 58600 1 90 0 capacitor.sym
{
T 48600 58900 5 10 0 0 90 0 1
device=CAPACITOR
T 49000 59200 5 10 1 1 180 2 1
refdes=C221
T 49000 58900 5 10 1 1 180 0 1
value=10.0u
T 49300 58500 5 10 1 1 90 0 1
footprint=0603
}
N 49100 58600 49100 58400 4
N 48100 58400 49100 58400 4
C 50700 56800 1 0 0 coil-1.sym
{
T 50900 57200 5 10 0 0 0 0 1
device=COIL
T 50900 57400 5 10 0 0 0 0 1
symversion=0.1
T 51100 57000 5 10 1 1 0 6 1
refdes=L220
T 51300 57000 5 10 1 1 0 0 1
value=160n
T 51000 56600 5 10 1 1 0 0 1
footprint=0402
}
C 50400 55700 1 90 0 capacitor.sym
{
T 49700 56000 5 10 0 0 90 0 1
device=CAPACITOR
T 50100 56300 5 10 1 1 180 2 1
refdes=C224
T 50100 56000 5 10 1 1 180 0 1
value=30p
T 50400 55600 5 10 1 1 90 0 1
footprint=0603
}
C 52400 55700 1 90 0 capacitor.sym
{
T 51700 56000 5 10 0 0 90 0 1
device=CAPACITOR
T 52100 56300 5 10 1 1 180 2 1
refdes=C225
T 52100 56000 5 10 1 1 180 0 1
value=90p
T 52400 55600 5 10 1 1 90 0 1
footprint=0603
}
C 50700 55400 1 0 0 coil-1.sym
{
T 50900 55800 5 10 0 0 0 0 1
device=COIL
T 50900 56000 5 10 0 0 0 0 1
symversion=0.1
T 51100 55600 5 10 1 1 0 6 1
refdes=L221
T 51300 55600 5 10 1 1 0 0 1
value=160n
T 51000 55200 5 10 1 1 0 0 1
footprint=0402
}
N 48100 56800 48100 56200 4
N 48100 56200 47500 56200 4
N 49700 56800 50700 56800 4
N 47500 55400 48800 55400 4
N 49700 55400 50700 55400 4
N 50200 55700 50200 55400 4
N 50200 56600 50200 56800 4
N 51700 56800 53900 56800 4
{
T 52700 56900 5 10 1 1 0 0 1
netname=ADC2_out2_n
}
N 52200 56800 52200 56600 4
N 52200 55400 52200 55700 4
N 39500 55000 41200 55000 4
{
T 39300 55100 5 10 1 1 0 0 1
netname=ADC2_inp2_n
}
N 51700 55400 53900 55400 4
{
T 52700 55500 5 10 1 1 0 0 1
netname=ADC2_out2_p
}
C 48800 56500 1 0 0 resistor.sym
{
T 49100 56900 5 10 0 0 0 0 1
device=RESISTOR
T 49100 57000 5 10 1 1 0 6 1
refdes=R225
T 49400 57000 5 10 1 1 0 0 1
value=33
T 49000 56500 5 10 1 1 0 0 1
footprint=0603
}
N 48100 56800 48800 56800 4
C 48800 55100 1 0 0 resistor.sym
{
T 49100 55500 5 10 0 0 0 0 1
device=RESISTOR
T 49100 55600 5 10 1 1 0 6 1
refdes=R226
T 49400 55600 5 10 1 1 0 0 1
value=33
T 49000 55100 5 10 1 1 0 0 1
footprint=0603
}
N 46500 59500 46500 58200 4
N 46500 67300 46500 66000 4
N 48300 53400 48300 53700 4
N 46500 53400 48300 53400 4
C 48500 53700 1 90 0 capacitor.sym
{
T 47800 54000 5 10 0 0 90 0 1
device=CAPACITOR
T 48200 54300 5 10 1 1 180 2 1
refdes=C226
T 48200 54000 5 10 1 1 180 0 1
value=0.1u
T 48500 53600 5 10 1 1 90 0 1
footprint=0603
}
N 48300 61200 48300 61500 4
N 46500 61200 48300 61200 4
C 48500 61500 1 90 0 capacitor.sym
{
T 47800 61800 5 10 0 0 90 0 1
device=CAPACITOR
T 48200 62100 5 10 1 1 180 2 1
refdes=C216
T 48200 61800 5 10 1 1 180 0 1
value=0.1u
T 48500 61400 5 10 1 1 90 0 1
footprint=0603
}
C 53700 59400 1 0 1 opamp-AD8061.sym
{
T 53200 61100 5 10 0 0 0 6 1
device=OPAMP
T 53200 60700 5 10 0 0 0 6 1
model-name=AD8062
T 52900 60300 5 10 1 1 0 6 1
refdes=U221
T 52900 60100 5 10 1 1 0 6 1
footprint=SOT235
}
C 52800 58200 1 0 0 resistor.sym
{
T 53100 58600 5 10 0 0 0 0 1
device=RESISTOR
T 53100 58700 5 10 1 1 0 6 1
refdes=R228
T 53400 58700 5 10 1 1 0 0 1
value=1.0K
T 53000 58200 5 10 1 1 0 0 1
footprint=0603
}
C 54300 61200 1 90 0 capacitor.sym
{
T 53600 61500 5 10 0 0 90 0 1
device=CAPACITOR
T 54000 61800 5 10 1 1 180 2 1
refdes=C227
T 54000 61500 5 10 1 1 180 0 1
value=0.1u
T 54300 61100 5 10 1 1 90 0 1
footprint=0603
}
N 54100 61200 54100 61000 4
C 55300 61200 1 90 0 capacitor.sym
{
T 54600 61500 5 10 0 0 90 0 1
device=CAPACITOR
T 55000 61800 5 10 1 1 180 2 1
refdes=C228
T 55000 61500 5 10 1 1 180 0 1
value=10.0u
T 55300 61100 5 10 1 1 90 0 1
footprint=0603
}
N 55100 61200 55100 61000 4
N 54100 61000 55100 61000 4
N 53700 59600 54100 59600 4
N 54100 59600 54100 58500 4
N 54100 58500 53700 58500 4
N 52800 58500 52400 58500 4
N 52400 58500 52400 59800 4
N 53200 60200 53200 62100 4
C 54400 57600 1 90 0 resistor.sym
{
T 54000 57900 5 10 0 0 90 0 1
device=RESISTOR
T 54000 58300 5 10 1 1 180 0 1
refdes=R227
T 54000 58000 5 10 1 1 180 0 1
value=1.5K
T 54400 57900 5 10 1 1 90 0 1
footprint=0603
}
C 66000 61100 1 0 0 difopamp-ADA4930.sym
{
T 68495 65795 5 10 0 0 0 0 1
model-name=ADA4930
T 67500 63500 5 10 1 1 0 4 1
device=ADA4930
T 66200 64700 5 10 1 1 0 0 1
refdes=U230
T 66192 64500 5 10 1 1 0 0 1
footprint=QFN16_3_EP
}
N 67400 65900 68600 65900 4
C 65900 64100 1 90 0 resistor.sym
{
T 65500 64400 5 10 0 0 90 0 1
device=RESISTOR
T 65500 64800 5 10 1 1 180 0 1
refdes=R233
T 65500 64500 5 10 1 1 180 0 1
value=330
T 65900 64300 5 10 1 1 90 0 1
footprint=0603
}
C 65900 61900 1 90 0 resistor.sym
{
T 65500 62200 5 10 0 0 90 0 1
device=RESISTOR
T 65500 62600 5 10 1 1 180 0 1
refdes=R234
T 65500 62300 5 10 1 1 180 0 1
value=330
T 65900 62200 5 10 1 1 90 0 1
footprint=0603
}
N 65600 61900 65600 61700 4
N 65600 65000 65600 65300 4
C 64300 63600 1 0 0 resistor.sym
{
T 64600 64000 5 10 0 0 0 0 1
device=RESISTOR
T 64600 64100 5 10 1 1 0 6 1
refdes=R231
T 64900 64100 5 10 1 1 0 0 1
value=150
T 64500 63600 5 10 1 1 0 0 1
footprint=0603
}
C 64300 62800 1 0 0 resistor.sym
{
T 64600 63200 5 10 0 0 0 0 1
device=RESISTOR
T 64600 63300 5 10 1 1 0 6 1
refdes=R232
T 64900 63300 5 10 1 1 0 0 1
value=150
T 64500 62800 5 10 1 1 0 0 1
footprint=0603
}
N 65200 63900 66000 63900 4
N 65200 63100 66000 63100 4
N 65600 62800 65600 63100 4
N 65600 64100 65600 63900 4
C 62500 63700 1 0 0 capacitor.sym
{
T 62800 64400 5 10 0 0 0 0 1
device=CAPACITOR
T 62800 64000 5 10 1 1 180 2 1
refdes=C232
T 63100 64000 5 10 1 1 0 0 1
value=2.2u
T 63100 63700 5 10 1 1 0 0 1
footprint=0612.fp
}
C 62500 62900 1 0 0 capacitor.sym
{
T 62800 63600 5 10 0 0 0 0 1
device=CAPACITOR
T 62800 63200 5 10 1 1 180 2 1
refdes=C233
T 63100 63200 5 10 1 1 0 0 1
value=2.2u
T 63100 62900 5 10 1 1 0 0 1
footprint=0612.fp
}
N 63400 63900 64300 63900 4
N 63400 63100 64300 63100 4
N 65600 65300 66000 65300 4
N 65600 61700 66000 61700 4
N 68600 64700 68600 65900 4
N 68400 64700 68600 64700 4
C 61900 63000 1 90 0 resistor.sym
{
T 61500 63300 5 10 0 0 90 0 1
device=RESISTOR
T 61500 63700 5 10 1 1 180 0 1
refdes=R230
T 61500 63400 5 10 1 1 180 0 1
value=100
T 61900 63200 5 10 1 1 90 0 1
footprint=0603
}
N 62500 63900 62100 63900 4
N 62100 63900 62100 64200 4
N 59700 64200 62100 64200 4
{
T 59600 64300 5 10 1 1 0 0 1
netname=ADC2_inp3_p
}
N 62500 63100 62100 63100 4
N 62100 63100 62100 62700 4
N 61600 63000 61600 62700 4
N 61600 63900 61600 64200 4
C 69200 66000 1 90 0 capacitor.sym
{
T 68500 66300 5 10 0 0 90 0 1
device=CAPACITOR
T 68900 66600 5 10 1 1 180 2 1
refdes=C230
T 68900 66300 5 10 1 1 180 0 1
value=0.1u
T 69200 65900 5 10 1 1 90 0 1
footprint=0603
}
N 69000 66000 69000 65800 4
C 70200 66000 1 90 0 capacitor.sym
{
T 69500 66300 5 10 0 0 90 0 1
device=CAPACITOR
T 69900 66600 5 10 1 1 180 2 1
refdes=C231
T 69900 66300 5 10 1 1 180 0 1
value=10.0u
T 70200 65900 5 10 1 1 90 0 1
footprint=0603
}
N 70000 66000 70000 65800 4
N 69000 65800 70000 65800 4
C 71600 64500 1 0 0 coil-1.sym
{
T 71800 64900 5 10 0 0 0 0 1
device=COIL
T 71800 65100 5 10 0 0 0 0 1
symversion=0.1
T 72000 64700 5 10 1 1 0 6 1
refdes=L230
T 72200 64700 5 10 1 1 0 0 1
value=160n
T 71900 64300 5 10 1 1 0 0 1
footprint=0402
}
C 71300 63400 1 90 0 capacitor.sym
{
T 70600 63700 5 10 0 0 90 0 1
device=CAPACITOR
T 71000 64000 5 10 1 1 180 2 1
refdes=C234
T 71000 63700 5 10 1 1 180 0 1
value=30p
T 71300 63300 5 10 1 1 90 0 1
footprint=0603
}
C 73300 63400 1 90 0 capacitor.sym
{
T 72600 63700 5 10 0 0 90 0 1
device=CAPACITOR
T 73000 64000 5 10 1 1 180 2 1
refdes=C235
T 73000 63700 5 10 1 1 180 0 1
value=90p
T 73300 63300 5 10 1 1 90 0 1
footprint=0603
}
C 71600 63100 1 0 0 coil-1.sym
{
T 71800 63500 5 10 0 0 0 0 1
device=COIL
T 71800 63700 5 10 0 0 0 0 1
symversion=0.1
T 72000 63300 5 10 1 1 0 6 1
refdes=L231
T 72200 63300 5 10 1 1 0 0 1
value=160n
T 71900 62900 5 10 1 1 0 0 1
footprint=0402
}
N 69000 64500 69000 63900 4
N 69000 63900 68400 63900 4
N 70600 64500 71600 64500 4
N 68400 63100 69700 63100 4
N 70600 63100 71600 63100 4
N 71100 63400 71100 63100 4
N 71100 64300 71100 64500 4
N 72600 64500 74800 64500 4
{
T 73600 64600 5 10 1 1 0 0 1
netname=ADC2_out3_n
}
N 73100 64500 73100 64300 4
N 73100 63100 73100 63400 4
N 59700 62700 62100 62700 4
{
T 59600 62800 5 10 1 1 0 0 1
netname=ADC2_inp3_n
}
N 72600 63100 74800 63100 4
{
T 73600 63200 5 10 1 1 0 0 1
netname=ADC2_out3_p
}
C 69700 64200 1 0 0 resistor.sym
{
T 70000 64600 5 10 0 0 0 0 1
device=RESISTOR
T 70000 64700 5 10 1 1 0 6 1
refdes=R235
T 70300 64700 5 10 1 1 0 0 1
value=33
T 69900 64200 5 10 1 1 0 0 1
footprint=0603
}
N 69000 64500 69700 64500 4
C 69700 62800 1 0 0 resistor.sym
{
T 70000 63200 5 10 0 0 0 0 1
device=RESISTOR
T 70000 63300 5 10 1 1 0 6 1
refdes=R236
T 70300 63300 5 10 1 1 0 0 1
value=33
T 69900 62800 5 10 1 1 0 0 1
footprint=0603
}
C 66000 53300 1 0 0 difopamp-ADA4930.sym
{
T 68495 57995 5 10 0 0 0 0 1
model-name=ADA4930
T 67500 55700 5 10 1 1 0 4 1
device=ADA4930
T 66200 56900 5 10 1 1 0 0 1
refdes=U240
T 66192 56700 5 10 1 1 0 0 1
footprint=QFN16_3_EP
}
N 67400 58100 68600 58100 4
C 65900 56300 1 90 0 resistor.sym
{
T 65500 56600 5 10 0 0 90 0 1
device=RESISTOR
T 65500 57000 5 10 1 1 180 0 1
refdes=R243
T 65500 56700 5 10 1 1 180 0 1
value=330
T 65900 56500 5 10 1 1 90 0 1
footprint=0603
}
C 65900 54100 1 90 0 resistor.sym
{
T 65500 54400 5 10 0 0 90 0 1
device=RESISTOR
T 65500 54800 5 10 1 1 180 0 1
refdes=R244
T 65500 54500 5 10 1 1 180 0 1
value=330
T 65900 54400 5 10 1 1 90 0 1
footprint=0603
}
N 65600 54100 65600 53900 4
N 65600 57200 65600 57500 4
C 64300 55800 1 0 0 resistor.sym
{
T 64600 56200 5 10 0 0 0 0 1
device=RESISTOR
T 64600 56300 5 10 1 1 0 6 1
refdes=R241
T 64900 56300 5 10 1 1 0 0 1
value=330
T 64500 55800 5 10 1 1 0 0 1
footprint=0603
}
C 64300 55000 1 0 0 resistor.sym
{
T 64600 55400 5 10 0 0 0 0 1
device=RESISTOR
T 64600 55500 5 10 1 1 0 6 1
refdes=R242
T 64900 55500 5 10 1 1 0 0 1
value=330
T 64500 55000 5 10 1 1 0 0 1
footprint=0603
}
N 65200 56100 66000 56100 4
N 65200 55300 66000 55300 4
N 65600 55000 65600 55300 4
N 65600 56300 65600 56100 4
C 62500 55900 1 0 0 capacitor.sym
{
T 62800 56600 5 10 0 0 0 0 1
device=CAPACITOR
T 62800 56200 5 10 1 1 180 2 1
refdes=C242
T 63100 56200 5 10 1 1 0 0 1
value=2.2u
T 63100 55900 5 10 1 1 0 0 1
footprint=0612.fp
}
C 62500 55100 1 0 0 capacitor.sym
{
T 62800 55800 5 10 0 0 0 0 1
device=CAPACITOR
T 62800 55400 5 10 1 1 180 2 1
refdes=C243
T 63100 55400 5 10 1 1 0 0 1
value=2.2u
T 63100 55100 5 10 1 1 0 0 1
footprint=0612.fp
}
N 63400 56100 64300 56100 4
N 63400 55300 64300 55300 4
N 65600 57500 66000 57500 4
N 65600 53900 66000 53900 4
N 68600 56900 68600 58100 4
N 68400 56900 68600 56900 4
C 61900 55200 1 90 0 resistor.sym
{
T 61500 55500 5 10 0 0 90 0 1
device=RESISTOR
T 61500 55900 5 10 1 1 180 0 1
refdes=R240
T 61500 55600 5 10 1 1 180 0 1
value=100
T 61900 55400 5 10 1 1 90 0 1
footprint=0603
}
N 62500 56100 62100 56100 4
N 62100 56100 62100 56400 4
N 59700 56400 62100 56400 4
{
T 59700 56500 5 10 1 1 0 0 1
netname=ADC2_inp4_p
}
N 62500 55300 62100 55300 4
N 62100 55300 62100 54900 4
N 61600 55200 61600 54900 4
N 61600 56100 61600 56400 4
C 69200 58400 1 90 0 capacitor.sym
{
T 68500 58700 5 10 0 0 90 0 1
device=CAPACITOR
T 68900 59000 5 10 1 1 180 2 1
refdes=C240
T 68900 58700 5 10 1 1 180 0 1
value=0.1u
T 69200 58300 5 10 1 1 90 0 1
footprint=0603
}
N 69000 58400 69000 58200 4
C 70200 58400 1 90 0 capacitor.sym
{
T 69500 58700 5 10 0 0 90 0 1
device=CAPACITOR
T 69900 59000 5 10 1 1 180 2 1
refdes=C241
T 69900 58700 5 10 1 1 180 0 1
value=10.0u
T 70200 58300 5 10 1 1 90 0 1
footprint=0603
}
N 70000 58400 70000 58200 4
N 69000 58200 70000 58200 4
C 71600 56700 1 0 0 coil-1.sym
{
T 71800 57100 5 10 0 0 0 0 1
device=COIL
T 71800 57300 5 10 0 0 0 0 1
symversion=0.1
T 72000 56900 5 10 1 1 0 6 1
refdes=L240
T 72200 56900 5 10 1 1 0 0 1
value=160n
T 71900 56500 5 10 1 1 0 0 1
footprint=0402
}
C 71300 55600 1 90 0 capacitor.sym
{
T 70600 55900 5 10 0 0 90 0 1
device=CAPACITOR
T 71000 56200 5 10 1 1 180 2 1
refdes=C244
T 71000 55900 5 10 1 1 180 0 1
value=30p
T 71300 55500 5 10 1 1 90 0 1
footprint=0603
}
C 73300 55600 1 90 0 capacitor.sym
{
T 72600 55900 5 10 0 0 90 0 1
device=CAPACITOR
T 73000 56200 5 10 1 1 180 2 1
refdes=C245
T 73000 55900 5 10 1 1 180 0 1
value=90p
T 73300 55500 5 10 1 1 90 0 1
footprint=0603
}
C 71600 55300 1 0 0 coil-1.sym
{
T 71800 55700 5 10 0 0 0 0 1
device=COIL
T 71800 55900 5 10 0 0 0 0 1
symversion=0.1
T 72000 55500 5 10 1 1 0 6 1
refdes=L241
T 72200 55500 5 10 1 1 0 0 1
value=160n
T 71900 55100 5 10 1 1 0 0 1
footprint=0402
}
N 69000 56700 69000 56100 4
N 69000 56100 68400 56100 4
N 70600 56700 71600 56700 4
N 68400 55300 69700 55300 4
N 70600 55300 71600 55300 4
N 71100 55600 71100 55300 4
N 71100 56500 71100 56700 4
N 72600 56700 74800 56700 4
{
T 73600 56800 5 10 1 1 0 0 1
netname=ADC2_out4_n
}
N 73100 56700 73100 56500 4
N 73100 55300 73100 55600 4
N 59700 54900 62100 54900 4
{
T 59700 55000 5 10 1 1 0 0 1
netname=ADC2_inp4_n
}
N 72600 55300 74800 55300 4
{
T 73600 55400 5 10 1 1 0 0 1
netname=ADC2_out4_p
}
C 69700 56400 1 0 0 resistor.sym
{
T 70000 56800 5 10 0 0 0 0 1
device=RESISTOR
T 70000 56900 5 10 1 1 0 6 1
refdes=R245
T 70300 56900 5 10 1 1 0 0 1
value=33
T 69900 56400 5 10 1 1 0 0 1
footprint=0603
}
N 69000 56700 69700 56700 4
C 69700 55000 1 0 0 resistor.sym
{
T 70000 55400 5 10 0 0 0 0 1
device=RESISTOR
T 70000 55500 5 10 1 1 0 6 1
refdes=R246
T 70300 55500 5 10 1 1 0 0 1
value=33
T 69900 55000 5 10 1 1 0 0 1
footprint=0603
}
N 67400 59300 67400 58100 4
N 67400 66900 67400 65900 4
N 68400 62300 70400 62300 4
{
T 68900 62400 5 10 1 1 0 0 1
netname=ADC2_Vocm_buf
}
N 69200 53300 69200 53600 4
N 67400 53300 69200 53300 4
C 69400 53600 1 90 0 capacitor.sym
{
T 68700 53900 5 10 0 0 90 0 1
device=CAPACITOR
T 69100 54200 5 10 1 1 180 2 1
refdes=C246
T 69100 53900 5 10 1 1 180 0 1
value=0.1u
T 69400 53500 5 10 1 1 90 0 1
footprint=0603
}
N 69200 61100 69200 61400 4
N 67400 61100 69200 61100 4
C 69400 61400 1 90 0 capacitor.sym
{
T 68700 61700 5 10 0 0 90 0 1
device=CAPACITOR
T 69100 62000 5 10 1 1 180 2 1
refdes=C236
T 69100 61700 5 10 1 1 180 0 1
value=0.1u
T 69400 61300 5 10 1 1 90 0 1
footprint=0603
}
N 68400 54500 70400 54500 4
{
T 68900 54600 5 10 1 1 0 0 1
netname=ADC2_Vocm_buf
}
C 74900 59500 1 0 1 opamp-AD8061.sym
{
T 74400 61200 5 10 0 0 0 6 1
device=OPAMP
T 74400 60800 5 10 0 0 0 6 1
model-name=AD8062
T 74100 60400 5 10 1 1 0 6 1
refdes=U241
T 74100 60200 5 10 1 1 0 6 1
footprint=SOT235
}
C 74000 58400 1 0 0 resistor.sym
{
T 74300 58800 5 10 0 0 0 0 1
device=RESISTOR
T 74300 58900 5 10 1 1 0 6 1
refdes=R248
T 74600 58900 5 10 1 1 0 0 1
value=1.0K
T 74200 58400 5 10 1 1 0 0 1
footprint=0603
}
C 75400 61300 1 90 0 capacitor.sym
{
T 74700 61600 5 10 0 0 90 0 1
device=CAPACITOR
T 75100 61900 5 10 1 1 180 2 1
refdes=C247
T 75100 61600 5 10 1 1 180 0 1
value=0.1u
T 75400 61200 5 10 1 1 90 0 1
footprint=0603
}
N 75200 61300 75200 61100 4
C 76400 61300 1 90 0 capacitor.sym
{
T 75700 61600 5 10 0 0 90 0 1
device=CAPACITOR
T 76100 61900 5 10 1 1 180 2 1
refdes=C248
T 76100 61600 5 10 1 1 180 0 1
value=10.0u
T 76400 61200 5 10 1 1 90 0 1
footprint=0603
}
N 76200 61300 76200 61100 4
N 75200 61100 76200 61100 4
N 74900 59700 75300 59700 4
N 75300 59700 75300 58700 4
N 75300 58700 74900 58700 4
N 74000 58700 73600 58700 4
N 73600 58700 73600 59900 4
N 72100 59900 73900 59900 4
{
T 72000 60000 5 10 1 1 0 0 1
netname=ADC2_Vref_G2
}
N 74400 60300 74400 62200 4
N 74900 60100 76800 60100 4
{
T 75100 60200 5 10 1 1 0 0 1
netname=ADC2_Vocm_buf
}
C 75600 57800 1 90 0 resistor.sym
{
T 75200 58100 5 10 0 0 90 0 1
device=RESISTOR
T 75200 58500 5 10 1 1 180 0 1
refdes=R247
T 75200 58200 5 10 1 1 180 0 1
value=1.5K
T 75600 58100 5 10 1 1 90 0 1
footprint=0603
}
C 58900 64100 1 0 0 input-1.sym
{
T 59200 64200 5 10 1 1 0 4 1
value=7
}
C 58900 62600 1 0 0 input-1.sym
{
T 59200 62700 5 10 1 1 0 4 1
value=7
}
C 58900 56300 1 0 0 input-1.sym
{
T 59200 56400 5 10 1 1 0 4 1
value=7
}
C 58900 54800 1 0 0 input-1.sym
{
T 59200 54900 5 10 1 1 0 4 1
value=7
}
C 38700 56400 1 0 0 input-1.sym
{
T 39000 56500 5 10 1 1 0 4 1
value=7
}
C 38700 54900 1 0 0 input-1.sym
{
T 39000 55000 5 10 1 1 0 4 1
value=7
}
C 38700 62700 1 0 0 input-1.sym
{
T 39000 62800 5 10 1 1 0 4 1
value=7
}
C 38700 64200 1 0 0 input-1.sym
{
T 39000 64300 5 10 1 1 0 4 1
value=7
}
C 69300 59300 1 0 0 avcc.sym
{
T 69450 59700 5 10 1 1 0 3 1
net=ADC2_VG2_5P0:1
}
N 76200 62200 74400 62200 4
C 75500 62200 1 0 0 avcc.sym
{
T 75650 62600 5 10 1 1 0 3 1
net=ADC2_VG2_5P0:1
}
C 69300 66900 1 0 0 avcc.sym
{
T 69450 67300 5 10 1 1 0 3 1
net=ADC2_VG2_5P0:1
}
N 70000 66900 67400 66900 4
N 67400 59300 70000 59300 4
C 72100 59800 1 0 1 output-1.sym
{
T 71600 59900 5 10 1 1 0 4 1
value=7
}
N 53700 60000 55600 60000 4
{
T 53900 60100 5 10 1 1 0 0 1
netname=ADC2_Vocm_buf
}
C 54400 62100 1 0 0 avcc.sym
{
T 54550 62500 5 10 1 1 0 3 1
net=ADC2_VG1_5P0:1
}
N 55100 62100 53200 62100 4
N 47500 54600 49400 54600 4
{
T 47700 54700 5 10 1 1 0 0 1
netname=ADC2_Vocm_buf
}
C 51000 59700 1 0 1 output-1.sym
{
T 50500 59800 5 10 1 1 0 4 1
value=7
}
N 51000 59800 52700 59800 4
{
T 50900 59900 5 10 1 1 0 0 1
netname=ADC2_Vref_G1
}
N 46500 59500 49100 59500 4
C 48400 59500 1 0 0 avcc.sym
{
T 48550 59900 5 10 1 1 0 3 1
net=ADC2_VG1_5P0:1
}
N 46500 67300 49100 67300 4
C 48400 67300 1 0 0 avcc.sym
{
T 48550 67700 5 10 1 1 0 3 1
net=ADC2_VG1_5P0:1
}
N 47500 62400 49400 62400 4
{
T 47700 62500 5 10 1 1 0 0 1
netname=ADC2_Vocm_buf
}
T 50500 54700 9 10 1 0 0 0 2
Inductors:
DK# 445-6321-1-ND
T 71400 54500 9 10 1 0 0 0 2
Inductors:
DK# 445-6321-1-ND
T 53800 50100 9 30 1 0 0 0 3
Power Consumption Per Group: 240mA
FE: 2 x 70.4mA
Inp: 2x38.4mA + 9.5mA
T 71500 59500 9 10 1 0 0 0 1
Reference Voltage: 1.2V
T 50200 59400 9 10 1 0 0 0 1
Reference Voltage: 1.2V
C 86300 63200 1 0 0 avcc.sym
{
T 86550 63600 5 10 1 1 0 3 1
net=ADC2_VDD_1P8:1
}
C 80700 62500 1 0 0 resistor.sym
{
T 81000 62900 5 10 0 0 0 0 1
device=RESISTOR
T 81000 63000 5 10 1 1 0 6 1
refdes=R295
T 81300 63000 5 10 1 1 0 0 1
value=0
T 80900 62500 5 10 1 1 0 0 1
footprint=0603
}
C 77700 62700 1 0 0 input-1.sym
{
T 78000 62800 5 10 1 1 0 4 1
value=14
}
T 93000 39800 9 10 1 0 0 0 1
Current: 960mA
T 93000 39000 9 10 1 0 0 0 1
Current: 320mA
T 53900 52700 9 20 1 0 0 0 2
Consider ADA4932 for almost 4 times 
less power consumption and 3 times more noise
C 92000 39700 1 0 0 avcc.sym
{
T 92250 40100 5 10 1 1 0 3 1
net=AVCC_TOP_5P5:1
}
N 85400 62900 85400 63200 4
C 80900 65000 1 0 0 avcc.sym
{
T 81150 65400 5 10 1 1 0 3 1
net=AVDD_TOP_2P3:1
}
C 92000 38900 1 0 0 avcc.sym
{
T 92250 39300 5 10 1 1 0 3 1
net=AVDD_TOP_2P3:1
}
C 48500 65900 1 0 0 agnd.sym
{
T 48600 65810 5 8 1 1 0 5 1
net=AGND_ADC:1
}
C 46400 60900 1 0 0 agnd.sym
{
T 46500 60810 5 8 1 1 0 5 1
net=AGND_ADC:1
}
C 48500 58100 1 0 0 agnd.sym
{
T 48600 58010 5 8 1 1 0 5 1
net=AGND_ADC:1
}
C 46400 53100 1 0 0 agnd.sym
{
T 46500 53010 5 8 1 1 0 5 1
net=AGND_ADC:1
}
C 54500 60700 1 0 0 agnd.sym
{
T 54600 60610 5 8 1 1 0 5 1
net=AGND_ADC:1
}
C 53100 59100 1 0 0 agnd.sym
{
T 53200 59110 5 8 1 1 0 5 1
net=AGND_ADC:1
}
C 54000 57300 1 0 0 agnd.sym
{
T 54100 57310 5 8 1 1 0 5 1
net=AGND_ADC:1
}
C 69400 65500 1 0 0 agnd.sym
{
T 69500 65510 5 8 1 1 0 5 1
net=AGND_ADC:1
}
C 67300 60800 1 0 0 agnd.sym
{
T 67400 60810 5 8 1 1 0 5 1
net=AGND_ADC:1
}
C 75600 60800 1 0 0 agnd.sym
{
T 75700 60810 5 8 1 1 0 5 1
net=AGND_ADC:1
}
C 74300 59200 1 0 0 agnd.sym
{
T 74400 59210 5 8 1 1 0 5 1
net=AGND_ADC:1
}
C 75200 57500 1 0 0 agnd.sym
{
T 75300 57510 5 8 1 1 0 5 1
net=AGND_ADC:1
}
C 69400 57900 1 0 0 agnd.sym
{
T 69500 57910 5 8 1 1 0 5 1
net=AGND_ADC:1
}
C 67300 53000 1 0 0 agnd.sym
{
T 67400 53010 5 8 1 1 0 5 1
net=AGND_ADC:1
}
C 48800 48700 1 0 0 agnd.sym
{
T 48900 48710 5 8 1 1 0 5 1
net=AGND_ADC:1
}
C 46400 44200 1 0 0 agnd.sym
{
T 46500 44210 5 8 1 1 0 5 1
net=AGND_ADC:1
}
C 49000 40800 1 0 0 agnd.sym
{
T 49100 40810 5 8 1 1 0 5 1
net=AGND_ADC:1
}
C 46400 36400 1 0 0 agnd.sym
{
T 46500 36410 5 8 1 1 0 5 1
net=AGND_ADC:1
}
C 54500 44200 1 0 0 agnd.sym
{
T 54600 44210 5 8 1 1 0 5 1
net=AGND_ADC:1
}
C 53100 42600 1 0 0 agnd.sym
{
T 53200 42610 5 8 1 1 0 5 1
net=AGND_ADC:1
}
C 54000 40900 1 0 0 agnd.sym
{
T 54100 40910 5 8 1 1 0 5 1
net=AGND_ADC:1
}
C 69400 48800 1 0 0 agnd.sym
{
T 69500 48810 5 8 1 1 0 5 1
net=AGND_ADC:1
}
C 67300 44100 1 0 0 agnd.sym
{
T 67400 44110 5 8 1 1 0 5 1
net=AGND_ADC:1
}
C 69400 41200 1 0 0 agnd.sym
{
T 69500 41210 5 8 1 1 0 5 1
net=AGND_ADC:1
}
C 67300 36300 1 0 0 agnd.sym
{
T 67400 36310 5 8 1 1 0 5 1
net=AGND_ADC:1
}
C 75100 43900 1 0 0 agnd.sym
{
T 75200 43910 5 8 1 1 0 5 1
net=AGND_ADC:1
}
C 73800 42400 1 0 0 agnd.sym
{
T 73900 42410 5 8 1 1 0 5 1
net=AGND_ADC:1
}
C 74700 40700 1 0 0 agnd.sym
{
T 74800 40710 5 8 1 1 0 5 1
net=AGND_ADC:1
}
C 81100 49400 1 0 0 agnd.sym
{
T 81200 49410 5 8 1 1 0 5 1
net=AGND_ADC:1
}
C 83300 45800 1 0 0 agnd.sym
{
T 83400 45810 5 8 1 1 0 5 1
net=AGND_ADC:1
}
C 84800 47300 1 0 0 agnd.sym
{
T 84900 47310 5 8 1 1 0 5 1
net=AGND_ADC:1
}
C 85800 45100 1 0 0 agnd.sym
{
T 85900 45110 5 8 1 1 0 5 1
net=AGND_ADC:1
}
C 86900 45100 1 0 0 agnd.sym
{
T 87000 45110 5 8 1 1 0 5 1
net=AGND_ADC:1
}
C 88000 45100 1 0 0 agnd.sym
{
T 88100 45110 5 8 1 1 0 5 1
net=AGND_ADC:1
}
C 89800 46000 1 0 0 agnd.sym
{
T 89900 46010 5 8 1 1 0 5 1
net=AGND_ADC:1
}
C 86400 58100 1 0 0 agnd.sym
{
T 86500 58110 5 8 1 1 0 5 1
net=AGND_ADC:1
}
C 82500 61100 1 0 0 agnd.sym
{
T 82600 61110 5 8 1 1 0 5 1
net=AGND_ADC:1
}
C 95400 62300 1 270 1 capacitor.sym
{
T 96100 62600 5 10 0 0 90 2 1
device=CAPACITOR
T 95500 62900 5 10 1 1 0 6 1
refdes=C298
T 95500 62600 5 10 1 1 0 8 1
value=10.0u
T 95700 62600 5 10 1 1 90 8 1
footprint=1206
}
C 95100 61800 1 0 1 capacitor.sym
{
T 94800 62500 5 10 0 0 0 6 1
device=CAPACITOR
T 94500 62100 5 10 1 1 0 6 1
refdes=C279
T 94800 62100 5 10 1 1 0 0 1
value=0.1u
T 94800 61900 5 10 1 1 0 2 1
footprint=0603
}
N 95100 62000 95600 62000 4
N 95100 61300 96000 61300 4
N 94200 62000 90900 62000 4
N 94200 61300 90900 61300 4
N 96000 63200 90900 63200 4
C 95900 60800 1 0 0 resistor_switch.sym
{
T 96300 61400 5 10 0 0 0 0 1
device=RESISTOR
T 96400 61500 5 10 1 1 0 6 1
refdes=R297
T 96600 61500 5 10 1 1 0 0 1
value=0
T 96200 61100 5 10 1 1 0 4 1
footprint=1_5_0603.fp
}
C 98100 63200 1 0 1 dvcc.sym
{
T 97850 63520 5 10 1 1 0 3 1
net=VCCO_1P8:1
}
N 97900 63200 96900 63200 4
C 98000 60800 1 0 1 dgnd.sym
N 97900 61300 96900 61300 4
C 97300 60800 1 0 1 agnd.sym
{
T 97200 60810 5 8 1 1 0 5 1
net=AGND_ADC:1
}
N 97900 61300 97900 61100 4
N 97200 61100 96900 61100 4
C 95400 63200 1 0 0 avcc.sym
{
T 95650 63600 5 10 1 1 0 3 1
net=ADC2_VCC_1P8:1
}
C 96200 59600 1 0 0 avcc.sym
{
T 96450 60000 5 10 1 1 0 3 1
net=ADC2_VCC_1P8:1
}
T 96000 62000 9 10 1 0 0 0 3
There is a selection between digital and
analog ground. For digital control signals
and digital cirquit
C 81300 64100 1 90 0 capacitor.sym
{
T 80600 64400 5 10 0 0 90 0 1
device=CAPACITOR
T 81000 64700 5 10 1 1 180 2 1
refdes=C293
T 81000 64400 5 10 1 1 180 0 1
value=10u
T 81300 64000 5 10 1 1 90 0 1
footprint=1206
}
C 81000 63800 1 0 0 agnd.sym
{
T 81100 63810 5 8 1 1 0 5 1
net=AGND_ADC:1
}
N 81100 65000 81600 65000 4
N 81600 65000 81600 63200 4
C 95100 61100 1 0 1 capacitor.sym
{
T 94800 61800 5 10 0 0 0 6 1
device=CAPACITOR
T 94500 61400 5 10 1 1 0 6 1
refdes=C289
T 94800 61400 5 10 1 1 0 0 1
value=0.1u
T 94800 61200 5 10 1 1 0 2 1
footprint=0603
}
C 81400 61400 1 0 1 resistor_switch.sym
{
T 81000 62000 5 10 0 0 0 6 1
device=RESISTOR
T 80800 62100 5 10 1 1 0 6 1
refdes=R296
T 81000 62100 5 10 1 1 0 0 1
value=10.0K
T 81100 61700 5 10 1 1 0 4 1
footprint=1_5_0603.fp
}
C 79000 61700 1 0 0 avcc.sym
{
T 79250 62100 5 10 1 1 0 3 1
net=AVDD_TOP_2P3:1
}
N 81300 61900 81600 61900 4
N 81600 61900 81600 62800 4
N 79200 61700 80400 61700 4
N 80400 61900 80100 61900 4
N 80100 61900 80100 61400 4
N 78500 62800 80700 62800 4
{
T 78390 62840 5 10 1 1 0 0 1
netname=pow_adc2_vdd_enable_o
}
C 62400 57800 1 0 0 voltage_reg-LT1763.sym
{
T 63200 60450 5 12 1 1 0 4 1
device=LT1763_50
T 63500 61000 5 10 1 1 0 0 1
refdes=U231
T 63500 60800 5 10 1 1 0 0 1
footprint=SO8
}
N 61900 59600 62400 59600 4
N 60400 57800 63500 57800 4
N 62400 59200 61900 59200 4
N 64000 59200 65000 59200 4
C 65900 58400 1 90 0 capacitor.sym
{
T 65200 58700 5 10 0 0 90 0 1
device=CAPACITOR
T 65600 59000 5 10 1 1 180 2 1
refdes=C238
T 65600 58700 5 10 1 1 180 0 1
value=0.01u
T 65900 58300 5 10 1 1 90 0 1
footprint=0603
}
N 64000 58400 65700 58400 4
N 65000 59200 65700 59600 4
C 60600 61300 1 0 0 input-1.sym
{
T 60900 61400 5 10 1 1 0 4 1
value=13
}
C 61000 58900 1 0 0 resistor.sym
{
T 61300 59300 5 10 0 0 0 0 1
device=RESISTOR
T 61300 59400 5 10 1 1 0 6 1
refdes=R237
T 61600 59400 5 10 1 1 0 0 1
value=0
T 61200 58900 5 10 1 1 0 0 1
footprint=0603
}
C 58000 59100 1 0 0 input-1.sym
{
T 58300 59200 5 10 1 1 0 4 1
value=14
}
N 65700 59300 65700 59600 4
C 62800 57500 1 0 0 agnd.sym
{
T 62900 57510 5 8 1 1 0 5 1
net=AGND_ADC:1
}
C 61600 60500 1 90 0 capacitor.sym
{
T 60900 60800 5 10 0 0 90 0 1
device=CAPACITOR
T 61300 61100 5 10 1 1 180 2 1
refdes=C237
T 61300 60800 5 10 1 1 180 0 1
value=10u
T 61600 60400 5 10 1 1 90 0 1
footprint=1206
}
C 61300 60200 1 0 0 agnd.sym
{
T 61400 60210 5 8 1 1 0 5 1
net=AGND_ADC:1
}
N 61400 61400 61900 61400 4
N 61900 61400 61900 59600 4
C 61700 57800 1 0 1 resistor_switch.sym
{
T 61300 58400 5 10 0 0 0 6 1
device=RESISTOR
T 61100 58500 5 10 1 1 0 6 1
refdes=R238
T 61300 58500 5 10 1 1 0 0 1
value=10.0K
T 61400 58100 5 10 1 1 0 4 1
footprint=1_5_0603.fp
}
N 61600 58300 61900 58300 4
N 61900 58300 61900 59200 4
N 59500 58100 60700 58100 4
N 60700 58300 60400 58300 4
N 60400 58300 60400 57800 4
N 58800 59200 61000 59200 4
{
T 58690 59240 5 10 1 1 0 0 1
netname=pow_adc2_g2_enable_o
}
C 65500 59600 1 0 0 avcc.sym
{
T 65650 60000 5 10 1 1 0 3 1
net=ADC2_VG2_5P0:1
}
C 65700 59500 1 0 0 output-1.sym
{
T 66200 59600 5 10 1 1 0 4 1
value=7
}
N 64000 59600 65700 59600 4
C 61200 61400 1 0 0 avcc.sym
{
T 61450 61800 5 10 1 1 0 3 1
net=AVCC_TOP_5P5:1
}
C 59300 58100 1 0 0 avcc.sym
{
T 59550 58500 5 10 1 1 0 3 1
net=AVCC_TOP_5P5:1
}
C 62700 41100 1 0 0 voltage_reg-LT1763.sym
{
T 63500 43750 5 12 1 1 0 4 1
device=LT1763_50
T 63800 44300 5 10 1 1 0 0 1
refdes=U271
T 63800 44100 5 10 1 1 0 0 1
footprint=SO8
}
N 62200 42900 62700 42900 4
N 60700 41100 63800 41100 4
N 62700 42500 62200 42500 4
C 60900 44600 1 0 0 input-1.sym
{
T 61200 44700 5 10 1 1 0 4 1
value=13
}
C 61300 42200 1 0 0 resistor.sym
{
T 61600 42600 5 10 0 0 0 0 1
device=RESISTOR
T 61600 42700 5 10 1 1 0 6 1
refdes=R277
T 61900 42700 5 10 1 1 0 0 1
value=0
T 61500 42200 5 10 1 1 0 0 1
footprint=0603
}
C 58300 42400 1 0 0 input-1.sym
{
T 58600 42500 5 10 1 1 0 4 1
value=14
}
C 63100 40800 1 0 0 agnd.sym
{
T 63200 40810 5 8 1 1 0 5 1
net=AGND_ADC:1
}
C 61900 43800 1 90 0 capacitor.sym
{
T 61200 44100 5 10 0 0 90 0 1
device=CAPACITOR
T 61600 44400 5 10 1 1 180 2 1
refdes=C277
T 61600 44100 5 10 1 1 180 0 1
value=10u
T 61900 43700 5 10 1 1 90 0 1
footprint=1206
}
C 61600 43500 1 0 0 agnd.sym
{
T 61700 43510 5 8 1 1 0 5 1
net=AGND_ADC:1
}
N 61700 44700 62200 44700 4
N 62200 44700 62200 42900 4
C 62000 41100 1 0 1 resistor_switch.sym
{
T 61600 41700 5 10 0 0 0 6 1
device=RESISTOR
T 61400 41800 5 10 1 1 0 6 1
refdes=R278
T 61600 41800 5 10 1 1 0 0 1
value=10.0K
T 61700 41400 5 10 1 1 0 4 1
footprint=1_5_0603.fp
}
N 61900 41600 62200 41600 4
N 62200 41600 62200 42500 4
N 59800 41400 61000 41400 4
N 61000 41600 60700 41600 4
N 60700 41600 60700 41100 4
N 59100 42500 61300 42500 4
{
T 58990 42540 5 10 1 1 0 0 1
netname=pow_adc2_g4_enable_o
}
C 61500 44700 1 0 0 avcc.sym
{
T 61750 45100 5 10 1 1 0 3 1
net=AVCC_TOP_5P5:1
}
C 59600 41400 1 0 0 avcc.sym
{
T 59850 41800 5 10 1 1 0 3 1
net=AVCC_TOP_5P5:1
}
N 64300 42500 65300 42500 4
C 66200 41700 1 90 0 capacitor.sym
{
T 65500 42000 5 10 0 0 90 0 1
device=CAPACITOR
T 65900 42300 5 10 1 1 180 2 1
refdes=C278
T 65900 42000 5 10 1 1 180 0 1
value=0.01u
T 66200 41600 5 10 1 1 90 0 1
footprint=0603
}
N 64300 41700 66000 41700 4
N 65300 42500 66000 42900 4
N 66000 42600 66000 42900 4
C 65800 42900 1 0 0 avcc.sym
{
T 65950 43300 5 10 1 1 0 3 1
net=ADC2_VG4_5P0:1
}
C 66000 42800 1 0 0 output-1.sym
{
T 66500 42900 5 10 1 1 0 4 1
value=7
}
N 64300 42900 66000 42900 4
C 41900 41100 1 0 0 voltage_reg-LT1763.sym
{
T 42700 43750 5 12 1 1 0 4 1
device=LT1763_50
T 43000 44300 5 10 1 1 0 0 1
refdes=U251
T 43000 44100 5 10 1 1 0 0 1
footprint=SO8
}
N 41400 42900 41900 42900 4
N 39900 41100 43000 41100 4
N 41900 42500 41400 42500 4
C 40100 44600 1 0 0 input-1.sym
{
T 40400 44700 5 10 1 1 0 4 1
value=13
}
C 40500 42200 1 0 0 resistor.sym
{
T 40800 42600 5 10 0 0 0 0 1
device=RESISTOR
T 40800 42700 5 10 1 1 0 6 1
refdes=R257
T 41100 42700 5 10 1 1 0 0 1
value=0
T 40700 42200 5 10 1 1 0 0 1
footprint=0603
}
C 37500 42400 1 0 0 input-1.sym
{
T 37800 42500 5 10 1 1 0 4 1
value=14
}
C 42300 40800 1 0 0 agnd.sym
{
T 42400 40810 5 8 1 1 0 5 1
net=AGND_ADC:1
}
C 41100 43800 1 90 0 capacitor.sym
{
T 40400 44100 5 10 0 0 90 0 1
device=CAPACITOR
T 40800 44400 5 10 1 1 180 2 1
refdes=C257
T 40800 44100 5 10 1 1 180 0 1
value=10u
T 41100 43700 5 10 1 1 90 0 1
footprint=1206
}
C 40800 43500 1 0 0 agnd.sym
{
T 40900 43510 5 8 1 1 0 5 1
net=AGND_ADC:1
}
N 40900 44700 41400 44700 4
N 41400 44700 41400 42900 4
C 41200 41100 1 0 1 resistor_switch.sym
{
T 40800 41700 5 10 0 0 0 6 1
device=RESISTOR
T 40600 41800 5 10 1 1 0 6 1
refdes=R258
T 40800 41800 5 10 1 1 0 0 1
value=10.0K
T 40900 41400 5 10 1 1 0 4 1
footprint=1_5_0603.fp
}
N 41100 41600 41400 41600 4
N 41400 41600 41400 42500 4
N 39000 41400 40200 41400 4
N 40200 41600 39900 41600 4
N 39900 41600 39900 41100 4
N 38300 42500 40500 42500 4
{
T 38190 42540 5 10 1 1 0 0 1
netname=pow_adc2_g3_enable_o
}
C 40700 44700 1 0 0 avcc.sym
{
T 40950 45100 5 10 1 1 0 3 1
net=AVCC_TOP_5P5:1
}
C 38800 41400 1 0 0 avcc.sym
{
T 39050 41800 5 10 1 1 0 3 1
net=AVCC_TOP_5P5:1
}
N 43500 42500 44500 42500 4
C 45400 41700 1 90 0 capacitor.sym
{
T 44700 42000 5 10 0 0 90 0 1
device=CAPACITOR
T 45100 42300 5 10 1 1 180 2 1
refdes=C258
T 45100 42000 5 10 1 1 180 0 1
value=0.01u
T 45400 41600 5 10 1 1 90 0 1
footprint=0603
}
N 43500 41700 45200 41700 4
N 44500 42500 45200 42900 4
N 45200 42600 45200 42900 4
C 45000 42900 1 0 0 avcc.sym
{
T 45150 43300 5 10 1 1 0 3 1
net=ADC2_VG3_5P0:1
}
C 45200 42800 1 0 0 output-1.sym
{
T 45700 42900 5 10 1 1 0 4 1
value=7
}
N 43500 42900 45200 42900 4
C 41900 58000 1 0 0 voltage_reg-LT1763.sym
{
T 42700 60650 5 12 1 1 0 4 1
device=LT1763_50
T 43000 61200 5 10 1 1 0 0 1
refdes=U211
T 43000 61000 5 10 1 1 0 0 1
footprint=SO8
}
N 41400 59800 41900 59800 4
N 39900 58000 43000 58000 4
N 41900 59400 41400 59400 4
C 40100 61500 1 0 0 input-1.sym
{
T 40400 61600 5 10 1 1 0 4 1
value=13
}
C 40500 59100 1 0 0 resistor.sym
{
T 40800 59500 5 10 0 0 0 0 1
device=RESISTOR
T 40800 59600 5 10 1 1 0 6 1
refdes=R217
T 41100 59600 5 10 1 1 0 0 1
value=0
T 40700 59100 5 10 1 1 0 0 1
footprint=0603
}
C 37500 59300 1 0 0 input-1.sym
{
T 37800 59400 5 10 1 1 0 4 1
value=14
}
C 42300 57700 1 0 0 agnd.sym
{
T 42400 57710 5 8 1 1 0 5 1
net=AGND_ADC:1
}
C 41100 60700 1 90 0 capacitor.sym
{
T 40400 61000 5 10 0 0 90 0 1
device=CAPACITOR
T 40800 61300 5 10 1 1 180 2 1
refdes=C217
T 40800 61000 5 10 1 1 180 0 1
value=10u
T 41100 60600 5 10 1 1 90 0 1
footprint=1206
}
C 40800 60400 1 0 0 agnd.sym
{
T 40900 60410 5 8 1 1 0 5 1
net=AGND_ADC:1
}
N 40900 61600 41400 61600 4
N 41400 61600 41400 59800 4
C 41200 58000 1 0 1 resistor_switch.sym
{
T 40800 58600 5 10 0 0 0 6 1
device=RESISTOR
T 40600 58700 5 10 1 1 0 6 1
refdes=R218
T 40800 58700 5 10 1 1 0 0 1
value=10.0K
T 40900 58300 5 10 1 1 0 4 1
footprint=1_5_0603.fp
}
N 41100 58500 41400 58500 4
N 41400 58500 41400 59400 4
N 39000 58300 40200 58300 4
N 40200 58500 39900 58500 4
N 39900 58500 39900 58000 4
N 38300 59400 40500 59400 4
{
T 38190 59440 5 10 1 1 0 0 1
netname=pow_adc2_g1_enable_o
}
C 40700 61600 1 0 0 avcc.sym
{
T 40950 62000 5 10 1 1 0 3 1
net=AVCC_TOP_5P5:1
}
C 38800 58300 1 0 0 avcc.sym
{
T 39050 58700 5 10 1 1 0 3 1
net=AVCC_TOP_5P5:1
}
N 43500 59400 44500 59400 4
C 45400 58600 1 90 0 capacitor.sym
{
T 44700 58900 5 10 0 0 90 0 1
device=CAPACITOR
T 45100 59200 5 10 1 1 180 2 1
refdes=C218
T 45100 58900 5 10 1 1 180 0 1
value=0.01u
T 45400 58500 5 10 1 1 90 0 1
footprint=0603
}
N 43500 58600 45200 58600 4
N 44500 59400 45200 59800 4
N 45200 59500 45200 59800 4
C 45000 59800 1 0 0 avcc.sym
{
T 45150 60200 5 10 1 1 0 3 1
net=ADC2_VG1_5P0:1
}
C 45200 59700 1 0 0 output-1.sym
{
T 45700 59800 5 10 1 1 0 4 1
value=7
}
N 43500 59800 45200 59800 4
C 82400 47800 1 0 0 agnd.sym
{
T 82500 47810 5 8 1 1 0 5 1
net=AGND_ADC:1
}
C 92400 40800 1 0 1 dvcc.sym
{
T 92150 41120 5 10 1 1 0 3 1
net=VCCO_1P8:1
}
C 98700 63100 1 0 1 input-1.sym
{
T 98400 63200 5 10 1 1 0 4 1
value=13
}
N 94600 58700 94300 58700 4
C 94700 58400 1 0 1 agnd.sym
{
T 94600 58410 5 8 1 1 0 5 1
net=AGND_ADC:1
}
C 95900 62700 1 0 0 resistor_switch.sym
{
T 96300 63300 5 10 0 0 0 0 1
device=RESISTOR
T 96400 63400 5 10 1 1 0 6 1
refdes=R298
T 96600 63400 5 10 1 1 0 0 1
value=0
T 96200 63000 5 10 1 1 0 4 1
footprint=1_5_0603.fp
}
N 96900 63000 99600 63000 4
C 99400 63000 1 0 0 avcc.sym
{
T 99650 63400 5 10 1 1 0 3 1
net=ADC2_VDD_1P8:1
}
N 95600 59800 95600 59400 4
C 95700 59100 1 0 1 agnd.sym
{
T 95600 59110 5 8 1 1 0 5 1
net=AGND_ADC:1
}
