v 20130925 2
C 66900 53400 1 0 0 XC7K160T_bank0.sym
{
T 69600 59050 5 15 1 1 0 3 1
device=XC7K160T
T 72600 59200 5 10 1 1 0 0 1
refdes=U1
T 72600 59000 5 10 1 1 0 0 1
footprint=FBG676.fp
}
C 93500 60500 1 0 0 XC7K160T_bank14.sym
{
T 96600 69850 5 15 1 1 0 3 1
device=XC7K160T
T 99300 70100 5 10 1 1 0 0 1
refdes=U1
T 99300 69900 5 10 1 1 0 0 1
footprint=FBG676.fp
}
C 69200 53100 1 0 0 dgnd.sym
N 69300 53400 70500 53400 4
N 78600 55600 80500 55600 4
{
T 79300 55650 5 10 1 1 0 0 1
netname=xadc_inp_p
}
C 79000 66100 1 0 0 spi_flash-N25Q256A.sym
{
T 80200 68600 5 10 1 1 0 4 1
description=SPI FLASH
T 80200 68800 5 10 1 1 0 4 1
device=N25Q256A
T 81200 68700 5 10 1 1 0 0 1
refdes=U1230
T 81192 68500 5 10 1 1 0 0 1
footprint=TPBGA24b05.fp
}
C 80100 65800 1 0 0 dgnd.sym
C 66100 60900 1 0 0 dvcc.sym
{
T 66350 61220 5 10 1 1 0 3 1
net=VCCO_3P3:1
}
N 66300 60900 70000 60900 4
C 93100 67300 1 0 0 nc-left-1.sym
{
T 93100 67700 5 10 0 0 0 0 1
value=NoConnection
T 93100 68100 5 10 0 0 0 0 1
device=DRC_Directive
}
C 93300 67700 1 270 0 dgnd.sym
T 71700 53100 9 10 1 0 0 0 2
DXP,DXN are an internal thermal diode. 
It's not used, so connected to GND
C 73300 53600 1 0 0 dgnd.sym
N 72900 54100 73400 54100 4
N 73400 54100 73400 53900 4
N 73400 53900 72900 53900 4
N 74000 54500 72900 54500 4
N 72900 56100 75600 56100 4
N 72900 55500 73400 55500 4
N 72900 55700 74000 55700 4
T 74200 55500 9 10 1 0 0 0 2
Tied to Ground this selects
internal reference
C 77700 55300 1 0 0 resistor.sym
{
T 78000 55700 5 10 0 0 0 0 1
device=RESISTOR
T 78000 55800 5 10 1 1 0 6 1
refdes=R1210
T 78300 55800 5 10 1 1 0 0 1
value=100
T 77900 55300 5 10 1 1 0 0 1
footprint=0603
}
C 77700 54100 1 0 0 resistor.sym
{
T 78000 54500 5 10 0 0 0 0 1
device=RESISTOR
T 78000 54600 5 10 1 1 0 6 1
refdes=R1211
T 78300 54600 5 10 1 1 0 0 1
value=100
T 77900 54100 5 10 1 1 0 0 1
footprint=0603
}
C 77200 54700 1 90 0 capacitor.sym
{
T 76500 55000 5 10 0 0 90 0 1
device=CAPACITOR
T 76900 55300 5 10 1 1 180 2 1
refdes=C1210
T 76900 55000 5 10 1 1 180 0 1
value=10.0n
T 77200 54600 5 10 1 1 90 0 1
footprint=0603
}
N 76300 55100 76300 55600 4
N 76300 55600 77700 55600 4
N 76300 54900 76300 54400 4
N 76300 54400 77700 54400 4
N 78600 54400 80500 54400 4
{
T 79300 54450 5 10 1 1 0 0 1
netname=xadc_inp_n
}
T 77800 53600 9 10 1 0 0 0 2
Analog Anti-aliasing Filters
Should be placed close to PLD
C 81300 55500 1 0 1 input-1.sym
{
T 81000 55600 5 10 1 1 0 4 1
value=14
}
C 81300 54300 1 0 1 input-1.sym
{
T 81000 54400 5 10 1 1 0 4 1
value=14
}
N 64900 72300 69100 72300 4
{
T 65100 72350 5 10 1 1 0 0 1
netname=PLD_JTAG_TDI
}
N 64900 71500 69100 71500 4
{
T 65100 71550 5 10 1 1 0 0 1
netname=PLD_JTAG_TMS
}
C 68800 70600 1 270 1 dgnd.sym
N 70500 72300 74900 72300 4
{
T 73300 72350 5 10 1 1 0 0 1
netname=PLD_JTAG_TDO
}
N 70500 71500 74900 71500 4
{
T 73300 71550 5 10 1 1 0 0 1
netname=PLD_JTAG_TCK
}
N 64900 71100 69100 71100 4
{
T 65100 71150 5 10 1 1 0 0 1
netname=PLD_PROG_B
}
N 70500 71900 74900 71900 4
{
T 73300 71950 5 10 1 1 0 0 1
netname=PLD_INIT_B
}
N 70500 71100 74900 71100 4
{
T 73300 71150 5 10 1 1 0 0 1
netname=PLD_CONF_DONE
}
T 82300 64200 2 20 1 0 0 0 6
Connecting PUDCB to GND means 
that pull-up resistors are disabled

Late Note: This Appears to be wrong PUDCB
	for Next iteration should be high in order to disable
	pull-ups!!!
C 64500 57100 1 0 0 dvcc.sym
{
T 64750 57420 5 10 1 1 0 3 1
net=VCCO_3P3:1
}
N 64700 57100 66900 57100 4
T 63100 57700 9 10 1 0 0 0 2
CFGBVS tied to VCCO_0 means  
that Banks 0,14,15 are 3.3V logic
N 72900 57100 74500 57100 4
{
T 73100 57150 5 10 1 1 0 0 1
netname=PLD_CONF_DONE
}
N 65300 56700 66900 56700 4
{
T 65400 56750 5 10 1 1 0 0 1
netname=PLD_PROG_B
}
N 65300 55500 66900 55500 4
{
T 65400 55550 5 10 1 1 0 0 1
netname=PLD_JTAG_TDI
}
N 65300 55700 66900 55700 4
{
T 65400 55750 5 10 1 1 0 0 1
netname=PLD_JTAG_TDO
}
N 65300 55900 66900 55900 4
{
T 65400 55950 5 10 1 1 0 0 1
netname=PLD_JTAG_TCK
}
N 65300 56100 66900 56100 4
{
T 65400 56150 5 10 1 1 0 0 1
netname=PLD_JTAG_TMS
}
C 66100 58700 1 0 0 dvcc.sym
{
T 66350 59020 5 10 1 1 0 3 1
net=VCCO_3P3:1
}
N 66900 57900 66300 57900 4
N 66300 57900 66300 58700 4
C 66200 57200 1 0 0 dgnd.sym
N 66900 57500 66300 57500 4
N 66900 57700 66300 57700 4
N 66300 57700 66300 57500 4
C 73200 57800 1 90 0 dgnd.sym
N 72900 57500 74500 57500 4
{
T 73100 57550 5 10 1 1 0 0 1
netname=PLD_INIT_B
}
N 91900 68800 93600 68800 4
{
T 92000 68850 5 10 1 1 0 0 1
netname=spi0_data0_o
}
N 91900 68600 93600 68600 4
{
T 92000 68650 5 10 1 1 0 0 1
netname=spi0_data1_i
}
N 81400 68100 85500 68100 4
{
T 84300 68150 5 10 1 1 0 0 1
netname=spi0_data0_o
}
N 81400 67700 85500 67700 4
{
T 84300 67750 5 10 1 1 0 0 1
netname=spi0_data1_i
}
N 91900 68200 93600 68200 4
{
T 92000 68250 5 10 1 1 0 0 1
netname=spi0_data2_io
}
N 91900 68000 93600 68000 4
{
T 92000 68050 5 10 1 1 0 0 1
netname=spi0_data3_io
}
N 81400 67300 85500 67300 4
{
T 84300 67350 5 10 1 1 0 0 1
netname=spi0_data2_io
}
N 72900 56700 74500 56700 4
{
T 73100 56750 5 10 1 1 0 0 1
netname=spi0_clk_o
}
N 77200 67700 79000 67700 4
{
T 77300 67750 5 10 1 1 0 0 1
netname=spi0_clk_o
}
N 77200 68100 79000 68100 4
{
T 77300 68150 5 10 1 1 0 0 1
netname=spi0_cs_o
}
N 91900 65800 93600 65800 4
{
T 92000 65850 5 10 1 1 0 0 1
netname=spi0_cs_o
}
N 81400 66900 85500 66900 4
{
T 84300 66950 5 10 1 1 0 0 1
netname=spi0_data3_io
}
C 79000 68600 1 90 0 resistor.sym
{
T 78600 68900 5 10 0 0 90 0 1
device=RESISTOR
T 78600 69300 5 10 1 1 180 0 1
refdes=R1230
T 78600 69000 5 10 1 1 180 0 1
value=2.4K
T 79000 68900 5 10 1 1 90 0 1
footprint=0603
}
N 78700 68600 78700 68100 4
C 71000 72800 1 90 0 resistor.sym
{
T 70600 73100 5 10 0 0 90 0 1
device=RESISTOR
T 70600 73500 5 10 1 1 180 0 1
refdes=R1221
T 70600 73200 5 10 1 1 180 0 1
value=4.7K
T 71000 73100 5 10 1 1 90 0 1
footprint=0603
}
N 70700 72800 70700 71900 4
C 72100 72800 1 90 0 resistor.sym
{
T 71700 73100 5 10 0 0 90 0 1
device=RESISTOR
T 71700 73500 5 10 1 1 180 0 1
refdes=R1222
T 71700 73200 5 10 1 1 180 0 1
value=330
T 72100 73100 5 10 1 1 90 0 1
footprint=0603
}
N 71800 72800 71800 71100 4
C 68200 72800 1 90 0 resistor.sym
{
T 67800 73100 5 10 0 0 90 0 1
device=RESISTOR
T 67800 73500 5 10 1 1 180 0 1
refdes=R1220
T 67800 73200 5 10 1 1 180 0 1
value=4.7K
T 68200 73100 5 10 1 1 90 0 1
footprint=0603
}
C 66600 73700 1 0 0 dvcc.sym
{
T 66850 74020 5 10 1 1 0 3 1
net=VCCO_3P3:1
}
N 67900 72800 67900 71100 4
N 66800 73700 72800 73700 4
N 70500 70700 72900 70700 4
N 91900 65600 93600 65600 4
{
T 92000 65650 5 10 1 1 0 0 1
netname=spi0_reset_o
}
N 77200 66900 79000 66900 4
{
T 77300 66950 5 10 1 1 0 0 1
netname=spi0_reset_o
}
C 79000 66000 1 90 0 resistor.sym
{
T 78600 66300 5 10 0 0 90 0 1
device=RESISTOR
T 78600 66700 5 10 1 1 180 0 1
refdes=R1231
T 78600 66400 5 10 1 1 180 0 1
value=10.0K
T 79000 66300 5 10 1 1 90 0 1
footprint=0603
}
C 78600 65700 1 0 0 dgnd.sym
N 76600 69500 83900 69500 4
C 83200 68600 1 90 0 resistor.sym
{
T 82800 68900 5 10 0 0 90 0 1
device=RESISTOR
T 82800 69300 5 10 1 1 180 0 1
refdes=R1232
T 82800 69000 5 10 1 1 180 0 1
value=4.7K
T 83200 68800 5 10 1 1 90 0 1
footprint=0603
}
C 84200 68600 1 90 0 resistor.sym
{
T 83800 68900 5 10 0 0 90 0 1
device=RESISTOR
T 83800 69300 5 10 1 1 180 0 1
refdes=R1233
T 83800 69000 5 10 1 1 180 0 1
value=4.7K
T 84200 68800 5 10 1 1 90 0 1
footprint=0603
}
N 82900 68600 82900 67300 4
N 83900 68600 83900 66900 4
T 63200 58600 9 10 1 0 0 0 2
M0[1],M1[0],M2[0]
Selects SPI Flash Programming
N 93200 71700 97500 71700 4
C 95600 60200 1 0 0 dgnd.sym
N 95700 60500 97700 60500 4
C 73100 72800 1 90 0 resistor.sym
{
T 72700 73100 5 10 0 0 90 0 1
device=RESISTOR
T 72700 73500 5 10 1 1 180 0 1
refdes=R1223
T 72700 73200 5 10 1 1 180 0 1
value=10.0K
T 73100 73100 5 10 1 1 90 0 1
footprint=0603
}
N 72800 72800 72800 71500 4
C 67100 72800 1 90 0 resistor.sym
{
T 66700 73100 5 10 0 0 90 0 1
device=RESISTOR
T 66700 73500 5 10 1 1 180 0 1
refdes=R1224
T 66700 73200 5 10 1 1 180 0 1
value=10.0K
T 67100 73100 5 10 1 1 90 0 1
footprint=0603
}
N 66800 72800 66800 71500 4
C 76800 68600 1 90 0 capacitor.sym
{
T 76100 68900 5 10 0 0 90 0 1
device=CAPACITOR
T 76500 69200 5 10 1 1 180 2 1
refdes=C1230
T 76500 68900 5 10 1 1 180 0 1
value=1.0u
T 76800 68500 5 10 1 1 90 0 1
footprint=0603
}
C 76500 68300 1 0 0 dgnd.sym
C 76400 69500 1 0 0 dvcc.sym
{
T 76650 69820 5 10 1 1 0 3 1
net=VCCO_3P3:1
}
C 79300 57700 1 0 0 dvcc.sym
{
T 79550 58020 5 10 1 1 0 3 1
net=VCCO_1P8:1
}
C 78000 57400 1 0 0 ferrite_bead.sym
{
T 78200 58300 5 10 0 0 0 0 1
device=INDUCTOR
T 78200 57800 5 10 1 1 0 0 1
refdes=L1211
T 78200 58146 5 10 0 0 0 0 1
value=0 H
T 78400 57381 5 10 1 1 0 3 1
footprint=0603
}
C 77200 57700 1 0 0 avcc.sym
{
T 77450 58100 5 10 1 1 0 3 1
net=VXADC_1P8:1
}
N 79500 57700 78900 57700 4
N 77400 57700 78000 57700 4
C 79400 56500 1 0 0 dgnd.sym
C 78000 56500 1 0 0 ferrite_bead.sym
{
T 78200 57400 5 10 0 0 0 0 1
device=INDUCTOR
T 78200 56900 5 10 1 1 0 0 1
refdes=L1210
T 78200 57246 5 10 0 0 0 0 1
value=0 H
T 78400 56481 5 10 1 1 0 3 1
footprint=0603
}
N 78900 56800 79500 56800 4
C 77300 56500 1 0 0 agnd.sym
{
T 77400 56510 5 8 1 1 0 5 1
net=AGND_XADC:1
}
N 77400 56800 78000 56800 4
N 73400 55500 74000 55700 4
T 78900 69800 9 10 1 0 0 0 2
This is a config EEPROM. It can't be used
for anything other than PLD code
C 65500 60800 1 0 0 input-1.sym
{
T 65800 60900 5 10 1 1 0 4 1
value=13
}
C 66500 60000 1 90 0 capacitor.sym
{
T 65800 60300 5 10 0 0 90 0 1
device=CAPACITOR
T 66200 60600 5 10 1 1 180 2 1
refdes=C1201
T 66200 60300 5 10 1 1 180 0 1
value=47u
T 66500 59900 5 10 1 1 90 0 1
footprint=1210
}
C 66200 59700 1 0 0 dgnd.sym
C 93000 71700 1 0 0 dvcc.sym
{
T 93250 72020 5 10 1 1 0 3 1
net=VCCO_3P3:1
}
C 92400 71600 1 0 0 input-1.sym
{
T 92700 71700 5 10 1 1 0 4 1
value=13
}
C 93400 70800 1 90 0 capacitor.sym
{
T 92700 71100 5 10 0 0 90 0 1
device=CAPACITOR
T 93100 71400 5 10 1 1 180 2 1
refdes=C1200
T 93100 71100 5 10 1 1 180 0 1
value=100u
T 93400 70700 5 10 1 1 90 0 1
footprint=1210
}
C 93100 70500 1 0 0 dgnd.sym
C 80300 57600 1 0 1 input-1.sym
{
T 80000 57700 5 10 1 1 0 4 1
value=13
}
C 80300 56700 1 0 1 input-1.sym
{
T 80000 56800 5 10 1 1 0 4 1
value=13
}
C 78900 71100 1 0 0 spi_flash-N25Q256A.sym
{
T 80100 73600 5 10 1 1 0 4 1
description=SPI FLASH
T 80100 73800 5 10 1 1 0 4 1
device=N25Q256A
T 81100 73700 5 10 1 1 0 0 1
refdes=U1240
T 81092 73500 5 10 1 1 0 0 1
footprint=TPBGA24b05.fp
}
C 80000 70800 1 0 0 dgnd.sym
N 81300 73100 85400 73100 4
{
T 84200 73150 5 10 1 1 0 0 1
netname=spi1_data0_io
}
N 81300 72700 85400 72700 4
{
T 84200 72750 5 10 1 1 0 0 1
netname=spi1_data1_i
}
N 81300 72300 85400 72300 4
{
T 84200 72350 5 10 1 1 0 0 1
netname=spi1_data2_i
}
N 77100 72700 78900 72700 4
{
T 77200 72750 5 10 1 1 0 0 1
netname=spi1_clk_o
}
N 77100 73100 78900 73100 4
{
T 77200 73150 5 10 1 1 0 0 1
netname=spi1_cs_o
}
N 81300 71900 85400 71900 4
{
T 84200 71950 5 10 1 1 0 0 1
netname=spi1_data3_i
}
C 78900 73600 1 90 0 resistor.sym
{
T 78500 73900 5 10 0 0 90 0 1
device=RESISTOR
T 78500 74300 5 10 1 1 180 0 1
refdes=R1240
T 78500 74000 5 10 1 1 180 0 1
value=2.4K
T 78900 73900 5 10 1 1 90 0 1
footprint=0603
}
N 78600 73600 78600 73100 4
N 77100 71900 78900 71900 4
{
T 77200 71950 5 10 1 1 0 0 1
netname=spi1_reset_o
}
C 78900 71000 1 90 0 resistor.sym
{
T 78500 71300 5 10 0 0 90 0 1
device=RESISTOR
T 78500 71700 5 10 1 1 180 0 1
refdes=R1241
T 78500 71400 5 10 1 1 180 0 1
value=10.0K
T 78900 71300 5 10 1 1 90 0 1
footprint=0603
}
C 78500 70700 1 0 0 dgnd.sym
N 76500 74500 83800 74500 4
C 83100 73600 1 90 0 resistor.sym
{
T 82700 73900 5 10 0 0 90 0 1
device=RESISTOR
T 82700 74300 5 10 1 1 180 0 1
refdes=R1242
T 82700 74000 5 10 1 1 180 0 1
value=4.7K
T 83100 73800 5 10 1 1 90 0 1
footprint=0603
}
C 84100 73600 1 90 0 resistor.sym
{
T 83700 73900 5 10 0 0 90 0 1
device=RESISTOR
T 83700 74300 5 10 1 1 180 0 1
refdes=R1243
T 83700 74000 5 10 1 1 180 0 1
value=4.7K
T 84100 73800 5 10 1 1 90 0 1
footprint=0603
}
N 82800 73600 82800 72300 4
N 83800 73600 83800 71900 4
C 76700 73600 1 90 0 capacitor.sym
{
T 76000 73900 5 10 0 0 90 0 1
device=CAPACITOR
T 76400 74200 5 10 1 1 180 2 1
refdes=C1240
T 76400 73900 5 10 1 1 180 0 1
value=1.0u
T 76700 73500 5 10 1 1 90 0 1
footprint=0603
}
C 76400 73300 1 0 0 dgnd.sym
C 76300 74500 1 0 0 dvcc.sym
{
T 76550 74820 5 10 1 1 0 3 1
net=VCCO_3P3:1
}
T 78800 74800 9 10 1 0 0 0 2
This is a system EEPROM. It can be used
for storing the soft processor code
N 91900 63800 93600 63800 4
{
T 92000 63850 5 10 1 1 0 0 1
netname=spi1_cs_o
}
N 91900 64000 93600 64000 4
{
T 92000 64050 5 10 1 1 0 0 1
netname=spi1_clk_o
}
N 91900 65200 93600 65200 4
{
T 92000 65250 5 10 1 1 0 0 1
netname=spi1_data0_io
}
N 91900 65000 93600 65000 4
{
T 92000 65050 5 10 1 1 0 0 1
netname=spi1_data1_i
}
N 91900 64600 93600 64600 4
{
T 92000 64650 5 10 1 1 0 0 1
netname=spi1_data2_i
}
N 91900 64400 93600 64400 4
{
T 92000 64450 5 10 1 1 0 0 1
netname=spi1_data3_i
}
N 67400 70300 69100 70300 4
{
T 67800 70350 5 10 1 1 0 0 1
netname=uart0_tx_o
}
N 70500 70300 72200 70300 4
{
T 70700 70350 5 10 1 1 0 0 1
netname=uart0_rx_i
}
N 67400 69900 69100 69900 4
{
T 67800 69950 5 10 1 1 0 0 1
netname=twi0_sda_io
}
N 70500 69900 72200 69900 4
{
T 70700 69950 5 10 1 1 0 0 1
netname=twi0_scl_io
}
N 67400 68700 69100 68700 4
{
T 67800 68750 5 10 1 1 0 0 1
netname=spi2_clk_o
}
N 70500 69100 72200 69100 4
{
T 70700 69150 5 10 1 1 0 0 1
netname=spi2_data0_io
}
N 67400 69100 69100 69100 4
{
T 67800 69150 5 10 1 1 0 0 1
netname=spi2_data1_i
}
N 70500 68700 72200 68700 4
{
T 70700 68750 5 10 1 1 0 0 1
netname=spi2_cs0_o
}
C 68800 69400 1 270 1 dgnd.sym
N 73700 69500 70500 69500 4
C 73500 69500 1 0 0 dvcc.sym
{
T 73750 69820 5 10 1 1 0 3 1
net=VCCO_3P3:1
}
N 91900 67000 93600 67000 4
{
T 92000 67050 5 10 1 1 0 0 1
netname=uart0_tx_o
}
N 91900 66800 93600 66800 4
{
T 92000 66850 5 10 1 1 0 0 1
netname=uart0_rx_i
}
N 91900 62000 93600 62000 4
{
T 92000 62050 5 10 1 1 0 0 1
netname=twi0_sda_io
}
N 91900 62200 93600 62200 4
{
T 92000 62250 5 10 1 1 0 0 1
netname=twi0_scl_io
}
N 99600 64000 101300 64000 4
{
T 99900 64050 5 10 1 1 0 0 1
netname=spi2_data1_i
}
N 99600 63800 101300 63800 4
{
T 99900 63850 5 10 1 1 0 0 1
netname=spi2_data0_io
}
N 99600 63400 101300 63400 4
{
T 99900 63450 5 10 1 1 0 0 1
netname=spi2_clk_o
}
N 99600 63200 101300 63200 4
{
T 99900 63250 5 10 1 1 0 0 1
netname=spi2_cs0_o
}
N 67400 68300 69100 68300 4
{
T 67800 68350 5 10 1 1 0 0 1
netname=spi2_cs1_o
}
N 70500 68300 72200 68300 4
{
T 70700 68350 5 10 1 1 0 0 1
netname=spi2_cs2_o
}
N 67400 67900 69100 67900 4
{
T 67800 67950 5 10 1 1 0 0 1
netname=spi2_cs3_o
}
N 70500 67900 72200 67900 4
{
T 70700 67950 5 10 1 1 0 0 1
netname=spi2_cs4_o
}
N 67400 67500 69100 67500 4
{
T 67800 67550 5 10 1 1 0 0 1
netname=spi2_cs5_o
}
N 70500 67500 72200 67500 4
{
T 70700 67550 5 10 1 1 0 0 1
netname=spi2_cs6_o
}
N 67400 67100 69100 67100 4
{
T 67800 67150 5 10 1 1 0 0 1
netname=spi2_cs7_o
}
N 70500 67100 72200 67100 4
{
T 70700 67150 5 10 1 1 0 0 1
netname=spi2_sclk_i
}
N 72900 70700 72900 69500 4
N 91900 62800 93600 62800 4
{
T 92000 62850 5 10 1 1 0 0 1
netname=spi2_sclk_i
}
N 91900 66200 93600 66200 4
{
T 92000 66250 5 10 1 1 0 0 1
netname=spi2_cs1_o
}
N 91900 66400 93600 66400 4
{
T 92000 66450 5 10 1 1 0 0 1
netname=spi2_cs2_o
}
N 99600 62800 101300 62800 4
{
T 99900 62850 5 10 1 1 0 0 1
netname=spi2_cs3_o
}
N 99600 62600 101300 62600 4
{
T 99900 62650 5 10 1 1 0 0 1
netname=spi2_cs4_o
}
N 91900 63400 93600 63400 4
{
T 92000 63450 5 10 1 1 0 0 1
netname=spi2_cs5_o
}
N 91900 63200 93600 63200 4
{
T 92000 63250 5 10 1 1 0 0 1
netname=spi2_cs6_o
}
N 91900 62600 93600 62600 4
{
T 92000 62650 5 10 1 1 0 0 1
netname=spi2_cs7_o
}
C 68600 71800 1 0 0 nc-left-1.sym
{
T 68600 72200 5 10 0 0 0 0 1
value=NoConnection
T 68600 72600 5 10 0 0 0 0 1
device=DRC_Directive
}
C 75700 74400 1 0 0 input-1.sym
{
T 76000 74500 5 10 1 1 0 4 1
value=13
}
C 75800 69400 1 0 0 input-1.sym
{
T 76100 69500 5 10 1 1 0 4 1
value=13
}
C 66000 73600 1 0 0 input-1.sym
{
T 66300 73700 5 10 1 1 0 4 1
value=13
}
C 95000 53100 1 0 0 cvstitleblock-1.sym
{
T 95600 53500 5 10 1 1 0 0 1
date=2013-07-17
T 99600 53500 5 10 1 1 0 0 1
rev=0.1
T 99600 53200 5 10 1 1 0 0 1
auth=Alexei Dorofeev
T 95800 53800 5 10 1 1 0 0 1
fname=drift_accumulator_12_config.sch
T 99100 54200 5 14 1 1 0 4 1
title=Drift Accumulator: Config, JTAG, SPI, XADC, Power Controls
T 95900 53200 5 10 1 1 0 0 1
page_number=12
T 97300 53200 5 10 1 1 0 0 1
pages=16
}
C 69100 66900 1 0 0 connector-28pins.sym
{
T 65450 69800 5 10 0 0 0 0 1
device=HEADER28
T 69600 72600 5 10 1 1 0 0 1
refdes=J1220
T 68500 66700 5 10 1 1 0 0 1
footprint=CON_HDR_2mm_28pos_2row.fp
}
L 91500 66000 91300 66000 3 0 0 0 -1 -1
L 91300 66000 91300 65400 3 0 0 0 -1 -1
L 91300 65400 91500 65400 3 0 0 0 -1 -1
L 91500 69000 91300 69000 3 0 0 0 -1 -1
L 91300 69000 91300 67200 3 0 0 0 -1 -1
L 91300 67200 91500 67200 3 0 0 0 -1 -1
T 88700 68200 9 10 1 0 0 0 2
CONFIG Pins Should stay on
dedicated pins
T 88700 65600 9 10 1 0 0 0 2
CONFIG Pins Should stay on
dedicated pins
N 99600 68200 102100 68200 4
{
T 101300 68250 5 10 1 1 0 6 1
netname=mem1_cntrl_s3_o
}
N 99600 68000 102100 68000 4
{
T 101300 68050 5 10 1 1 0 6 1
netname=mem1_cntrl_s5_o
}
N 99600 68800 102100 68800 4
{
T 101300 68850 5 10 1 1 0 6 1
netname=mem2_cntrl_s3_o
}
N 99600 67600 102100 67600 4
{
T 101300 67650 5 10 1 1 0 6 1
netname=mem2_cntrl_s5_o
}
C 102100 68700 1 0 0 output-1.sym
{
T 102600 68800 5 10 1 1 0 4 1
value=10
}
C 102100 67500 1 0 0 output-1.sym
{
T 102600 67600 5 10 1 1 0 4 1
value=10
}
C 102100 68100 1 0 0 output-1.sym
{
T 102600 68200 5 10 1 1 0 4 1
value=9
}
C 102100 67900 1 0 0 output-1.sym
{
T 102600 68000 5 10 1 1 0 4 1
value=9
}
C 74500 69400 1 0 1 input-1.sym
{
T 74200 69500 5 10 1 1 0 4 1
value=13
}
T 68200 65700 9 10 1 0 0 0 3
SPI2 is used to communicate
with front-end SPIs. We should put
Buffers on this via separate board
N 77000 54700 77000 54400 4
N 72900 55100 76300 55100 4
{
T 74700 55150 5 10 1 1 0 0 1
netname=xadc_inp_i_p
}
N 72900 54900 76300 54900 4
{
T 74700 54950 5 10 1 1 0 0 1
netname=xadc_inp_i_n
}
N 99600 67400 102100 67400 4
{
T 99890 67440 5 10 1 1 0 0 1
netname=pow_adc6_g1_enable_o
}
N 99600 67000 102100 67000 4
{
T 99890 67040 5 10 1 1 0 0 1
netname=pow_adc6_g2_enable_o
}
N 99600 66400 102100 66400 4
{
T 99890 66440 5 10 1 1 0 0 1
netname=pow_adc6_g3_enable_o
}
N 99600 66800 102100 66800 4
{
T 99890 66840 5 10 1 1 0 0 1
netname=pow_adc6_g4_enable_o
}
N 99600 68600 102100 68600 4
{
T 99890 68640 5 10 1 1 0 0 1
netname=pow_adc6_vdd_enable_o
}
C 102100 67300 1 0 0 output-1.sym
{
T 102600 67400 5 10 1 1 0 4 1
value=6
}
C 102100 66900 1 0 0 output-1.sym
{
T 102600 67000 5 10 1 1 0 4 1
value=6
}
C 102100 66300 1 0 0 output-1.sym
{
T 102600 66400 5 10 1 1 0 4 1
value=6
}
C 102100 66700 1 0 0 output-1.sym
{
T 102600 66800 5 10 1 1 0 4 1
value=6
}
C 102100 68500 1 0 0 output-1.sym
{
T 102600 68600 5 10 1 1 0 4 1
value=6
}
N 99600 65800 102100 65800 4
{
T 99890 65840 5 10 1 1 0 0 1
netname=pow_adc5_vdd_enable_o
}
C 102100 65700 1 0 0 output-1.sym
{
T 102600 65800 5 10 1 1 0 4 1
value=5
}
N 99600 65200 102100 65200 4
{
T 99890 65240 5 10 1 1 0 0 1
netname=pow_adc5_g1_enable_o
}
C 102100 65100 1 0 0 output-1.sym
{
T 102600 65200 5 10 1 1 0 4 1
value=5
}
N 99600 64400 102100 64400 4
{
T 99890 64440 5 10 1 1 0 0 1
netname=pow_adc5_g2_enable_o
}
C 102100 64300 1 0 0 output-1.sym
{
T 102600 64400 5 10 1 1 0 4 1
value=5
}
N 99600 65000 102100 65000 4
{
T 99890 65040 5 10 1 1 0 0 1
netname=pow_adc5_g3_enable_o
}
C 102100 64900 1 0 0 output-1.sym
{
T 102600 65000 5 10 1 1 0 4 1
value=5
}
N 99600 64600 102100 64600 4
{
T 99890 64640 5 10 1 1 0 0 1
netname=pow_adc5_g4_enable_o
}
C 102100 64500 1 0 0 output-1.sym
{
T 102600 64600 5 10 1 1 0 4 1
value=5
}
N 91900 61600 93600 61600 4
{
T 92000 61650 5 10 1 1 0 0 1
netname=spi1_reset_o
}
C 100100 66100 1 0 1 nc-left-1.sym
{
T 100100 66500 5 10 0 0 0 6 1
value=NoConnection
T 100100 66900 5 10 0 0 0 6 1
device=DRC_Directive
}
C 100100 65500 1 0 1 nc-left-1.sym
{
T 100100 65900 5 10 0 0 0 6 1
value=NoConnection
T 100100 66300 5 10 0 0 0 6 1
device=DRC_Directive
}
C 86300 54600 1 0 0 clock_gen-CDCM61001.sym
{
T 87800 59250 5 16 1 1 0 4 1
device=CDCM61001
T 89100 59200 5 10 1 1 0 0 1
refdes=U1250
T 89100 59000 5 10 1 1 0 0 1
footprint=QFN32_EP.fp
}
C 82200 54900 1 0 0 crystal.sym
{
T 82000 56300 5 10 1 1 0 0 1
device=ECS-250-8-30B-CKM
T 82900 56000 5 10 1 1 0 0 1
refdes=Y1250
T 82695 55100 5 10 1 1 0 5 1
footprint=ECX30B.fp
T 82895 55300 5 10 1 1 0 8 1
value=25MHz
}
C 82100 54400 1 0 0 dgnd.sym
N 82200 56000 82200 54700 4
N 83200 55200 83200 54700 4
N 82200 54700 83900 54700 4
C 84100 54700 1 90 0 capacitor.sym
{
T 83400 55000 5 10 0 0 90 0 1
device=CAPACITOR
T 83800 55300 5 10 1 1 180 2 1
refdes=C1250
T 83800 55000 5 10 1 1 180 0 1
value=22p
T 84100 54600 5 10 1 1 90 0 1
footprint=0603
}
N 83200 55600 86300 55600 4
C 83200 62400 1 0 0 ferrite_bead.sym
{
T 83400 63300 5 10 0 0 0 0 1
device=INDUCTOR
T 83400 63146 5 10 0 0 0 0 1
value=0 H
T 83400 62800 5 10 1 1 0 0 1
refdes=L1250
T 83600 62381 5 10 1 1 0 3 1
footprint=0603
}
N 86800 60600 84800 60600 4
C 84600 60600 1 0 0 dvcc.sym
{
T 84850 60920 5 10 1 1 0 3 1
net=VCCO_3P3:1
}
C 83000 62700 1 0 0 dvcc.sym
{
T 83250 63020 5 10 1 1 0 3 1
net=VCCO_3P3:1
}
N 84100 62700 88200 62700 4
N 88200 62700 88200 60600 4
N 88200 60600 87400 60600 4
C 91100 60600 1 0 0 dvcc.sym
{
T 91350 60920 5 10 1 1 0 3 1
net=VCCO_3P3:1
}
N 88800 60600 91300 60600 4
C 85000 61800 1 90 0 capacitor.sym
{
T 84300 62100 5 10 0 0 90 0 1
device=CAPACITOR
T 84700 62400 5 10 1 1 180 2 1
refdes=C1251
T 84700 62100 5 10 1 1 180 0 1
value=10u
T 85000 61700 5 10 1 1 90 0 1
footprint=0603
}
C 85900 61800 1 90 0 capacitor.sym
{
T 85200 62100 5 10 0 0 90 0 1
device=CAPACITOR
T 85600 62400 5 10 1 1 180 2 1
refdes=C1252
T 85600 62100 5 10 1 1 180 0 1
value=0.1u
T 85900 61700 5 10 1 1 90 0 1
footprint=0603
}
C 86800 61800 1 90 0 capacitor.sym
{
T 86100 62100 5 10 0 0 90 0 1
device=CAPACITOR
T 86500 62400 5 10 1 1 180 2 1
refdes=C1253
T 86500 62100 5 10 1 1 180 0 1
value=0.1u
T 86800 61700 5 10 1 1 90 0 1
footprint=0603
}
C 87700 61800 1 90 0 capacitor.sym
{
T 87000 62100 5 10 0 0 90 0 1
device=CAPACITOR
T 87400 62400 5 10 1 1 180 2 1
refdes=C1254
T 87400 62100 5 10 1 1 180 0 1
value=0.1u
T 87700 61700 5 10 1 1 90 0 1
footprint=0603
}
C 87700 54300 1 0 0 dgnd.sym
C 88100 54300 1 0 0 dgnd.sym
N 87500 61800 87500 61600 4
N 87500 61600 84800 61600 4
N 84800 61600 84800 61800 4
N 85700 61800 85700 61600 4
N 86600 61800 86600 61600 4
C 84700 61300 1 0 0 dgnd.sym
C 85000 59700 1 90 0 capacitor.sym
{
T 84300 60000 5 10 0 0 90 0 1
device=CAPACITOR
T 84700 60300 5 10 1 1 180 2 1
refdes=C1255
T 84700 60000 5 10 1 1 180 0 1
value=10u
T 85000 59600 5 10 1 1 90 0 1
footprint=0603
}
C 85900 59700 1 90 0 capacitor.sym
{
T 85200 60000 5 10 0 0 90 0 1
device=CAPACITOR
T 85600 60300 5 10 1 1 180 2 1
refdes=C1256
T 85600 60000 5 10 1 1 180 0 1
value=0.1u
T 85900 59600 5 10 1 1 90 0 1
footprint=0603
}
N 84800 59700 84800 59500 4
N 84800 59500 85700 59500 4
N 85700 59500 85700 59700 4
C 84700 59200 1 0 0 dgnd.sym
C 91500 59700 1 90 0 capacitor.sym
{
T 90800 60000 5 10 0 0 90 0 1
device=CAPACITOR
T 91200 60300 5 10 1 1 180 2 1
refdes=C1258
T 91200 60000 5 10 1 1 180 0 1
value=10u
T 91500 59600 5 10 1 1 90 0 1
footprint=0603
}
C 90600 59700 1 90 0 capacitor.sym
{
T 89900 60000 5 10 0 0 90 0 1
device=CAPACITOR
T 90300 60300 5 10 1 1 180 2 1
refdes=C1257
T 90300 60000 5 10 1 1 180 0 1
value=0.1u
T 90600 59600 5 10 1 1 90 0 1
footprint=0603
}
N 90400 59500 91300 59500 4
N 90400 59700 90400 59500 4
N 91300 59500 91300 59700 4
C 91200 59200 1 0 0 dgnd.sym
C 90300 54700 1 90 0 capacitor.sym
{
T 89600 55000 5 10 0 0 90 0 1
device=CAPACITOR
T 90000 55300 5 10 1 1 180 2 1
refdes=C1259
T 90000 55000 5 10 1 1 180 0 1
value=10u
T 90300 54600 5 10 1 1 90 0 1
footprint=0603
}
C 90000 54400 1 0 0 dgnd.sym
N 89300 55600 90100 55600 4
C 91300 55100 1 90 0 capacitor.sym
{
T 90600 55400 5 10 0 0 90 0 1
device=CAPACITOR
T 91000 55700 5 10 1 1 180 2 1
refdes=C1260
T 91000 55400 5 10 1 1 180 0 1
value=10u
T 91300 55000 5 10 1 1 90 0 1
footprint=0603
}
C 91000 54800 1 0 0 dgnd.sym
N 89300 56000 91100 56000 4
N 84200 58400 86300 58400 4
{
T 84400 58450 5 10 1 1 0 0 1
netname=SYS_CLK_OS0
}
N 84200 58200 86300 58200 4
{
T 84400 58250 5 10 1 1 0 0 1
netname=SYS_CLK_OS1
}
N 84200 57800 86300 57800 4
{
T 84400 57850 5 10 1 1 0 0 1
netname=SYS_CLK_OD0
}
N 84200 57600 86300 57600 4
{
T 84400 57650 5 10 1 1 0 0 1
netname=SYS_CLK_OD1
}
N 84200 57400 86300 57400 4
{
T 84400 57450 5 10 1 1 0 0 1
netname=SYS_CLK_OD2
}
N 84200 57000 86300 57000 4
{
T 84400 57050 5 10 1 1 0 0 1
netname=SYS_CLK_PR0
}
N 84200 56800 86300 56800 4
{
T 84400 56850 5 10 1 1 0 0 1
netname=SYS_CLK_PR1
}
N 92500 58600 94600 58600 4
{
T 92800 58650 5 10 1 1 0 0 1
netname=sys_clk_i_p
}
N 92500 58000 94600 58000 4
{
T 92800 58050 5 10 1 1 0 0 1
netname=sys_clk_i_n
}
N 99600 62200 101700 62200 4
{
T 99900 62250 5 10 1 1 0 0 1
netname=sys_clk_i_p
}
N 99600 62000 101700 62000 4
{
T 99900 62050 5 10 1 1 0 0 1
netname=sys_clk_i_n
}
N 84200 56400 86300 56400 4
{
T 84400 56450 5 10 1 1 0 0 1
netname=SYS_CLK_CE
}
C 82400 62600 1 0 0 input-1.sym
{
T 82700 62700 5 10 1 1 0 4 1
value=13
}
C 84000 60500 1 0 0 input-1.sym
{
T 84300 60600 5 10 1 1 0 4 1
value=13
}
C 92100 60500 1 0 1 input-1.sym
{
T 91800 60600 5 10 1 1 0 4 1
value=13
}
N 78000 63700 80100 63700 4
{
T 78200 63750 5 10 1 1 0 0 1
netname=SYS_CLK_OS0
}
N 78000 62800 80100 62800 4
{
T 78200 62850 5 10 1 1 0 0 1
netname=SYS_CLK_OS1
}
N 73700 61000 75800 61000 4
{
T 73900 61050 5 10 1 1 0 0 1
netname=SYS_CLK_OD0
}
N 73700 60100 75800 60100 4
{
T 73900 60150 5 10 1 1 0 0 1
netname=SYS_CLK_OD1
}
N 73700 59200 75800 59200 4
{
T 73900 59250 5 10 1 1 0 0 1
netname=SYS_CLK_OD2
}
N 73700 63700 75800 63700 4
{
T 73900 63750 5 10 1 1 0 0 1
netname=SYS_CLK_PR0
}
N 73700 62800 75800 62800 4
{
T 73900 62850 5 10 1 1 0 0 1
netname=SYS_CLK_PR1
}
N 78000 61000 80100 61000 4
{
T 78200 61050 5 10 1 1 0 0 1
netname=SYS_CLK_CE
}
C 89800 57300 1 0 1 nc-left-1.sym
{
T 89800 57700 5 10 0 0 0 6 1
value=NoConnection
T 89800 58100 5 10 0 0 0 6 1
device=DRC_Directive
}
C 80000 63200 1 0 0 resistor_switch.sym
{
T 80400 63800 5 10 0 0 0 0 1
device=RESISTOR
T 80500 63900 5 10 1 1 0 6 1
refdes=R1250
T 80700 63900 5 10 1 1 0 0 1
value=10.0K
T 80600 63300 5 10 1 1 0 4 1
footprint=1_5_0603.fp
}
C 80000 62300 1 0 0 resistor_switch.sym
{
T 80400 62900 5 10 0 0 0 0 1
device=RESISTOR
T 80500 63000 5 10 1 1 0 6 1
refdes=R1251
T 80700 63000 5 10 1 1 0 0 1
value=10.0K
T 80600 62400 5 10 1 1 0 4 1
footprint=1_5_0603.fp
}
C 75700 60500 1 0 0 resistor_switch.sym
{
T 76100 61100 5 10 0 0 0 0 1
device=RESISTOR
T 76200 61200 5 10 1 1 0 6 1
refdes=R1252
T 76400 61200 5 10 1 1 0 0 1
value=10.0K
T 76300 60600 5 10 1 1 0 4 1
footprint=1_5_0603.fp
}
C 75700 59600 1 0 0 resistor_switch.sym
{
T 76100 60200 5 10 0 0 0 0 1
device=RESISTOR
T 76200 60300 5 10 1 1 0 6 1
refdes=R1253
T 76400 60300 5 10 1 1 0 0 1
value=10.0K
T 76300 59700 5 10 1 1 0 4 1
footprint=1_5_0603.fp
}
C 75700 58700 1 0 0 resistor_switch.sym
{
T 76100 59300 5 10 0 0 0 0 1
device=RESISTOR
T 76200 59400 5 10 1 1 0 6 1
refdes=R1254
T 76400 59400 5 10 1 1 0 0 1
value=10.0K
T 76300 58800 5 10 1 1 0 4 1
footprint=1_5_0603.fp
}
C 75700 63200 1 0 0 resistor_switch.sym
{
T 76100 63800 5 10 0 0 0 0 1
device=RESISTOR
T 76200 63900 5 10 1 1 0 6 1
refdes=R1255
T 76400 63900 5 10 1 1 0 0 1
value=10.0K
T 76300 63300 5 10 1 1 0 4 1
footprint=1_5_0603.fp
}
C 75700 62300 1 0 0 resistor_switch.sym
{
T 76100 62900 5 10 0 0 0 0 1
device=RESISTOR
T 76200 63000 5 10 1 1 0 6 1
refdes=R1256
T 76400 63000 5 10 1 1 0 0 1
value=10.0K
T 76300 62400 5 10 1 1 0 4 1
footprint=1_5_0603.fp
}
C 80000 60500 1 0 0 resistor_switch.sym
{
T 80400 61100 5 10 0 0 0 0 1
device=RESISTOR
T 80500 61200 5 10 1 1 0 6 1
refdes=R1257
T 80700 61200 5 10 1 1 0 0 1
value=10.0K
T 80600 60600 5 10 1 1 0 4 1
footprint=1_5_0603.fp
}
C 80000 59600 1 0 0 resistor_switch.sym
{
T 80400 60200 5 10 0 0 0 0 1
device=RESISTOR
T 80500 60300 5 10 1 1 0 6 1
refdes=R1258
T 80700 60300 5 10 1 1 0 0 1
value=DNP
T 80600 59700 5 10 1 1 0 4 1
footprint=1_5_0603.fp
}
C 81100 64100 1 0 0 dvcc.sym
{
T 81350 64420 5 10 1 1 0 3 1
net=VCCO_3P3:1
}
C 81700 62300 1 0 0 dgnd.sym
C 77400 58700 1 0 0 dgnd.sym
C 76800 61400 1 0 0 dvcc.sym
{
T 77050 61720 5 10 1 1 0 3 1
net=VCCO_3P3:1
}
C 76800 64100 1 0 0 dvcc.sym
{
T 77050 64420 5 10 1 1 0 3 1
net=VCCO_3P3:1
}
C 81100 61400 1 0 0 dvcc.sym
{
T 81350 61720 5 10 1 1 0 3 1
net=VCCO_3P3:1
}
C 77400 62200 1 0 0 dgnd.sym
C 81700 59600 1 0 0 dgnd.sym
N 81300 60100 81300 61400 4
N 81300 61000 81000 61000 4
N 81000 60100 81300 60100 4
N 81000 60800 81800 60800 4
N 81800 60800 81800 59900 4
N 81000 59900 81800 59900 4
N 81000 62800 81800 62800 4
N 81800 62600 81800 63500 4
N 81000 63700 81300 63700 4
N 81300 62600 81300 64100 4
N 81000 62600 81300 62600 4
N 81000 63500 81800 63500 4
T 78500 64300 9 10 1 0 0 0 1
LVDS output, Osc Out Off
T 78600 61600 9 10 1 0 0 0 1
Normal Operation
C 79700 59200 1 90 0 capacitor.sym
{
T 79000 59500 5 10 0 0 90 0 1
device=CAPACITOR
T 79400 59800 5 10 1 1 180 2 1
refdes=C1263
T 79400 59500 5 10 1 1 180 0 1
value=47n
T 79700 59100 5 10 1 1 90 0 1
footprint=0603
}
C 79400 58900 1 0 0 dgnd.sym
T 74000 64400 9 10 1 0 0 0 2
Prescale Divider: 3
Feedback Divider: 24
T 74200 61700 9 10 1 0 0 0 1
Output Divider: 6
N 76700 63700 77500 63700 4
N 77500 63700 77500 62500 4
N 76700 62800 77500 62800 4
N 77000 62600 77000 64100 4
N 77000 63500 76700 63500 4
N 77000 62600 76700 62600 4
N 76700 61000 77000 61000 4
N 77000 59200 77000 61400 4
N 76700 60100 77500 60100 4
N 77500 59000 77500 60800 4
N 76700 59200 77000 59200 4
N 76700 60800 77500 60800 4
N 76700 59900 77000 59900 4
N 76700 59000 77500 59000 4
T 76300 65100 9 10 1 0 0 0 1
Resulting System clock is 100MHz
C 73900 55400 1 0 0 agnd.sym
{
T 74000 55410 5 8 1 1 0 5 1
net=AGND_XADC:1
}
C 73900 54200 1 0 0 agnd.sym
{
T 74000 54210 5 8 1 1 0 5 1
net=AGND_XADC:1
}
C 75400 56100 1 0 0 avcc.sym
{
T 75650 56500 5 10 1 1 0 3 1
net=VXADC_1P8:1
}
C 91600 58400 1 0 0 capacitor.sym
{
T 91900 59100 5 10 0 0 0 0 1
device=CAPACITOR
T 91900 58700 5 10 1 1 180 2 1
refdes=C1261
T 92200 58700 5 10 1 1 0 0 1
value=0.1u
T 92200 58400 5 10 1 1 0 0 1
footprint=0603
}
C 91600 57800 1 0 0 capacitor.sym
{
T 91900 58500 5 10 0 0 0 0 1
device=CAPACITOR
T 91900 58100 5 10 1 1 180 2 1
refdes=C1262
T 92200 58100 5 10 1 1 0 0 1
value=0.1u
T 92200 57800 5 10 1 1 0 0 1
footprint=0603
}
N 89300 58400 91300 58400 4
{
T 89600 58450 5 10 1 1 0 0 1
netname=SYS_CLK_OUT_P
}
N 89300 58200 91300 58200 4
{
T 89600 58250 5 10 1 1 0 0 1
netname=SYS_CLK_OUT_N
}
N 91300 58400 91300 58600 4
N 91300 58600 91600 58600 4
N 91300 58200 91300 58000 4
N 91300 58000 91600 58000 4
N 78000 60100 80100 60100 4
{
T 78200 60150 5 10 1 1 0 0 1
netname=SYS_CLK_RESET
}
N 84200 56000 86300 56000 4
{
T 84400 56050 5 10 1 1 0 0 1
netname=SYS_CLK_RESET
}
C 100100 61500 1 0 1 nc-left-1.sym
{
T 100100 61900 5 10 0 0 0 6 1
value=NoConnection
T 100100 62300 5 10 0 0 0 6 1
device=DRC_Directive
}
T 72500 66000 2 20 1 0 0 0 2
Reset Should Be pulled-up instead
of down. This is a bug.
T 94900 57700 2 20 1 0 0 0 3
Since we translate to lvds, which
is 2.5 V, we'll need to make termination
and some level adjasement here.
