v 20130925 2
C 74100 19000 1 0 0 cvstitleblock-1.sym
{
T 74700 19400 5 10 1 1 0 0 1
date=2013-12-09     2014-04-14
T 78600 19400 5 10 1 1 0 0 1
rev=1.0
T 78800 19100 5 10 1 1 0 0 1
auth=Alexei Dorofeev
T 74900 19700 5 10 1 1 0 0 1
fname=drift_knot_04.sch
T 78200 20100 5 14 1 1 0 4 1
title=Drift Knot : Sections 49,51,53,55,57,59,61,63
T 75000 19100 5 10 1 1 0 0 1
page_number=4
T 76500 19100 5 10 1 1 0 0 1
pages=XX
}
C 28600 61500 1 90 0 resistor.sym
{
T 28200 61800 5 10 0 0 90 0 1
device=RESISTOR
T 28200 62200 5 10 1 1 180 0 1
refdes=R4031
T 28200 61900 5 10 1 1 180 0 1
value=50.0Meg
T 28600 61700 5 10 1 1 90 0 1
footprint=0603
}
C 29700 61500 1 90 0 capacitor.sym
{
T 29000 61800 5 10 0 0 90 0 1
device=CAPACITOR
T 29400 62100 5 10 1 1 180 2 1
refdes=C4031
T 29400 61800 5 10 1 1 180 0 1
value=0.6p
T 29700 61400 5 10 1 1 90 0 1
footprint=0603
}
C 25200 60800 1 0 0 opamp-ADA4817-2.sym
{
T 26300 63500 5 11 1 1 90 4 1
device=ADA4817-2
T 27100 65400 5 10 1 1 0 0 1
refdes=U4030
T 27092 65200 5 10 1 1 0 0 1
footprint=QFN16_4_EP_rot.fp
}
C 23300 64700 1 90 0 capacitor.sym
{
T 22600 65000 5 10 0 0 90 0 1
device=CAPACITOR
T 23000 65300 5 10 1 1 180 2 1
refdes=C4030
T 23000 65000 5 10 1 1 180 0 1
value=0.6p
T 23300 64600 5 10 1 1 90 0 1
footprint=0603
}
C 24500 64700 1 90 0 resistor.sym
{
T 24100 65000 5 10 0 0 90 0 1
device=RESISTOR
T 24100 65400 5 10 1 1 180 0 1
refdes=R4030
T 24100 65100 5 10 1 1 180 0 1
value=50.0Meg
T 24500 64900 5 10 1 1 90 0 1
footprint=0603
}
N 23100 64500 25200 64500 4
{
T 23100 64300 5 10 1 1 0 0 1
netname=transimp_inp_51_p
}
N 23100 64700 23100 64500 4
N 24200 64700 24200 64500 4
N 25200 65300 25200 65600 4
N 25200 65600 23100 65600 4
N 27300 62400 29500 62400 4
{
T 29500 62500 5 10 1 1 0 6 1
netname=transimp_inp_51_n
}
N 29500 61500 29500 61300 4
N 29500 61300 27300 61300 4
N 27300 61300 27300 61600 4
N 28300 61500 28300 61300 4
N 27300 62800 31900 62800 4
{
T 30300 62900 5 10 1 1 0 0 1
netname=common_mode_49
}
C 22300 64400 1 0 0 input-1.sym
{
T 22600 64500 5 10 1 1 0 4 1
value=1
}
C 30300 62300 1 0 1 input-1.sym
{
T 30000 62400 5 10 1 1 0 4 1
value=1
}
N 27300 64300 29400 64300 4
{
T 27700 64400 5 10 1 1 0 0 1
netname=transimp_out_51_p
}
N 23400 62600 25200 62600 4
{
T 23500 62400 5 10 1 1 0 0 1
netname=transimp_out_51_n
}
N 27300 64900 29600 64900 4
N 25200 62000 22700 62000 4
C 42500 61300 1 0 0 difopamp-ADA4930.sym
{
T 44995 65995 5 10 0 0 0 0 1
model-name=ADA4930
T 44000 63700 5 10 1 1 0 4 1
device=ADA4930
T 42700 64900 5 10 1 1 0 0 1
refdes=U4031
T 42692 64700 5 10 1 1 0 0 1
footprint=QFN16_3_EP
}
C 42300 64400 1 90 0 resistor.sym
{
T 41900 64700 5 10 0 0 90 0 1
device=RESISTOR
T 41900 65100 5 10 1 1 180 0 1
refdes=R4038
T 41900 64800 5 10 1 1 180 0 1
value=330
T 42300 64600 5 10 1 1 90 0 1
footprint=0603
}
C 42300 62100 1 90 0 resistor.sym
{
T 41900 62400 5 10 0 0 90 0 1
device=RESISTOR
T 41900 62800 5 10 1 1 180 0 1
refdes=R4039
T 41900 62500 5 10 1 1 180 0 1
value=330
T 42300 62300 5 10 1 1 90 0 1
footprint=0603
}
N 42000 62100 42000 61900 4
N 40900 61900 42500 61900 4
N 42000 65300 42000 65500 4
N 40900 65500 42500 65500 4
C 41100 64400 1 90 0 capacitor.sym
{
T 40400 64700 5 10 0 0 90 0 1
device=CAPACITOR
T 40800 65000 5 10 1 1 180 2 1
refdes=C4038
T 40800 64700 5 10 1 1 180 0 1
value=DNP
T 41100 64300 5 10 1 1 90 0 1
footprint=0603
}
N 40900 65300 40900 65500 4
N 40900 62100 40900 61900 4
C 41100 62100 1 90 0 capacitor.sym
{
T 40400 62400 5 10 0 0 90 0 1
device=CAPACITOR
T 40800 62700 5 10 1 1 180 2 1
refdes=C4039
T 40800 62400 5 10 1 1 180 0 1
value=DNP
T 41100 62000 5 10 1 1 90 0 1
footprint=0603
}
N 43900 66100 44900 66100 4
N 43900 61300 44700 61300 4
C 45400 63800 1 0 0 resistor.sym
{
T 45700 64200 5 10 0 0 0 0 1
device=RESISTOR
T 45700 64300 5 10 1 1 0 6 1
refdes=R4040
T 46000 64300 5 10 1 1 0 0 1
value=49.9
T 45600 63800 5 10 1 1 0 0 1
footprint=0603
}
C 45400 63000 1 0 0 resistor.sym
{
T 45700 63400 5 10 0 0 0 0 1
device=RESISTOR
T 45700 63500 5 10 1 1 0 6 1
refdes=R4041
T 46000 63500 5 10 1 1 0 0 1
value=49.9
T 45600 63000 5 10 1 1 0 0 1
footprint=0603
}
N 44900 64100 45400 64100 4
N 44900 63300 45400 63300 4
C 47500 63200 1 90 0 resistor.sym
{
T 47100 63500 5 10 0 0 90 0 1
device=RESISTOR
T 47100 63900 5 10 1 1 180 0 1
refdes=R4042
T 47100 63600 5 10 1 1 180 0 1
value=100
T 47500 63400 5 10 1 1 90 0 1
footprint=0603
}
N 46300 64100 46500 64100 4
N 46500 64100 46500 64400 4
N 46300 63300 46500 63300 4
N 46500 63300 46500 63000 4
N 47200 63200 47200 63000 4
N 47200 64100 47200 64400 4
C 39300 63800 1 0 0 resistor.sym
{
T 39600 64200 5 10 0 0 0 0 1
device=RESISTOR
T 39600 64300 5 10 1 1 0 6 1
refdes=R4036
T 39900 64300 5 10 1 1 0 0 1
value=49.9
T 39500 63800 5 10 1 1 0 0 1
footprint=0603
}
C 39300 63000 1 0 0 resistor.sym
{
T 39600 63400 5 10 0 0 0 0 1
device=RESISTOR
T 39600 63500 5 10 1 1 0 6 1
refdes=R4037
T 39900 63500 5 10 1 1 0 0 1
value=49.9
T 39500 63000 5 10 1 1 0 0 1
footprint=0603
}
N 40200 64100 42500 64100 4
N 40200 63300 42500 63300 4
N 42000 63000 42000 63300 4
N 42000 64400 42000 64100 4
N 40900 64400 40900 64100 4
N 40900 63000 40900 63300 4
C 37800 63900 1 0 0 capacitor.sym
{
T 38100 64600 5 10 0 0 0 0 1
device=CAPACITOR
T 38100 64200 5 10 1 1 180 2 1
refdes=C4036
T 38400 64200 5 10 1 1 0 0 1
value=2.2u
T 38400 63800 5 10 1 1 0 0 1
footprint=0612.fp
}
C 37800 63100 1 0 0 capacitor.sym
{
T 38100 63800 5 10 0 0 0 0 1
device=CAPACITOR
T 38100 63400 5 10 1 1 180 2 1
refdes=C4037
T 38400 63400 5 10 1 1 0 0 1
value=2.2u
T 38400 63000 5 10 1 1 0 0 1
footprint=0612.fp
}
N 38700 64100 39300 64100 4
N 38700 63300 39300 63300 4
C 37000 63700 1 90 0 resistor.sym
{
T 36600 64000 5 10 0 0 90 0 1
device=RESISTOR
T 36600 64400 5 10 1 1 180 0 1
refdes=R4032
T 36600 64100 5 10 1 1 180 0 1
value=DNP
T 37000 63900 5 10 1 1 90 0 1
footprint=0603
}
C 37000 62800 1 90 0 resistor.sym
{
T 36600 63100 5 10 0 0 90 0 1
device=RESISTOR
T 36600 63500 5 10 1 1 180 0 1
refdes=R4033
T 36600 63200 5 10 1 1 180 0 1
value=DNP
T 37000 63000 5 10 1 1 90 0 1
footprint=0603
}
N 36700 63700 34300 63700 4
C 48500 63200 1 90 0 capacitor.sym
{
T 47800 63500 5 10 0 0 90 0 1
device=CAPACITOR
T 48200 63800 5 10 1 1 180 2 1
refdes=C4042
T 48200 63500 5 10 1 1 180 0 1
value=10p
T 48500 63100 5 10 1 1 90 0 1
footprint=0603
}
N 48300 64100 48300 64400 4
N 48300 63200 48300 63000 4
N 33300 64600 35200 64600 4
{
T 33400 64300 5 10 1 1 0 0 1
netname=transimp_out_51_p
}
N 33300 62800 35200 62800 4
{
T 33400 62500 5 10 1 1 0 0 1
netname=transimp_out_51_n
}
C 35200 64300 1 0 0 resistor.sym
{
T 35500 64700 5 10 0 0 0 0 1
device=RESISTOR
T 35500 64800 5 10 1 1 0 6 1
refdes=R4034
T 35600 64800 5 10 1 1 0 0 1
value=49.9
T 35400 64300 5 10 1 1 0 0 1
footprint=0603
}
C 35200 62500 1 0 0 resistor.sym
{
T 35500 62900 5 10 0 0 0 0 1
device=RESISTOR
T 35500 63000 5 10 1 1 0 6 1
refdes=R4035
T 35600 63000 5 10 1 1 0 0 1
value=49.9
T 35400 62500 5 10 1 1 0 0 1
footprint=0603
}
N 36100 64600 37500 64600 4
N 36100 62800 37500 62800 4
N 37500 64600 37500 64100 4
N 37500 63300 37500 62800 4
N 37500 64100 37800 64100 4
N 37500 63300 37800 63300 4
C 26500 60500 1 0 0 agnd.sym
{
T 26300 60310 5 9 1 1 0 0 1
net=AGND_49:1
}
N 20600 64100 25200 64100 4
{
T 20700 64200 5 10 1 1 0 0 1
netname=common_mode_49
}
C 25700 60500 1 0 0 agnd.sym
{
T 25300 60310 5 9 1 1 0 0 1
net=AGND_49:1
}
C 25100 63000 1 0 0 agnd.sym
{
T 24700 62810 5 9 1 1 0 0 1
net=AGND_49:1
}
C 27100 63500 1 0 0 avcc.sym
{
T 26850 63900 5 9 1 1 0 0 1
net=AVCC_49:1
}
C 25700 66100 1 0 0 avcc.sym
{
T 25450 66500 5 9 1 1 0 0 1
net=AVCC_49:1
}
C 22500 62000 1 0 0 avcc.sym
{
T 22250 62400 5 9 1 1 0 0 1
net=AVCC_49:1
}
C 29400 64900 1 0 0 avcc.sym
{
T 29150 65300 5 9 1 1 0 0 1
net=AVCC_49:1
}
C 22600 63200 1 90 0 capacitor.sym
{
T 21900 63500 5 10 0 0 90 0 1
device=CAPACITOR
T 22300 63800 5 10 1 1 180 2 1
refdes=C4032
T 22300 63500 5 10 1 1 180 0 1
value=0.1u
T 22600 63100 5 10 1 1 90 0 1
footprint=0603
}
C 22300 62900 1 0 0 agnd.sym
{
T 22100 62710 5 9 1 1 0 0 1
net=AGND_49:1
}
C 31600 61900 1 90 0 capacitor.sym
{
T 30900 62200 5 10 0 0 90 0 1
device=CAPACITOR
T 31300 62500 5 10 1 1 180 2 1
refdes=C4033
T 31300 62200 5 10 1 1 180 0 1
value=0.1u
T 31600 61800 5 10 1 1 90 0 1
footprint=0603
}
C 27400 67500 1 0 0 avcc.sym
{
T 27150 67900 5 9 1 1 0 0 1
net=AVCC_49:1
}
C 27800 66600 1 90 0 capacitor.sym
{
T 27100 66900 5 10 0 0 90 0 1
device=CAPACITOR
T 27500 67200 5 10 1 1 180 2 1
refdes=C4034
T 27500 66900 5 10 1 1 180 0 1
value=0.1u
T 27800 66500 5 10 1 1 90 0 1
footprint=0603
}
C 28600 66600 1 90 0 capacitor.sym
{
T 27900 66900 5 10 0 0 90 0 1
device=CAPACITOR
T 28300 67200 5 10 1 1 180 2 1
refdes=C4035
T 28300 66900 5 10 1 1 180 0 1
value=10.0u
T 28600 66500 5 10 1 1 90 0 1
footprint=0603
}
C 27500 66100 1 0 0 agnd.sym
{
T 27100 65910 5 9 1 1 0 0 1
net=AGND_49:1
}
N 27600 67500 28400 67500 4
N 28400 66600 28400 66400 4
N 28400 66400 27600 66400 4
N 27600 66600 27600 66400 4
C 31300 61600 1 0 0 agnd.sym
{
T 31100 61410 5 9 1 1 0 0 1
net=AGND_49:1
}
C 34200 63400 1 0 0 agnd.sym
{
T 34000 63210 5 9 1 1 0 0 1
net=AGND_49:1
}
C 43700 66100 1 0 0 avcc.sym
{
T 43450 66500 5 9 1 1 0 0 1
net=AVCC_49:1
}
N 44900 66100 44900 64900 4
C 46400 61600 1 90 0 capacitor.sym
{
T 45700 61900 5 10 0 0 90 0 1
device=CAPACITOR
T 46100 62200 5 10 1 1 180 2 1
refdes=C4043
T 46100 61900 5 10 1 1 180 0 1
value=0.1u
T 46400 61500 5 10 1 1 90 0 1
footprint=0603
}
C 46100 61300 1 0 0 agnd.sym
{
T 45900 61110 5 9 1 1 0 0 1
net=AGND_49:1
}
N 44900 62500 47100 62500 4
{
T 45200 62600 5 10 1 1 0 0 1
netname=common_mode_49
}
C 43800 61000 1 0 0 agnd.sym
{
T 43600 60810 5 9 1 1 0 0 1
net=AGND_49:1
}
C 46000 67000 1 0 0 avcc.sym
{
T 45750 67400 5 9 1 1 0 0 1
net=AVCC_49:1
}
C 46400 66100 1 90 0 capacitor.sym
{
T 45700 66400 5 10 0 0 90 0 1
device=CAPACITOR
T 46100 66700 5 10 1 1 180 2 1
refdes=C4040
T 46100 66400 5 10 1 1 180 0 1
value=0.1u
T 46400 66000 5 10 1 1 90 0 1
footprint=0603
}
C 47200 66100 1 90 0 capacitor.sym
{
T 46500 66400 5 10 0 0 90 0 1
device=CAPACITOR
T 46900 66700 5 10 1 1 180 2 1
refdes=C4041
T 46900 66400 5 10 1 1 180 0 1
value=10.0u
T 47200 66000 5 10 1 1 90 0 1
footprint=0603
}
C 46100 65600 1 0 0 agnd.sym
{
T 45700 65410 5 9 1 1 0 0 1
net=AGND_49:1
}
N 46200 67000 47000 67000 4
N 47000 66100 47000 65900 4
N 47000 65900 46200 65900 4
N 46200 66100 46200 65900 4
N 46500 63000 50700 63000 4
{
T 49300 63100 5 10 1 1 0 0 1
netname=diff_out_51_p
}
N 46500 64400 50700 64400 4
{
T 49300 64500 5 10 1 1 0 0 1
netname=diff_out_51_n
}
C 19800 64000 1 0 0 input-1.sym
{
T 20100 64100 5 10 1 1 0 4 1
value=10
}
C 32700 62700 1 0 1 input-1.sym
{
T 32400 62800 5 10 1 1 0 4 1
value=10
}
C 47900 62400 1 0 1 input-1.sym
{
T 47600 62500 5 10 1 1 0 4 1
value=10
}
C 26800 67400 1 0 0 input-1.sym
{
T 27100 67500 5 10 1 1 0 4 1
value=10
}
C 26800 66300 1 0 0 input-1.sym
{
T 27100 66400 5 10 1 1 0 4 1
value=10
}
C 45400 66900 1 0 0 input-1.sym
{
T 45700 67000 5 10 1 1 0 4 1
value=10
}
C 45400 65800 1 0 0 input-1.sym
{
T 45700 65900 5 10 1 1 0 4 1
value=10
}
C 28600 70100 1 90 0 resistor.sym
{
T 28200 70400 5 10 0 0 90 0 1
device=RESISTOR
T 28200 70800 5 10 1 1 180 0 1
refdes=R4011
T 28200 70500 5 10 1 1 180 0 1
value=50.0Meg
T 28600 70300 5 10 1 1 90 0 1
footprint=0603
}
C 29700 70100 1 90 0 capacitor.sym
{
T 29000 70400 5 10 0 0 90 0 1
device=CAPACITOR
T 29400 70700 5 10 1 1 180 2 1
refdes=C4011
T 29400 70400 5 10 1 1 180 0 1
value=0.6p
T 29700 70000 5 10 1 1 90 0 1
footprint=0603
}
C 25200 69400 1 0 0 opamp-ADA4817-2.sym
{
T 26300 72100 5 11 1 1 90 4 1
device=ADA4817-2
T 27100 74000 5 10 1 1 0 0 1
refdes=U4010
T 27092 73800 5 10 1 1 0 0 1
footprint=QFN16_4_EP_rot.fp
}
C 23300 73300 1 90 0 capacitor.sym
{
T 22600 73600 5 10 0 0 90 0 1
device=CAPACITOR
T 23000 73900 5 10 1 1 180 2 1
refdes=C4010
T 23000 73600 5 10 1 1 180 0 1
value=0.6p
T 23300 73200 5 10 1 1 90 0 1
footprint=0603
}
C 24500 73300 1 90 0 resistor.sym
{
T 24100 73600 5 10 0 0 90 0 1
device=RESISTOR
T 24100 74000 5 10 1 1 180 0 1
refdes=R4010
T 24100 73700 5 10 1 1 180 0 1
value=50.0Meg
T 24500 73500 5 10 1 1 90 0 1
footprint=0603
}
N 23100 73100 25200 73100 4
{
T 23100 72900 5 10 1 1 0 0 1
netname=transimp_inp_49_p
}
N 23100 73300 23100 73100 4
N 24200 73300 24200 73100 4
N 25200 73900 25200 74200 4
N 25200 74200 23100 74200 4
N 27300 71000 29500 71000 4
{
T 29500 71100 5 10 1 1 0 6 1
netname=transimp_inp_49_n
}
N 29500 70100 29500 69900 4
N 29500 69900 27300 69900 4
N 27300 69900 27300 70200 4
N 28300 70100 28300 69900 4
N 27300 71400 31900 71400 4
{
T 30300 71500 5 10 1 1 0 0 1
netname=common_mode_49
}
C 22300 73000 1 0 0 input-1.sym
{
T 22600 73100 5 10 1 1 0 4 1
value=1
}
C 30300 70900 1 0 1 input-1.sym
{
T 30000 71000 5 10 1 1 0 4 1
value=1
}
N 27300 72900 29400 72900 4
{
T 27700 73000 5 10 1 1 0 0 1
netname=transimp_out_49_p
}
N 23400 71200 25200 71200 4
{
T 23500 71000 5 10 1 1 0 0 1
netname=transimp_out_49_n
}
N 27300 73500 29600 73500 4
N 25200 70600 22700 70600 4
C 42500 69900 1 0 0 difopamp-ADA4930.sym
{
T 44995 74595 5 10 0 0 0 0 1
model-name=ADA4930
T 44000 72300 5 10 1 1 0 4 1
device=ADA4930
T 42700 73500 5 10 1 1 0 0 1
refdes=U4011
T 42692 73300 5 10 1 1 0 0 1
footprint=QFN16_3_EP
}
C 42300 73000 1 90 0 resistor.sym
{
T 41900 73300 5 10 0 0 90 0 1
device=RESISTOR
T 41900 73700 5 10 1 1 180 0 1
refdes=R4018
T 41900 73400 5 10 1 1 180 0 1
value=330
T 42300 73200 5 10 1 1 90 0 1
footprint=0603
}
C 42300 70700 1 90 0 resistor.sym
{
T 41900 71000 5 10 0 0 90 0 1
device=RESISTOR
T 41900 71400 5 10 1 1 180 0 1
refdes=R4019
T 41900 71100 5 10 1 1 180 0 1
value=330
T 42300 70900 5 10 1 1 90 0 1
footprint=0603
}
N 42000 70700 42000 70500 4
N 40900 70500 42500 70500 4
N 42000 73900 42000 74100 4
N 40900 74100 42500 74100 4
C 41100 73000 1 90 0 capacitor.sym
{
T 40400 73300 5 10 0 0 90 0 1
device=CAPACITOR
T 40800 73600 5 10 1 1 180 2 1
refdes=C4018
T 40800 73300 5 10 1 1 180 0 1
value=DNP
T 41100 72900 5 10 1 1 90 0 1
footprint=0603
}
N 40900 73900 40900 74100 4
N 40900 70700 40900 70500 4
C 41100 70700 1 90 0 capacitor.sym
{
T 40400 71000 5 10 0 0 90 0 1
device=CAPACITOR
T 40800 71300 5 10 1 1 180 2 1
refdes=C4019
T 40800 71000 5 10 1 1 180 0 1
value=DNP
T 41100 70600 5 10 1 1 90 0 1
footprint=0603
}
N 43900 74700 44900 74700 4
N 43900 69900 44700 69900 4
C 45400 72400 1 0 0 resistor.sym
{
T 45700 72800 5 10 0 0 0 0 1
device=RESISTOR
T 45700 72900 5 10 1 1 0 6 1
refdes=R4020
T 46000 72900 5 10 1 1 0 0 1
value=49.9
T 45600 72400 5 10 1 1 0 0 1
footprint=0603
}
C 45400 71600 1 0 0 resistor.sym
{
T 45700 72000 5 10 0 0 0 0 1
device=RESISTOR
T 45700 72100 5 10 1 1 0 6 1
refdes=R4021
T 46000 72100 5 10 1 1 0 0 1
value=49.9
T 45600 71600 5 10 1 1 0 0 1
footprint=0603
}
N 44900 72700 45400 72700 4
N 44900 71900 45400 71900 4
C 47500 71800 1 90 0 resistor.sym
{
T 47100 72100 5 10 0 0 90 0 1
device=RESISTOR
T 47100 72500 5 10 1 1 180 0 1
refdes=R4022
T 47100 72200 5 10 1 1 180 0 1
value=100
T 47500 72000 5 10 1 1 90 0 1
footprint=0603
}
N 46300 72700 46500 72700 4
N 46500 72700 46500 73000 4
N 46300 71900 46500 71900 4
N 46500 71900 46500 71600 4
N 47200 71800 47200 71600 4
N 47200 72700 47200 73000 4
C 39300 72400 1 0 0 resistor.sym
{
T 39600 72800 5 10 0 0 0 0 1
device=RESISTOR
T 39600 72900 5 10 1 1 0 6 1
refdes=R4016
T 39900 72900 5 10 1 1 0 0 1
value=49.9
T 39500 72400 5 10 1 1 0 0 1
footprint=0603
}
C 39300 71600 1 0 0 resistor.sym
{
T 39600 72000 5 10 0 0 0 0 1
device=RESISTOR
T 39600 72100 5 10 1 1 0 6 1
refdes=R4017
T 39900 72100 5 10 1 1 0 0 1
value=49.9
T 39500 71600 5 10 1 1 0 0 1
footprint=0603
}
N 40200 72700 42500 72700 4
N 40200 71900 42500 71900 4
N 42000 71600 42000 71900 4
N 42000 73000 42000 72700 4
N 40900 73000 40900 72700 4
N 40900 71600 40900 71900 4
C 37800 72500 1 0 0 capacitor.sym
{
T 38100 73200 5 10 0 0 0 0 1
device=CAPACITOR
T 38100 72800 5 10 1 1 180 2 1
refdes=C4016
T 38400 72800 5 10 1 1 0 0 1
value=2.2u
T 38400 72400 5 10 1 1 0 0 1
footprint=0612.fp
}
C 37800 71700 1 0 0 capacitor.sym
{
T 38100 72400 5 10 0 0 0 0 1
device=CAPACITOR
T 38100 72000 5 10 1 1 180 2 1
refdes=C4017
T 38400 72000 5 10 1 1 0 0 1
value=2.2u
T 38400 71600 5 10 1 1 0 0 1
footprint=0612.fp
}
N 38700 72700 39300 72700 4
N 38700 71900 39300 71900 4
C 37000 72300 1 90 0 resistor.sym
{
T 36600 72600 5 10 0 0 90 0 1
device=RESISTOR
T 36600 73000 5 10 1 1 180 0 1
refdes=R4012
T 36600 72700 5 10 1 1 180 0 1
value=DNP
T 37000 72500 5 10 1 1 90 0 1
footprint=0603
}
C 37000 71400 1 90 0 resistor.sym
{
T 36600 71700 5 10 0 0 90 0 1
device=RESISTOR
T 36600 72100 5 10 1 1 180 0 1
refdes=R4013
T 36600 71800 5 10 1 1 180 0 1
value=DNP
T 37000 71600 5 10 1 1 90 0 1
footprint=0603
}
N 36700 72300 34300 72300 4
C 48500 71800 1 90 0 capacitor.sym
{
T 47800 72100 5 10 0 0 90 0 1
device=CAPACITOR
T 48200 72400 5 10 1 1 180 2 1
refdes=C4022
T 48200 72100 5 10 1 1 180 0 1
value=10p
T 48500 71700 5 10 1 1 90 0 1
footprint=0603
}
N 48300 72700 48300 73000 4
N 48300 71800 48300 71600 4
N 33300 73200 35200 73200 4
{
T 33400 72900 5 10 1 1 0 0 1
netname=transimp_out_49_p
}
N 33300 71400 35200 71400 4
{
T 33400 71100 5 10 1 1 0 0 1
netname=transimp_out_49_n
}
C 35200 72900 1 0 0 resistor.sym
{
T 35500 73300 5 10 0 0 0 0 1
device=RESISTOR
T 35500 73400 5 10 1 1 0 6 1
refdes=R4014
T 35600 73400 5 10 1 1 0 0 1
value=49.9
T 35400 72900 5 10 1 1 0 0 1
footprint=0603
}
C 35200 71100 1 0 0 resistor.sym
{
T 35500 71500 5 10 0 0 0 0 1
device=RESISTOR
T 35500 71600 5 10 1 1 0 6 1
refdes=R4015
T 35600 71600 5 10 1 1 0 0 1
value=49.9
T 35400 71100 5 10 1 1 0 0 1
footprint=0603
}
N 36100 73200 37500 73200 4
N 36100 71400 37500 71400 4
N 37500 73200 37500 72700 4
N 37500 71900 37500 71400 4
N 37500 72700 37800 72700 4
N 37500 71900 37800 71900 4
C 26500 69100 1 0 0 agnd.sym
{
T 26300 68910 5 9 1 1 0 0 1
net=AGND_49:1
}
N 20600 72700 25200 72700 4
{
T 20700 72800 5 10 1 1 0 0 1
netname=common_mode_49
}
C 25700 69100 1 0 0 agnd.sym
{
T 25300 68910 5 9 1 1 0 0 1
net=AGND_49:1
}
C 25100 71600 1 0 0 agnd.sym
{
T 24700 71410 5 9 1 1 0 0 1
net=AGND_49:1
}
C 27100 72100 1 0 0 avcc.sym
{
T 26850 72500 5 9 1 1 0 0 1
net=AVCC_49:1
}
C 25700 74700 1 0 0 avcc.sym
{
T 25450 75100 5 9 1 1 0 0 1
net=AVCC_49:1
}
C 22500 70600 1 0 0 avcc.sym
{
T 22250 71000 5 9 1 1 0 0 1
net=AVCC_49:1
}
C 29400 73500 1 0 0 avcc.sym
{
T 29150 73900 5 9 1 1 0 0 1
net=AVCC_49:1
}
C 22600 71800 1 90 0 capacitor.sym
{
T 21900 72100 5 10 0 0 90 0 1
device=CAPACITOR
T 22300 72400 5 10 1 1 180 2 1
refdes=C4012
T 22300 72100 5 10 1 1 180 0 1
value=0.1u
T 22600 71700 5 10 1 1 90 0 1
footprint=0603
}
C 22300 71500 1 0 0 agnd.sym
{
T 22100 71310 5 9 1 1 0 0 1
net=AGND_49:1
}
C 31600 70500 1 90 0 capacitor.sym
{
T 30900 70800 5 10 0 0 90 0 1
device=CAPACITOR
T 31300 71100 5 10 1 1 180 2 1
refdes=C4013
T 31300 70800 5 10 1 1 180 0 1
value=0.1u
T 31600 70400 5 10 1 1 90 0 1
footprint=0603
}
C 27400 76100 1 0 0 avcc.sym
{
T 27150 76500 5 9 1 1 0 0 1
net=AVCC_49:1
}
C 27800 75200 1 90 0 capacitor.sym
{
T 27100 75500 5 10 0 0 90 0 1
device=CAPACITOR
T 27500 75800 5 10 1 1 180 2 1
refdes=C4014
T 27500 75500 5 10 1 1 180 0 1
value=0.1u
T 27800 75100 5 10 1 1 90 0 1
footprint=0603
}
C 28600 75200 1 90 0 capacitor.sym
{
T 27900 75500 5 10 0 0 90 0 1
device=CAPACITOR
T 28300 75800 5 10 1 1 180 2 1
refdes=C4015
T 28300 75500 5 10 1 1 180 0 1
value=10.0u
T 28600 75100 5 10 1 1 90 0 1
footprint=0603
}
C 27500 74700 1 0 0 agnd.sym
{
T 27100 74510 5 9 1 1 0 0 1
net=AGND_49:1
}
N 27600 76100 28400 76100 4
N 28400 75200 28400 75000 4
N 28400 75000 27600 75000 4
N 27600 75200 27600 75000 4
C 31300 70200 1 0 0 agnd.sym
{
T 31100 70010 5 9 1 1 0 0 1
net=AGND_49:1
}
C 34200 72000 1 0 0 agnd.sym
{
T 34000 71810 5 9 1 1 0 0 1
net=AGND_49:1
}
C 43700 74700 1 0 0 avcc.sym
{
T 43450 75100 5 9 1 1 0 0 1
net=AVCC_49:1
}
N 44900 74700 44900 73500 4
C 46400 70200 1 90 0 capacitor.sym
{
T 45700 70500 5 10 0 0 90 0 1
device=CAPACITOR
T 46100 70800 5 10 1 1 180 2 1
refdes=C4023
T 46100 70500 5 10 1 1 180 0 1
value=0.1u
T 46400 70100 5 10 1 1 90 0 1
footprint=0603
}
C 46100 69900 1 0 0 agnd.sym
{
T 45900 69710 5 9 1 1 0 0 1
net=AGND_49:1
}
N 44900 71100 47100 71100 4
{
T 45200 71200 5 10 1 1 0 0 1
netname=common_mode_49
}
C 43800 69600 1 0 0 agnd.sym
{
T 43600 69410 5 9 1 1 0 0 1
net=AGND_49:1
}
C 46000 75600 1 0 0 avcc.sym
{
T 45750 76000 5 9 1 1 0 0 1
net=AVCC_49:1
}
C 46400 74700 1 90 0 capacitor.sym
{
T 45700 75000 5 10 0 0 90 0 1
device=CAPACITOR
T 46100 75300 5 10 1 1 180 2 1
refdes=C4020
T 46100 75000 5 10 1 1 180 0 1
value=0.1u
T 46400 74600 5 10 1 1 90 0 1
footprint=0603
}
C 47200 74700 1 90 0 capacitor.sym
{
T 46500 75000 5 10 0 0 90 0 1
device=CAPACITOR
T 46900 75300 5 10 1 1 180 2 1
refdes=C4021
T 46900 75000 5 10 1 1 180 0 1
value=10.0u
T 47200 74600 5 10 1 1 90 0 1
footprint=0603
}
C 46100 74200 1 0 0 agnd.sym
{
T 45700 74010 5 9 1 1 0 0 1
net=AGND_49:1
}
N 46200 75600 47000 75600 4
N 47000 74700 47000 74500 4
N 47000 74500 46200 74500 4
N 46200 74700 46200 74500 4
N 46500 71600 50700 71600 4
{
T 49300 71700 5 10 1 1 0 0 1
netname=diff_out_49_p
}
N 46500 73000 50700 73000 4
{
T 49300 73100 5 10 1 1 0 0 1
netname=diff_out_49_n
}
C 19800 72600 1 0 0 input-1.sym
{
T 20100 72700 5 10 1 1 0 4 1
value=10
}
C 32700 71300 1 0 1 input-1.sym
{
T 32400 71400 5 10 1 1 0 4 1
value=10
}
C 47900 71000 1 0 1 input-1.sym
{
T 47600 71100 5 10 1 1 0 4 1
value=10
}
C 26800 76000 1 0 0 input-1.sym
{
T 27100 76100 5 10 1 1 0 4 1
value=10
}
C 26800 74900 1 0 0 input-1.sym
{
T 27100 75000 5 10 1 1 0 4 1
value=10
}
C 45400 75500 1 0 0 input-1.sym
{
T 45700 75600 5 10 1 1 0 4 1
value=10
}
C 45400 74400 1 0 0 input-1.sym
{
T 45700 74500 5 10 1 1 0 4 1
value=10
}
C 28500 52900 1 90 0 resistor.sym
{
T 28100 53200 5 10 0 0 90 0 1
device=RESISTOR
T 28100 53600 5 10 1 1 180 0 1
refdes=R4051
T 28100 53300 5 10 1 1 180 0 1
value=50.0Meg
T 28500 53100 5 10 1 1 90 0 1
footprint=0603
}
C 29600 52900 1 90 0 capacitor.sym
{
T 28900 53200 5 10 0 0 90 0 1
device=CAPACITOR
T 29300 53500 5 10 1 1 180 2 1
refdes=C4051
T 29300 53200 5 10 1 1 180 0 1
value=0.6p
T 29600 52800 5 10 1 1 90 0 1
footprint=0603
}
C 25100 52200 1 0 0 opamp-ADA4817-2.sym
{
T 26200 54900 5 11 1 1 90 4 1
device=ADA4817-2
T 27000 56800 5 10 1 1 0 0 1
refdes=U4050
T 26992 56600 5 10 1 1 0 0 1
footprint=QFN16_4_EP_rot.fp
}
C 23200 56100 1 90 0 capacitor.sym
{
T 22500 56400 5 10 0 0 90 0 1
device=CAPACITOR
T 22900 56700 5 10 1 1 180 2 1
refdes=C4050
T 22900 56400 5 10 1 1 180 0 1
value=0.6p
T 23200 56000 5 10 1 1 90 0 1
footprint=0603
}
C 24400 56100 1 90 0 resistor.sym
{
T 24000 56400 5 10 0 0 90 0 1
device=RESISTOR
T 24000 56800 5 10 1 1 180 0 1
refdes=R4050
T 24000 56500 5 10 1 1 180 0 1
value=50.0Meg
T 24400 56300 5 10 1 1 90 0 1
footprint=0603
}
N 23000 55900 25100 55900 4
{
T 23000 55700 5 10 1 1 0 0 1
netname=transimp_inp_53_p
}
N 23000 56100 23000 55900 4
N 24100 56100 24100 55900 4
N 25100 56700 25100 57000 4
N 25100 57000 23000 57000 4
N 27200 53800 29400 53800 4
{
T 29400 53900 5 10 1 1 0 6 1
netname=transimp_inp_53_n
}
N 29400 52900 29400 52700 4
N 29400 52700 27200 52700 4
N 27200 52700 27200 53000 4
N 28200 52900 28200 52700 4
N 27200 54200 31800 54200 4
{
T 30200 54300 5 10 1 1 0 0 1
netname=common_mode_53
}
C 22200 55800 1 0 0 input-1.sym
{
T 22500 55900 5 10 1 1 0 4 1
value=1
}
C 30200 53700 1 0 1 input-1.sym
{
T 29900 53800 5 10 1 1 0 4 1
value=1
}
N 27200 55700 29300 55700 4
{
T 27600 55800 5 10 1 1 0 0 1
netname=transimp_out_53_p
}
N 23300 54000 25100 54000 4
{
T 23400 53800 5 10 1 1 0 0 1
netname=transimp_out_53_n
}
N 27200 56300 29500 56300 4
N 25100 53400 22600 53400 4
C 42400 52700 1 0 0 difopamp-ADA4930.sym
{
T 44895 57395 5 10 0 0 0 0 1
model-name=ADA4930
T 43900 55100 5 10 1 1 0 4 1
device=ADA4930
T 42600 56300 5 10 1 1 0 0 1
refdes=U4051
T 42592 56100 5 10 1 1 0 0 1
footprint=QFN16_3_EP
}
C 42200 55800 1 90 0 resistor.sym
{
T 41800 56100 5 10 0 0 90 0 1
device=RESISTOR
T 41800 56500 5 10 1 1 180 0 1
refdes=R4058
T 41800 56200 5 10 1 1 180 0 1
value=330
T 42200 56000 5 10 1 1 90 0 1
footprint=0603
}
C 42200 53500 1 90 0 resistor.sym
{
T 41800 53800 5 10 0 0 90 0 1
device=RESISTOR
T 41800 54200 5 10 1 1 180 0 1
refdes=R4059
T 41800 53900 5 10 1 1 180 0 1
value=330
T 42200 53700 5 10 1 1 90 0 1
footprint=0603
}
N 41900 53500 41900 53300 4
N 40800 53300 42400 53300 4
N 41900 56700 41900 56900 4
N 40800 56900 42400 56900 4
C 41000 55800 1 90 0 capacitor.sym
{
T 40300 56100 5 10 0 0 90 0 1
device=CAPACITOR
T 40700 56400 5 10 1 1 180 2 1
refdes=C4058
T 40700 56100 5 10 1 1 180 0 1
value=DNP
T 41000 55700 5 10 1 1 90 0 1
footprint=0603
}
N 40800 56700 40800 56900 4
N 40800 53500 40800 53300 4
C 41000 53500 1 90 0 capacitor.sym
{
T 40300 53800 5 10 0 0 90 0 1
device=CAPACITOR
T 40700 54100 5 10 1 1 180 2 1
refdes=C4059
T 40700 53800 5 10 1 1 180 0 1
value=DNP
T 41000 53400 5 10 1 1 90 0 1
footprint=0603
}
N 43800 57500 44800 57500 4
N 43800 52700 44600 52700 4
C 45300 55200 1 0 0 resistor.sym
{
T 45600 55600 5 10 0 0 0 0 1
device=RESISTOR
T 45600 55700 5 10 1 1 0 6 1
refdes=R4060
T 45900 55700 5 10 1 1 0 0 1
value=49.9
T 45500 55200 5 10 1 1 0 0 1
footprint=0603
}
C 45300 54400 1 0 0 resistor.sym
{
T 45600 54800 5 10 0 0 0 0 1
device=RESISTOR
T 45600 54900 5 10 1 1 0 6 1
refdes=R4061
T 45900 54900 5 10 1 1 0 0 1
value=49.9
T 45500 54400 5 10 1 1 0 0 1
footprint=0603
}
N 44800 55500 45300 55500 4
N 44800 54700 45300 54700 4
C 47400 54600 1 90 0 resistor.sym
{
T 47000 54900 5 10 0 0 90 0 1
device=RESISTOR
T 47000 55300 5 10 1 1 180 0 1
refdes=R4062
T 47000 55000 5 10 1 1 180 0 1
value=100
T 47400 54800 5 10 1 1 90 0 1
footprint=0603
}
N 46200 55500 46400 55500 4
N 46400 55500 46400 55800 4
N 46200 54700 46400 54700 4
N 46400 54700 46400 54400 4
N 47100 54600 47100 54400 4
N 47100 55500 47100 55800 4
C 39200 55200 1 0 0 resistor.sym
{
T 39500 55600 5 10 0 0 0 0 1
device=RESISTOR
T 39500 55700 5 10 1 1 0 6 1
refdes=R4056
T 39800 55700 5 10 1 1 0 0 1
value=49.9
T 39400 55200 5 10 1 1 0 0 1
footprint=0603
}
C 39200 54400 1 0 0 resistor.sym
{
T 39500 54800 5 10 0 0 0 0 1
device=RESISTOR
T 39500 54900 5 10 1 1 0 6 1
refdes=R4057
T 39800 54900 5 10 1 1 0 0 1
value=49.9
T 39400 54400 5 10 1 1 0 0 1
footprint=0603
}
N 40100 55500 42400 55500 4
N 40100 54700 42400 54700 4
N 41900 54400 41900 54700 4
N 41900 55800 41900 55500 4
N 40800 55800 40800 55500 4
N 40800 54400 40800 54700 4
C 37700 55300 1 0 0 capacitor.sym
{
T 38000 56000 5 10 0 0 0 0 1
device=CAPACITOR
T 38000 55600 5 10 1 1 180 2 1
refdes=C4056
T 38300 55600 5 10 1 1 0 0 1
value=2.2u
T 38300 55200 5 10 1 1 0 0 1
footprint=0612.fp
}
C 37700 54500 1 0 0 capacitor.sym
{
T 38000 55200 5 10 0 0 0 0 1
device=CAPACITOR
T 38000 54800 5 10 1 1 180 2 1
refdes=C4057
T 38300 54800 5 10 1 1 0 0 1
value=2.2u
T 38300 54400 5 10 1 1 0 0 1
footprint=0612.fp
}
N 38600 55500 39200 55500 4
N 38600 54700 39200 54700 4
C 36900 55100 1 90 0 resistor.sym
{
T 36500 55400 5 10 0 0 90 0 1
device=RESISTOR
T 36500 55800 5 10 1 1 180 0 1
refdes=R4052
T 36500 55500 5 10 1 1 180 0 1
value=DNP
T 36900 55300 5 10 1 1 90 0 1
footprint=0603
}
C 36900 54200 1 90 0 resistor.sym
{
T 36500 54500 5 10 0 0 90 0 1
device=RESISTOR
T 36500 54900 5 10 1 1 180 0 1
refdes=R4053
T 36500 54600 5 10 1 1 180 0 1
value=DNP
T 36900 54400 5 10 1 1 90 0 1
footprint=0603
}
N 36600 55100 34200 55100 4
C 48400 54600 1 90 0 capacitor.sym
{
T 47700 54900 5 10 0 0 90 0 1
device=CAPACITOR
T 48100 55200 5 10 1 1 180 2 1
refdes=C4062
T 48100 54900 5 10 1 1 180 0 1
value=10p
T 48400 54500 5 10 1 1 90 0 1
footprint=0603
}
N 48200 55500 48200 55800 4
N 48200 54600 48200 54400 4
N 33200 56000 35100 56000 4
{
T 33300 55700 5 10 1 1 0 0 1
netname=transimp_out_53_p
}
N 33200 54200 35100 54200 4
{
T 33300 53900 5 10 1 1 0 0 1
netname=transimp_out_53_n
}
C 35100 55700 1 0 0 resistor.sym
{
T 35400 56100 5 10 0 0 0 0 1
device=RESISTOR
T 35400 56200 5 10 1 1 0 6 1
refdes=R4054
T 35500 56200 5 10 1 1 0 0 1
value=49.9
T 35300 55700 5 10 1 1 0 0 1
footprint=0603
}
C 35100 53900 1 0 0 resistor.sym
{
T 35400 54300 5 10 0 0 0 0 1
device=RESISTOR
T 35400 54400 5 10 1 1 0 6 1
refdes=R4055
T 35500 54400 5 10 1 1 0 0 1
value=49.9
T 35300 53900 5 10 1 1 0 0 1
footprint=0603
}
N 36000 56000 37400 56000 4
N 36000 54200 37400 54200 4
N 37400 56000 37400 55500 4
N 37400 54700 37400 54200 4
N 37400 55500 37700 55500 4
N 37400 54700 37700 54700 4
C 26400 51900 1 0 0 agnd.sym
{
T 26200 51710 5 9 1 1 0 0 1
net=AGND_53:1
}
N 20500 55500 25100 55500 4
{
T 20600 55600 5 10 1 1 0 0 1
netname=common_mode_53
}
C 25600 51900 1 0 0 agnd.sym
{
T 25200 51710 5 9 1 1 0 0 1
net=AGND_53:1
}
C 25000 54400 1 0 0 agnd.sym
{
T 24600 54210 5 9 1 1 0 0 1
net=AGND_53:1
}
C 27000 54900 1 0 0 avcc.sym
{
T 26750 55300 5 9 1 1 0 0 1
net=AVCC_53:1
}
C 25600 57500 1 0 0 avcc.sym
{
T 25350 57900 5 9 1 1 0 0 1
net=AVCC_53:1
}
C 22400 53400 1 0 0 avcc.sym
{
T 22150 53800 5 9 1 1 0 0 1
net=AVCC_53:1
}
C 29300 56300 1 0 0 avcc.sym
{
T 29050 56700 5 9 1 1 0 0 1
net=AVCC_53:1
}
C 22500 54600 1 90 0 capacitor.sym
{
T 21800 54900 5 10 0 0 90 0 1
device=CAPACITOR
T 22200 55200 5 10 1 1 180 2 1
refdes=C4052
T 22200 54900 5 10 1 1 180 0 1
value=0.1u
T 22500 54500 5 10 1 1 90 0 1
footprint=0603
}
C 22200 54300 1 0 0 agnd.sym
{
T 22000 54110 5 9 1 1 0 0 1
net=AGND_53:1
}
C 31500 53300 1 90 0 capacitor.sym
{
T 30800 53600 5 10 0 0 90 0 1
device=CAPACITOR
T 31200 53900 5 10 1 1 180 2 1
refdes=C4053
T 31200 53600 5 10 1 1 180 0 1
value=0.1u
T 31500 53200 5 10 1 1 90 0 1
footprint=0603
}
C 27300 58900 1 0 0 avcc.sym
{
T 27050 59300 5 9 1 1 0 0 1
net=AVCC_53:1
}
C 27700 58000 1 90 0 capacitor.sym
{
T 27000 58300 5 10 0 0 90 0 1
device=CAPACITOR
T 27400 58600 5 10 1 1 180 2 1
refdes=C4054
T 27400 58300 5 10 1 1 180 0 1
value=0.1u
T 27700 57900 5 10 1 1 90 0 1
footprint=0603
}
C 28500 58000 1 90 0 capacitor.sym
{
T 27800 58300 5 10 0 0 90 0 1
device=CAPACITOR
T 28200 58600 5 10 1 1 180 2 1
refdes=C4055
T 28200 58300 5 10 1 1 180 0 1
value=10.0u
T 28500 57900 5 10 1 1 90 0 1
footprint=0603
}
C 27400 57500 1 0 0 agnd.sym
{
T 27000 57310 5 9 1 1 0 0 1
net=AGND_53:1
}
N 27500 58900 28300 58900 4
N 28300 58000 28300 57800 4
N 28300 57800 27500 57800 4
N 27500 58000 27500 57800 4
C 31200 53000 1 0 0 agnd.sym
{
T 31000 52810 5 9 1 1 0 0 1
net=AGND_53:1
}
C 34100 54800 1 0 0 agnd.sym
{
T 33900 54610 5 9 1 1 0 0 1
net=AGND_53:1
}
C 43600 57500 1 0 0 avcc.sym
{
T 43350 57900 5 9 1 1 0 0 1
net=AVCC_53:1
}
N 44800 57500 44800 56300 4
C 46300 53000 1 90 0 capacitor.sym
{
T 45600 53300 5 10 0 0 90 0 1
device=CAPACITOR
T 46000 53600 5 10 1 1 180 2 1
refdes=C4063
T 46000 53300 5 10 1 1 180 0 1
value=0.1u
T 46300 52900 5 10 1 1 90 0 1
footprint=0603
}
C 46000 52700 1 0 0 agnd.sym
{
T 45800 52510 5 9 1 1 0 0 1
net=AGND_53:1
}
N 44800 53900 47000 53900 4
{
T 45100 54000 5 10 1 1 0 0 1
netname=common_mode_53
}
C 43700 52400 1 0 0 agnd.sym
{
T 43500 52210 5 9 1 1 0 0 1
net=AGND_53:1
}
C 45900 58400 1 0 0 avcc.sym
{
T 45650 58800 5 9 1 1 0 0 1
net=AVCC_53:1
}
C 46300 57500 1 90 0 capacitor.sym
{
T 45600 57800 5 10 0 0 90 0 1
device=CAPACITOR
T 46000 58100 5 10 1 1 180 2 1
refdes=C4060
T 46000 57800 5 10 1 1 180 0 1
value=0.1u
T 46300 57400 5 10 1 1 90 0 1
footprint=0603
}
C 47100 57500 1 90 0 capacitor.sym
{
T 46400 57800 5 10 0 0 90 0 1
device=CAPACITOR
T 46800 58100 5 10 1 1 180 2 1
refdes=C4061
T 46800 57800 5 10 1 1 180 0 1
value=10.0u
T 47100 57400 5 10 1 1 90 0 1
footprint=0603
}
C 46000 57000 1 0 0 agnd.sym
{
T 45600 56810 5 9 1 1 0 0 1
net=AGND_53:1
}
N 46100 58400 46900 58400 4
N 46900 57500 46900 57300 4
N 46900 57300 46100 57300 4
N 46100 57500 46100 57300 4
N 46400 54400 50600 54400 4
{
T 49200 54500 5 10 1 1 0 0 1
netname=diff_out_53_p
}
N 46400 55800 50600 55800 4
{
T 49200 55900 5 10 1 1 0 0 1
netname=diff_out_53_n
}
C 19700 55400 1 0 0 input-1.sym
{
T 20000 55500 5 10 1 1 0 4 1
value=10
}
C 32600 54100 1 0 1 input-1.sym
{
T 32300 54200 5 10 1 1 0 4 1
value=10
}
C 47800 53800 1 0 1 input-1.sym
{
T 47500 53900 5 10 1 1 0 4 1
value=10
}
C 26700 58800 1 0 0 input-1.sym
{
T 27000 58900 5 10 1 1 0 4 1
value=10
}
C 26700 57700 1 0 0 input-1.sym
{
T 27000 57800 5 10 1 1 0 4 1
value=10
}
C 45300 58300 1 0 0 input-1.sym
{
T 45600 58400 5 10 1 1 0 4 1
value=10
}
C 45300 57200 1 0 0 input-1.sym
{
T 45600 57300 5 10 1 1 0 4 1
value=10
}
C 28500 44200 1 90 0 resistor.sym
{
T 28100 44500 5 10 0 0 90 0 1
device=RESISTOR
T 28100 44900 5 10 1 1 180 0 1
refdes=R4071
T 28100 44600 5 10 1 1 180 0 1
value=50.0Meg
T 28500 44400 5 10 1 1 90 0 1
footprint=0603
}
C 29600 44200 1 90 0 capacitor.sym
{
T 28900 44500 5 10 0 0 90 0 1
device=CAPACITOR
T 29300 44800 5 10 1 1 180 2 1
refdes=C4071
T 29300 44500 5 10 1 1 180 0 1
value=0.6p
T 29600 44100 5 10 1 1 90 0 1
footprint=0603
}
C 25100 43500 1 0 0 opamp-ADA4817-2.sym
{
T 26200 46200 5 11 1 1 90 4 1
device=ADA4817-2
T 27000 48100 5 10 1 1 0 0 1
refdes=U4070
T 26992 47900 5 10 1 1 0 0 1
footprint=QFN16_4_EP_rot.fp
}
C 23200 47400 1 90 0 capacitor.sym
{
T 22500 47700 5 10 0 0 90 0 1
device=CAPACITOR
T 22900 48000 5 10 1 1 180 2 1
refdes=C4070
T 22900 47700 5 10 1 1 180 0 1
value=0.6p
T 23200 47300 5 10 1 1 90 0 1
footprint=0603
}
C 24400 47400 1 90 0 resistor.sym
{
T 24000 47700 5 10 0 0 90 0 1
device=RESISTOR
T 24000 48100 5 10 1 1 180 0 1
refdes=R4070
T 24000 47800 5 10 1 1 180 0 1
value=50.0Meg
T 24400 47600 5 10 1 1 90 0 1
footprint=0603
}
N 23000 47200 25100 47200 4
{
T 23000 47000 5 10 1 1 0 0 1
netname=transimp_inp_55_p
}
N 23000 47400 23000 47200 4
N 24100 47400 24100 47200 4
N 25100 48000 25100 48300 4
N 25100 48300 23000 48300 4
N 27200 45100 29400 45100 4
{
T 29400 45200 5 10 1 1 0 6 1
netname=transimp_inp_55_n
}
N 29400 44200 29400 44000 4
N 29400 44000 27200 44000 4
N 27200 44000 27200 44300 4
N 28200 44200 28200 44000 4
N 27200 45500 31800 45500 4
{
T 30200 45600 5 10 1 1 0 0 1
netname=common_mode_53
}
C 22200 47100 1 0 0 input-1.sym
{
T 22500 47200 5 10 1 1 0 4 1
value=1
}
C 30200 45000 1 0 1 input-1.sym
{
T 29900 45100 5 10 1 1 0 4 1
value=1
}
N 27200 47000 29300 47000 4
{
T 27600 47100 5 10 1 1 0 0 1
netname=transimp_out_55_p
}
N 23300 45300 25100 45300 4
{
T 23400 45100 5 10 1 1 0 0 1
netname=transimp_out_55_n
}
N 27200 47600 29500 47600 4
N 25100 44700 22600 44700 4
C 42400 44000 1 0 0 difopamp-ADA4930.sym
{
T 44895 48695 5 10 0 0 0 0 1
model-name=ADA4930
T 43900 46400 5 10 1 1 0 4 1
device=ADA4930
T 42600 47600 5 10 1 1 0 0 1
refdes=U4071
T 42592 47400 5 10 1 1 0 0 1
footprint=QFN16_3_EP
}
C 42200 47100 1 90 0 resistor.sym
{
T 41800 47400 5 10 0 0 90 0 1
device=RESISTOR
T 41800 47800 5 10 1 1 180 0 1
refdes=R4078
T 41800 47500 5 10 1 1 180 0 1
value=330
T 42200 47300 5 10 1 1 90 0 1
footprint=0603
}
C 42200 44800 1 90 0 resistor.sym
{
T 41800 45100 5 10 0 0 90 0 1
device=RESISTOR
T 41800 45500 5 10 1 1 180 0 1
refdes=R4079
T 41800 45200 5 10 1 1 180 0 1
value=330
T 42200 45000 5 10 1 1 90 0 1
footprint=0603
}
N 41900 44800 41900 44600 4
N 40800 44600 42400 44600 4
N 41900 48000 41900 48200 4
N 40800 48200 42400 48200 4
C 41000 47100 1 90 0 capacitor.sym
{
T 40300 47400 5 10 0 0 90 0 1
device=CAPACITOR
T 40700 47700 5 10 1 1 180 2 1
refdes=C4078
T 40700 47400 5 10 1 1 180 0 1
value=DNP
T 41000 47000 5 10 1 1 90 0 1
footprint=0603
}
N 40800 48000 40800 48200 4
N 40800 44800 40800 44600 4
C 41000 44800 1 90 0 capacitor.sym
{
T 40300 45100 5 10 0 0 90 0 1
device=CAPACITOR
T 40700 45400 5 10 1 1 180 2 1
refdes=C4079
T 40700 45100 5 10 1 1 180 0 1
value=DNP
T 41000 44700 5 10 1 1 90 0 1
footprint=0603
}
N 43800 48800 44800 48800 4
N 43800 44000 44600 44000 4
C 45300 46500 1 0 0 resistor.sym
{
T 45600 46900 5 10 0 0 0 0 1
device=RESISTOR
T 45600 47000 5 10 1 1 0 6 1
refdes=R4080
T 45900 47000 5 10 1 1 0 0 1
value=49.9
T 45500 46500 5 10 1 1 0 0 1
footprint=0603
}
C 45300 45700 1 0 0 resistor.sym
{
T 45600 46100 5 10 0 0 0 0 1
device=RESISTOR
T 45600 46200 5 10 1 1 0 6 1
refdes=R4081
T 45900 46200 5 10 1 1 0 0 1
value=49.9
T 45500 45700 5 10 1 1 0 0 1
footprint=0603
}
N 44800 46800 45300 46800 4
N 44800 46000 45300 46000 4
C 47400 45900 1 90 0 resistor.sym
{
T 47000 46200 5 10 0 0 90 0 1
device=RESISTOR
T 47000 46600 5 10 1 1 180 0 1
refdes=R4082
T 47000 46300 5 10 1 1 180 0 1
value=100
T 47400 46100 5 10 1 1 90 0 1
footprint=0603
}
N 46200 46800 46400 46800 4
N 46400 46800 46400 47100 4
N 46200 46000 46400 46000 4
N 46400 46000 46400 45700 4
N 47100 45900 47100 45700 4
N 47100 46800 47100 47100 4
C 39200 46500 1 0 0 resistor.sym
{
T 39500 46900 5 10 0 0 0 0 1
device=RESISTOR
T 39500 47000 5 10 1 1 0 6 1
refdes=R4076
T 39800 47000 5 10 1 1 0 0 1
value=49.9
T 39400 46500 5 10 1 1 0 0 1
footprint=0603
}
C 39200 45700 1 0 0 resistor.sym
{
T 39500 46100 5 10 0 0 0 0 1
device=RESISTOR
T 39500 46200 5 10 1 1 0 6 1
refdes=R4077
T 39800 46200 5 10 1 1 0 0 1
value=49.9
T 39400 45700 5 10 1 1 0 0 1
footprint=0603
}
N 40100 46800 42400 46800 4
N 40100 46000 42400 46000 4
N 41900 45700 41900 46000 4
N 41900 47100 41900 46800 4
N 40800 47100 40800 46800 4
N 40800 45700 40800 46000 4
C 37700 46600 1 0 0 capacitor.sym
{
T 38000 47300 5 10 0 0 0 0 1
device=CAPACITOR
T 38000 46900 5 10 1 1 180 2 1
refdes=C4076
T 38300 46900 5 10 1 1 0 0 1
value=2.2u
T 38300 46500 5 10 1 1 0 0 1
footprint=0612.fp
}
C 37700 45800 1 0 0 capacitor.sym
{
T 38000 46500 5 10 0 0 0 0 1
device=CAPACITOR
T 38000 46100 5 10 1 1 180 2 1
refdes=C4077
T 38300 46100 5 10 1 1 0 0 1
value=2.2u
T 38300 45700 5 10 1 1 0 0 1
footprint=0612.fp
}
N 38600 46800 39200 46800 4
N 38600 46000 39200 46000 4
C 36900 46400 1 90 0 resistor.sym
{
T 36500 46700 5 10 0 0 90 0 1
device=RESISTOR
T 36500 47100 5 10 1 1 180 0 1
refdes=R4072
T 36500 46800 5 10 1 1 180 0 1
value=DNP
T 36900 46600 5 10 1 1 90 0 1
footprint=0603
}
C 36900 45500 1 90 0 resistor.sym
{
T 36500 45800 5 10 0 0 90 0 1
device=RESISTOR
T 36500 46200 5 10 1 1 180 0 1
refdes=R4073
T 36500 45900 5 10 1 1 180 0 1
value=DNP
T 36900 45700 5 10 1 1 90 0 1
footprint=0603
}
N 36600 46400 34200 46400 4
C 48400 45900 1 90 0 capacitor.sym
{
T 47700 46200 5 10 0 0 90 0 1
device=CAPACITOR
T 48100 46500 5 10 1 1 180 2 1
refdes=C4082
T 48100 46200 5 10 1 1 180 0 1
value=10p
T 48400 45800 5 10 1 1 90 0 1
footprint=0603
}
N 48200 46800 48200 47100 4
N 48200 45900 48200 45700 4
N 33200 47300 35100 47300 4
{
T 33300 47000 5 10 1 1 0 0 1
netname=transimp_out_55_p
}
N 33200 45500 35100 45500 4
{
T 33300 45200 5 10 1 1 0 0 1
netname=transimp_out_55_n
}
C 35100 47000 1 0 0 resistor.sym
{
T 35400 47400 5 10 0 0 0 0 1
device=RESISTOR
T 35400 47500 5 10 1 1 0 6 1
refdes=R4074
T 35500 47500 5 10 1 1 0 0 1
value=49.9
T 35300 47000 5 10 1 1 0 0 1
footprint=0603
}
C 35100 45200 1 0 0 resistor.sym
{
T 35400 45600 5 10 0 0 0 0 1
device=RESISTOR
T 35400 45700 5 10 1 1 0 6 1
refdes=R4075
T 35500 45700 5 10 1 1 0 0 1
value=49.9
T 35300 45200 5 10 1 1 0 0 1
footprint=0603
}
N 36000 47300 37400 47300 4
N 36000 45500 37400 45500 4
N 37400 47300 37400 46800 4
N 37400 46000 37400 45500 4
N 37400 46800 37700 46800 4
N 37400 46000 37700 46000 4
C 26400 43200 1 0 0 agnd.sym
{
T 26200 43010 5 9 1 1 0 0 1
net=AGND_53:1
}
N 20500 46800 25100 46800 4
{
T 20600 46900 5 10 1 1 0 0 1
netname=common_mode_53
}
C 25600 43200 1 0 0 agnd.sym
{
T 25200 43010 5 9 1 1 0 0 1
net=AGND_53:1
}
C 25000 45700 1 0 0 agnd.sym
{
T 24600 45510 5 9 1 1 0 0 1
net=AGND_53:1
}
C 27000 46200 1 0 0 avcc.sym
{
T 26750 46600 5 9 1 1 0 0 1
net=AVCC_53:1
}
C 25600 48800 1 0 0 avcc.sym
{
T 25350 49200 5 9 1 1 0 0 1
net=AVCC_53:1
}
C 22400 44700 1 0 0 avcc.sym
{
T 22150 45100 5 9 1 1 0 0 1
net=AVCC_53:1
}
C 29300 47600 1 0 0 avcc.sym
{
T 29050 48000 5 9 1 1 0 0 1
net=AVCC_53:1
}
C 22500 45900 1 90 0 capacitor.sym
{
T 21800 46200 5 10 0 0 90 0 1
device=CAPACITOR
T 22200 46500 5 10 1 1 180 2 1
refdes=C4072
T 22200 46200 5 10 1 1 180 0 1
value=0.1u
T 22500 45800 5 10 1 1 90 0 1
footprint=0603
}
C 22200 45600 1 0 0 agnd.sym
{
T 22000 45410 5 9 1 1 0 0 1
net=AGND_53:1
}
C 31500 44600 1 90 0 capacitor.sym
{
T 30800 44900 5 10 0 0 90 0 1
device=CAPACITOR
T 31200 45200 5 10 1 1 180 2 1
refdes=C4073
T 31200 44900 5 10 1 1 180 0 1
value=0.1u
T 31500 44500 5 10 1 1 90 0 1
footprint=0603
}
C 27300 50200 1 0 0 avcc.sym
{
T 27050 50600 5 9 1 1 0 0 1
net=AVCC_53:1
}
C 27700 49300 1 90 0 capacitor.sym
{
T 27000 49600 5 10 0 0 90 0 1
device=CAPACITOR
T 27400 49900 5 10 1 1 180 2 1
refdes=C4074
T 27400 49600 5 10 1 1 180 0 1
value=0.1u
T 27700 49200 5 10 1 1 90 0 1
footprint=0603
}
C 28500 49300 1 90 0 capacitor.sym
{
T 27800 49600 5 10 0 0 90 0 1
device=CAPACITOR
T 28200 49900 5 10 1 1 180 2 1
refdes=C4075
T 28200 49600 5 10 1 1 180 0 1
value=10.0u
T 28500 49200 5 10 1 1 90 0 1
footprint=0603
}
C 27400 48800 1 0 0 agnd.sym
{
T 27000 48610 5 9 1 1 0 0 1
net=AGND_53:1
}
N 27500 50200 28300 50200 4
N 28300 49300 28300 49100 4
N 28300 49100 27500 49100 4
N 27500 49300 27500 49100 4
C 31200 44300 1 0 0 agnd.sym
{
T 31000 44110 5 9 1 1 0 0 1
net=AGND_53:1
}
C 34100 46100 1 0 0 agnd.sym
{
T 33900 45910 5 9 1 1 0 0 1
net=AGND_53:1
}
C 43600 48800 1 0 0 avcc.sym
{
T 43350 49200 5 9 1 1 0 0 1
net=AVCC_53:1
}
N 44800 48800 44800 47600 4
C 46300 44300 1 90 0 capacitor.sym
{
T 45600 44600 5 10 0 0 90 0 1
device=CAPACITOR
T 46000 44900 5 10 1 1 180 2 1
refdes=C4083
T 46000 44600 5 10 1 1 180 0 1
value=0.1u
T 46300 44200 5 10 1 1 90 0 1
footprint=0603
}
C 46000 44000 1 0 0 agnd.sym
{
T 45800 43810 5 9 1 1 0 0 1
net=AGND_53:1
}
N 44800 45200 47000 45200 4
{
T 45100 45300 5 10 1 1 0 0 1
netname=common_mode_53
}
C 43700 43700 1 0 0 agnd.sym
{
T 43500 43510 5 9 1 1 0 0 1
net=AGND_53:1
}
C 45900 49700 1 0 0 avcc.sym
{
T 45650 50100 5 9 1 1 0 0 1
net=AVCC_53:1
}
C 46300 48800 1 90 0 capacitor.sym
{
T 45600 49100 5 10 0 0 90 0 1
device=CAPACITOR
T 46000 49400 5 10 1 1 180 2 1
refdes=C4080
T 46000 49100 5 10 1 1 180 0 1
value=0.1u
T 46300 48700 5 10 1 1 90 0 1
footprint=0603
}
C 47100 48800 1 90 0 capacitor.sym
{
T 46400 49100 5 10 0 0 90 0 1
device=CAPACITOR
T 46800 49400 5 10 1 1 180 2 1
refdes=C4081
T 46800 49100 5 10 1 1 180 0 1
value=10.0u
T 47100 48700 5 10 1 1 90 0 1
footprint=0603
}
C 46000 48300 1 0 0 agnd.sym
{
T 45600 48110 5 9 1 1 0 0 1
net=AGND_53:1
}
N 46100 49700 46900 49700 4
N 46900 48800 46900 48600 4
N 46900 48600 46100 48600 4
N 46100 48800 46100 48600 4
N 46400 45700 50600 45700 4
{
T 49200 45800 5 10 1 1 0 0 1
netname=diff_out_55_p
}
N 46400 47100 50600 47100 4
{
T 49200 47200 5 10 1 1 0 0 1
netname=diff_out_55_n
}
C 19700 46700 1 0 0 input-1.sym
{
T 20000 46800 5 10 1 1 0 4 1
value=10
}
C 32600 45400 1 0 1 input-1.sym
{
T 32300 45500 5 10 1 1 0 4 1
value=10
}
C 47800 45100 1 0 1 input-1.sym
{
T 47500 45200 5 10 1 1 0 4 1
value=10
}
C 26700 50100 1 0 0 input-1.sym
{
T 27000 50200 5 10 1 1 0 4 1
value=10
}
C 26700 49000 1 0 0 input-1.sym
{
T 27000 49100 5 10 1 1 0 4 1
value=10
}
C 45300 49600 1 0 0 input-1.sym
{
T 45600 49700 5 10 1 1 0 4 1
value=10
}
C 45300 48500 1 0 0 input-1.sym
{
T 45600 48600 5 10 1 1 0 4 1
value=10
}
C 28300 34900 1 90 0 resistor.sym
{
T 27900 35200 5 10 0 0 90 0 1
device=RESISTOR
T 27900 35600 5 10 1 1 180 0 1
refdes=R4091
T 27900 35300 5 10 1 1 180 0 1
value=50.0Meg
T 28300 35100 5 10 1 1 90 0 1
footprint=0603
}
C 29400 34900 1 90 0 capacitor.sym
{
T 28700 35200 5 10 0 0 90 0 1
device=CAPACITOR
T 29100 35500 5 10 1 1 180 2 1
refdes=C4091
T 29100 35200 5 10 1 1 180 0 1
value=0.6p
T 29400 34800 5 10 1 1 90 0 1
footprint=0603
}
C 24900 34200 1 0 0 opamp-ADA4817-2.sym
{
T 26000 36900 5 11 1 1 90 4 1
device=ADA4817-2
T 26800 38800 5 10 1 1 0 0 1
refdes=U4090
T 26792 38600 5 10 1 1 0 0 1
footprint=QFN16_4_EP_rot.fp
}
C 23000 38100 1 90 0 capacitor.sym
{
T 22300 38400 5 10 0 0 90 0 1
device=CAPACITOR
T 22700 38700 5 10 1 1 180 2 1
refdes=C4090
T 22700 38400 5 10 1 1 180 0 1
value=0.6p
T 23000 38000 5 10 1 1 90 0 1
footprint=0603
}
C 24200 38100 1 90 0 resistor.sym
{
T 23800 38400 5 10 0 0 90 0 1
device=RESISTOR
T 23800 38800 5 10 1 1 180 0 1
refdes=R4090
T 23800 38500 5 10 1 1 180 0 1
value=50.0Meg
T 24200 38300 5 10 1 1 90 0 1
footprint=0603
}
N 22800 37900 24900 37900 4
{
T 22800 37700 5 10 1 1 0 0 1
netname=transimp_inp_57_p
}
N 22800 38100 22800 37900 4
N 23900 38100 23900 37900 4
N 24900 38700 24900 39000 4
N 24900 39000 22800 39000 4
N 27000 35800 29200 35800 4
{
T 29200 35900 5 10 1 1 0 6 1
netname=transimp_inp_57_n
}
N 29200 34900 29200 34700 4
N 29200 34700 27000 34700 4
N 27000 34700 27000 35000 4
N 28000 34900 28000 34700 4
N 27000 36200 31600 36200 4
{
T 30000 36300 5 10 1 1 0 0 1
netname=common_mode_57
}
C 22000 37800 1 0 0 input-1.sym
{
T 22300 37900 5 10 1 1 0 4 1
value=1
}
C 30000 35700 1 0 1 input-1.sym
{
T 29700 35800 5 10 1 1 0 4 1
value=1
}
N 27000 37700 29100 37700 4
{
T 27400 37800 5 10 1 1 0 0 1
netname=transimp_out_57_p
}
N 23100 36000 24900 36000 4
{
T 23200 35800 5 10 1 1 0 0 1
netname=transimp_out_57_n
}
N 27000 38300 29300 38300 4
N 24900 35400 22400 35400 4
C 42200 34700 1 0 0 difopamp-ADA4930.sym
{
T 44695 39395 5 10 0 0 0 0 1
model-name=ADA4930
T 43700 37100 5 10 1 1 0 4 1
device=ADA4930
T 42400 38300 5 10 1 1 0 0 1
refdes=U4091
T 42392 38100 5 10 1 1 0 0 1
footprint=QFN16_3_EP
}
C 42000 37800 1 90 0 resistor.sym
{
T 41600 38100 5 10 0 0 90 0 1
device=RESISTOR
T 41600 38500 5 10 1 1 180 0 1
refdes=R4098
T 41600 38200 5 10 1 1 180 0 1
value=330
T 42000 38000 5 10 1 1 90 0 1
footprint=0603
}
C 42000 35500 1 90 0 resistor.sym
{
T 41600 35800 5 10 0 0 90 0 1
device=RESISTOR
T 41600 36200 5 10 1 1 180 0 1
refdes=R4099
T 41600 35900 5 10 1 1 180 0 1
value=330
T 42000 35700 5 10 1 1 90 0 1
footprint=0603
}
N 41700 35500 41700 35300 4
N 40600 35300 42200 35300 4
N 41700 38700 41700 38900 4
N 40600 38900 42200 38900 4
C 40800 37800 1 90 0 capacitor.sym
{
T 40100 38100 5 10 0 0 90 0 1
device=CAPACITOR
T 40500 38400 5 10 1 1 180 2 1
refdes=C4098
T 40500 38100 5 10 1 1 180 0 1
value=DNP
T 40800 37700 5 10 1 1 90 0 1
footprint=0603
}
N 40600 38700 40600 38900 4
N 40600 35500 40600 35300 4
C 40800 35500 1 90 0 capacitor.sym
{
T 40100 35800 5 10 0 0 90 0 1
device=CAPACITOR
T 40500 36100 5 10 1 1 180 2 1
refdes=C4099
T 40500 35800 5 10 1 1 180 0 1
value=DNP
T 40800 35400 5 10 1 1 90 0 1
footprint=0603
}
N 43600 39500 44600 39500 4
N 43600 34700 44400 34700 4
C 45100 37200 1 0 0 resistor.sym
{
T 45400 37600 5 10 0 0 0 0 1
device=RESISTOR
T 45400 37700 5 10 1 1 0 6 1
refdes=R4100
T 45700 37700 5 10 1 1 0 0 1
value=49.9
T 45300 37200 5 10 1 1 0 0 1
footprint=0603
}
C 45100 36400 1 0 0 resistor.sym
{
T 45400 36800 5 10 0 0 0 0 1
device=RESISTOR
T 45400 36900 5 10 1 1 0 6 1
refdes=R4101
T 45700 36900 5 10 1 1 0 0 1
value=49.9
T 45300 36400 5 10 1 1 0 0 1
footprint=0603
}
N 44600 37500 45100 37500 4
N 44600 36700 45100 36700 4
C 47200 36600 1 90 0 resistor.sym
{
T 46800 36900 5 10 0 0 90 0 1
device=RESISTOR
T 46800 37300 5 10 1 1 180 0 1
refdes=R4102
T 46800 37000 5 10 1 1 180 0 1
value=100
T 47200 36800 5 10 1 1 90 0 1
footprint=0603
}
N 46000 37500 46200 37500 4
N 46200 37500 46200 37800 4
N 46000 36700 46200 36700 4
N 46200 36700 46200 36400 4
N 46900 36600 46900 36400 4
N 46900 37500 46900 37800 4
C 39000 37200 1 0 0 resistor.sym
{
T 39300 37600 5 10 0 0 0 0 1
device=RESISTOR
T 39300 37700 5 10 1 1 0 6 1
refdes=R4096
T 39600 37700 5 10 1 1 0 0 1
value=49.9
T 39200 37200 5 10 1 1 0 0 1
footprint=0603
}
C 39000 36400 1 0 0 resistor.sym
{
T 39300 36800 5 10 0 0 0 0 1
device=RESISTOR
T 39300 36900 5 10 1 1 0 6 1
refdes=R4097
T 39600 36900 5 10 1 1 0 0 1
value=49.9
T 39200 36400 5 10 1 1 0 0 1
footprint=0603
}
N 39900 37500 42200 37500 4
N 39900 36700 42200 36700 4
N 41700 36400 41700 36700 4
N 41700 37800 41700 37500 4
N 40600 37800 40600 37500 4
N 40600 36400 40600 36700 4
C 37500 37300 1 0 0 capacitor.sym
{
T 37800 38000 5 10 0 0 0 0 1
device=CAPACITOR
T 37800 37600 5 10 1 1 180 2 1
refdes=C4096
T 38100 37600 5 10 1 1 0 0 1
value=2.2u
T 38100 37200 5 10 1 1 0 0 1
footprint=0612.fp
}
C 37500 36500 1 0 0 capacitor.sym
{
T 37800 37200 5 10 0 0 0 0 1
device=CAPACITOR
T 37800 36800 5 10 1 1 180 2 1
refdes=C4097
T 38100 36800 5 10 1 1 0 0 1
value=2.2u
T 38100 36400 5 10 1 1 0 0 1
footprint=0612.fp
}
N 38400 37500 39000 37500 4
N 38400 36700 39000 36700 4
C 36700 37100 1 90 0 resistor.sym
{
T 36300 37400 5 10 0 0 90 0 1
device=RESISTOR
T 36300 37800 5 10 1 1 180 0 1
refdes=R4092
T 36300 37500 5 10 1 1 180 0 1
value=DNP
T 36700 37300 5 10 1 1 90 0 1
footprint=0603
}
C 36700 36200 1 90 0 resistor.sym
{
T 36300 36500 5 10 0 0 90 0 1
device=RESISTOR
T 36300 36900 5 10 1 1 180 0 1
refdes=R4093
T 36300 36600 5 10 1 1 180 0 1
value=DNP
T 36700 36400 5 10 1 1 90 0 1
footprint=0603
}
N 36400 37100 34000 37100 4
C 48200 36600 1 90 0 capacitor.sym
{
T 47500 36900 5 10 0 0 90 0 1
device=CAPACITOR
T 47900 37200 5 10 1 1 180 2 1
refdes=C4102
T 47900 36900 5 10 1 1 180 0 1
value=10p
T 48200 36500 5 10 1 1 90 0 1
footprint=0603
}
N 48000 37500 48000 37800 4
N 48000 36600 48000 36400 4
N 33000 38000 34900 38000 4
{
T 33100 37700 5 10 1 1 0 0 1
netname=transimp_out_57_p
}
N 33000 36200 34900 36200 4
{
T 33100 35900 5 10 1 1 0 0 1
netname=transimp_out_57_n
}
C 34900 37700 1 0 0 resistor.sym
{
T 35200 38100 5 10 0 0 0 0 1
device=RESISTOR
T 35200 38200 5 10 1 1 0 6 1
refdes=R4094
T 35300 38200 5 10 1 1 0 0 1
value=49.9
T 35100 37700 5 10 1 1 0 0 1
footprint=0603
}
C 34900 35900 1 0 0 resistor.sym
{
T 35200 36300 5 10 0 0 0 0 1
device=RESISTOR
T 35200 36400 5 10 1 1 0 6 1
refdes=R4095
T 35300 36400 5 10 1 1 0 0 1
value=49.9
T 35100 35900 5 10 1 1 0 0 1
footprint=0603
}
N 35800 38000 37200 38000 4
N 35800 36200 37200 36200 4
N 37200 38000 37200 37500 4
N 37200 36700 37200 36200 4
N 37200 37500 37500 37500 4
N 37200 36700 37500 36700 4
C 26200 33900 1 0 0 agnd.sym
{
T 26000 33710 5 9 1 1 0 0 1
net=AGND_57:1
}
N 20300 37500 24900 37500 4
{
T 20400 37600 5 10 1 1 0 0 1
netname=common_mode_57
}
C 25400 33900 1 0 0 agnd.sym
{
T 25000 33710 5 9 1 1 0 0 1
net=AGND_57:1
}
C 24800 36400 1 0 0 agnd.sym
{
T 24400 36210 5 9 1 1 0 0 1
net=AGND_57:1
}
C 26800 36900 1 0 0 avcc.sym
{
T 26550 37300 5 9 1 1 0 0 1
net=AVCC_57:1
}
C 25400 39500 1 0 0 avcc.sym
{
T 25150 39900 5 9 1 1 0 0 1
net=AVCC_57:1
}
C 22200 35400 1 0 0 avcc.sym
{
T 21950 35800 5 9 1 1 0 0 1
net=AVCC_57:1
}
C 29100 38300 1 0 0 avcc.sym
{
T 28850 38700 5 9 1 1 0 0 1
net=AVCC_57:1
}
C 22300 36600 1 90 0 capacitor.sym
{
T 21600 36900 5 10 0 0 90 0 1
device=CAPACITOR
T 22000 37200 5 10 1 1 180 2 1
refdes=C4092
T 22000 36900 5 10 1 1 180 0 1
value=0.1u
T 22300 36500 5 10 1 1 90 0 1
footprint=0603
}
C 22000 36300 1 0 0 agnd.sym
{
T 21800 36110 5 9 1 1 0 0 1
net=AGND_57:1
}
C 31300 35300 1 90 0 capacitor.sym
{
T 30600 35600 5 10 0 0 90 0 1
device=CAPACITOR
T 31000 35900 5 10 1 1 180 2 1
refdes=C4093
T 31000 35600 5 10 1 1 180 0 1
value=0.1u
T 31300 35200 5 10 1 1 90 0 1
footprint=0603
}
C 27100 40900 1 0 0 avcc.sym
{
T 26850 41300 5 9 1 1 0 0 1
net=AVCC_57:1
}
C 27500 40000 1 90 0 capacitor.sym
{
T 26800 40300 5 10 0 0 90 0 1
device=CAPACITOR
T 27200 40600 5 10 1 1 180 2 1
refdes=C4094
T 27200 40300 5 10 1 1 180 0 1
value=0.1u
T 27500 39900 5 10 1 1 90 0 1
footprint=0603
}
C 28300 40000 1 90 0 capacitor.sym
{
T 27600 40300 5 10 0 0 90 0 1
device=CAPACITOR
T 28000 40600 5 10 1 1 180 2 1
refdes=C4095
T 28000 40300 5 10 1 1 180 0 1
value=10.0u
T 28300 39900 5 10 1 1 90 0 1
footprint=0603
}
C 27200 39500 1 0 0 agnd.sym
{
T 26800 39310 5 9 1 1 0 0 1
net=AGND_57:1
}
N 27300 40900 28100 40900 4
N 28100 40000 28100 39800 4
N 28100 39800 27300 39800 4
N 27300 40000 27300 39800 4
C 31000 35000 1 0 0 agnd.sym
{
T 30800 34810 5 9 1 1 0 0 1
net=AGND_57:1
}
C 33900 36800 1 0 0 agnd.sym
{
T 33700 36610 5 9 1 1 0 0 1
net=AGND_57:1
}
C 43400 39500 1 0 0 avcc.sym
{
T 43150 39900 5 9 1 1 0 0 1
net=AVCC_57:1
}
N 44600 39500 44600 38300 4
C 46100 35000 1 90 0 capacitor.sym
{
T 45400 35300 5 10 0 0 90 0 1
device=CAPACITOR
T 45800 35600 5 10 1 1 180 2 1
refdes=C4103
T 45800 35300 5 10 1 1 180 0 1
value=0.1u
T 46100 34900 5 10 1 1 90 0 1
footprint=0603
}
C 45800 34700 1 0 0 agnd.sym
{
T 45600 34510 5 9 1 1 0 0 1
net=AGND_57:1
}
N 44600 35900 46800 35900 4
{
T 44900 36000 5 10 1 1 0 0 1
netname=common_mode_57
}
C 43500 34400 1 0 0 agnd.sym
{
T 43300 34210 5 9 1 1 0 0 1
net=AGND_57:1
}
C 45700 40400 1 0 0 avcc.sym
{
T 45450 40800 5 9 1 1 0 0 1
net=AVCC_57:1
}
C 46100 39500 1 90 0 capacitor.sym
{
T 45400 39800 5 10 0 0 90 0 1
device=CAPACITOR
T 45800 40100 5 10 1 1 180 2 1
refdes=C4100
T 45800 39800 5 10 1 1 180 0 1
value=0.1u
T 46100 39400 5 10 1 1 90 0 1
footprint=0603
}
C 46900 39500 1 90 0 capacitor.sym
{
T 46200 39800 5 10 0 0 90 0 1
device=CAPACITOR
T 46600 40100 5 10 1 1 180 2 1
refdes=C4101
T 46600 39800 5 10 1 1 180 0 1
value=10.0u
T 46900 39400 5 10 1 1 90 0 1
footprint=0603
}
C 45800 39000 1 0 0 agnd.sym
{
T 45400 38810 5 9 1 1 0 0 1
net=AGND_57:1
}
N 45900 40400 46700 40400 4
N 46700 39500 46700 39300 4
N 46700 39300 45900 39300 4
N 45900 39500 45900 39300 4
N 46200 36400 50400 36400 4
{
T 49000 36500 5 10 1 1 0 0 1
netname=diff_out_57_p
}
N 46200 37800 50400 37800 4
{
T 49000 37900 5 10 1 1 0 0 1
netname=diff_out_57_n
}
C 19500 37400 1 0 0 input-1.sym
{
T 19800 37500 5 10 1 1 0 4 1
value=10
}
C 32400 36100 1 0 1 input-1.sym
{
T 32100 36200 5 10 1 1 0 4 1
value=10
}
C 47600 35800 1 0 1 input-1.sym
{
T 47300 35900 5 10 1 1 0 4 1
value=10
}
C 26500 40800 1 0 0 input-1.sym
{
T 26800 40900 5 10 1 1 0 4 1
value=10
}
C 26500 39700 1 0 0 input-1.sym
{
T 26800 39800 5 10 1 1 0 4 1
value=10
}
C 45100 40300 1 0 0 input-1.sym
{
T 45400 40400 5 10 1 1 0 4 1
value=10
}
C 45100 39200 1 0 0 input-1.sym
{
T 45400 39300 5 10 1 1 0 4 1
value=10
}
C 28200 25900 1 90 0 resistor.sym
{
T 27800 26200 5 10 0 0 90 0 1
device=RESISTOR
T 27800 26600 5 10 1 1 180 0 1
refdes=R4111
T 27800 26300 5 10 1 1 180 0 1
value=50.0Meg
T 28200 26100 5 10 1 1 90 0 1
footprint=0603
}
C 29300 25900 1 90 0 capacitor.sym
{
T 28600 26200 5 10 0 0 90 0 1
device=CAPACITOR
T 29000 26500 5 10 1 1 180 2 1
refdes=C4111
T 29000 26200 5 10 1 1 180 0 1
value=0.6p
T 29300 25800 5 10 1 1 90 0 1
footprint=0603
}
C 24800 25200 1 0 0 opamp-ADA4817-2.sym
{
T 25900 27900 5 11 1 1 90 4 1
device=ADA4817-2
T 26700 29800 5 10 1 1 0 0 1
refdes=U4110
T 26692 29600 5 10 1 1 0 0 1
footprint=QFN16_4_EP_rot.fp
}
C 22900 29100 1 90 0 capacitor.sym
{
T 22200 29400 5 10 0 0 90 0 1
device=CAPACITOR
T 22600 29700 5 10 1 1 180 2 1
refdes=C4110
T 22600 29400 5 10 1 1 180 0 1
value=0.6p
T 22900 29000 5 10 1 1 90 0 1
footprint=0603
}
C 24100 29100 1 90 0 resistor.sym
{
T 23700 29400 5 10 0 0 90 0 1
device=RESISTOR
T 23700 29800 5 10 1 1 180 0 1
refdes=R4110
T 23700 29500 5 10 1 1 180 0 1
value=50.0Meg
T 24100 29300 5 10 1 1 90 0 1
footprint=0603
}
N 22700 28900 24800 28900 4
{
T 22700 28700 5 10 1 1 0 0 1
netname=transimp_inp_59_p
}
N 22700 29100 22700 28900 4
N 23800 29100 23800 28900 4
N 24800 29700 24800 30000 4
N 24800 30000 22700 30000 4
N 26900 26800 29100 26800 4
{
T 29100 26900 5 10 1 1 0 6 1
netname=transimp_inp_59_n
}
N 29100 25900 29100 25700 4
N 29100 25700 26900 25700 4
N 26900 25700 26900 26000 4
N 27900 25900 27900 25700 4
N 26900 27200 31500 27200 4
{
T 29900 27300 5 10 1 1 0 0 1
netname=common_mode_57
}
C 21900 28800 1 0 0 input-1.sym
{
T 22200 28900 5 10 1 1 0 4 1
value=1
}
C 29900 26700 1 0 1 input-1.sym
{
T 29600 26800 5 10 1 1 0 4 1
value=1
}
N 26900 28700 29000 28700 4
{
T 27300 28800 5 10 1 1 0 0 1
netname=transimp_out_59_p
}
N 23000 27000 24800 27000 4
{
T 23100 26800 5 10 1 1 0 0 1
netname=transimp_out_59_n
}
N 26900 29300 29200 29300 4
N 24800 26400 22300 26400 4
C 42100 25700 1 0 0 difopamp-ADA4930.sym
{
T 44595 30395 5 10 0 0 0 0 1
model-name=ADA4930
T 43600 28100 5 10 1 1 0 4 1
device=ADA4930
T 42300 29300 5 10 1 1 0 0 1
refdes=U4111
T 42292 29100 5 10 1 1 0 0 1
footprint=QFN16_3_EP
}
C 41900 28800 1 90 0 resistor.sym
{
T 41500 29100 5 10 0 0 90 0 1
device=RESISTOR
T 41500 29500 5 10 1 1 180 0 1
refdes=R4118
T 41500 29200 5 10 1 1 180 0 1
value=330
T 41900 29000 5 10 1 1 90 0 1
footprint=0603
}
C 41900 26500 1 90 0 resistor.sym
{
T 41500 26800 5 10 0 0 90 0 1
device=RESISTOR
T 41500 27200 5 10 1 1 180 0 1
refdes=R4119
T 41500 26900 5 10 1 1 180 0 1
value=330
T 41900 26700 5 10 1 1 90 0 1
footprint=0603
}
N 41600 26500 41600 26300 4
N 40500 26300 42100 26300 4
N 41600 29700 41600 29900 4
N 40500 29900 42100 29900 4
C 40700 28800 1 90 0 capacitor.sym
{
T 40000 29100 5 10 0 0 90 0 1
device=CAPACITOR
T 40400 29400 5 10 1 1 180 2 1
refdes=C4118
T 40400 29100 5 10 1 1 180 0 1
value=DNP
T 40700 28700 5 10 1 1 90 0 1
footprint=0603
}
N 40500 29700 40500 29900 4
N 40500 26500 40500 26300 4
C 40700 26500 1 90 0 capacitor.sym
{
T 40000 26800 5 10 0 0 90 0 1
device=CAPACITOR
T 40400 27100 5 10 1 1 180 2 1
refdes=C4119
T 40400 26800 5 10 1 1 180 0 1
value=DNP
T 40700 26400 5 10 1 1 90 0 1
footprint=0603
}
N 43500 30500 44500 30500 4
N 43500 25700 44300 25700 4
C 45000 28200 1 0 0 resistor.sym
{
T 45300 28600 5 10 0 0 0 0 1
device=RESISTOR
T 45300 28700 5 10 1 1 0 6 1
refdes=R4120
T 45600 28700 5 10 1 1 0 0 1
value=49.9
T 45200 28200 5 10 1 1 0 0 1
footprint=0603
}
C 45000 27400 1 0 0 resistor.sym
{
T 45300 27800 5 10 0 0 0 0 1
device=RESISTOR
T 45300 27900 5 10 1 1 0 6 1
refdes=R4121
T 45600 27900 5 10 1 1 0 0 1
value=49.9
T 45200 27400 5 10 1 1 0 0 1
footprint=0603
}
N 44500 28500 45000 28500 4
N 44500 27700 45000 27700 4
C 47100 27600 1 90 0 resistor.sym
{
T 46700 27900 5 10 0 0 90 0 1
device=RESISTOR
T 46700 28300 5 10 1 1 180 0 1
refdes=R4122
T 46700 28000 5 10 1 1 180 0 1
value=100
T 47100 27800 5 10 1 1 90 0 1
footprint=0603
}
N 45900 28500 46100 28500 4
N 46100 28500 46100 28800 4
N 45900 27700 46100 27700 4
N 46100 27700 46100 27400 4
N 46800 27600 46800 27400 4
N 46800 28500 46800 28800 4
C 38900 28200 1 0 0 resistor.sym
{
T 39200 28600 5 10 0 0 0 0 1
device=RESISTOR
T 39200 28700 5 10 1 1 0 6 1
refdes=R4116
T 39500 28700 5 10 1 1 0 0 1
value=49.9
T 39100 28200 5 10 1 1 0 0 1
footprint=0603
}
C 38900 27400 1 0 0 resistor.sym
{
T 39200 27800 5 10 0 0 0 0 1
device=RESISTOR
T 39200 27900 5 10 1 1 0 6 1
refdes=R4117
T 39500 27900 5 10 1 1 0 0 1
value=49.9
T 39100 27400 5 10 1 1 0 0 1
footprint=0603
}
N 39800 28500 42100 28500 4
N 39800 27700 42100 27700 4
N 41600 27400 41600 27700 4
N 41600 28800 41600 28500 4
N 40500 28800 40500 28500 4
N 40500 27400 40500 27700 4
C 37400 28300 1 0 0 capacitor.sym
{
T 37700 29000 5 10 0 0 0 0 1
device=CAPACITOR
T 37700 28600 5 10 1 1 180 2 1
refdes=C4116
T 38000 28600 5 10 1 1 0 0 1
value=2.2u
T 38000 28200 5 10 1 1 0 0 1
footprint=0612.fp
}
C 37400 27500 1 0 0 capacitor.sym
{
T 37700 28200 5 10 0 0 0 0 1
device=CAPACITOR
T 37700 27800 5 10 1 1 180 2 1
refdes=C4117
T 38000 27800 5 10 1 1 0 0 1
value=2.2u
T 38000 27400 5 10 1 1 0 0 1
footprint=0612.fp
}
N 38300 28500 38900 28500 4
N 38300 27700 38900 27700 4
C 36600 28100 1 90 0 resistor.sym
{
T 36200 28400 5 10 0 0 90 0 1
device=RESISTOR
T 36200 28800 5 10 1 1 180 0 1
refdes=R4112
T 36200 28500 5 10 1 1 180 0 1
value=DNP
T 36600 28300 5 10 1 1 90 0 1
footprint=0603
}
C 36600 27200 1 90 0 resistor.sym
{
T 36200 27500 5 10 0 0 90 0 1
device=RESISTOR
T 36200 27900 5 10 1 1 180 0 1
refdes=R4113
T 36200 27600 5 10 1 1 180 0 1
value=DNP
T 36600 27400 5 10 1 1 90 0 1
footprint=0603
}
N 36300 28100 33900 28100 4
C 48100 27600 1 90 0 capacitor.sym
{
T 47400 27900 5 10 0 0 90 0 1
device=CAPACITOR
T 47800 28200 5 10 1 1 180 2 1
refdes=C4122
T 47800 27900 5 10 1 1 180 0 1
value=10p
T 48100 27500 5 10 1 1 90 0 1
footprint=0603
}
N 47900 28500 47900 28800 4
N 47900 27600 47900 27400 4
N 32900 29000 34800 29000 4
{
T 33000 28700 5 10 1 1 0 0 1
netname=transimp_out_59_p
}
N 32900 27200 34800 27200 4
{
T 33000 26900 5 10 1 1 0 0 1
netname=transimp_out_59_n
}
C 34800 28700 1 0 0 resistor.sym
{
T 35100 29100 5 10 0 0 0 0 1
device=RESISTOR
T 35100 29200 5 10 1 1 0 6 1
refdes=R4114
T 35200 29200 5 10 1 1 0 0 1
value=49.9
T 35000 28700 5 10 1 1 0 0 1
footprint=0603
}
C 34800 26900 1 0 0 resistor.sym
{
T 35100 27300 5 10 0 0 0 0 1
device=RESISTOR
T 35100 27400 5 10 1 1 0 6 1
refdes=R4115
T 35200 27400 5 10 1 1 0 0 1
value=49.9
T 35000 26900 5 10 1 1 0 0 1
footprint=0603
}
N 35700 29000 37100 29000 4
N 35700 27200 37100 27200 4
N 37100 29000 37100 28500 4
N 37100 27700 37100 27200 4
N 37100 28500 37400 28500 4
N 37100 27700 37400 27700 4
C 26100 24900 1 0 0 agnd.sym
{
T 25900 24710 5 9 1 1 0 0 1
net=AGND_57:1
}
N 20200 28500 24800 28500 4
{
T 20300 28600 5 10 1 1 0 0 1
netname=common_mode_57
}
C 25300 24900 1 0 0 agnd.sym
{
T 24900 24710 5 9 1 1 0 0 1
net=AGND_57:1
}
C 24700 27400 1 0 0 agnd.sym
{
T 24300 27210 5 9 1 1 0 0 1
net=AGND_57:1
}
C 26700 27900 1 0 0 avcc.sym
{
T 26450 28300 5 9 1 1 0 0 1
net=AVCC_57:1
}
C 25300 30500 1 0 0 avcc.sym
{
T 25050 30900 5 9 1 1 0 0 1
net=AVCC_57:1
}
C 22100 26400 1 0 0 avcc.sym
{
T 21850 26800 5 9 1 1 0 0 1
net=AVCC_57:1
}
C 29000 29300 1 0 0 avcc.sym
{
T 28750 29700 5 9 1 1 0 0 1
net=AVCC_57:1
}
C 22200 27600 1 90 0 capacitor.sym
{
T 21500 27900 5 10 0 0 90 0 1
device=CAPACITOR
T 21900 28200 5 10 1 1 180 2 1
refdes=C4112
T 21900 27900 5 10 1 1 180 0 1
value=0.1u
T 22200 27500 5 10 1 1 90 0 1
footprint=0603
}
C 21900 27300 1 0 0 agnd.sym
{
T 21700 27110 5 9 1 1 0 0 1
net=AGND_57:1
}
C 31200 26300 1 90 0 capacitor.sym
{
T 30500 26600 5 10 0 0 90 0 1
device=CAPACITOR
T 30900 26900 5 10 1 1 180 2 1
refdes=C4113
T 30900 26600 5 10 1 1 180 0 1
value=0.1u
T 31200 26200 5 10 1 1 90 0 1
footprint=0603
}
C 27000 31900 1 0 0 avcc.sym
{
T 26750 32300 5 9 1 1 0 0 1
net=AVCC_57:1
}
C 27400 31000 1 90 0 capacitor.sym
{
T 26700 31300 5 10 0 0 90 0 1
device=CAPACITOR
T 27100 31600 5 10 1 1 180 2 1
refdes=C4114
T 27100 31300 5 10 1 1 180 0 1
value=0.1u
T 27400 30900 5 10 1 1 90 0 1
footprint=0603
}
C 28200 31000 1 90 0 capacitor.sym
{
T 27500 31300 5 10 0 0 90 0 1
device=CAPACITOR
T 27900 31600 5 10 1 1 180 2 1
refdes=C4115
T 27900 31300 5 10 1 1 180 0 1
value=10.0u
T 28200 30900 5 10 1 1 90 0 1
footprint=0603
}
C 27100 30500 1 0 0 agnd.sym
{
T 26700 30310 5 9 1 1 0 0 1
net=AGND_57:1
}
N 27200 31900 28000 31900 4
N 28000 31000 28000 30800 4
N 28000 30800 27200 30800 4
N 27200 31000 27200 30800 4
C 30900 26000 1 0 0 agnd.sym
{
T 30700 25810 5 9 1 1 0 0 1
net=AGND_57:1
}
C 33800 27800 1 0 0 agnd.sym
{
T 33600 27610 5 9 1 1 0 0 1
net=AGND_57:1
}
C 43300 30500 1 0 0 avcc.sym
{
T 43050 30900 5 9 1 1 0 0 1
net=AVCC_57:1
}
N 44500 30500 44500 29300 4
C 46000 26000 1 90 0 capacitor.sym
{
T 45300 26300 5 10 0 0 90 0 1
device=CAPACITOR
T 45700 26600 5 10 1 1 180 2 1
refdes=C4123
T 45700 26300 5 10 1 1 180 0 1
value=0.1u
T 46000 25900 5 10 1 1 90 0 1
footprint=0603
}
C 45700 25700 1 0 0 agnd.sym
{
T 45500 25510 5 9 1 1 0 0 1
net=AGND_57:1
}
N 44500 26900 46700 26900 4
{
T 44800 27000 5 10 1 1 0 0 1
netname=common_mode_57
}
C 43400 25400 1 0 0 agnd.sym
{
T 43200 25210 5 9 1 1 0 0 1
net=AGND_57:1
}
C 45600 31400 1 0 0 avcc.sym
{
T 45350 31800 5 9 1 1 0 0 1
net=AVCC_57:1
}
C 46000 30500 1 90 0 capacitor.sym
{
T 45300 30800 5 10 0 0 90 0 1
device=CAPACITOR
T 45700 31100 5 10 1 1 180 2 1
refdes=C4120
T 45700 30800 5 10 1 1 180 0 1
value=0.1u
T 46000 30400 5 10 1 1 90 0 1
footprint=0603
}
C 46800 30500 1 90 0 capacitor.sym
{
T 46100 30800 5 10 0 0 90 0 1
device=CAPACITOR
T 46500 31100 5 10 1 1 180 2 1
refdes=C4121
T 46500 30800 5 10 1 1 180 0 1
value=10.0u
T 46800 30400 5 10 1 1 90 0 1
footprint=0603
}
C 45700 30000 1 0 0 agnd.sym
{
T 45300 29810 5 9 1 1 0 0 1
net=AGND_57:1
}
N 45800 31400 46600 31400 4
N 46600 30500 46600 30300 4
N 46600 30300 45800 30300 4
N 45800 30500 45800 30300 4
N 46100 27400 50300 27400 4
{
T 48900 27500 5 10 1 1 0 0 1
netname=diff_out_59_p
}
N 46100 28800 50300 28800 4
{
T 48900 28900 5 10 1 1 0 0 1
netname=diff_out_59_n
}
C 19400 28400 1 0 0 input-1.sym
{
T 19700 28500 5 10 1 1 0 4 1
value=10
}
C 32300 27100 1 0 1 input-1.sym
{
T 32000 27200 5 10 1 1 0 4 1
value=10
}
C 47500 26800 1 0 1 input-1.sym
{
T 47200 26900 5 10 1 1 0 4 1
value=10
}
C 26400 31800 1 0 0 input-1.sym
{
T 26700 31900 5 10 1 1 0 4 1
value=10
}
C 26400 30700 1 0 0 input-1.sym
{
T 26700 30800 5 10 1 1 0 4 1
value=10
}
C 45000 31300 1 0 0 input-1.sym
{
T 45300 31400 5 10 1 1 0 4 1
value=10
}
C 45000 30200 1 0 0 input-1.sym
{
T 45300 30300 5 10 1 1 0 4 1
value=10
}
C 63200 70400 1 90 0 resistor.sym
{
T 62800 70700 5 10 0 0 90 0 1
device=RESISTOR
T 62800 71100 5 10 1 1 180 0 1
refdes=R4131
T 62800 70800 5 10 1 1 180 0 1
value=50.0Meg
T 63200 70600 5 10 1 1 90 0 1
footprint=0603
}
C 64300 70400 1 90 0 capacitor.sym
{
T 63600 70700 5 10 0 0 90 0 1
device=CAPACITOR
T 64000 71000 5 10 1 1 180 2 1
refdes=C4131
T 64000 70700 5 10 1 1 180 0 1
value=0.6p
T 64300 70300 5 10 1 1 90 0 1
footprint=0603
}
C 59800 69700 1 0 0 opamp-ADA4817-2.sym
{
T 60900 72400 5 11 1 1 90 4 1
device=ADA4817-2
T 61700 74300 5 10 1 1 0 0 1
refdes=U4130
T 61692 74100 5 10 1 1 0 0 1
footprint=QFN16_4_EP_rot.fp
}
C 57900 73600 1 90 0 capacitor.sym
{
T 57200 73900 5 10 0 0 90 0 1
device=CAPACITOR
T 57600 74200 5 10 1 1 180 2 1
refdes=C4130
T 57600 73900 5 10 1 1 180 0 1
value=0.6p
T 57900 73500 5 10 1 1 90 0 1
footprint=0603
}
C 59100 73600 1 90 0 resistor.sym
{
T 58700 73900 5 10 0 0 90 0 1
device=RESISTOR
T 58700 74300 5 10 1 1 180 0 1
refdes=R4130
T 58700 74000 5 10 1 1 180 0 1
value=50.0Meg
T 59100 73800 5 10 1 1 90 0 1
footprint=0603
}
N 57700 73400 59800 73400 4
{
T 57700 73200 5 10 1 1 0 0 1
netname=transimp_inp_61_p
}
N 57700 73600 57700 73400 4
N 58800 73600 58800 73400 4
N 59800 74200 59800 74500 4
N 59800 74500 57700 74500 4
N 61900 71300 64100 71300 4
{
T 64100 71400 5 10 1 1 0 6 1
netname=transimp_inp_61_n
}
N 64100 70400 64100 70200 4
N 64100 70200 61900 70200 4
N 61900 70200 61900 70500 4
N 62900 70400 62900 70200 4
N 61900 71700 66500 71700 4
{
T 64900 71800 5 10 1 1 0 0 1
netname=common_mode_61
}
C 56900 73300 1 0 0 input-1.sym
{
T 57200 73400 5 10 1 1 0 4 1
value=1
}
C 64900 71200 1 0 1 input-1.sym
{
T 64600 71300 5 10 1 1 0 4 1
value=1
}
N 61900 73200 64000 73200 4
{
T 62300 73300 5 10 1 1 0 0 1
netname=transimp_out_61_p
}
N 58000 71500 59800 71500 4
{
T 58100 71300 5 10 1 1 0 0 1
netname=transimp_out_61_n
}
N 61900 73800 64200 73800 4
N 59800 70900 57300 70900 4
C 77100 70200 1 0 0 difopamp-ADA4930.sym
{
T 79595 74895 5 10 0 0 0 0 1
model-name=ADA4930
T 78600 72600 5 10 1 1 0 4 1
device=ADA4930
T 77300 73800 5 10 1 1 0 0 1
refdes=U4131
T 77292 73600 5 10 1 1 0 0 1
footprint=QFN16_3_EP
}
C 76900 73300 1 90 0 resistor.sym
{
T 76500 73600 5 10 0 0 90 0 1
device=RESISTOR
T 76500 74000 5 10 1 1 180 0 1
refdes=R4138
T 76500 73700 5 10 1 1 180 0 1
value=330
T 76900 73500 5 10 1 1 90 0 1
footprint=0603
}
C 76900 71000 1 90 0 resistor.sym
{
T 76500 71300 5 10 0 0 90 0 1
device=RESISTOR
T 76500 71700 5 10 1 1 180 0 1
refdes=R4139
T 76500 71400 5 10 1 1 180 0 1
value=330
T 76900 71200 5 10 1 1 90 0 1
footprint=0603
}
N 76600 71000 76600 70800 4
N 75500 70800 77100 70800 4
N 76600 74200 76600 74400 4
N 75500 74400 77100 74400 4
C 75700 73300 1 90 0 capacitor.sym
{
T 75000 73600 5 10 0 0 90 0 1
device=CAPACITOR
T 75400 73900 5 10 1 1 180 2 1
refdes=C4138
T 75400 73600 5 10 1 1 180 0 1
value=DNP
T 75700 73200 5 10 1 1 90 0 1
footprint=0603
}
N 75500 74200 75500 74400 4
N 75500 71000 75500 70800 4
C 75700 71000 1 90 0 capacitor.sym
{
T 75000 71300 5 10 0 0 90 0 1
device=CAPACITOR
T 75400 71600 5 10 1 1 180 2 1
refdes=C4139
T 75400 71300 5 10 1 1 180 0 1
value=DNP
T 75700 70900 5 10 1 1 90 0 1
footprint=0603
}
N 78500 75000 79500 75000 4
N 78500 70200 79300 70200 4
C 80000 72700 1 0 0 resistor.sym
{
T 80300 73100 5 10 0 0 0 0 1
device=RESISTOR
T 80300 73200 5 10 1 1 0 6 1
refdes=R4140
T 80600 73200 5 10 1 1 0 0 1
value=49.9
T 80200 72700 5 10 1 1 0 0 1
footprint=0603
}
C 80000 71900 1 0 0 resistor.sym
{
T 80300 72300 5 10 0 0 0 0 1
device=RESISTOR
T 80300 72400 5 10 1 1 0 6 1
refdes=R4141
T 80600 72400 5 10 1 1 0 0 1
value=49.9
T 80200 71900 5 10 1 1 0 0 1
footprint=0603
}
N 79500 73000 80000 73000 4
N 79500 72200 80000 72200 4
C 82100 72100 1 90 0 resistor.sym
{
T 81700 72400 5 10 0 0 90 0 1
device=RESISTOR
T 81700 72800 5 10 1 1 180 0 1
refdes=R4142
T 81700 72500 5 10 1 1 180 0 1
value=100
T 82100 72300 5 10 1 1 90 0 1
footprint=0603
}
N 80900 73000 81100 73000 4
N 81100 73000 81100 73300 4
N 80900 72200 81100 72200 4
N 81100 72200 81100 71900 4
N 81800 72100 81800 71900 4
N 81800 73000 81800 73300 4
C 73900 72700 1 0 0 resistor.sym
{
T 74200 73100 5 10 0 0 0 0 1
device=RESISTOR
T 74200 73200 5 10 1 1 0 6 1
refdes=R4136
T 74500 73200 5 10 1 1 0 0 1
value=49.9
T 74100 72700 5 10 1 1 0 0 1
footprint=0603
}
C 73900 71900 1 0 0 resistor.sym
{
T 74200 72300 5 10 0 0 0 0 1
device=RESISTOR
T 74200 72400 5 10 1 1 0 6 1
refdes=R4137
T 74500 72400 5 10 1 1 0 0 1
value=49.9
T 74100 71900 5 10 1 1 0 0 1
footprint=0603
}
N 74800 73000 77100 73000 4
N 74800 72200 77100 72200 4
N 76600 71900 76600 72200 4
N 76600 73300 76600 73000 4
N 75500 73300 75500 73000 4
N 75500 71900 75500 72200 4
C 72400 72800 1 0 0 capacitor.sym
{
T 72700 73500 5 10 0 0 0 0 1
device=CAPACITOR
T 72700 73100 5 10 1 1 180 2 1
refdes=C4136
T 73000 73100 5 10 1 1 0 0 1
value=2.2u
T 73000 72700 5 10 1 1 0 0 1
footprint=0612.fp
}
C 72400 72000 1 0 0 capacitor.sym
{
T 72700 72700 5 10 0 0 0 0 1
device=CAPACITOR
T 72700 72300 5 10 1 1 180 2 1
refdes=C4137
T 73000 72300 5 10 1 1 0 0 1
value=2.2u
T 73000 71900 5 10 1 1 0 0 1
footprint=0612.fp
}
N 73300 73000 73900 73000 4
N 73300 72200 73900 72200 4
C 71600 72600 1 90 0 resistor.sym
{
T 71200 72900 5 10 0 0 90 0 1
device=RESISTOR
T 71200 73300 5 10 1 1 180 0 1
refdes=R4132
T 71200 73000 5 10 1 1 180 0 1
value=DNP
T 71600 72800 5 10 1 1 90 0 1
footprint=0603
}
C 71600 71700 1 90 0 resistor.sym
{
T 71200 72000 5 10 0 0 90 0 1
device=RESISTOR
T 71200 72400 5 10 1 1 180 0 1
refdes=R4133
T 71200 72100 5 10 1 1 180 0 1
value=DNP
T 71600 71900 5 10 1 1 90 0 1
footprint=0603
}
N 71300 72600 68900 72600 4
C 83100 72100 1 90 0 capacitor.sym
{
T 82400 72400 5 10 0 0 90 0 1
device=CAPACITOR
T 82800 72700 5 10 1 1 180 2 1
refdes=C4142
T 82800 72400 5 10 1 1 180 0 1
value=10p
T 83100 72000 5 10 1 1 90 0 1
footprint=0603
}
N 82900 73000 82900 73300 4
N 82900 72100 82900 71900 4
N 67900 73500 69800 73500 4
{
T 68000 73200 5 10 1 1 0 0 1
netname=transimp_out_61_p
}
N 67900 71700 69800 71700 4
{
T 68000 71400 5 10 1 1 0 0 1
netname=transimp_out_61_n
}
C 69800 73200 1 0 0 resistor.sym
{
T 70100 73600 5 10 0 0 0 0 1
device=RESISTOR
T 70100 73700 5 10 1 1 0 6 1
refdes=R4134
T 70200 73700 5 10 1 1 0 0 1
value=49.9
T 70000 73200 5 10 1 1 0 0 1
footprint=0603
}
C 69800 71400 1 0 0 resistor.sym
{
T 70100 71800 5 10 0 0 0 0 1
device=RESISTOR
T 70100 71900 5 10 1 1 0 6 1
refdes=R4135
T 70200 71900 5 10 1 1 0 0 1
value=49.9
T 70000 71400 5 10 1 1 0 0 1
footprint=0603
}
N 70700 73500 72100 73500 4
N 70700 71700 72100 71700 4
N 72100 73500 72100 73000 4
N 72100 72200 72100 71700 4
N 72100 73000 72400 73000 4
N 72100 72200 72400 72200 4
C 61100 69400 1 0 0 agnd.sym
{
T 60900 69210 5 9 1 1 0 0 1
net=AGND_61:1
}
N 55200 73000 59800 73000 4
{
T 55300 73100 5 10 1 1 0 0 1
netname=common_mode_61
}
C 60300 69400 1 0 0 agnd.sym
{
T 59900 69210 5 9 1 1 0 0 1
net=AGND_61:1
}
C 59700 71900 1 0 0 agnd.sym
{
T 59300 71710 5 9 1 1 0 0 1
net=AGND_61:1
}
C 61700 72400 1 0 0 avcc.sym
{
T 61450 72800 5 9 1 1 0 0 1
net=AVCC_61:1
}
C 60300 75000 1 0 0 avcc.sym
{
T 60050 75400 5 9 1 1 0 0 1
net=AVCC_61:1
}
C 57100 70900 1 0 0 avcc.sym
{
T 56850 71300 5 9 1 1 0 0 1
net=AVCC_61:1
}
C 64000 73800 1 0 0 avcc.sym
{
T 63750 74200 5 9 1 1 0 0 1
net=AVCC_61:1
}
C 57200 72100 1 90 0 capacitor.sym
{
T 56500 72400 5 10 0 0 90 0 1
device=CAPACITOR
T 56900 72700 5 10 1 1 180 2 1
refdes=C4132
T 56900 72400 5 10 1 1 180 0 1
value=0.1u
T 57200 72000 5 10 1 1 90 0 1
footprint=0603
}
C 56900 71800 1 0 0 agnd.sym
{
T 56700 71610 5 9 1 1 0 0 1
net=AGND_61:1
}
C 66200 70800 1 90 0 capacitor.sym
{
T 65500 71100 5 10 0 0 90 0 1
device=CAPACITOR
T 65900 71400 5 10 1 1 180 2 1
refdes=C4133
T 65900 71100 5 10 1 1 180 0 1
value=0.1u
T 66200 70700 5 10 1 1 90 0 1
footprint=0603
}
C 62000 76400 1 0 0 avcc.sym
{
T 61750 76800 5 9 1 1 0 0 1
net=AVCC_61:1
}
C 62400 75500 1 90 0 capacitor.sym
{
T 61700 75800 5 10 0 0 90 0 1
device=CAPACITOR
T 62100 76100 5 10 1 1 180 2 1
refdes=C4134
T 62100 75800 5 10 1 1 180 0 1
value=0.1u
T 62400 75400 5 10 1 1 90 0 1
footprint=0603
}
C 63200 75500 1 90 0 capacitor.sym
{
T 62500 75800 5 10 0 0 90 0 1
device=CAPACITOR
T 62900 76100 5 10 1 1 180 2 1
refdes=C4135
T 62900 75800 5 10 1 1 180 0 1
value=10.0u
T 63200 75400 5 10 1 1 90 0 1
footprint=0603
}
C 62100 75000 1 0 0 agnd.sym
{
T 61700 74810 5 9 1 1 0 0 1
net=AGND_61:1
}
N 62200 76400 63000 76400 4
N 63000 75500 63000 75300 4
N 63000 75300 62200 75300 4
N 62200 75500 62200 75300 4
C 65900 70500 1 0 0 agnd.sym
{
T 65700 70310 5 9 1 1 0 0 1
net=AGND_61:1
}
C 68800 72300 1 0 0 agnd.sym
{
T 68600 72110 5 9 1 1 0 0 1
net=AGND_61:1
}
C 78300 75000 1 0 0 avcc.sym
{
T 78050 75400 5 9 1 1 0 0 1
net=AVCC_61:1
}
N 79500 75000 79500 73800 4
C 81000 70500 1 90 0 capacitor.sym
{
T 80300 70800 5 10 0 0 90 0 1
device=CAPACITOR
T 80700 71100 5 10 1 1 180 2 1
refdes=C4143
T 80700 70800 5 10 1 1 180 0 1
value=0.1u
T 81000 70400 5 10 1 1 90 0 1
footprint=0603
}
C 80700 70200 1 0 0 agnd.sym
{
T 80500 70010 5 9 1 1 0 0 1
net=AGND_61:1
}
N 79500 71400 81700 71400 4
{
T 79800 71500 5 10 1 1 0 0 1
netname=common_mode_61
}
C 78400 69900 1 0 0 agnd.sym
{
T 78200 69710 5 9 1 1 0 0 1
net=AGND_61:1
}
C 80600 75900 1 0 0 avcc.sym
{
T 80350 76300 5 9 1 1 0 0 1
net=AVCC_61:1
}
C 81000 75000 1 90 0 capacitor.sym
{
T 80300 75300 5 10 0 0 90 0 1
device=CAPACITOR
T 80700 75600 5 10 1 1 180 2 1
refdes=C4140
T 80700 75300 5 10 1 1 180 0 1
value=0.1u
T 81000 74900 5 10 1 1 90 0 1
footprint=0603
}
C 81800 75000 1 90 0 capacitor.sym
{
T 81100 75300 5 10 0 0 90 0 1
device=CAPACITOR
T 81500 75600 5 10 1 1 180 2 1
refdes=C4141
T 81500 75300 5 10 1 1 180 0 1
value=10.0u
T 81800 74900 5 10 1 1 90 0 1
footprint=0603
}
C 80700 74500 1 0 0 agnd.sym
{
T 80300 74310 5 9 1 1 0 0 1
net=AGND_61:1
}
N 80800 75900 81600 75900 4
N 81600 75000 81600 74800 4
N 81600 74800 80800 74800 4
N 80800 75000 80800 74800 4
N 81100 71900 85300 71900 4
{
T 83900 72000 5 10 1 1 0 0 1
netname=diff_out_61_p
}
N 81100 73300 85300 73300 4
{
T 83900 73400 5 10 1 1 0 0 1
netname=diff_out_61_n
}
C 54400 72900 1 0 0 input-1.sym
{
T 54700 73000 5 10 1 1 0 4 1
value=10
}
C 67300 71600 1 0 1 input-1.sym
{
T 67000 71700 5 10 1 1 0 4 1
value=10
}
C 82500 71300 1 0 1 input-1.sym
{
T 82200 71400 5 10 1 1 0 4 1
value=10
}
C 61400 76300 1 0 0 input-1.sym
{
T 61700 76400 5 10 1 1 0 4 1
value=10
}
C 61400 75200 1 0 0 input-1.sym
{
T 61700 75300 5 10 1 1 0 4 1
value=10
}
C 80000 75800 1 0 0 input-1.sym
{
T 80300 75900 5 10 1 1 0 4 1
value=10
}
C 80000 74700 1 0 0 input-1.sym
{
T 80300 74800 5 10 1 1 0 4 1
value=10
}
C 63100 61700 1 90 0 resistor.sym
{
T 62700 62000 5 10 0 0 90 0 1
device=RESISTOR
T 62700 62400 5 10 1 1 180 0 1
refdes=R4151
T 62700 62100 5 10 1 1 180 0 1
value=50.0Meg
T 63100 61900 5 10 1 1 90 0 1
footprint=0603
}
C 64200 61700 1 90 0 capacitor.sym
{
T 63500 62000 5 10 0 0 90 0 1
device=CAPACITOR
T 63900 62300 5 10 1 1 180 2 1
refdes=C4151
T 63900 62000 5 10 1 1 180 0 1
value=0.6p
T 64200 61600 5 10 1 1 90 0 1
footprint=0603
}
C 59700 61000 1 0 0 opamp-ADA4817-2.sym
{
T 60800 63700 5 11 1 1 90 4 1
device=ADA4817-2
T 61600 65600 5 10 1 1 0 0 1
refdes=U4150
T 61592 65400 5 10 1 1 0 0 1
footprint=QFN16_4_EP_rot.fp
}
C 57800 64900 1 90 0 capacitor.sym
{
T 57100 65200 5 10 0 0 90 0 1
device=CAPACITOR
T 57500 65500 5 10 1 1 180 2 1
refdes=C4150
T 57500 65200 5 10 1 1 180 0 1
value=0.6p
T 57800 64800 5 10 1 1 90 0 1
footprint=0603
}
C 59000 64900 1 90 0 resistor.sym
{
T 58600 65200 5 10 0 0 90 0 1
device=RESISTOR
T 58600 65600 5 10 1 1 180 0 1
refdes=R4150
T 58600 65300 5 10 1 1 180 0 1
value=50.0Meg
T 59000 65100 5 10 1 1 90 0 1
footprint=0603
}
N 57600 64700 59700 64700 4
{
T 57600 64500 5 10 1 1 0 0 1
netname=transimp_inp_63_p
}
N 57600 64900 57600 64700 4
N 58700 64900 58700 64700 4
N 59700 65500 59700 65800 4
N 59700 65800 57600 65800 4
N 61800 62600 64000 62600 4
{
T 64000 62700 5 10 1 1 0 6 1
netname=transimp_inp_63_n
}
N 64000 61700 64000 61500 4
N 64000 61500 61800 61500 4
N 61800 61500 61800 61800 4
N 62800 61700 62800 61500 4
N 61800 63000 66400 63000 4
{
T 64800 63100 5 10 1 1 0 0 1
netname=common_mode_61
}
C 56800 64600 1 0 0 input-1.sym
{
T 57100 64700 5 10 1 1 0 4 1
value=1
}
C 64800 62500 1 0 1 input-1.sym
{
T 64500 62600 5 10 1 1 0 4 1
value=1
}
N 61800 64500 63900 64500 4
{
T 62200 64600 5 10 1 1 0 0 1
netname=transimp_out_63_p
}
N 57900 62800 59700 62800 4
{
T 58000 62600 5 10 1 1 0 0 1
netname=transimp_out_63_n
}
N 61800 65100 64100 65100 4
N 59700 62200 57200 62200 4
C 77000 61500 1 0 0 difopamp-ADA4930.sym
{
T 79495 66195 5 10 0 0 0 0 1
model-name=ADA4930
T 78500 63900 5 10 1 1 0 4 1
device=ADA4930
T 77200 65100 5 10 1 1 0 0 1
refdes=U4151
T 77192 64900 5 10 1 1 0 0 1
footprint=QFN16_3_EP
}
C 76800 64600 1 90 0 resistor.sym
{
T 76400 64900 5 10 0 0 90 0 1
device=RESISTOR
T 76400 65300 5 10 1 1 180 0 1
refdes=R4158
T 76400 65000 5 10 1 1 180 0 1
value=330
T 76800 64800 5 10 1 1 90 0 1
footprint=0603
}
C 76800 62300 1 90 0 resistor.sym
{
T 76400 62600 5 10 0 0 90 0 1
device=RESISTOR
T 76400 63000 5 10 1 1 180 0 1
refdes=R4159
T 76400 62700 5 10 1 1 180 0 1
value=330
T 76800 62500 5 10 1 1 90 0 1
footprint=0603
}
N 76500 62300 76500 62100 4
N 75400 62100 77000 62100 4
N 76500 65500 76500 65700 4
N 75400 65700 77000 65700 4
C 75600 64600 1 90 0 capacitor.sym
{
T 74900 64900 5 10 0 0 90 0 1
device=CAPACITOR
T 75300 65200 5 10 1 1 180 2 1
refdes=C4158
T 75300 64900 5 10 1 1 180 0 1
value=DNP
T 75600 64500 5 10 1 1 90 0 1
footprint=0603
}
N 75400 65500 75400 65700 4
N 75400 62300 75400 62100 4
C 75600 62300 1 90 0 capacitor.sym
{
T 74900 62600 5 10 0 0 90 0 1
device=CAPACITOR
T 75300 62900 5 10 1 1 180 2 1
refdes=C4159
T 75300 62600 5 10 1 1 180 0 1
value=DNP
T 75600 62200 5 10 1 1 90 0 1
footprint=0603
}
N 78400 66300 79400 66300 4
N 78400 61500 79200 61500 4
C 79900 64000 1 0 0 resistor.sym
{
T 80200 64400 5 10 0 0 0 0 1
device=RESISTOR
T 80200 64500 5 10 1 1 0 6 1
refdes=R4160
T 80500 64500 5 10 1 1 0 0 1
value=49.9
T 80100 64000 5 10 1 1 0 0 1
footprint=0603
}
C 79900 63200 1 0 0 resistor.sym
{
T 80200 63600 5 10 0 0 0 0 1
device=RESISTOR
T 80200 63700 5 10 1 1 0 6 1
refdes=R4161
T 80500 63700 5 10 1 1 0 0 1
value=49.9
T 80100 63200 5 10 1 1 0 0 1
footprint=0603
}
N 79400 64300 79900 64300 4
N 79400 63500 79900 63500 4
C 82000 63400 1 90 0 resistor.sym
{
T 81600 63700 5 10 0 0 90 0 1
device=RESISTOR
T 81600 64100 5 10 1 1 180 0 1
refdes=R4162
T 81600 63800 5 10 1 1 180 0 1
value=100
T 82000 63600 5 10 1 1 90 0 1
footprint=0603
}
N 80800 64300 81000 64300 4
N 81000 64300 81000 64600 4
N 80800 63500 81000 63500 4
N 81000 63500 81000 63200 4
N 81700 63400 81700 63200 4
N 81700 64300 81700 64600 4
C 73800 64000 1 0 0 resistor.sym
{
T 74100 64400 5 10 0 0 0 0 1
device=RESISTOR
T 74100 64500 5 10 1 1 0 6 1
refdes=R4156
T 74400 64500 5 10 1 1 0 0 1
value=49.9
T 74000 64000 5 10 1 1 0 0 1
footprint=0603
}
C 73800 63200 1 0 0 resistor.sym
{
T 74100 63600 5 10 0 0 0 0 1
device=RESISTOR
T 74100 63700 5 10 1 1 0 6 1
refdes=R4157
T 74400 63700 5 10 1 1 0 0 1
value=49.9
T 74000 63200 5 10 1 1 0 0 1
footprint=0603
}
N 74700 64300 77000 64300 4
N 74700 63500 77000 63500 4
N 76500 63200 76500 63500 4
N 76500 64600 76500 64300 4
N 75400 64600 75400 64300 4
N 75400 63200 75400 63500 4
C 72300 64100 1 0 0 capacitor.sym
{
T 72600 64800 5 10 0 0 0 0 1
device=CAPACITOR
T 72600 64400 5 10 1 1 180 2 1
refdes=C4156
T 72900 64400 5 10 1 1 0 0 1
value=2.2u
T 72900 64000 5 10 1 1 0 0 1
footprint=0612.fp
}
C 72300 63300 1 0 0 capacitor.sym
{
T 72600 64000 5 10 0 0 0 0 1
device=CAPACITOR
T 72600 63600 5 10 1 1 180 2 1
refdes=C4157
T 72900 63600 5 10 1 1 0 0 1
value=2.2u
T 72900 63200 5 10 1 1 0 0 1
footprint=0612.fp
}
N 73200 64300 73800 64300 4
N 73200 63500 73800 63500 4
C 71500 63900 1 90 0 resistor.sym
{
T 71100 64200 5 10 0 0 90 0 1
device=RESISTOR
T 71100 64600 5 10 1 1 180 0 1
refdes=R4152
T 71100 64300 5 10 1 1 180 0 1
value=DNP
T 71500 64100 5 10 1 1 90 0 1
footprint=0603
}
C 71500 63000 1 90 0 resistor.sym
{
T 71100 63300 5 10 0 0 90 0 1
device=RESISTOR
T 71100 63700 5 10 1 1 180 0 1
refdes=R4153
T 71100 63400 5 10 1 1 180 0 1
value=DNP
T 71500 63200 5 10 1 1 90 0 1
footprint=0603
}
N 71200 63900 68800 63900 4
C 83000 63400 1 90 0 capacitor.sym
{
T 82300 63700 5 10 0 0 90 0 1
device=CAPACITOR
T 82700 64000 5 10 1 1 180 2 1
refdes=C4162
T 82700 63700 5 10 1 1 180 0 1
value=10p
T 83000 63300 5 10 1 1 90 0 1
footprint=0603
}
N 82800 64300 82800 64600 4
N 82800 63400 82800 63200 4
N 67800 64800 69700 64800 4
{
T 67900 64500 5 10 1 1 0 0 1
netname=transimp_out_63_p
}
N 67800 63000 69700 63000 4
{
T 67900 62700 5 10 1 1 0 0 1
netname=transimp_out_63_n
}
C 69700 64500 1 0 0 resistor.sym
{
T 70000 64900 5 10 0 0 0 0 1
device=RESISTOR
T 70000 65000 5 10 1 1 0 6 1
refdes=R4154
T 70100 65000 5 10 1 1 0 0 1
value=49.9
T 69900 64500 5 10 1 1 0 0 1
footprint=0603
}
C 69700 62700 1 0 0 resistor.sym
{
T 70000 63100 5 10 0 0 0 0 1
device=RESISTOR
T 70000 63200 5 10 1 1 0 6 1
refdes=R4155
T 70100 63200 5 10 1 1 0 0 1
value=49.9
T 69900 62700 5 10 1 1 0 0 1
footprint=0603
}
N 70600 64800 72000 64800 4
N 70600 63000 72000 63000 4
N 72000 64800 72000 64300 4
N 72000 63500 72000 63000 4
N 72000 64300 72300 64300 4
N 72000 63500 72300 63500 4
C 61000 60700 1 0 0 agnd.sym
{
T 60800 60510 5 9 1 1 0 0 1
net=AGND_61:1
}
N 55100 64300 59700 64300 4
{
T 55200 64400 5 10 1 1 0 0 1
netname=common_mode_61
}
C 60200 60700 1 0 0 agnd.sym
{
T 59800 60510 5 9 1 1 0 0 1
net=AGND_61:1
}
C 59600 63200 1 0 0 agnd.sym
{
T 59200 63010 5 9 1 1 0 0 1
net=AGND_61:1
}
C 61600 63700 1 0 0 avcc.sym
{
T 61350 64100 5 9 1 1 0 0 1
net=AVCC_61:1
}
C 60200 66300 1 0 0 avcc.sym
{
T 59950 66700 5 9 1 1 0 0 1
net=AVCC_61:1
}
C 57000 62200 1 0 0 avcc.sym
{
T 56750 62600 5 9 1 1 0 0 1
net=AVCC_61:1
}
C 63900 65100 1 0 0 avcc.sym
{
T 63650 65500 5 9 1 1 0 0 1
net=AVCC_61:1
}
C 57100 63400 1 90 0 capacitor.sym
{
T 56400 63700 5 10 0 0 90 0 1
device=CAPACITOR
T 56800 64000 5 10 1 1 180 2 1
refdes=C4152
T 56800 63700 5 10 1 1 180 0 1
value=0.1u
T 57100 63300 5 10 1 1 90 0 1
footprint=0603
}
C 56800 63100 1 0 0 agnd.sym
{
T 56600 62910 5 9 1 1 0 0 1
net=AGND_61:1
}
C 66100 62100 1 90 0 capacitor.sym
{
T 65400 62400 5 10 0 0 90 0 1
device=CAPACITOR
T 65800 62700 5 10 1 1 180 2 1
refdes=C4153
T 65800 62400 5 10 1 1 180 0 1
value=0.1u
T 66100 62000 5 10 1 1 90 0 1
footprint=0603
}
C 61900 67700 1 0 0 avcc.sym
{
T 61650 68100 5 9 1 1 0 0 1
net=AVCC_61:1
}
C 62300 66800 1 90 0 capacitor.sym
{
T 61600 67100 5 10 0 0 90 0 1
device=CAPACITOR
T 62000 67400 5 10 1 1 180 2 1
refdes=C4154
T 62000 67100 5 10 1 1 180 0 1
value=0.1u
T 62300 66700 5 10 1 1 90 0 1
footprint=0603
}
C 63100 66800 1 90 0 capacitor.sym
{
T 62400 67100 5 10 0 0 90 0 1
device=CAPACITOR
T 62800 67400 5 10 1 1 180 2 1
refdes=C4155
T 62800 67100 5 10 1 1 180 0 1
value=10.0u
T 63100 66700 5 10 1 1 90 0 1
footprint=0603
}
C 62000 66300 1 0 0 agnd.sym
{
T 61600 66110 5 9 1 1 0 0 1
net=AGND_61:1
}
N 62100 67700 62900 67700 4
N 62900 66800 62900 66600 4
N 62900 66600 62100 66600 4
N 62100 66800 62100 66600 4
C 65800 61800 1 0 0 agnd.sym
{
T 65600 61610 5 9 1 1 0 0 1
net=AGND_61:1
}
C 68700 63600 1 0 0 agnd.sym
{
T 68500 63410 5 9 1 1 0 0 1
net=AGND_61:1
}
C 78200 66300 1 0 0 avcc.sym
{
T 77950 66700 5 9 1 1 0 0 1
net=AVCC_61:1
}
N 79400 66300 79400 65100 4
C 80900 61800 1 90 0 capacitor.sym
{
T 80200 62100 5 10 0 0 90 0 1
device=CAPACITOR
T 80600 62400 5 10 1 1 180 2 1
refdes=C4163
T 80600 62100 5 10 1 1 180 0 1
value=0.1u
T 80900 61700 5 10 1 1 90 0 1
footprint=0603
}
C 80600 61500 1 0 0 agnd.sym
{
T 80400 61310 5 9 1 1 0 0 1
net=AGND_61:1
}
N 79400 62700 81600 62700 4
{
T 79700 62800 5 10 1 1 0 0 1
netname=common_mode_61
}
C 78300 61200 1 0 0 agnd.sym
{
T 78100 61010 5 9 1 1 0 0 1
net=AGND_61:1
}
C 80500 67200 1 0 0 avcc.sym
{
T 80250 67600 5 9 1 1 0 0 1
net=AVCC_61:1
}
C 80900 66300 1 90 0 capacitor.sym
{
T 80200 66600 5 10 0 0 90 0 1
device=CAPACITOR
T 80600 66900 5 10 1 1 180 2 1
refdes=C4160
T 80600 66600 5 10 1 1 180 0 1
value=0.1u
T 80900 66200 5 10 1 1 90 0 1
footprint=0603
}
C 81700 66300 1 90 0 capacitor.sym
{
T 81000 66600 5 10 0 0 90 0 1
device=CAPACITOR
T 81400 66900 5 10 1 1 180 2 1
refdes=C4161
T 81400 66600 5 10 1 1 180 0 1
value=10.0u
T 81700 66200 5 10 1 1 90 0 1
footprint=0603
}
C 80600 65800 1 0 0 agnd.sym
{
T 80200 65610 5 9 1 1 0 0 1
net=AGND_61:1
}
N 80700 67200 81500 67200 4
N 81500 66300 81500 66100 4
N 81500 66100 80700 66100 4
N 80700 66300 80700 66100 4
N 81000 63200 85200 63200 4
{
T 83800 63300 5 10 1 1 0 0 1
netname=diff_out_63_p
}
N 81000 64600 85200 64600 4
{
T 83800 64700 5 10 1 1 0 0 1
netname=diff_out_63_n
}
C 54300 64200 1 0 0 input-1.sym
{
T 54600 64300 5 10 1 1 0 4 1
value=10
}
C 67200 62900 1 0 1 input-1.sym
{
T 66900 63000 5 10 1 1 0 4 1
value=10
}
C 82400 62600 1 0 1 input-1.sym
{
T 82100 62700 5 10 1 1 0 4 1
value=10
}
C 61300 67600 1 0 0 input-1.sym
{
T 61600 67700 5 10 1 1 0 4 1
value=10
}
C 61300 66500 1 0 0 input-1.sym
{
T 61600 66600 5 10 1 1 0 4 1
value=10
}
C 79900 67100 1 0 0 input-1.sym
{
T 80200 67200 5 10 1 1 0 4 1
value=10
}
C 79900 66000 1 0 0 input-1.sym
{
T 80200 66100 5 10 1 1 0 4 1
value=10
}
C 50700 72900 1 0 0 output-1.sym
{
T 51200 73000 5 10 1 1 0 4 1
value=10
}
C 50700 71500 1 0 0 output-1.sym
{
T 51200 71600 5 10 1 1 0 4 1
value=10
}
C 50700 64300 1 0 0 output-1.sym
{
T 51200 64400 5 10 1 1 0 4 1
value=10
}
C 50700 62900 1 0 0 output-1.sym
{
T 51200 63000 5 10 1 1 0 4 1
value=10
}
C 50600 55700 1 0 0 output-1.sym
{
T 51100 55800 5 10 1 1 0 4 1
value=10
}
C 50600 54300 1 0 0 output-1.sym
{
T 51100 54400 5 10 1 1 0 4 1
value=10
}
C 50600 47000 1 0 0 output-1.sym
{
T 51100 47100 5 10 1 1 0 4 1
value=10
}
C 50600 45600 1 0 0 output-1.sym
{
T 51100 45700 5 10 1 1 0 4 1
value=10
}
C 50400 37700 1 0 0 output-1.sym
{
T 50900 37800 5 10 1 1 0 4 1
value=10
}
C 50400 36300 1 0 0 output-1.sym
{
T 50900 36400 5 10 1 1 0 4 1
value=10
}
C 50300 28700 1 0 0 output-1.sym
{
T 50800 28800 5 10 1 1 0 4 1
value=10
}
C 50300 27300 1 0 0 output-1.sym
{
T 50800 27400 5 10 1 1 0 4 1
value=10
}
C 85300 73200 1 0 0 output-1.sym
{
T 85800 73300 5 10 1 1 0 4 1
value=10
}
C 85300 71800 1 0 0 output-1.sym
{
T 85800 71900 5 10 1 1 0 4 1
value=10
}
C 85200 64500 1 0 0 output-1.sym
{
T 85700 64600 5 10 1 1 0 4 1
value=10
}
C 85200 63100 1 0 0 output-1.sym
{
T 85700 63200 5 10 1 1 0 4 1
value=10
}
