v 20121123 2
C 59700 44300 1 0 0 XC7K160T_power.sym
{
T 62100 45850 5 15 1 1 0 3 1
device=XC7K160T
T 78900 47600 5 10 1 1 0 0 1
refdes=U1
T 78900 47400 5 10 1 1 0 0 1
footprint=FBG676.fp
}
C 60000 44000 1 0 0 dgnd.sym
N 60100 44300 74900 44300 4
C 59900 49900 1 0 0 dvcc.sym
{
T 60150 50220 5 10 1 1 0 3 1
net=VCCINT_1P0:1
}
N 60100 48100 66100 48100 4
N 60100 48100 60100 49900 4
C 66700 53500 1 0 0 dvcc.sym
{
T 66950 53820 5 10 1 1 0 3 1
net=VCCO_1P8:1
}
N 66900 48100 68500 48100 4
C 69100 49900 1 0 0 dvcc.sym
{
T 69350 50220 5 10 1 1 0 3 1
net=VCCO_1P8:1
}
N 69300 48100 70100 48100 4
C 70700 55100 1 0 0 dvcc.sym
{
T 70950 55420 5 10 1 1 0 3 1
net=VCCINT_1P0:1
}
N 70900 48100 72100 48100 4
C 75900 49900 1 0 0 dvcc.sym
{
T 76150 50220 5 10 1 1 0 3 1
net=VMGTAVCC_1P0:1
}
N 76100 48100 77700 48100 4
C 72700 49900 1 0 0 dvcc.sym
{
T 72950 50220 5 10 1 1 0 3 1
net=VMGTAVTT_1P2:1
}
N 72900 48100 75300 48100 4
N 66900 53500 66900 48100 4
N 69300 49900 69300 48100 4
N 70900 55100 70900 48100 4
N 72900 49900 72900 48100 4
N 76100 49900 76100 48100 4
N 78500 53500 78500 48100 4
C 59300 49800 1 0 0 input-1.sym
{
T 59600 49900 5 10 1 1 0 4 1
value=13
}
C 66100 53400 1 0 0 input-1.sym
{
T 66400 53500 5 10 1 1 0 4 1
value=13
}
C 68500 49800 1 0 0 input-1.sym
{
T 68800 49900 5 10 1 1 0 4 1
value=13
}
C 70100 55000 1 0 0 input-1.sym
{
T 70400 55100 5 10 1 1 0 4 1
value=13
}
C 72100 49800 1 0 0 input-1.sym
{
T 72400 49900 5 10 1 1 0 4 1
value=13
}
C 75300 49800 1 0 0 input-1.sym
{
T 75600 49900 5 10 1 1 0 4 1
value=13
}
C 71200 42200 1 0 0 cvstitleblock-1.sym
{
T 71800 42600 5 10 1 1 0 0 1
date=2013-07-29
T 75800 42600 5 10 1 1 0 0 1
rev=0.1
T 75800 42300 5 10 1 1 0 0 1
auth=Alexei Dorofeev
T 72000 42900 5 10 1 1 0 0 1
fname=drift_accumulator_15_power_pld.sch
T 75300 43300 5 14 1 1 0 4 1
title=Drift Accumulator: PLD Power and Decoupling Capacitors
T 72100 42300 5 10 1 1 0 0 1
page_number=15
T 73500 42300 5 10 1 1 0 0 1
pages=16
}
C 75700 51700 1 0 0 voltage_reg-LT1763.sym
{
T 76500 54350 5 12 1 1 0 4 1
device=LT1763_18
T 76800 54900 5 10 1 1 0 0 1
refdes=U1500
T 76800 54700 5 10 1 1 0 0 1
footprint=SO8
}
N 75000 51700 76800 51700 4
N 75000 53100 75700 53100 4
N 77300 53100 77500 53100 4
N 77500 53100 78100 53500 4
N 75000 53500 75700 53500 4
N 75000 53500 75000 52900 4
C 78300 52300 1 90 0 capacitor.sym
{
T 77600 52600 5 10 0 0 90 0 1
device=CAPACITOR
T 78000 52900 5 10 1 1 180 2 1
refdes=C1501
T 78000 52600 5 10 1 1 180 0 1
value=0.01u
T 78300 52200 5 10 1 1 90 0 1
footprint=0603
}
N 77300 52300 78100 52300 4
N 77300 53500 79200 53500 4
C 75100 51400 1 0 1 agnd.sym
{
T 75000 51310 5 8 1 1 0 5 1
net=AGND_MGT:1
}
C 78700 53500 1 0 1 avcc.sym
{
T 78550 53900 5 10 1 1 0 3 1
net=VMGTVCCAUX_1P8:1
}
C 77000 49000 1 90 0 capacitor.sym
{
T 76300 49300 5 10 0 0 90 0 1
device=CAPACITOR
T 76700 49600 5 10 1 1 180 2 1
refdes=C1503
T 76700 49300 5 10 1 1 180 0 1
value=4.7u
T 77000 48900 5 10 1 1 90 0 1
footprint=0603
}
N 76100 49900 77700 49900 4
C 77900 49000 1 90 0 capacitor.sym
{
T 77200 49300 5 10 0 0 90 0 1
device=CAPACITOR
T 77600 49600 5 10 1 1 180 2 1
refdes=C1504
T 77600 49300 5 10 1 1 180 0 1
value=4.7u
T 77900 48900 5 10 1 1 90 0 1
footprint=0603
}
C 77600 48500 1 0 0 agnd.sym
{
T 77700 48410 5 8 1 1 0 5 1
net=AGND_MGT:1
}
N 77700 48800 77700 49000 4
N 76800 49000 76800 48800 4
N 76800 48800 77700 48800 4
C 73800 49000 1 90 0 capacitor.sym
{
T 73100 49300 5 10 0 0 90 0 1
device=CAPACITOR
T 73500 49600 5 10 1 1 180 2 1
refdes=C1505
T 73500 49300 5 10 1 1 180 0 1
value=4.7u
T 73800 48900 5 10 1 1 90 0 1
footprint=0603
}
C 74700 49000 1 90 0 capacitor.sym
{
T 74000 49300 5 10 0 0 90 0 1
device=CAPACITOR
T 74400 49600 5 10 1 1 180 2 1
refdes=C1506
T 74400 49300 5 10 1 1 180 0 1
value=4.7u
T 74700 48900 5 10 1 1 90 0 1
footprint=0603
}
C 74400 48500 1 0 0 agnd.sym
{
T 74500 48410 5 8 1 1 0 5 1
net=AGND_MGT:1
}
N 73600 48800 74500 48800 4
N 72900 49900 74500 49900 4
C 74100 53200 1 0 0 ferrite_bead.sym
{
T 74300 54100 5 10 0 0 0 0 1
device=INDUCTOR
T 74300 53700 5 10 1 1 0 0 1
refdes=L1500
T 74300 53946 5 10 0 0 0 0 1
value=0 H
T 74300 53181 5 10 1 1 0 0 1
footprint=0603
}
C 74300 53700 1 0 1 dvcc.sym
{
T 74050 54020 5 10 1 1 0 3 1
net=VCCO_3P3:1
}
C 73300 53400 1 0 0 input-1.sym
{
T 73600 53500 5 10 1 1 0 4 1
value=13
}
N 74100 53500 74100 53700 4
N 74500 49000 74500 48800 4
N 73600 49000 73600 48800 4
N 65300 48800 60800 48800 4
N 60800 48800 60800 49000 4
N 61700 48800 61700 49000 4
N 60100 49900 65300 49900 4
C 67800 52600 1 90 0 capacitor.sym
{
T 67100 52900 5 10 0 0 90 0 1
device=CAPACITOR
T 67500 53200 5 10 1 1 180 2 1
refdes=C1520
T 67500 52900 5 10 1 1 180 0 1
value=47u
T 67800 52500 5 10 1 1 90 0 1
footprint=1210
}
N 66900 53500 69200 53500 4
C 70200 49000 1 90 0 capacitor.sym
{
T 69500 49300 5 10 0 0 90 0 1
device=CAPACITOR
T 69900 49600 5 10 1 1 180 2 1
refdes=C1530
T 69900 49300 5 10 1 1 180 0 1
value=1.0u
T 70200 48900 5 10 1 1 90 0 1
footprint=0603
}
C 69900 48700 1 0 0 dgnd.sym
N 69300 49900 70000 49900 4
C 62800 49000 1 90 0 capacitor.sym
{
T 62100 49300 5 10 0 0 90 0 1
device=CAPACITOR
T 62500 49600 5 10 1 1 180 2 1
refdes=C1512
T 62500 49300 5 10 1 1 180 0 1
value=4.7u
T 62800 48900 5 10 1 1 90 0 1
footprint=0603
}
C 63700 49000 1 90 0 capacitor.sym
{
T 63000 49300 5 10 0 0 90 0 1
device=CAPACITOR
T 63400 49600 5 10 1 1 180 2 1
refdes=C1513
T 63400 49300 5 10 1 1 180 0 1
value=4.7u
T 63700 48900 5 10 1 1 90 0 1
footprint=0603
}
C 64600 49000 1 90 0 capacitor.sym
{
T 63900 49300 5 10 0 0 90 0 1
device=CAPACITOR
T 64300 49600 5 10 1 1 180 2 1
refdes=C1514
T 64300 49300 5 10 1 1 180 0 1
value=4.7u
T 64600 48900 5 10 1 1 90 0 1
footprint=0603
}
C 65500 49000 1 90 0 capacitor.sym
{
T 64800 49300 5 10 0 0 90 0 1
device=CAPACITOR
T 65200 49600 5 10 1 1 180 2 1
refdes=C1515
T 65200 49300 5 10 1 1 180 0 1
value=4.7u
T 65500 48900 5 10 1 1 90 0 1
footprint=0603
}
C 65200 48500 1 0 0 dgnd.sym
N 62600 48800 62600 49000 4
N 63500 48800 63500 49000 4
N 64400 48800 64400 49000 4
N 65300 48800 65300 49000 4
C 71900 52600 1 90 0 capacitor.sym
{
T 71200 52900 5 10 0 0 90 0 1
device=CAPACITOR
T 71600 53200 5 10 1 1 180 2 1
refdes=C1542
T 71600 52900 5 10 1 1 180 0 1
value=4.7u
T 71900 52500 5 10 1 1 90 0 1
footprint=0603
}
C 72800 52600 1 90 0 capacitor.sym
{
T 72100 52900 5 10 0 0 90 0 1
device=CAPACITOR
T 72500 53200 5 10 1 1 180 2 1
refdes=C1543
T 72500 52900 5 10 1 1 180 0 1
value=4.7u
T 72800 52500 5 10 1 1 90 0 1
footprint=0603
}
C 71900 51000 1 90 0 capacitor.sym
{
T 71200 51300 5 10 0 0 90 0 1
device=CAPACITOR
T 71600 51600 5 10 1 1 180 2 1
refdes=C1544
T 71600 51300 5 10 1 1 180 0 1
value=4.7u
T 71900 50900 5 10 1 1 90 0 1
footprint=0603
}
C 72800 51000 1 90 0 capacitor.sym
{
T 72100 51300 5 10 0 0 90 0 1
device=CAPACITOR
T 72500 51600 5 10 1 1 180 2 1
refdes=C1545
T 72500 51300 5 10 1 1 180 0 1
value=4.7u
T 72800 50900 5 10 1 1 90 0 1
footprint=0603
}
N 70900 53500 72600 53500 4
N 70900 55100 72600 55100 4
N 70900 51900 72600 51900 4
C 72500 50500 1 0 0 dgnd.sym
N 72600 50800 71700 50800 4
N 71700 50800 71700 51000 4
N 72600 50800 72600 51000 4
C 72500 52100 1 0 0 dgnd.sym
N 72600 52400 71700 52400 4
N 71700 52400 71700 52600 4
N 72600 52400 72600 52600 4
C 72500 53700 1 0 0 dgnd.sym
N 72600 54000 71700 54000 4
N 71700 54000 71700 54200 4
N 72600 54000 72600 54200 4
C 79400 52600 1 90 0 capacitor.sym
{
T 78700 52900 5 10 0 0 90 0 1
device=CAPACITOR
T 79100 53200 5 10 1 1 180 2 1
refdes=C1502
T 79100 52900 5 10 1 1 180 0 1
value=4.7u
T 79400 52500 5 10 1 1 90 0 1
footprint=0603
}
C 79300 52300 1 0 1 agnd.sym
{
T 79200 52210 5 8 1 1 0 5 1
net=AGND_MGT:1
}
N 78100 53200 78100 53500 4
C 68600 52600 1 90 0 capacitor.sym
{
T 67900 52900 5 10 0 0 90 0 1
device=CAPACITOR
T 68300 53200 5 10 1 1 180 2 1
refdes=C1521
T 68300 52900 5 10 1 1 180 0 1
value=47u
T 68600 52500 5 10 1 1 90 0 1
footprint=1210
}
C 69400 52600 1 90 0 capacitor.sym
{
T 68700 52900 5 10 0 0 90 0 1
device=CAPACITOR
T 69100 53200 5 10 1 1 180 2 1
refdes=C1522
T 69100 52900 5 10 1 1 180 0 1
value=47u
T 69400 52500 5 10 1 1 90 0 1
footprint=1210
}
N 69200 52400 69200 52600 4
N 68400 52400 68400 52600 4
N 67600 52400 67600 52600 4
C 69100 52100 1 0 0 dgnd.sym
N 67600 52400 69200 52400 4
C 68600 51000 1 90 0 capacitor.sym
{
T 67900 51300 5 10 0 0 90 0 1
device=CAPACITOR
T 68300 51600 5 10 1 1 180 2 1
refdes=C1524
T 68300 51300 5 10 1 1 180 0 1
value=4.7u
T 68600 50900 5 10 1 1 90 0 1
footprint=0603
}
C 69400 51000 1 90 0 capacitor.sym
{
T 68700 51300 5 10 0 0 90 0 1
device=CAPACITOR
T 69100 51600 5 10 1 1 180 2 1
refdes=C1525
T 69100 51300 5 10 1 1 180 0 1
value=4.7u
T 69400 50900 5 10 1 1 90 0 1
footprint=0603
}
C 70200 51000 1 90 0 capacitor.sym
{
T 69500 51300 5 10 0 0 90 0 1
device=CAPACITOR
T 69900 51600 5 10 1 1 180 2 1
refdes=C1526
T 69900 51300 5 10 1 1 180 0 1
value=4.7u
T 70200 50900 5 10 1 1 90 0 1
footprint=0603
}
N 70000 50800 70000 51000 4
N 69200 50800 69200 51000 4
N 68400 50800 68400 51000 4
C 69900 50500 1 0 0 dgnd.sym
N 67600 50800 70000 50800 4
N 70000 51900 66900 51900 4
C 67800 51000 1 90 0 capacitor.sym
{
T 67100 51300 5 10 0 0 90 0 1
device=CAPACITOR
T 67500 51600 5 10 1 1 180 2 1
refdes=C1523
T 67500 51300 5 10 1 1 180 0 1
value=4.7u
T 67800 50900 5 10 1 1 90 0 1
footprint=0603
}
N 67600 51000 67600 50800 4
T 59100 51400 9 10 1 0 0 0 1
For 330uF Tantalum DK#718-1605-1-ND
C 61300 49900 1 270 0 capacitor_polar.sym
{
T 62500 49700 5 10 0 0 270 0 1
device=POLARIZED_CAPACITOR
T 61600 49600 5 10 1 1 0 6 1
refdes=C1511
T 61800 49100 5 10 1 1 90 5 1
footprint=2824
T 61600 49300 5 10 1 1 180 0 1
value=330u
}
C 60400 49900 1 270 0 capacitor_polar.sym
{
T 61600 49700 5 10 0 0 270 0 1
device=POLARIZED_CAPACITOR
T 60700 49600 5 10 1 1 0 6 1
refdes=C1510
T 60900 49100 5 10 1 1 90 5 1
footprint=2824
T 60700 49300 5 10 1 1 180 0 1
value=330u
}
C 71300 55100 1 270 0 capacitor_polar.sym
{
T 72500 54900 5 10 0 0 270 0 1
device=POLARIZED_CAPACITOR
T 71600 54800 5 10 1 1 0 6 1
refdes=C1540
T 71800 54300 5 10 1 1 90 5 1
footprint=2824
T 71600 54500 5 10 1 1 180 0 1
value=330u
}
C 72200 55100 1 270 0 capacitor_polar.sym
{
T 73400 54900 5 10 0 0 270 0 1
device=POLARIZED_CAPACITOR
T 72500 54800 5 10 1 1 0 6 1
refdes=C1541
T 72700 54300 5 10 1 1 90 5 1
footprint=2824
T 72500 54500 5 10 1 1 180 0 1
value=330u
}
N 75000 52000 75000 51700 4
C 75200 52000 1 90 0 capacitor.sym
{
T 74500 52300 5 10 0 0 90 0 1
device=CAPACITOR
T 74900 52600 5 10 1 1 180 2 1
refdes=C1500
T 74900 52300 5 10 1 1 180 0 1
value=10u
T 75200 51900 5 10 1 1 90 0 1
footprint=1206
}
