v 20121123 2
C 96300 36300 1 0 0 cvstitleblock-1.sym
{
T 96900 36700 5 10 1 1 0 0 1
date=2013-05-27
T 101000 36700 5 10 1 1 0 0 1
rev=0.1
T 101000 36400 5 10 1 1 0 0 1
auth=Alexei Dorofeev
T 97100 37000 5 10 1 1 0 0 1
fname=drift_accumulator_08_digital_adcs.sch
T 100100 37400 5 14 1 1 0 4 1
title=Drift Accumulator : ADCs LVDS interface
T 97200 36400 5 10 1 1 0 0 1
page_number=8
T 98700 36400 5 10 1 1 0 0 1
pages=16
}
C 68800 39800 1 0 0 XC7K160T_bank34.sym
{
T 71900 49350 5 15 1 1 0 3 1
device=XC7K160T
T 74600 49400 5 10 1 1 0 0 1
refdes=U1
T 74600 49200 5 10 1 1 0 0 1
footprint=FBG676.fp
}
C 70900 39500 1 0 0 dgnd.sym
N 71000 39800 73000 39800 4
N 67200 48100 68900 48100 4
{
T 67400 48150 5 10 1 1 0 0 1
netname=adc1_d1_i_p
}
N 67200 47900 68900 47900 4
{
T 67400 47950 5 10 1 1 0 0 1
netname=adc1_d1_i_n
}
N 67200 47500 68900 47500 4
{
T 67400 47550 5 10 1 1 0 0 1
netname=adc1_d2_i_p
}
N 67200 47300 68900 47300 4
{
T 67400 47350 5 10 1 1 0 0 1
netname=adc1_d2_i_n
}
N 67200 46900 68900 46900 4
{
T 67400 46950 5 10 1 1 0 0 1
netname=adc1_d3_i_p
}
N 67200 46700 68900 46700 4
{
T 67400 46750 5 10 1 1 0 0 1
netname=adc1_d3_i_n
}
N 67200 46300 68900 46300 4
{
T 67400 46350 5 10 1 1 0 0 1
netname=adc1_d4_i_p
}
N 67200 46100 68900 46100 4
{
T 67400 46150 5 10 1 1 0 0 1
netname=adc1_d4_i_n
}
N 67200 45700 68900 45700 4
{
T 67400 45750 5 10 1 1 0 0 1
netname=adc1_d5_i_p
}
N 67200 45500 68900 45500 4
{
T 67400 45550 5 10 1 1 0 0 1
netname=adc1_d5_i_n
}
N 67200 45100 68900 45100 4
{
T 67400 45150 5 10 1 1 0 0 1
netname=adc1_d6_i_p
}
N 67200 44900 68900 44900 4
{
T 67400 44950 5 10 1 1 0 0 1
netname=adc1_d6_i_n
}
N 67200 44500 68900 44500 4
{
T 67400 44550 5 10 1 1 0 0 1
netname=adc1_d7_i_p
}
N 67200 44300 68900 44300 4
{
T 67400 44350 5 10 1 1 0 0 1
netname=adc1_d7_i_n
}
N 67200 43900 68900 43900 4
{
T 67400 43950 5 10 1 1 0 0 1
netname=adc1_d8_i_p
}
N 67200 43700 68900 43700 4
{
T 67400 43750 5 10 1 1 0 0 1
netname=adc1_d8_i_n
}
N 67200 41500 68900 41500 4
{
T 67400 41540 5 10 1 1 0 0 1
netname=adc1_dco_i_p
}
N 67200 41300 68900 41300 4
{
T 67400 41340 5 10 1 1 0 0 1
netname=adc1_dco_i_n
}
N 67200 42100 68900 42100 4
{
T 67400 42140 5 10 1 1 0 0 1
netname=adc1_fco_i_p
}
N 67200 41900 68900 41900 4
{
T 67400 41940 5 10 1 1 0 0 1
netname=adc1_fco_i_n
}
N 66600 43300 68900 43300 4
{
T 67400 43340 5 10 1 1 0 0 1
netname=adc1_clk_o_p
}
N 66600 43100 68900 43100 4
{
T 67400 43140 5 10 1 1 0 0 1
netname=adc1_clk_o_n
}
N 66600 42700 68900 42700 4
{
T 67400 42740 5 10 1 1 0 0 1
netname=adc1_spi_clk_o
}
N 66600 42500 68900 42500 4
{
T 67400 42540 5 10 1 1 0 0 1
netname=adc1_spi_dat_io
}
N 66600 40900 68900 40900 4
{
T 67400 40940 5 10 1 1 0 0 1
netname=adc1_spi_csb_o
}
N 74900 48100 76600 48100 4
{
T 75400 48150 5 10 1 1 0 0 1
netname=adc2_d1_i_p
}
N 74900 47900 76600 47900 4
{
T 75400 47950 5 10 1 1 0 0 1
netname=adc2_d1_i_n
}
N 74900 47500 76600 47500 4
{
T 75400 47550 5 10 1 1 0 0 1
netname=adc2_d2_i_p
}
N 74900 47300 76600 47300 4
{
T 75400 47350 5 10 1 1 0 0 1
netname=adc2_d2_i_n
}
N 74900 46900 76600 46900 4
{
T 75400 46950 5 10 1 1 0 0 1
netname=adc2_d3_i_p
}
N 74900 46700 76600 46700 4
{
T 75400 46750 5 10 1 1 0 0 1
netname=adc2_d3_i_n
}
N 74900 46300 76600 46300 4
{
T 75400 46350 5 10 1 1 0 0 1
netname=adc2_d4_i_p
}
N 74900 46100 76600 46100 4
{
T 75400 46150 5 10 1 1 0 0 1
netname=adc2_d4_i_n
}
N 74900 45700 76600 45700 4
{
T 75400 45750 5 10 1 1 0 0 1
netname=adc2_d5_i_p
}
N 74900 45500 76600 45500 4
{
T 75400 45550 5 10 1 1 0 0 1
netname=adc2_d5_i_n
}
N 74900 45100 76600 45100 4
{
T 75400 45150 5 10 1 1 0 0 1
netname=adc2_d6_i_p
}
N 74900 44900 76600 44900 4
{
T 75400 44950 5 10 1 1 0 0 1
netname=adc2_d6_i_n
}
N 74900 44500 76600 44500 4
{
T 75400 44550 5 10 1 1 0 0 1
netname=adc2_d7_i_p
}
N 74900 44300 76600 44300 4
{
T 75400 44350 5 10 1 1 0 0 1
netname=adc2_d7_i_n
}
N 74900 43900 76600 43900 4
{
T 75400 43950 5 10 1 1 0 0 1
netname=adc2_d8_i_p
}
N 74900 43700 76600 43700 4
{
T 75400 43750 5 10 1 1 0 0 1
netname=adc2_d8_i_n
}
N 74900 43300 77200 43300 4
{
T 75400 43340 5 10 1 1 0 0 1
netname=adc2_clk_o_p
}
N 74900 43100 77200 43100 4
{
T 75400 43140 5 10 1 1 0 0 1
netname=adc2_clk_o_n
}
N 74900 42700 77200 42700 4
{
T 75400 42740 5 10 1 1 0 0 1
netname=adc2_spi_clk_o
}
N 74900 42500 77200 42500 4
{
T 75400 42540 5 10 1 1 0 0 1
netname=adc2_spi_dat_io
}
N 74900 42100 76600 42100 4
{
T 75400 42140 5 10 1 1 0 0 1
netname=adc2_fco_i_p
}
N 74900 41900 76600 41900 4
{
T 75400 41940 5 10 1 1 0 0 1
netname=adc2_fco_i_n
}
N 74900 41500 76600 41500 4
{
T 75400 41540 5 10 1 1 0 0 1
netname=adc2_dco_i_p
}
N 74900 41300 76600 41300 4
{
T 75400 41340 5 10 1 1 0 0 1
netname=adc2_dco_i_n
}
N 74900 40900 77200 40900 4
{
T 75400 40940 5 10 1 1 0 0 1
netname=adc2_spi_csb_o
}
C 81800 39800 1 0 0 XC7K160T_bank33.sym
{
T 84900 49350 5 15 1 1 0 3 1
device=XC7K160T
T 87600 49400 5 10 1 1 0 0 1
refdes=U1
T 87600 49200 5 10 1 1 0 0 1
footprint=FBG676.fp
}
N 87900 48100 89600 48100 4
{
T 88400 48150 5 10 1 1 0 0 1
netname=adc4_d1_i_p
}
N 87900 47900 89600 47900 4
{
T 88400 47950 5 10 1 1 0 0 1
netname=adc4_d1_i_n
}
N 87900 47500 89600 47500 4
{
T 88400 47550 5 10 1 1 0 0 1
netname=adc4_d2_i_p
}
N 87900 47300 89600 47300 4
{
T 88400 47350 5 10 1 1 0 0 1
netname=adc4_d2_i_n
}
N 87900 46900 89600 46900 4
{
T 88400 46950 5 10 1 1 0 0 1
netname=adc4_d3_i_p
}
N 87900 46700 89600 46700 4
{
T 88400 46750 5 10 1 1 0 0 1
netname=adc4_d3_i_n
}
N 87900 46300 89600 46300 4
{
T 88400 46350 5 10 1 1 0 0 1
netname=adc4_d4_i_p
}
N 87900 46100 89600 46100 4
{
T 88400 46150 5 10 1 1 0 0 1
netname=adc4_d4_i_n
}
N 87900 45700 89600 45700 4
{
T 88400 45750 5 10 1 1 0 0 1
netname=adc4_d5_i_p
}
N 87900 45500 89600 45500 4
{
T 88400 45550 5 10 1 1 0 0 1
netname=adc4_d5_i_n
}
N 87900 45100 89600 45100 4
{
T 88400 45150 5 10 1 1 0 0 1
netname=adc4_d6_i_p
}
N 87900 44900 89600 44900 4
{
T 88400 44950 5 10 1 1 0 0 1
netname=adc4_d6_i_n
}
N 87900 44500 89600 44500 4
{
T 88400 44550 5 10 1 1 0 0 1
netname=adc4_d7_i_p
}
N 87900 44300 89600 44300 4
{
T 88400 44350 5 10 1 1 0 0 1
netname=adc4_d7_i_n
}
N 87900 43900 89600 43900 4
{
T 88400 43950 5 10 1 1 0 0 1
netname=adc4_d8_i_p
}
N 87900 43700 89600 43700 4
{
T 88400 43750 5 10 1 1 0 0 1
netname=adc4_d8_i_n
}
N 87900 43300 90200 43300 4
{
T 88400 43340 5 10 1 1 0 0 1
netname=adc4_clk_o_p
}
N 87900 43100 90200 43100 4
{
T 88400 43140 5 10 1 1 0 0 1
netname=adc4_clk_o_n
}
N 87900 42700 90200 42700 4
{
T 88400 42740 5 10 1 1 0 0 1
netname=adc4_spi_clk_o
}
N 87900 42500 90200 42500 4
{
T 88400 42540 5 10 1 1 0 0 1
netname=adc4_spi_dat_io
}
N 87900 42100 89600 42100 4
{
T 88400 42140 5 10 1 1 0 0 1
netname=adc4_fco_i_p
}
N 87900 41900 89600 41900 4
{
T 88400 41940 5 10 1 1 0 0 1
netname=adc4_fco_i_n
}
N 87900 41500 89600 41500 4
{
T 88400 41540 5 10 1 1 0 0 1
netname=adc4_dco_i_p
}
N 87900 41300 89600 41300 4
{
T 88400 41340 5 10 1 1 0 0 1
netname=adc4_dco_i_n
}
N 87900 40900 90200 40900 4
{
T 88400 40940 5 10 1 1 0 0 1
netname=adc4_spi_csb_o
}
N 80200 44500 81900 44500 4
{
T 80400 44550 5 10 1 1 0 0 1
netname=adc3_d1_i_p
}
N 80200 44300 81900 44300 4
{
T 80400 44350 5 10 1 1 0 0 1
netname=adc3_d1_i_n
}
N 80200 47500 81900 47500 4
{
T 80400 47550 5 10 1 1 0 0 1
netname=adc3_d2_i_p
}
N 80200 47300 81900 47300 4
{
T 80400 47350 5 10 1 1 0 0 1
netname=adc3_d2_i_n
}
N 80200 46900 81900 46900 4
{
T 80400 46950 5 10 1 1 0 0 1
netname=adc3_d3_i_p
}
N 80200 46700 81900 46700 4
{
T 80400 46750 5 10 1 1 0 0 1
netname=adc3_d3_i_n
}
N 80200 46300 81900 46300 4
{
T 80400 46350 5 10 1 1 0 0 1
netname=adc3_d4_i_p
}
N 80200 46100 81900 46100 4
{
T 80400 46150 5 10 1 1 0 0 1
netname=adc3_d4_i_n
}
N 80200 45700 81900 45700 4
{
T 80400 45750 5 10 1 1 0 0 1
netname=adc3_d5_i_p
}
N 80200 45500 81900 45500 4
{
T 80400 45550 5 10 1 1 0 0 1
netname=adc3_d5_i_n
}
N 80200 45100 81900 45100 4
{
T 80400 45150 5 10 1 1 0 0 1
netname=adc3_d6_i_p
}
N 80200 44900 81900 44900 4
{
T 80400 44950 5 10 1 1 0 0 1
netname=adc3_d6_i_n
}
N 80200 48100 81900 48100 4
{
T 80400 48150 5 10 1 1 0 0 1
netname=adc3_d7_i_p
}
N 80200 47900 81900 47900 4
{
T 80400 47950 5 10 1 1 0 0 1
netname=adc3_d7_i_n
}
N 80200 43900 81900 43900 4
{
T 80400 43950 5 10 1 1 0 0 1
netname=adc3_d8_i_p
}
N 80200 43700 81900 43700 4
{
T 80400 43750 5 10 1 1 0 0 1
netname=adc3_d8_i_n
}
N 80200 41500 81900 41500 4
{
T 80400 41540 5 10 1 1 0 0 1
netname=adc3_dco_i_p
}
N 80200 41300 81900 41300 4
{
T 80400 41340 5 10 1 1 0 0 1
netname=adc3_dco_i_n
}
N 80200 42100 81900 42100 4
{
T 80400 42140 5 10 1 1 0 0 1
netname=adc3_fco_i_p
}
N 80200 41900 81900 41900 4
{
T 80400 41940 5 10 1 1 0 0 1
netname=adc3_fco_i_n
}
N 79600 43300 81900 43300 4
{
T 80400 43340 5 10 1 1 0 0 1
netname=adc3_clk_o_p
}
N 79600 43100 81900 43100 4
{
T 80400 43140 5 10 1 1 0 0 1
netname=adc3_clk_o_n
}
N 79600 42700 81900 42700 4
{
T 80400 42740 5 10 1 1 0 0 1
netname=adc3_spi_clk_o
}
N 79600 42500 81900 42500 4
{
T 80400 42540 5 10 1 1 0 0 1
netname=adc3_spi_dat_io
}
N 79600 40900 81900 40900 4
{
T 80400 40940 5 10 1 1 0 0 1
netname=adc3_spi_csb_o
}
C 83500 39500 1 0 0 dgnd.sym
N 83600 39800 86400 39800 4
N 100800 48100 102500 48100 4
{
T 101300 48150 5 10 1 1 0 0 1
netname=adc6_d1_i_p
}
N 100800 47900 102500 47900 4
{
T 101300 47950 5 10 1 1 0 0 1
netname=adc6_d1_i_n
}
N 100800 47500 102500 47500 4
{
T 101300 47550 5 10 1 1 0 0 1
netname=adc6_d2_i_p
}
N 100800 47300 102500 47300 4
{
T 101300 47350 5 10 1 1 0 0 1
netname=adc6_d2_i_n
}
N 100800 46900 102500 46900 4
{
T 101300 46950 5 10 1 1 0 0 1
netname=adc6_d3_i_p
}
N 100800 46700 102500 46700 4
{
T 101300 46750 5 10 1 1 0 0 1
netname=adc6_d3_i_n
}
N 100800 46300 102500 46300 4
{
T 101300 46350 5 10 1 1 0 0 1
netname=adc6_d4_i_p
}
N 100800 46100 102500 46100 4
{
T 101300 46150 5 10 1 1 0 0 1
netname=adc6_d4_i_n
}
N 100800 45700 102500 45700 4
{
T 101300 45750 5 10 1 1 0 0 1
netname=adc6_d5_i_p
}
N 100800 45500 102500 45500 4
{
T 101300 45550 5 10 1 1 0 0 1
netname=adc6_d5_i_n
}
N 100800 45100 102500 45100 4
{
T 101300 45150 5 10 1 1 0 0 1
netname=adc6_d6_i_p
}
N 100800 44900 102500 44900 4
{
T 101300 44950 5 10 1 1 0 0 1
netname=adc6_d6_i_n
}
N 100800 44500 102500 44500 4
{
T 101300 44550 5 10 1 1 0 0 1
netname=adc6_d7_i_p
}
N 100800 44300 102500 44300 4
{
T 101300 44350 5 10 1 1 0 0 1
netname=adc6_d7_i_n
}
N 100800 43900 102500 43900 4
{
T 101300 43950 5 10 1 1 0 0 1
netname=adc6_d8_i_p
}
N 100800 43700 102500 43700 4
{
T 101300 43750 5 10 1 1 0 0 1
netname=adc6_d8_i_n
}
N 100800 43300 103100 43300 4
{
T 101300 43340 5 10 1 1 0 0 1
netname=adc6_clk_o_p
}
N 100800 43100 103100 43100 4
{
T 101300 43140 5 10 1 1 0 0 1
netname=adc6_clk_o_n
}
N 100800 42700 103100 42700 4
{
T 101300 42740 5 10 1 1 0 0 1
netname=adc6_spi_clk_o
}
N 100800 42500 103100 42500 4
{
T 101300 42540 5 10 1 1 0 0 1
netname=adc6_spi_dat_io
}
N 100800 42100 102500 42100 4
{
T 101300 42140 5 10 1 1 0 0 1
netname=adc6_fco_i_p
}
N 100800 41900 102500 41900 4
{
T 101300 41940 5 10 1 1 0 0 1
netname=adc6_fco_i_n
}
N 100800 41500 102500 41500 4
{
T 101300 41540 5 10 1 1 0 0 1
netname=adc6_dco_i_p
}
N 100800 41300 102500 41300 4
{
T 101300 41340 5 10 1 1 0 0 1
netname=adc6_dco_i_n
}
N 100800 40900 103100 40900 4
{
T 101300 40940 5 10 1 1 0 0 1
netname=adc6_spi_csb_o
}
N 93100 48100 94800 48100 4
{
T 93300 48150 5 10 1 1 0 0 1
netname=adc5_d1_i_p
}
N 93100 47900 94800 47900 4
{
T 93300 47950 5 10 1 1 0 0 1
netname=adc5_d1_i_n
}
N 93100 47500 94800 47500 4
{
T 93300 47550 5 10 1 1 0 0 1
netname=adc5_d2_i_p
}
N 93100 47300 94800 47300 4
{
T 93300 47350 5 10 1 1 0 0 1
netname=adc5_d2_i_n
}
N 93100 46900 94800 46900 4
{
T 93300 46950 5 10 1 1 0 0 1
netname=adc5_d3_i_p
}
N 93100 46700 94800 46700 4
{
T 93300 46750 5 10 1 1 0 0 1
netname=adc5_d3_i_n
}
N 93100 46300 94800 46300 4
{
T 93300 46350 5 10 1 1 0 0 1
netname=adc5_d4_i_p
}
N 93100 46100 94800 46100 4
{
T 93300 46150 5 10 1 1 0 0 1
netname=adc5_d4_i_n
}
N 93100 45700 94800 45700 4
{
T 93300 45750 5 10 1 1 0 0 1
netname=adc5_d5_i_p
}
N 93100 45500 94800 45500 4
{
T 93300 45550 5 10 1 1 0 0 1
netname=adc5_d5_i_n
}
N 93100 45100 94800 45100 4
{
T 93300 45150 5 10 1 1 0 0 1
netname=adc5_d6_i_p
}
N 93100 44900 94800 44900 4
{
T 93300 44950 5 10 1 1 0 0 1
netname=adc5_d6_i_n
}
N 93100 44500 94800 44500 4
{
T 93300 44550 5 10 1 1 0 0 1
netname=adc5_d7_i_p
}
N 93100 44300 94800 44300 4
{
T 93300 44350 5 10 1 1 0 0 1
netname=adc5_d7_i_n
}
N 93100 43900 94800 43900 4
{
T 93300 43950 5 10 1 1 0 0 1
netname=adc5_d8_i_p
}
N 93100 43700 94800 43700 4
{
T 93300 43750 5 10 1 1 0 0 1
netname=adc5_d8_i_n
}
N 93100 41500 94800 41500 4
{
T 93300 41540 5 10 1 1 0 0 1
netname=adc5_dco_i_p
}
N 93100 41300 94800 41300 4
{
T 93300 41340 5 10 1 1 0 0 1
netname=adc5_dco_i_n
}
N 93100 42100 94800 42100 4
{
T 93300 42140 5 10 1 1 0 0 1
netname=adc5_fco_i_p
}
N 93100 41900 94800 41900 4
{
T 93300 41940 5 10 1 1 0 0 1
netname=adc5_fco_i_n
}
N 92500 43300 94800 43300 4
{
T 93300 43340 5 10 1 1 0 0 1
netname=adc5_clk_o_p
}
N 92500 43100 94800 43100 4
{
T 93300 43140 5 10 1 1 0 0 1
netname=adc5_clk_o_n
}
N 92500 42700 94800 42700 4
{
T 93300 42740 5 10 1 1 0 0 1
netname=adc5_spi_clk_o
}
N 92500 42500 94800 42500 4
{
T 93300 42540 5 10 1 1 0 0 1
netname=adc5_spi_dat_io
}
N 92500 40900 94800 40900 4
{
T 93300 40940 5 10 1 1 0 0 1
netname=adc5_spi_csb_o
}
C 96800 39500 1 0 0 dgnd.sym
N 96900 39800 98900 39800 4
C 94700 39800 1 0 0 XC7K160T_bank32.sym
{
T 97800 49350 5 15 1 1 0 3 1
device=XC7K160T
T 100500 49400 5 10 1 1 0 0 1
refdes=U1
T 100500 49200 5 10 1 1 0 0 1
footprint=FBG676.fp
}
C 66400 47800 1 0 0 input-1.sym
{
T 66700 47900 5 10 1 1 0 4 1
value=1
}
C 66400 48000 1 0 0 input-1.sym
{
T 66700 48100 5 10 1 1 0 4 1
value=1
}
C 66400 47200 1 0 0 input-1.sym
{
T 66700 47300 5 10 1 1 0 4 1
value=1
}
C 66400 47400 1 0 0 input-1.sym
{
T 66700 47500 5 10 1 1 0 4 1
value=1
}
C 66400 46600 1 0 0 input-1.sym
{
T 66700 46700 5 10 1 1 0 4 1
value=1
}
C 66400 46800 1 0 0 input-1.sym
{
T 66700 46900 5 10 1 1 0 4 1
value=1
}
C 66400 46000 1 0 0 input-1.sym
{
T 66700 46100 5 10 1 1 0 4 1
value=1
}
C 66400 46200 1 0 0 input-1.sym
{
T 66700 46300 5 10 1 1 0 4 1
value=1
}
C 66400 45600 1 0 0 input-1.sym
{
T 66700 45700 5 10 1 1 0 4 1
value=1
}
C 66400 45400 1 0 0 input-1.sym
{
T 66700 45500 5 10 1 1 0 4 1
value=1
}
C 66400 44800 1 0 0 input-1.sym
{
T 66700 44900 5 10 1 1 0 4 1
value=1
}
C 66400 45000 1 0 0 input-1.sym
{
T 66700 45100 5 10 1 1 0 4 1
value=1
}
C 66400 44200 1 0 0 input-1.sym
{
T 66700 44300 5 10 1 1 0 4 1
value=1
}
C 66400 44400 1 0 0 input-1.sym
{
T 66700 44500 5 10 1 1 0 4 1
value=1
}
C 66400 43600 1 0 0 input-1.sym
{
T 66700 43700 5 10 1 1 0 4 1
value=1
}
C 66400 43800 1 0 0 input-1.sym
{
T 66700 43900 5 10 1 1 0 4 1
value=1
}
C 66400 41800 1 0 0 input-1.sym
{
T 66700 41900 5 10 1 1 0 4 1
value=1
}
C 66400 42000 1 0 0 input-1.sym
{
T 66700 42100 5 10 1 1 0 4 1
value=1
}
C 66400 41200 1 0 0 input-1.sym
{
T 66700 41300 5 10 1 1 0 4 1
value=1
}
C 66400 41400 1 0 0 input-1.sym
{
T 66700 41500 5 10 1 1 0 4 1
value=1
}
C 66600 43200 1 0 1 output-1.sym
{
T 66100 43300 5 10 1 1 0 4 1
value=1
}
C 66600 40800 1 0 1 output-1.sym
{
T 66100 40900 5 10 1 1 0 4 1
value=1
}
C 66600 43000 1 0 1 output-1.sym
{
T 66100 43100 5 10 1 1 0 4 1
value=1
}
C 66600 42400 1 0 1 output-1.sym
{
T 66100 42500 5 10 1 1 0 4 1
value=1
}
C 66600 42600 1 0 1 output-1.sym
{
T 66100 42700 5 10 1 1 0 4 1
value=1
}
C 67500 50900 1 0 0 input-1.sym
{
T 67800 51000 5 10 1 1 0 4 1
value=13
}
C 68100 51000 1 0 0 dvcc.sym
{
T 68350 51320 5 10 1 1 0 3 1
net=VCCO_1P8:1
}
N 68300 51000 72800 51000 4
C 68500 50100 1 90 0 capacitor.sym
{
T 67800 50400 5 10 0 0 90 0 1
device=CAPACITOR
T 68200 50700 5 10 1 1 180 2 1
refdes=C800
T 68200 50400 5 10 1 1 180 0 1
value=100.0u
T 68500 50000 5 10 1 1 90 0 1
footprint=1210
}
C 68200 49800 1 0 0 dgnd.sym
C 80500 50900 1 0 0 input-1.sym
{
T 80800 51000 5 10 1 1 0 4 1
value=13
}
C 81100 51000 1 0 0 dvcc.sym
{
T 81350 51320 5 10 1 1 0 3 1
net=VCCO_1P8:1
}
C 81500 50100 1 90 0 capacitor.sym
{
T 80800 50400 5 10 0 0 90 0 1
device=CAPACITOR
T 81200 50700 5 10 1 1 180 2 1
refdes=C801
T 81200 50400 5 10 1 1 180 0 1
value=100.0u
T 81500 50000 5 10 1 1 90 0 1
footprint=1210
}
C 81200 49800 1 0 0 dgnd.sym
N 81300 51000 85800 51000 4
C 93400 50900 1 0 0 input-1.sym
{
T 93700 51000 5 10 1 1 0 4 1
value=13
}
C 94000 51000 1 0 0 dvcc.sym
{
T 94250 51320 5 10 1 1 0 3 1
net=VCCO_1P8:1
}
C 94400 50100 1 90 0 capacitor.sym
{
T 93700 50400 5 10 0 0 90 0 1
device=CAPACITOR
T 94100 50700 5 10 1 1 180 2 1
refdes=C802
T 94100 50400 5 10 1 1 180 0 1
value=100.0u
T 94400 50000 5 10 1 1 90 0 1
footprint=1210
}
C 94100 49800 1 0 0 dgnd.sym
N 94200 51000 98700 51000 4
C 77200 42600 1 0 0 output-1.sym
{
T 77700 42700 5 10 1 1 0 4 1
value=2
}
C 77200 40800 1 0 0 output-1.sym
{
T 77700 40900 5 10 1 1 0 4 1
value=2
}
C 77200 42400 1 0 0 output-1.sym
{
T 77700 42500 5 10 1 1 0 4 1
value=2
}
C 77200 43200 1 0 0 output-1.sym
{
T 77700 43300 5 10 1 1 0 4 1
value=2
}
C 77200 43000 1 0 0 output-1.sym
{
T 77700 43100 5 10 1 1 0 4 1
value=2
}
C 77400 48000 1 0 1 input-1.sym
{
T 77100 48100 5 10 1 1 0 4 1
value=2
}
C 77400 47800 1 0 1 input-1.sym
{
T 77100 47900 5 10 1 1 0 4 1
value=2
}
C 77400 47400 1 0 1 input-1.sym
{
T 77100 47500 5 10 1 1 0 4 1
value=2
}
C 77400 47200 1 0 1 input-1.sym
{
T 77100 47300 5 10 1 1 0 4 1
value=2
}
C 77400 46800 1 0 1 input-1.sym
{
T 77100 46900 5 10 1 1 0 4 1
value=2
}
C 77400 46600 1 0 1 input-1.sym
{
T 77100 46700 5 10 1 1 0 4 1
value=2
}
C 77400 46200 1 0 1 input-1.sym
{
T 77100 46300 5 10 1 1 0 4 1
value=2
}
C 77400 46000 1 0 1 input-1.sym
{
T 77100 46100 5 10 1 1 0 4 1
value=2
}
C 77400 45600 1 0 1 input-1.sym
{
T 77100 45700 5 10 1 1 0 4 1
value=2
}
C 77400 45400 1 0 1 input-1.sym
{
T 77100 45500 5 10 1 1 0 4 1
value=2
}
C 77400 45000 1 0 1 input-1.sym
{
T 77100 45100 5 10 1 1 0 4 1
value=2
}
C 77400 44800 1 0 1 input-1.sym
{
T 77100 44900 5 10 1 1 0 4 1
value=2
}
C 77400 44400 1 0 1 input-1.sym
{
T 77100 44500 5 10 1 1 0 4 1
value=2
}
C 77400 44200 1 0 1 input-1.sym
{
T 77100 44300 5 10 1 1 0 4 1
value=2
}
C 77400 43800 1 0 1 input-1.sym
{
T 77100 43900 5 10 1 1 0 4 1
value=2
}
C 77400 43600 1 0 1 input-1.sym
{
T 77100 43700 5 10 1 1 0 4 1
value=2
}
C 77400 42000 1 0 1 input-1.sym
{
T 77100 42100 5 10 1 1 0 4 1
value=2
}
C 77400 41800 1 0 1 input-1.sym
{
T 77100 41900 5 10 1 1 0 4 1
value=2
}
C 77400 41400 1 0 1 input-1.sym
{
T 77100 41500 5 10 1 1 0 4 1
value=2
}
C 77400 41200 1 0 1 input-1.sym
{
T 77100 41300 5 10 1 1 0 4 1
value=2
}
C 79400 44200 1 0 0 input-1.sym
{
T 79700 44300 5 10 1 1 0 4 1
value=3
}
C 79400 44400 1 0 0 input-1.sym
{
T 79700 44500 5 10 1 1 0 4 1
value=3
}
C 79400 47200 1 0 0 input-1.sym
{
T 79700 47300 5 10 1 1 0 4 1
value=3
}
C 79400 47400 1 0 0 input-1.sym
{
T 79700 47500 5 10 1 1 0 4 1
value=3
}
C 79400 46600 1 0 0 input-1.sym
{
T 79700 46700 5 10 1 1 0 4 1
value=3
}
C 79400 46800 1 0 0 input-1.sym
{
T 79700 46900 5 10 1 1 0 4 1
value=3
}
C 79400 46000 1 0 0 input-1.sym
{
T 79700 46100 5 10 1 1 0 4 1
value=3
}
C 79400 46200 1 0 0 input-1.sym
{
T 79700 46300 5 10 1 1 0 4 1
value=3
}
C 79400 45600 1 0 0 input-1.sym
{
T 79700 45700 5 10 1 1 0 4 1
value=3
}
C 79400 45400 1 0 0 input-1.sym
{
T 79700 45500 5 10 1 1 0 4 1
value=3
}
C 79400 44800 1 0 0 input-1.sym
{
T 79700 44900 5 10 1 1 0 4 1
value=3
}
C 79400 45000 1 0 0 input-1.sym
{
T 79700 45100 5 10 1 1 0 4 1
value=3
}
C 79400 47800 1 0 0 input-1.sym
{
T 79700 47900 5 10 1 1 0 4 1
value=3
}
C 79400 48000 1 0 0 input-1.sym
{
T 79700 48100 5 10 1 1 0 4 1
value=3
}
C 79400 43600 1 0 0 input-1.sym
{
T 79700 43700 5 10 1 1 0 4 1
value=3
}
C 79400 43800 1 0 0 input-1.sym
{
T 79700 43900 5 10 1 1 0 4 1
value=3
}
C 79400 41800 1 0 0 input-1.sym
{
T 79700 41900 5 10 1 1 0 4 1
value=3
}
C 79400 42000 1 0 0 input-1.sym
{
T 79700 42100 5 10 1 1 0 4 1
value=3
}
C 79400 41200 1 0 0 input-1.sym
{
T 79700 41300 5 10 1 1 0 4 1
value=3
}
C 79400 41400 1 0 0 input-1.sym
{
T 79700 41500 5 10 1 1 0 4 1
value=3
}
C 79600 43200 1 0 1 output-1.sym
{
T 79100 43300 5 10 1 1 0 4 1
value=3
}
C 79600 40800 1 0 1 output-1.sym
{
T 79100 40900 5 10 1 1 0 4 1
value=3
}
C 79600 43000 1 0 1 output-1.sym
{
T 79100 43100 5 10 1 1 0 4 1
value=3
}
C 79600 42400 1 0 1 output-1.sym
{
T 79100 42500 5 10 1 1 0 4 1
value=3
}
C 79600 42600 1 0 1 output-1.sym
{
T 79100 42700 5 10 1 1 0 4 1
value=3
}
C 92300 47800 1 0 0 input-1.sym
{
T 92600 47900 5 10 1 1 0 4 1
value=5
}
C 92300 48000 1 0 0 input-1.sym
{
T 92600 48100 5 10 1 1 0 4 1
value=5
}
C 92300 47200 1 0 0 input-1.sym
{
T 92600 47300 5 10 1 1 0 4 1
value=5
}
C 92300 47400 1 0 0 input-1.sym
{
T 92600 47500 5 10 1 1 0 4 1
value=5
}
C 92300 46600 1 0 0 input-1.sym
{
T 92600 46700 5 10 1 1 0 4 1
value=5
}
C 92300 46800 1 0 0 input-1.sym
{
T 92600 46900 5 10 1 1 0 4 1
value=5
}
C 92300 46000 1 0 0 input-1.sym
{
T 92600 46100 5 10 1 1 0 4 1
value=5
}
C 92300 46200 1 0 0 input-1.sym
{
T 92600 46300 5 10 1 1 0 4 1
value=5
}
C 92300 45600 1 0 0 input-1.sym
{
T 92600 45700 5 10 1 1 0 4 1
value=5
}
C 92300 45400 1 0 0 input-1.sym
{
T 92600 45500 5 10 1 1 0 4 1
value=5
}
C 92300 44800 1 0 0 input-1.sym
{
T 92600 44900 5 10 1 1 0 4 1
value=5
}
C 92300 45000 1 0 0 input-1.sym
{
T 92600 45100 5 10 1 1 0 4 1
value=5
}
C 92300 44200 1 0 0 input-1.sym
{
T 92600 44300 5 10 1 1 0 4 1
value=5
}
C 92300 44400 1 0 0 input-1.sym
{
T 92600 44500 5 10 1 1 0 4 1
value=5
}
C 92300 43600 1 0 0 input-1.sym
{
T 92600 43700 5 10 1 1 0 4 1
value=5
}
C 92300 43800 1 0 0 input-1.sym
{
T 92600 43900 5 10 1 1 0 4 1
value=5
}
C 92300 41800 1 0 0 input-1.sym
{
T 92600 41900 5 10 1 1 0 4 1
value=5
}
C 92300 42000 1 0 0 input-1.sym
{
T 92600 42100 5 10 1 1 0 4 1
value=5
}
C 92300 41200 1 0 0 input-1.sym
{
T 92600 41300 5 10 1 1 0 4 1
value=5
}
C 92300 41400 1 0 0 input-1.sym
{
T 92600 41500 5 10 1 1 0 4 1
value=5
}
C 92500 43200 1 0 1 output-1.sym
{
T 92000 43300 5 10 1 1 0 4 1
value=5
}
C 92500 40800 1 0 1 output-1.sym
{
T 92000 40900 5 10 1 1 0 4 1
value=5
}
C 92500 43000 1 0 1 output-1.sym
{
T 92000 43100 5 10 1 1 0 4 1
value=5
}
C 92500 42400 1 0 1 output-1.sym
{
T 92000 42500 5 10 1 1 0 4 1
value=5
}
C 92500 42600 1 0 1 output-1.sym
{
T 92000 42700 5 10 1 1 0 4 1
value=5
}
C 90200 42600 1 0 0 output-1.sym
{
T 90700 42700 5 10 1 1 0 4 1
value=4
}
C 90200 40800 1 0 0 output-1.sym
{
T 90700 40900 5 10 1 1 0 4 1
value=4
}
C 90200 42400 1 0 0 output-1.sym
{
T 90700 42500 5 10 1 1 0 4 1
value=4
}
C 90200 43200 1 0 0 output-1.sym
{
T 90700 43300 5 10 1 1 0 4 1
value=4
}
C 90200 43000 1 0 0 output-1.sym
{
T 90700 43100 5 10 1 1 0 4 1
value=4
}
C 90400 48000 1 0 1 input-1.sym
{
T 90100 48100 5 10 1 1 0 4 1
value=4
}
C 90400 47800 1 0 1 input-1.sym
{
T 90100 47900 5 10 1 1 0 4 1
value=4
}
C 90400 47400 1 0 1 input-1.sym
{
T 90100 47500 5 10 1 1 0 4 1
value=4
}
C 90400 47200 1 0 1 input-1.sym
{
T 90100 47300 5 10 1 1 0 4 1
value=4
}
C 90400 46800 1 0 1 input-1.sym
{
T 90100 46900 5 10 1 1 0 4 1
value=4
}
C 90400 46600 1 0 1 input-1.sym
{
T 90100 46700 5 10 1 1 0 4 1
value=4
}
C 90400 46200 1 0 1 input-1.sym
{
T 90100 46300 5 10 1 1 0 4 1
value=4
}
C 90400 46000 1 0 1 input-1.sym
{
T 90100 46100 5 10 1 1 0 4 1
value=4
}
C 90400 45600 1 0 1 input-1.sym
{
T 90100 45700 5 10 1 1 0 4 1
value=4
}
C 90400 45400 1 0 1 input-1.sym
{
T 90100 45500 5 10 1 1 0 4 1
value=4
}
C 90400 45000 1 0 1 input-1.sym
{
T 90100 45100 5 10 1 1 0 4 1
value=4
}
C 90400 44800 1 0 1 input-1.sym
{
T 90100 44900 5 10 1 1 0 4 1
value=4
}
C 90400 44400 1 0 1 input-1.sym
{
T 90100 44500 5 10 1 1 0 4 1
value=4
}
C 90400 44200 1 0 1 input-1.sym
{
T 90100 44300 5 10 1 1 0 4 1
value=4
}
C 90400 43800 1 0 1 input-1.sym
{
T 90100 43900 5 10 1 1 0 4 1
value=4
}
C 90400 43600 1 0 1 input-1.sym
{
T 90100 43700 5 10 1 1 0 4 1
value=4
}
C 90400 42000 1 0 1 input-1.sym
{
T 90100 42100 5 10 1 1 0 4 1
value=4
}
C 90400 41800 1 0 1 input-1.sym
{
T 90100 41900 5 10 1 1 0 4 1
value=4
}
C 90400 41400 1 0 1 input-1.sym
{
T 90100 41500 5 10 1 1 0 4 1
value=4
}
C 90400 41200 1 0 1 input-1.sym
{
T 90100 41300 5 10 1 1 0 4 1
value=4
}
C 103100 42600 1 0 0 output-1.sym
{
T 103600 42700 5 10 1 1 0 4 1
value=6
}
C 103100 40800 1 0 0 output-1.sym
{
T 103600 40900 5 10 1 1 0 4 1
value=6
}
C 103100 42400 1 0 0 output-1.sym
{
T 103600 42500 5 10 1 1 0 4 1
value=6
}
C 103100 43200 1 0 0 output-1.sym
{
T 103600 43300 5 10 1 1 0 4 1
value=6
}
C 103100 43000 1 0 0 output-1.sym
{
T 103600 43100 5 10 1 1 0 4 1
value=6
}
C 103300 48000 1 0 1 input-1.sym
{
T 103000 48100 5 10 1 1 0 4 1
value=6
}
C 103300 47800 1 0 1 input-1.sym
{
T 103000 47900 5 10 1 1 0 4 1
value=6
}
C 103300 47400 1 0 1 input-1.sym
{
T 103000 47500 5 10 1 1 0 4 1
value=6
}
C 103300 47200 1 0 1 input-1.sym
{
T 103000 47300 5 10 1 1 0 4 1
value=6
}
C 103300 46800 1 0 1 input-1.sym
{
T 103000 46900 5 10 1 1 0 4 1
value=6
}
C 103300 46600 1 0 1 input-1.sym
{
T 103000 46700 5 10 1 1 0 4 1
value=6
}
C 103300 46200 1 0 1 input-1.sym
{
T 103000 46300 5 10 1 1 0 4 1
value=6
}
C 103300 46000 1 0 1 input-1.sym
{
T 103000 46100 5 10 1 1 0 4 1
value=6
}
C 103300 45600 1 0 1 input-1.sym
{
T 103000 45700 5 10 1 1 0 4 1
value=6
}
C 103300 45400 1 0 1 input-1.sym
{
T 103000 45500 5 10 1 1 0 4 1
value=6
}
C 103300 45000 1 0 1 input-1.sym
{
T 103000 45100 5 10 1 1 0 4 1
value=6
}
C 103300 44800 1 0 1 input-1.sym
{
T 103000 44900 5 10 1 1 0 4 1
value=6
}
C 103300 44400 1 0 1 input-1.sym
{
T 103000 44500 5 10 1 1 0 4 1
value=6
}
C 103300 44200 1 0 1 input-1.sym
{
T 103000 44300 5 10 1 1 0 4 1
value=6
}
C 103300 43800 1 0 1 input-1.sym
{
T 103000 43900 5 10 1 1 0 4 1
value=6
}
C 103300 43600 1 0 1 input-1.sym
{
T 103000 43700 5 10 1 1 0 4 1
value=6
}
C 103300 42000 1 0 1 input-1.sym
{
T 103000 42100 5 10 1 1 0 4 1
value=6
}
C 103300 41800 1 0 1 input-1.sym
{
T 103000 41900 5 10 1 1 0 4 1
value=6
}
C 103300 41400 1 0 1 input-1.sym
{
T 103000 41500 5 10 1 1 0 4 1
value=6
}
C 103300 41200 1 0 1 input-1.sym
{
T 103000 41300 5 10 1 1 0 4 1
value=6
}
