v 20130925 2
C 69700 57200 1 0 1 connector-PCIE6P.sym
{
T 69250 59400 5 10 0 0 0 6 1
device=HEADER50
T 68700 58800 5 10 1 1 0 0 1
refdes=J1300
T 70505 57300 5 10 1 1 0 6 1
footprint=POW6P_45732-0001.fp
}
C 67100 57400 1 0 0 dgnd.sym
C 56600 73200 1 0 0 voltage_reg-TPS84X2X.sym
{
T 57900 77650 5 16 1 1 0 4 1
device=TPS84621
T 59000 77600 5 10 1 1 0 0 1
refdes=U1310
T 59000 77400 5 10 1 1 0 0 1
footprint=RUQ47_3EPT.fp
}
N 56700 73200 58700 73200 4
C 57000 72900 1 0 0 dgnd.sym
N 57300 78600 58500 78600 4
N 55100 78400 56500 78400 4
N 56500 76000 56500 78400 4
N 56500 76000 56700 76000 4
N 56700 76400 56500 76400 4
N 56700 76600 56500 76600 4
N 59100 74600 59700 74600 4
C 59700 74300 1 0 0 resistor.sym
{
T 60000 74700 5 10 0 0 0 0 1
device=RESISTOR
T 60000 74800 5 10 1 1 0 6 1
refdes=R1310
T 60200 74800 5 10 1 1 0 0 1
value=2.15K
T 59900 74300 5 10 1 1 0 0 1
footprint=0603
}
N 59100 75400 59400 75400 4
N 59400 75400 59400 76800 4
N 59100 76800 62600 76800 4
N 59100 75600 59400 75600 4
N 59100 75800 59400 75800 4
N 59100 76000 59400 76000 4
N 59100 76200 59400 76200 4
N 59100 76400 59400 76400 4
N 59100 76600 59400 76600 4
N 59100 75000 63200 75000 4
C 60900 74500 1 90 0 dgnd.sym
C 55400 75300 1 0 0 resistor.sym
{
T 55700 75700 5 10 0 0 0 0 1
device=RESISTOR
T 55700 75800 5 10 1 1 0 6 1
refdes=R1311
T 55900 75800 5 10 1 1 0 0 1
value=261K
T 55600 75300 5 10 1 1 0 0 1
footprint=0603
}
N 56700 75600 56300 75600 4
C 55100 75700 1 270 0 dgnd.sym
T 59500 75100 9 10 1 0 0 0 2
This Resistor Sets 
Output Voltage
T 54400 75900 9 10 1 0 0 0 3
This Resistor Sets 
Switching Frequency
430 KHz
N 56700 76800 56500 76800 4
C 55400 74400 1 0 0 capacitor.sym
{
T 55700 75100 5 10 0 0 0 0 1
device=CAPACITOR
T 55700 74700 5 10 1 1 180 2 1
refdes=C1310
T 56000 74700 5 10 1 1 0 0 1
value=22.0n
T 56000 74400 5 10 1 1 0 0 1
footprint=0603
}
N 56300 74600 56700 74600 4
C 55100 74700 1 270 0 dgnd.sym
T 54900 73900 9 10 1 0 0 0 2
This Capacitor Sets 
Slow Start Time
N 56700 74200 56700 73200 4
T 53800 73300 9 10 1 0 0 0 2
Disconnecting STSEL from GND
Disables Slow-Start feature
N 56700 75200 56700 75000 4
N 67200 58100 68100 58100 4
C 70200 58700 1 0 0 dvcc.sym
{
T 70450 59020 5 10 1 1 0 3 1
net=VUNREG_12P0:1
}
N 70400 58100 70400 58700 4
N 66300 58500 68100 58500 4
N 67200 57700 67200 58100 4
C 68000 57400 1 0 0 agnd.sym
{
T 68100 57310 5 8 1 1 0 5 1
net=AGND_ADC:1
}
C 71100 58300 1 0 0 dvcc.sym
{
T 71650 58620 5 10 1 1 0 3 1
net=VUNREG_ADC_12P0:1
}
N 71300 58300 71300 57700 4
N 71300 57700 69500 57700 4
C 62400 76800 1 0 0 dvcc.sym
{
T 62650 77120 5 10 1 1 0 3 1
net=VCCINT_1P0:1
}
C 76000 56900 1 0 0 cvstitleblock-1.sym
{
T 76600 57300 5 10 1 1 0 0 1
date=2013-08-05
T 80600 57300 5 10 1 1 0 0 1
rev=0.1
T 80600 57000 5 10 1 1 0 0 1
auth=Alexei Dorofeev
T 76800 57600 5 10 1 1 0 0 1
fname=drift_accumulator_13_power1.sch
T 79800 58000 5 14 1 1 0 4 1
title=Drift Accumulator: Switching Power Regulators
T 76900 57000 5 10 1 1 0 0 1
page_number=13
T 78300 57000 5 10 1 1 0 0 1
pages=16
}
N 59100 74200 67600 74200 4
{
T 60500 74250 5 10 1 1 0 0 1
netname=POW_VCCINT_PWRGD
}
C 67500 72200 1 0 0 voltage_reg-TPS84X2X.sym
{
T 68800 76650 5 16 1 1 0 4 1
device=TPS84621
T 69900 76600 5 10 1 1 0 0 1
refdes=U1320
T 69900 76400 5 10 1 1 0 0 1
footprint=RUQ47_3EPT.fp
}
N 67600 72200 69600 72200 4
N 68200 77600 69400 77600 4
N 66000 77400 67400 77400 4
N 67400 75000 67400 77400 4
N 67400 75000 67600 75000 4
N 67600 75400 67400 75400 4
N 67600 75600 67400 75600 4
N 70000 73600 70600 73600 4
C 70600 73300 1 0 0 resistor.sym
{
T 70900 73700 5 10 0 0 0 0 1
device=RESISTOR
T 70900 73800 5 10 1 1 0 6 1
refdes=R1320
T 71100 73800 5 10 1 1 0 0 1
value=2.15K
T 70800 73300 5 10 1 1 0 0 1
footprint=0603
}
N 70000 74400 70300 74400 4
N 70300 74400 70300 75800 4
N 70000 75800 73500 75800 4
N 70000 74600 70300 74600 4
N 70000 74800 70300 74800 4
N 70000 75000 70300 75000 4
N 70000 75200 70300 75200 4
N 70000 75400 70300 75400 4
N 70000 75600 70300 75600 4
N 70000 74000 74200 74000 4
N 74200 74000 74200 75400 4
C 66300 74300 1 0 0 resistor.sym
{
T 66600 74700 5 10 0 0 0 0 1
device=RESISTOR
T 66600 74800 5 10 1 1 0 6 1
refdes=R1321
T 66800 74800 5 10 1 1 0 0 1
value=261K
T 66500 74300 5 10 1 1 0 0 1
footprint=0603
}
N 67600 74600 67200 74600 4
N 67600 75800 67400 75800 4
C 66300 73400 1 0 0 capacitor.sym
{
T 66600 74100 5 10 0 0 0 0 1
device=CAPACITOR
T 66600 73700 5 10 1 1 180 2 1
refdes=C1320
T 66900 73700 5 10 1 1 0 0 1
value=22.0n
T 66900 73400 5 10 1 1 0 0 1
footprint=0603
}
N 67200 73600 67600 73600 4
N 67600 73200 67600 72200 4
N 67600 74200 67600 74000 4
N 70000 73200 79100 73200 4
{
T 72800 73250 5 10 1 1 0 0 1
netname=POW_VMGTAVCC_PWRGD
}
T 70500 74100 9 10 1 0 0 0 2
This Resistor Sets 
Output Voltage
T 65200 74900 9 10 1 0 0 0 3
This Resistor Sets 
Switching Frequency
430 KHz
T 65800 72900 9 10 1 0 0 0 2
This Capacitor Sets 
Slow Start Time
T 64800 72100 9 10 1 0 0 0 2
Disconnecting STSEL from GND
Disables Slow-Start feature
C 73300 75800 1 0 0 dvcc.sym
{
T 73550 76120 5 10 1 1 0 3 1
net=VMGTAVCC_1P0:1
}
T 68200 70800 9 40 1 0 0 0 1
MGTX Power Chain
C 79000 71200 1 0 0 voltage_reg-TPS84X2X.sym
{
T 80300 75650 5 16 1 1 0 4 1
device=TPS84621
T 81400 75600 5 10 1 1 0 0 1
refdes=U1330
T 81400 75400 5 10 1 1 0 0 1
footprint=RUQ47_3EPT.fp
}
N 79100 71200 81100 71200 4
N 79700 76600 80900 76600 4
N 77500 76400 78900 76400 4
N 78900 74000 78900 76400 4
N 78900 74000 79100 74000 4
N 79100 74400 78900 74400 4
N 79100 74600 78900 74600 4
N 81500 72600 82100 72600 4
C 82100 72300 1 0 0 resistor.sym
{
T 82400 72700 5 10 0 0 0 0 1
device=RESISTOR
T 82400 72800 5 10 1 1 0 6 1
refdes=R1330
T 82600 72800 5 10 1 1 0 0 1
value=1.43K
T 82300 72300 5 10 1 1 0 0 1
footprint=0603
}
N 81500 73400 81800 73400 4
N 81800 73400 81800 74800 4
N 81500 74800 85000 74800 4
N 81500 73600 81800 73600 4
N 81500 73800 81800 73800 4
N 81500 74000 81800 74000 4
N 81500 74200 81800 74200 4
N 81500 74400 81800 74400 4
N 81500 74600 81800 74600 4
N 81500 73000 85800 73000 4
C 77800 73300 1 0 0 resistor.sym
{
T 78100 73700 5 10 0 0 0 0 1
device=RESISTOR
T 78100 73800 5 10 1 1 0 6 1
refdes=R1331
T 78300 73800 5 10 1 1 0 0 1
value=200K
T 78000 73300 5 10 1 1 0 0 1
footprint=0603
}
N 79100 73600 78700 73600 4
N 79100 74800 78900 74800 4
C 77800 72400 1 0 0 capacitor.sym
{
T 78100 73100 5 10 0 0 0 0 1
device=CAPACITOR
T 78100 72700 5 10 1 1 180 2 1
refdes=C1330
T 78400 72700 5 10 1 1 0 0 1
value=22.0n
T 78400 72400 5 10 1 1 0 0 1
footprint=0603
}
N 78700 72600 79100 72600 4
N 79100 72200 79100 71200 4
N 79100 73200 79100 73000 4
T 82000 73100 9 10 1 0 0 0 2
This Resistor Sets 
Output Voltage
T 76700 73900 9 10 1 0 0 0 3
This Resistor Sets 
Switching Frequency
480 KHz
T 77300 71900 9 10 1 0 0 0 2
This Capacitor Sets 
Slow Start Time
T 76300 71100 9 10 1 0 0 0 2
Disconnecting STSEL from GND
Disables Slow-Start feature
C 84800 74800 1 0 0 dvcc.sym
{
T 85050 75120 5 10 1 1 0 3 1
net=VMGTAVTT_1P2:1
}
C 67500 64000 1 0 0 voltage_reg-TPS84X2X.sym
{
T 68800 68450 5 16 1 1 0 4 1
device=TPS84621
T 69900 68400 5 10 1 1 0 0 1
refdes=U1340
T 69900 68200 5 10 1 1 0 0 1
footprint=RUQ47_3EPT.fp
}
N 67600 64000 69600 64000 4
C 67900 63700 1 0 0 dgnd.sym
N 68200 69400 69400 69400 4
N 66000 69200 67400 69200 4
N 67400 66800 67400 69200 4
N 67400 66800 67600 66800 4
N 67600 67200 67400 67200 4
N 67600 67400 67400 67400 4
N 70000 65400 70600 65400 4
C 70600 65100 1 0 0 resistor.sym
{
T 70900 65500 5 10 0 0 0 0 1
device=RESISTOR
T 70900 65600 5 10 1 1 0 6 1
refdes=R1340
T 71100 65600 5 10 1 1 0 0 1
value=715
T 70800 65100 5 10 1 1 0 0 1
footprint=0603
}
N 70000 66200 70300 66200 4
N 70300 66200 70300 67600 4
N 70000 66400 70300 66400 4
N 70000 66600 70300 66600 4
N 70000 66800 70300 66800 4
N 70000 67000 70300 67000 4
N 70000 67200 70300 67200 4
N 70000 67400 70300 67400 4
C 71800 65300 1 90 0 dgnd.sym
C 66300 66100 1 0 0 resistor.sym
{
T 66600 66500 5 10 0 0 0 0 1
device=RESISTOR
T 66600 66600 5 10 1 1 0 6 1
refdes=R1341
T 66800 66600 5 10 1 1 0 0 1
value=200K
T 66500 66100 5 10 1 1 0 0 1
footprint=0603
}
N 67600 66400 67200 66400 4
C 66000 66500 1 270 0 dgnd.sym
N 67600 67600 67400 67600 4
C 66300 65200 1 0 0 capacitor.sym
{
T 66600 65900 5 10 0 0 0 0 1
device=CAPACITOR
T 66600 65500 5 10 1 1 180 2 1
refdes=C1340
T 66900 65500 5 10 1 1 0 0 1
value=22.0n
T 66900 65200 5 10 1 1 0 0 1
footprint=0603
}
N 67200 65400 67600 65400 4
C 66000 65500 1 270 0 dgnd.sym
N 67600 65000 67600 64000 4
N 67600 66000 67600 65800 4
N 70000 65000 79000 65000 4
{
T 71400 65050 5 10 1 1 0 0 1
netname=POW_VCCO_1P8_PWRGD
}
N 64000 66000 67600 66000 4
C 78900 63000 1 0 0 voltage_reg-TPS84X2X.sym
{
T 80200 67450 5 16 1 1 0 4 1
device=TPS84621
T 81300 67400 5 10 1 1 0 0 1
refdes=U1350
T 81300 67200 5 10 1 1 0 0 1
footprint=RUQ47_3EPT.fp
}
N 79000 63000 81000 63000 4
C 79300 62700 1 0 0 dgnd.sym
N 79600 68400 80800 68400 4
N 77400 68200 78800 68200 4
N 78800 65800 78800 68200 4
N 78800 65800 79000 65800 4
N 79000 66200 78800 66200 4
N 79000 66400 78800 66400 4
N 81400 64400 82000 64400 4
C 82000 64100 1 0 0 resistor.sym
{
T 82300 64500 5 10 0 0 0 0 1
device=RESISTOR
T 82300 64600 5 10 1 1 0 6 1
refdes=R1350
T 82500 64600 5 10 1 1 0 0 1
value=316
T 82200 64100 5 10 1 1 0 0 1
footprint=0603
}
N 81400 65200 81700 65200 4
N 81700 65200 81700 66600 4
N 81400 65400 81700 65400 4
N 81400 65600 81700 65600 4
N 81400 65800 81700 65800 4
N 81400 66000 81700 66000 4
N 81400 66200 81700 66200 4
N 81400 66400 81700 66400 4
C 83200 64300 1 90 0 dgnd.sym
C 77700 65100 1 0 0 resistor.sym
{
T 78000 65500 5 10 0 0 0 0 1
device=RESISTOR
T 78000 65600 5 10 1 1 0 6 1
refdes=R1351
T 78200 65600 5 10 1 1 0 0 1
value=121K
T 77900 65100 5 10 1 1 0 0 1
footprint=0603
}
N 79000 65400 78600 65400 4
C 77400 65500 1 270 0 dgnd.sym
N 79000 66600 78800 66600 4
C 77700 64200 1 0 0 capacitor.sym
{
T 78000 64900 5 10 0 0 0 0 1
device=CAPACITOR
T 78000 64500 5 10 1 1 180 2 1
refdes=C1350
T 78300 64500 5 10 1 1 0 0 1
value=22.0n
T 78300 64200 5 10 1 1 0 0 1
footprint=0603
}
N 78600 64400 79000 64400 4
C 77400 64500 1 270 0 dgnd.sym
N 79000 64000 79000 63000 4
N 79000 65000 79000 64800 4
T 70600 65900 9 10 1 0 0 0 2
This Resistor Sets 
Output Voltage
T 65300 66700 9 10 1 0 0 0 3
This Resistor Sets 
Switching Frequency
480 KHz
T 65800 64700 9 10 1 0 0 0 2
This Capacitor Sets 
Slow Start Time
T 64800 63900 9 10 1 0 0 0 2
Disconnecting STSEL from GND
Disables Slow-Start feature
T 69100 62000 9 40 1 0 0 0 1
PLD Power Chain
T 81900 64900 9 10 1 0 0 0 2
This Resistor Sets 
Output Voltage
T 76600 65700 9 10 1 0 0 0 3
This Resistor Sets 
Switching Frequency
630 KHz
T 77200 63700 9 10 1 0 0 0 2
This Capacitor Sets 
Slow Start Time
T 76200 62900 9 10 1 0 0 0 2
Disconnecting STSEL from GND
Disables Slow-Start feature
C 73300 67600 1 0 0 dvcc.sym
{
T 73550 67920 5 10 1 1 0 3 1
net=VCCO_1P8:1
}
C 84700 66600 1 0 0 dvcc.sym
{
T 84950 66920 5 10 1 1 0 3 1
net=VCCO_3P3:1
}
N 81400 64000 85300 64000 4
{
T 82800 64050 5 10 1 1 0 0 1
netname=POW_VCCO_3P3_PWRGD
}
C 45200 65100 1 0 0 voltage_reg-TPS84X2X.sym
{
T 46500 69550 5 16 1 1 0 4 1
device=TPS84621
T 47600 69500 5 10 1 1 0 0 1
refdes=U1360
T 47600 69300 5 10 1 1 0 0 1
footprint=RUQ47_3EPT.fp
}
N 45300 65100 47300 65100 4
N 45900 70500 47100 70500 4
N 43700 70300 45100 70300 4
N 45100 67900 45100 70300 4
N 45100 67900 45300 67900 4
N 45300 68300 45100 68300 4
N 45300 68500 45100 68500 4
N 47700 66500 48300 66500 4
C 48300 66200 1 0 0 resistor.sym
{
T 48600 66600 5 10 0 0 0 0 1
device=RESISTOR
T 48600 66700 5 10 1 1 0 6 1
refdes=R1360
T 48800 66700 5 10 1 1 0 0 1
value=511
T 48500 66200 5 10 1 1 0 0 1
footprint=0603
}
N 47700 67300 48000 67300 4
N 48000 67300 48000 68700 4
N 47700 67500 48000 67500 4
N 47700 67700 48000 67700 4
N 47700 67900 48000 67900 4
N 47700 68100 48000 68100 4
N 47700 68300 48000 68300 4
N 47700 68500 48000 68500 4
C 44000 67200 1 0 0 resistor.sym
{
T 44300 67600 5 10 0 0 0 0 1
device=RESISTOR
T 44300 67700 5 10 1 1 0 6 1
refdes=R1361
T 44500 67700 5 10 1 1 0 0 1
value=200K
T 44200 67200 5 10 1 1 0 0 1
footprint=0603
}
N 45300 67500 44900 67500 4
N 45300 68700 45100 68700 4
C 44000 66300 1 0 0 capacitor.sym
{
T 44300 67000 5 10 0 0 0 0 1
device=CAPACITOR
T 44300 66600 5 10 1 1 180 2 1
refdes=C1360
T 44600 66600 5 10 1 1 0 0 1
value=22.0n
T 44600 66300 5 10 1 1 0 0 1
footprint=0603
}
N 44900 66500 45300 66500 4
N 45300 66100 45300 65100 4
N 45300 67100 45300 66900 4
N 47700 66100 56700 66100 4
{
T 49200 66150 5 10 1 1 0 0 1
netname=POW_AVDD_TOP_PWRGD
}
C 56600 64100 1 0 0 voltage_reg-TPS84X2X.sym
{
T 57900 68550 5 16 1 1 0 4 1
device=TPS84621
T 59000 68500 5 10 1 1 0 0 1
refdes=U1370
T 59000 68300 5 10 1 1 0 0 1
footprint=RUQ47_3EPT.fp
}
N 56700 64100 58700 64100 4
N 57300 69500 58500 69500 4
N 55100 69300 56500 69300 4
N 56500 66900 56500 69300 4
N 56500 66900 56700 66900 4
N 56700 67300 56500 67300 4
N 56700 67500 56500 67500 4
N 59100 65500 59700 65500 4
C 59700 65200 1 0 0 resistor.sym
{
T 60000 65600 5 10 0 0 0 0 1
device=RESISTOR
T 60000 65700 5 10 1 1 0 6 1
refdes=R1370
T 60200 65700 5 10 1 1 0 0 1
value=174
T 59900 65200 5 10 1 1 0 0 1
footprint=0603
}
N 59100 66300 59400 66300 4
N 59400 66300 59400 67700 4
N 59100 66500 59400 66500 4
N 59100 66700 59400 66700 4
N 59100 66900 59400 66900 4
N 59100 67100 59400 67100 4
N 59100 67300 59400 67300 4
N 59100 67500 59400 67500 4
C 55400 66200 1 0 0 resistor.sym
{
T 55700 66600 5 10 0 0 0 0 1
device=RESISTOR
T 55700 66700 5 10 1 1 0 6 1
refdes=R1371
T 55900 66700 5 10 1 1 0 0 1
value=86.6K
T 55600 66200 5 10 1 1 0 0 1
footprint=0603
}
N 56700 66500 56300 66500 4
N 56700 67700 56500 67700 4
C 55400 65300 1 0 0 capacitor.sym
{
T 55700 66000 5 10 0 0 0 0 1
device=CAPACITOR
T 55700 65600 5 10 1 1 180 2 1
refdes=C1370
T 56000 65600 5 10 1 1 0 0 1
value=22.0n
T 56000 65300 5 10 1 1 0 0 1
footprint=0603
}
N 56300 65500 56700 65500 4
N 56700 65100 56700 64100 4
N 56700 66100 56700 65900 4
T 48200 67000 9 10 1 0 0 0 2
This Resistor Sets 
Output Voltage
T 42900 67800 9 10 1 0 0 0 3
This Resistor Sets 
Switching Frequency
480 KHz
T 43500 65800 9 10 1 0 0 0 2
This Capacitor Sets 
Slow Start Time
T 42500 65000 9 10 1 0 0 0 2
Disconnecting STSEL from GND
Disables Slow-Start feature
T 47000 63500 9 40 1 0 0 0 1
ADCs Power Chain
T 59600 66000 9 10 1 0 0 0 2
This Resistor Sets 
Output Voltage
T 54100 66900 9 10 1 0 0 0 3
This Resistor Sets 
Switching Frequency
780 KHz
T 54900 64800 9 10 1 0 0 0 2
This Capacitor Sets 
Slow Start Time
T 53900 64000 9 10 1 0 0 0 2
Disconnecting STSEL from GND
Disables Slow-Start feature
C 45100 57000 1 0 0 voltage_reg-TPS84X2X.sym
{
T 46400 61450 5 16 1 1 0 4 1
device=TPS84621
T 47500 61400 5 10 1 1 0 0 1
refdes=U1380
T 47500 61200 5 10 1 1 0 0 1
footprint=RUQ47_3EPT.fp
}
N 45200 57000 47200 57000 4
N 45800 62400 47000 62400 4
N 43600 62200 45000 62200 4
N 45000 59800 45000 62200 4
N 45000 59800 45200 59800 4
N 45200 60200 45000 60200 4
N 45200 60400 45000 60400 4
N 47600 58400 48200 58400 4
C 48200 58100 1 0 0 resistor.sym
{
T 48500 58500 5 10 0 0 0 0 1
device=RESISTOR
T 48500 58600 5 10 1 1 0 6 1
refdes=R1380
T 48700 58600 5 10 1 1 0 0 1
value=511
T 48400 58100 5 10 1 1 0 0 1
footprint=0603
}
N 47600 59200 47900 59200 4
N 47900 59200 47900 60600 4
N 47600 59400 47900 59400 4
N 47600 59600 47900 59600 4
N 47600 59800 47900 59800 4
N 47600 60000 47900 60000 4
N 47600 60200 47900 60200 4
N 47600 60400 47900 60400 4
C 43900 59100 1 0 0 resistor.sym
{
T 44200 59500 5 10 0 0 0 0 1
device=RESISTOR
T 44200 59600 5 10 1 1 0 6 1
refdes=R1381
T 44400 59600 5 10 1 1 0 0 1
value=200K
T 44100 59100 5 10 1 1 0 0 1
footprint=0603
}
N 45200 59400 44800 59400 4
N 45200 60600 45000 60600 4
C 43900 58200 1 0 0 capacitor.sym
{
T 44200 58900 5 10 0 0 0 0 1
device=CAPACITOR
T 44200 58500 5 10 1 1 180 2 1
refdes=C1380
T 44500 58500 5 10 1 1 0 0 1
value=22.0n
T 44500 58200 5 10 1 1 0 0 1
footprint=0603
}
N 44800 58400 45200 58400 4
N 45200 58000 45200 57000 4
N 45200 59000 45200 58800 4
C 56500 56000 1 0 0 voltage_reg-TPS84X2X.sym
{
T 57800 60450 5 16 1 1 0 4 1
device=TPS84621
T 58900 60400 5 10 1 1 0 0 1
refdes=U1390
T 58900 60200 5 10 1 1 0 0 1
footprint=RUQ47_3EPT.fp
}
N 56600 56000 58600 56000 4
N 57200 61400 58400 61400 4
N 55000 61200 56400 61200 4
N 56400 58800 56400 61200 4
N 56400 58800 56600 58800 4
N 56600 59200 56400 59200 4
N 56600 59400 56400 59400 4
N 59000 57400 59600 57400 4
C 59600 57100 1 0 0 resistor.sym
{
T 59900 57500 5 10 0 0 0 0 1
device=RESISTOR
T 59900 57600 5 10 1 1 0 6 1
refdes=R1390
T 60100 57600 5 10 1 1 0 0 1
value=174
T 59800 57100 5 10 1 1 0 0 1
footprint=0603
}
N 59000 58200 59300 58200 4
N 59300 58200 59300 59600 4
N 59000 58400 59300 58400 4
N 59000 58600 59300 58600 4
N 59000 58800 59300 58800 4
N 59000 59000 59300 59000 4
N 59000 59200 59300 59200 4
N 59000 59400 59300 59400 4
C 55300 58100 1 0 0 resistor.sym
{
T 55600 58500 5 10 0 0 0 0 1
device=RESISTOR
T 55600 58600 5 10 1 1 0 6 1
refdes=R1391
T 55800 58600 5 10 1 1 0 0 1
value=86.6K
T 55500 58100 5 10 1 1 0 0 1
footprint=0603
}
N 56600 58400 56200 58400 4
N 56600 59600 56400 59600 4
C 55300 57200 1 0 0 capacitor.sym
{
T 55600 57900 5 10 0 0 0 0 1
device=CAPACITOR
T 55600 57500 5 10 1 1 180 2 1
refdes=C1390
T 55900 57500 5 10 1 1 0 0 1
value=22.0n
T 55900 57200 5 10 1 1 0 0 1
footprint=0603
}
N 56200 57400 56600 57400 4
N 56600 57000 56600 56000 4
N 56600 58000 56600 57800 4
T 48000 58900 9 10 1 0 0 0 2
This Resistor Sets 
Output Voltage
T 42800 59800 9 10 1 0 0 0 3
This Resistor Sets 
Switching Frequency
480 KHz
T 43400 57700 9 10 1 0 0 0 2
This Capacitor Sets 
Slow Start Time
T 42400 56900 9 10 1 0 0 0 2
Disconnecting STSEL from GND
Disables Slow-Start feature
T 59400 57900 9 10 1 0 0 0 2
This Resistor Sets 
Output Voltage
T 54200 58700 9 10 1 0 0 0 3
This Resistor Sets 
Switching Frequency
780 KHz
T 54800 56700 9 10 1 0 0 0 2
This Capacitor Sets 
Slow Start Time
T 53800 55900 9 10 1 0 0 0 2
Disconnecting STSEL from GND
Disables Slow-Start feature
N 64000 66000 64000 74200 4
N 38000 67100 45300 67100 4
{
T 38200 67150 5 10 1 1 0 0 1
netname=POW_VCCO_3P3_PWRGD
}
C 51000 68700 1 0 0 avcc.sym
{
T 51250 69100 5 10 1 1 0 3 1
net=AVDD_TOP_2P3:1
}
N 47600 58000 56600 58000 4
{
T 49000 58050 5 10 1 1 0 0 1
netname=POW_AVDD_BOT_PWRGD
}
C 50900 60600 1 0 0 avcc.sym
{
T 51150 61000 5 10 1 1 0 3 1
net=AVDD_BOT_2P3:1
}
N 40500 67100 40500 59000 4
N 40500 59000 45200 59000 4
C 62400 67700 1 0 0 avcc.sym
{
T 62650 68100 5 10 1 1 0 3 1
net=AVCC_TOP_5P5:1
}
C 62300 59600 1 0 0 avcc.sym
{
T 62550 60000 5 10 1 1 0 3 1
net=AVCC_BOT_5P5:1
}
C 82000 72100 1 0 1 nc-left-1.sym
{
T 82000 72500 5 10 0 0 0 6 1
value=NoConnection
T 82000 72900 5 10 0 0 0 6 1
device=DRC_Directive
}
C 59600 65000 1 0 1 nc-left-1.sym
{
T 59600 65400 5 10 0 0 0 6 1
value=NoConnection
T 59600 65800 5 10 0 0 0 6 1
device=DRC_Directive
}
C 59500 56900 1 0 1 nc-left-1.sym
{
T 59500 57300 5 10 0 0 0 6 1
value=NoConnection
T 59500 57700 5 10 0 0 0 6 1
device=DRC_Directive
}
T 65200 58700 9 10 1 0 0 0 2
It's not decided weither to use direct
connection or ferrite beads here
C 70400 57800 1 0 0 ferrite_bead.sym
{
T 70600 58700 5 10 0 0 0 0 1
device=INDUCTOR
T 70600 58300 5 10 1 1 0 0 1
refdes=L1300
T 70600 58546 5 10 0 0 0 0 1
value=0 H
T 70600 57781 5 10 1 1 0 0 1
footprint=1206
}
C 67200 57400 1 0 0 ferrite_bead.sym
{
T 67400 58300 5 10 0 0 0 0 1
device=INDUCTOR
T 67400 57900 5 10 1 1 0 0 1
refdes=L1303
T 67400 58146 5 10 0 0 0 0 1
value=0 H
T 67400 57381 5 10 1 1 0 0 1
footprint=1206
}
C 66200 57400 1 0 0 agnd.sym
{
T 66300 57310 5 8 1 1 0 5 1
net=AGND_MGT:1
}
N 66300 57700 66300 58500 4
C 66300 57400 1 0 0 ferrite_bead.sym
{
T 66500 58300 5 10 0 0 0 0 1
device=INDUCTOR
T 66500 57900 5 10 1 1 0 0 1
refdes=L1302
T 66500 58146 5 10 0 0 0 0 1
value=0 H
T 66500 57381 5 10 1 1 0 0 1
footprint=1206
}
N 70400 58100 69500 58100 4
C 69500 58200 1 0 0 ferrite_bead.sym
{
T 69700 59100 5 10 0 0 0 0 1
device=INDUCTOR
T 69700 58700 5 10 1 1 0 0 1
refdes=L1301
T 69700 58946 5 10 0 0 0 0 1
value=0 H
T 69700 58181 5 10 1 1 0 0 1
footprint=1206
}
N 69500 58500 69500 59200 4
C 69300 59200 1 0 0 dvcc.sym
{
T 69550 59520 5 10 1 1 0 3 1
net=VUNREG_MGT_12P0:1
}
C 67900 71900 1 0 0 agnd.sym
{
T 68000 71810 5 8 1 1 0 5 1
net=AGND_MGT:1
}
C 66000 73700 1 270 0 agnd.sym
{
T 66000 73610 5 8 1 1 0 7 1
net=AGND_MGT:1
}
C 66000 74700 1 270 0 agnd.sym
{
T 66000 74610 5 8 1 1 0 7 1
net=AGND_MGT:1
}
C 71800 73700 1 90 1 agnd.sym
{
T 71800 73610 5 8 1 1 0 1 1
net=AGND_MGT:1
}
C 79400 70900 1 0 0 agnd.sym
{
T 79500 70810 5 8 1 1 0 5 1
net=AGND_MGT:1
}
C 77500 73700 1 270 0 agnd.sym
{
T 77500 73610 5 8 1 1 0 7 1
net=AGND_MGT:1
}
C 77500 72700 1 270 0 agnd.sym
{
T 77500 72610 5 8 1 1 0 7 1
net=AGND_MGT:1
}
C 83300 72700 1 90 1 agnd.sym
{
T 83300 72610 5 8 1 1 0 1 1
net=AGND_MGT:1
}
C 56900 55700 1 0 0 agnd.sym
{
T 57000 55610 5 8 1 1 0 5 1
net=AGND_ADC:1
}
C 60800 57300 1 90 0 agnd.sym
{
T 60800 57310 5 8 1 1 0 1 1
net=AGND_ADC:1
}
C 55000 58300 1 270 1 agnd.sym
{
T 55000 58310 5 8 1 1 0 7 1
net=AGND_ADC:1
}
C 55000 57300 1 270 1 agnd.sym
{
T 55000 57310 5 8 1 1 0 7 1
net=AGND_ADC:1
}
C 43600 59300 1 270 1 agnd.sym
{
T 43600 59310 5 8 1 1 0 7 1
net=AGND_ADC:1
}
C 43600 58300 1 270 1 agnd.sym
{
T 43600 58310 5 8 1 1 0 7 1
net=AGND_ADC:1
}
C 43700 67400 1 270 1 agnd.sym
{
T 43700 67410 5 8 1 1 0 7 1
net=AGND_ADC:1
}
C 43700 66400 1 270 1 agnd.sym
{
T 43700 66410 5 8 1 1 0 7 1
net=AGND_ADC:1
}
C 55100 66400 1 270 1 agnd.sym
{
T 55100 66410 5 8 1 1 0 7 1
net=AGND_ADC:1
}
C 55100 65400 1 270 1 agnd.sym
{
T 55100 65410 5 8 1 1 0 7 1
net=AGND_ADC:1
}
C 60900 65400 1 90 0 agnd.sym
{
T 60900 65410 5 8 1 1 0 1 1
net=AGND_ADC:1
}
C 49500 66400 1 90 0 agnd.sym
{
T 49500 66410 5 8 1 1 0 1 1
net=AGND_ADC:1
}
C 49400 58300 1 90 0 agnd.sym
{
T 49400 58310 5 8 1 1 0 1 1
net=AGND_ADC:1
}
C 57000 63800 1 0 0 agnd.sym
{
T 57100 63710 5 8 1 1 0 5 1
net=AGND_ADC:1
}
C 45600 64800 1 0 0 agnd.sym
{
T 45700 64710 5 8 1 1 0 5 1
net=AGND_ADC:1
}
C 45500 56700 1 0 0 agnd.sym
{
T 45600 56610 5 8 1 1 0 5 1
net=AGND_ADC:1
}
C 54700 78400 1 270 0 capacitor_polar.sym
{
T 55900 78200 5 10 0 0 270 0 1
device=POLARIZED_CAPACITOR
T 55000 78100 5 10 1 1 0 6 1
refdes=C1311
T 55200 77600 5 10 1 1 90 5 1
footprint=2824
T 55000 77800 5 10 1 1 180 0 1
value=220u
}
C 55000 76900 1 0 0 dgnd.sym
C 56200 77500 1 90 0 capacitor.sym
{
T 55500 77800 5 10 0 0 90 0 1
device=CAPACITOR
T 55900 78100 5 10 1 1 180 2 1
refdes=C1312
T 55900 77800 5 10 1 1 180 0 1
value=47u
T 56200 77400 5 10 1 1 90 0 1
footprint=1210
}
N 55100 77200 56000 77200 4
N 55100 77200 55100 77500 4
N 56000 77500 56000 77200 4
C 61900 75900 1 90 0 capacitor.sym
{
T 61200 76200 5 10 0 0 90 0 1
device=CAPACITOR
T 61600 76500 5 10 1 1 180 2 1
refdes=C1314
T 61600 76200 5 10 1 1 180 0 1
value=220u
T 61900 75800 5 10 1 1 90 0 1
footprint=1210
}
C 62200 76800 1 270 0 capacitor_polar.sym
{
T 63400 76600 5 10 0 0 270 0 1
device=POLARIZED_CAPACITOR
T 62500 76500 5 10 1 1 0 6 1
refdes=C1313
T 62700 76000 5 10 1 1 90 5 1
footprint=2824
T 62500 76200 5 10 1 1 180 0 1
value=330u
}
C 62500 75300 1 0 0 dgnd.sym
N 61700 75600 61700 75900 4
N 60800 75600 62600 75600 4
N 62600 75900 62600 75600 4
C 54900 78400 1 0 0 dvcc.sym
{
T 55150 78720 5 10 1 1 0 3 1
net=VUNREG_12P0:1
}
C 65800 77400 1 0 0 dvcc.sym
{
T 66050 77720 5 10 1 1 0 3 1
net=VUNREG_MGT_12P0:1
}
C 77300 76400 1 0 0 dvcc.sym
{
T 77550 76720 5 10 1 1 0 3 1
net=VUNREG_MGT_12P0:1
}
C 43500 70300 1 0 0 dvcc.sym
{
T 44050 70620 5 10 1 1 0 3 1
net=VUNREG_ADC_12P0:1
}
C 54900 69300 1 0 0 dvcc.sym
{
T 55450 69620 5 10 1 1 0 3 1
net=VUNREG_ADC_12P0:1
}
C 43400 62200 1 0 0 dvcc.sym
{
T 43950 62520 5 10 1 1 0 3 1
net=VUNREG_ADC_12P0:1
}
C 54800 61200 1 0 0 dvcc.sym
{
T 55350 61520 5 10 1 1 0 3 1
net=VUNREG_ADC_12P0:1
}
C 61000 75900 1 90 0 capacitor.sym
{
T 60300 76200 5 10 0 0 90 0 1
device=CAPACITOR
T 60700 76500 5 10 1 1 180 2 1
refdes=C1315
T 60700 76200 5 10 1 1 180 0 1
value=220u
T 61000 75800 5 10 1 1 90 0 1
footprint=1210
}
N 60800 75900 60800 75600 4
C 65600 77400 1 270 0 capacitor_polar.sym
{
T 66800 77200 5 10 0 0 270 0 1
device=POLARIZED_CAPACITOR
T 65900 77100 5 10 1 1 0 6 1
refdes=C1321
T 66100 76600 5 10 1 1 90 5 1
footprint=2824
T 65900 76800 5 10 1 1 180 0 1
value=220u
}
C 67100 76500 1 90 0 capacitor.sym
{
T 66400 76800 5 10 0 0 90 0 1
device=CAPACITOR
T 66800 77100 5 10 1 1 180 2 1
refdes=C1322
T 66800 76800 5 10 1 1 180 0 1
value=47u
T 67100 76400 5 10 1 1 90 0 1
footprint=1210
}
N 66000 76200 66900 76200 4
N 66000 76200 66000 76500 4
N 66900 76500 66900 76200 4
C 77100 76400 1 270 0 capacitor_polar.sym
{
T 78300 76200 5 10 0 0 270 0 1
device=POLARIZED_CAPACITOR
T 77400 76100 5 10 1 1 0 6 1
refdes=C1331
T 77600 75600 5 10 1 1 90 5 1
footprint=2824
T 77400 75800 5 10 1 1 180 0 1
value=220u
}
C 78600 75500 1 90 0 capacitor.sym
{
T 77900 75800 5 10 0 0 90 0 1
device=CAPACITOR
T 78300 76100 5 10 1 1 180 2 1
refdes=C1332
T 78300 75800 5 10 1 1 180 0 1
value=47u
T 78600 75400 5 10 1 1 90 0 1
footprint=1210
}
N 77500 75200 78400 75200 4
N 77500 75200 77500 75500 4
N 78400 75500 78400 75200 4
C 65600 69200 1 270 0 capacitor_polar.sym
{
T 66800 69000 5 10 0 0 270 0 1
device=POLARIZED_CAPACITOR
T 65900 68900 5 10 1 1 0 6 1
refdes=C1341
T 66100 68400 5 10 1 1 90 5 1
footprint=2824
T 65900 68600 5 10 1 1 180 0 1
value=220u
}
C 65900 67700 1 0 0 dgnd.sym
C 67100 68300 1 90 0 capacitor.sym
{
T 66400 68600 5 10 0 0 90 0 1
device=CAPACITOR
T 66800 68900 5 10 1 1 180 2 1
refdes=C1342
T 66800 68600 5 10 1 1 180 0 1
value=47u
T 67100 68200 5 10 1 1 90 0 1
footprint=1210
}
N 66000 68000 66900 68000 4
N 66000 68000 66000 68300 4
N 66900 68300 66900 68000 4
C 77000 68200 1 270 0 capacitor_polar.sym
{
T 78200 68000 5 10 0 0 270 0 1
device=POLARIZED_CAPACITOR
T 77300 67900 5 10 1 1 0 6 1
refdes=C1351
T 77500 67400 5 10 1 1 90 5 1
footprint=2824
T 77300 67600 5 10 1 1 180 0 1
value=220u
}
C 77300 66700 1 0 0 dgnd.sym
C 78500 67300 1 90 0 capacitor.sym
{
T 77800 67600 5 10 0 0 90 0 1
device=CAPACITOR
T 78200 67900 5 10 1 1 180 2 1
refdes=C1352
T 78200 67600 5 10 1 1 180 0 1
value=47u
T 78500 67200 5 10 1 1 90 0 1
footprint=1210
}
N 77400 67000 78300 67000 4
N 77400 67000 77400 67300 4
N 78300 67300 78300 67000 4
C 43300 70300 1 270 0 capacitor_polar.sym
{
T 44500 70100 5 10 0 0 270 0 1
device=POLARIZED_CAPACITOR
T 43600 70000 5 10 1 1 0 6 1
refdes=C1361
T 43800 69500 5 10 1 1 90 5 1
footprint=2824
T 43600 69700 5 10 1 1 180 0 1
value=220u
}
C 44800 69400 1 90 0 capacitor.sym
{
T 44100 69700 5 10 0 0 90 0 1
device=CAPACITOR
T 44500 70000 5 10 1 1 180 2 1
refdes=C1362
T 44500 69700 5 10 1 1 180 0 1
value=47u
T 44800 69300 5 10 1 1 90 0 1
footprint=1210
}
N 43700 69100 44600 69100 4
N 43700 69100 43700 69400 4
N 44600 69400 44600 69100 4
C 43200 62200 1 270 0 capacitor_polar.sym
{
T 44400 62000 5 10 0 0 270 0 1
device=POLARIZED_CAPACITOR
T 43500 61900 5 10 1 1 0 6 1
refdes=C1381
T 43700 61400 5 10 1 1 90 5 1
footprint=2824
T 43500 61600 5 10 1 1 180 0 1
value=220u
}
C 44700 61300 1 90 0 capacitor.sym
{
T 44000 61600 5 10 0 0 90 0 1
device=CAPACITOR
T 44400 61900 5 10 1 1 180 2 1
refdes=C1382
T 44400 61600 5 10 1 1 180 0 1
value=47u
T 44700 61200 5 10 1 1 90 0 1
footprint=1210
}
N 43600 61000 44500 61000 4
N 43600 61000 43600 61300 4
N 44500 61300 44500 61000 4
C 54600 61200 1 270 0 capacitor_polar.sym
{
T 55800 61000 5 10 0 0 270 0 1
device=POLARIZED_CAPACITOR
T 54900 60900 5 10 1 1 0 6 1
refdes=C1391
T 55100 60400 5 10 1 1 90 5 1
footprint=2824
T 54900 60600 5 10 1 1 180 0 1
value=220u
}
C 56100 60300 1 90 0 capacitor.sym
{
T 55400 60600 5 10 0 0 90 0 1
device=CAPACITOR
T 55800 60900 5 10 1 1 180 2 1
refdes=C1392
T 55800 60600 5 10 1 1 180 0 1
value=47u
T 56100 60200 5 10 1 1 90 0 1
footprint=1210
}
N 55000 60000 55900 60000 4
N 55000 60000 55000 60300 4
N 55900 60300 55900 60000 4
C 54700 69300 1 270 0 capacitor_polar.sym
{
T 55900 69100 5 10 0 0 270 0 1
device=POLARIZED_CAPACITOR
T 55000 69000 5 10 1 1 0 6 1
refdes=C1371
T 55200 68500 5 10 1 1 90 5 1
footprint=2824
T 55000 68700 5 10 1 1 180 0 1
value=220u
}
C 56200 68400 1 90 0 capacitor.sym
{
T 55500 68700 5 10 0 0 90 0 1
device=CAPACITOR
T 55900 69000 5 10 1 1 180 2 1
refdes=C1372
T 55900 68700 5 10 1 1 180 0 1
value=47u
T 56200 68300 5 10 1 1 90 0 1
footprint=1210
}
N 55100 68100 56000 68100 4
N 55100 68100 55100 68400 4
N 56000 68400 56000 68100 4
N 63200 75000 63200 76400 4
N 63200 76400 62600 76800 4
C 65900 75900 1 0 0 agnd.sym
{
T 66000 75810 5 8 1 1 0 5 1
net=AGND_MGT:1
}
C 77400 74900 1 0 0 agnd.sym
{
T 77500 74810 5 8 1 1 0 5 1
net=AGND_MGT:1
}
C 43600 68800 1 0 0 agnd.sym
{
T 43700 68710 5 8 1 1 0 5 1
net=AGND_ADC:1
}
C 43500 60700 1 0 0 agnd.sym
{
T 43600 60610 5 8 1 1 0 5 1
net=AGND_ADC:1
}
C 55000 67800 1 0 0 agnd.sym
{
T 55100 67710 5 8 1 1 0 5 1
net=AGND_ADC:1
}
C 54900 59700 1 0 0 agnd.sym
{
T 55000 59610 5 8 1 1 0 5 1
net=AGND_ADC:1
}
C 72800 74900 1 90 0 capacitor.sym
{
T 72100 75200 5 10 0 0 90 0 1
device=CAPACITOR
T 72500 75500 5 10 1 1 180 2 1
refdes=C1324
T 72500 75200 5 10 1 1 180 0 1
value=220u
T 72800 74800 5 10 1 1 90 0 1
footprint=1210
}
C 73100 75800 1 270 0 capacitor_polar.sym
{
T 74300 75600 5 10 0 0 270 0 1
device=POLARIZED_CAPACITOR
T 73400 75500 5 10 1 1 0 6 1
refdes=C1323
T 73600 75000 5 10 1 1 90 5 1
footprint=2824
T 73400 75200 5 10 1 1 180 0 1
value=330u
}
N 72600 74600 72600 74900 4
N 71700 74600 73500 74600 4
N 73500 74900 73500 74600 4
C 71900 74900 1 90 0 capacitor.sym
{
T 71200 75200 5 10 0 0 90 0 1
device=CAPACITOR
T 71600 75500 5 10 1 1 180 2 1
refdes=C1325
T 71600 75200 5 10 1 1 180 0 1
value=220u
T 71900 74800 5 10 1 1 90 0 1
footprint=1210
}
N 71700 74900 71700 74600 4
N 74200 75400 73500 75800 4
C 73400 74300 1 0 0 agnd.sym
{
T 73500 74210 5 8 1 1 0 5 1
net=AGND_MGT:1
}
C 84300 73900 1 90 0 capacitor.sym
{
T 83600 74200 5 10 0 0 90 0 1
device=CAPACITOR
T 84000 74500 5 10 1 1 180 2 1
refdes=C1334
T 84000 74200 5 10 1 1 180 0 1
value=220u
T 84300 73800 5 10 1 1 90 0 1
footprint=1210
}
C 84600 74800 1 270 0 capacitor_polar.sym
{
T 85800 74600 5 10 0 0 270 0 1
device=POLARIZED_CAPACITOR
T 84900 74500 5 10 1 1 0 6 1
refdes=C1333
T 85100 74000 5 10 1 1 90 5 1
footprint=2824
T 84900 74200 5 10 1 1 180 0 1
value=330u
}
N 84100 73600 84100 73900 4
N 83200 73600 85000 73600 4
N 85000 73900 85000 73600 4
C 83400 73900 1 90 0 capacitor.sym
{
T 82700 74200 5 10 0 0 90 0 1
device=CAPACITOR
T 83100 74500 5 10 1 1 180 2 1
refdes=C1335
T 83100 74200 5 10 1 1 180 0 1
value=220u
T 83400 73800 5 10 1 1 90 0 1
footprint=1210
}
N 83200 73900 83200 73600 4
C 84900 73300 1 0 0 agnd.sym
{
T 85000 73210 5 8 1 1 0 5 1
net=AGND_MGT:1
}
N 85800 73000 85800 74300 4
N 85800 74300 85000 74800 4
N 50300 67500 50300 67800 4
N 49400 67500 51200 67500 4
N 51200 67800 51200 67500 4
N 49400 67800 49400 67500 4
N 51800 66900 51800 68300 4
C 50800 68700 1 270 0 capacitor_polar.sym
{
T 51100 68400 5 10 1 1 0 6 1
refdes=C1363
T 51300 67900 5 10 1 1 90 5 1
footprint=2824
T 51100 68100 5 10 1 1 180 0 1
value=330u
T 52000 68500 5 10 0 0 270 0 1
device=POLARIZED_CAPACITOR
}
C 50500 67800 1 90 0 capacitor.sym
{
T 50200 68400 5 10 1 1 180 2 1
refdes=C1364
T 50200 68100 5 10 1 1 180 0 1
value=220u
T 50500 67700 5 10 1 1 90 0 1
footprint=1210
T 49800 68100 5 10 0 0 90 0 1
device=CAPACITOR
}
C 49600 67800 1 90 0 capacitor.sym
{
T 49300 68400 5 10 1 1 180 2 1
refdes=C1365
T 49300 68100 5 10 1 1 180 0 1
value=220u
T 49600 67700 5 10 1 1 90 0 1
footprint=1210
T 48900 68100 5 10 0 0 90 0 1
device=CAPACITOR
}
N 51800 68300 51200 68700 4
N 47700 68700 51200 68700 4
N 47700 66900 51800 66900 4
C 51100 67200 1 0 0 agnd.sym
{
T 51200 67110 5 8 1 1 0 5 1
net=AGND_ADC:1
}
N 59100 67700 62600 67700 4
N 63200 67300 62600 67700 4
N 63200 65900 63200 67300 4
N 59100 65900 63200 65900 4
N 61700 66500 61700 66800 4
N 60800 66500 62600 66500 4
N 60800 66800 60800 66500 4
C 61900 66800 1 90 0 capacitor.sym
{
T 61600 67400 5 10 1 1 180 2 1
refdes=C1374
T 61600 67100 5 10 1 1 180 0 1
value=220u
T 61900 66700 5 10 1 1 90 0 1
footprint=1210
T 61200 67100 5 10 0 0 90 0 1
device=CAPACITOR
}
C 61000 66800 1 90 0 capacitor.sym
{
T 60700 67400 5 10 1 1 180 2 1
refdes=C1375
T 60700 67100 5 10 1 1 180 0 1
value=220u
T 61000 66700 5 10 1 1 90 0 1
footprint=1210
T 60300 67100 5 10 0 0 90 0 1
device=CAPACITOR
}
N 62600 66800 62600 66500 4
C 62200 67700 1 270 0 capacitor_polar.sym
{
T 62500 67400 5 10 1 1 0 6 1
refdes=C1373
T 62500 67100 5 10 1 1 180 0 1
value=330u
T 62700 66900 5 10 1 1 90 5 1
footprint=2824
T 63400 67500 5 10 0 0 270 0 1
device=POLARIZED_CAPACITOR
}
C 62500 66200 1 0 0 agnd.sym
{
T 62600 66110 5 8 1 1 0 5 1
net=AGND_ADC:1
}
N 47600 60600 51100 60600 4
N 51700 60200 51100 60600 4
N 51700 58800 51700 60200 4
N 47600 58800 51700 58800 4
N 50200 59400 50200 59700 4
N 49300 59400 51100 59400 4
N 49300 59700 49300 59400 4
C 50400 59700 1 90 0 capacitor.sym
{
T 50100 60300 5 10 1 1 180 2 1
refdes=C1384
T 50100 60000 5 10 1 1 180 0 1
value=220u
T 50400 59600 5 10 1 1 90 0 1
footprint=1210
T 49700 60000 5 10 0 0 90 0 1
device=CAPACITOR
}
C 49500 59700 1 90 0 capacitor.sym
{
T 49200 60300 5 10 1 1 180 2 1
refdes=C1385
T 49200 60000 5 10 1 1 180 0 1
value=220u
T 49500 59600 5 10 1 1 90 0 1
footprint=1210
T 48800 60000 5 10 0 0 90 0 1
device=CAPACITOR
}
N 51100 59700 51100 59400 4
C 50700 60600 1 270 0 capacitor_polar.sym
{
T 51000 60300 5 10 1 1 0 6 1
refdes=C1383
T 51000 60000 5 10 1 1 180 0 1
value=330u
T 51200 59800 5 10 1 1 90 5 1
footprint=2824
T 51900 60400 5 10 0 0 270 0 1
device=POLARIZED_CAPACITOR
}
C 51000 59100 1 0 0 agnd.sym
{
T 51100 59010 5 8 1 1 0 5 1
net=AGND_ADC:1
}
N 59000 59600 62500 59600 4
N 63100 59200 62500 59600 4
N 63100 57800 63100 59200 4
N 59000 57800 63100 57800 4
N 61600 58400 61600 58700 4
N 60700 58400 62500 58400 4
N 60700 58700 60700 58400 4
C 61800 58700 1 90 0 capacitor.sym
{
T 61500 59300 5 10 1 1 180 2 1
refdes=C1394
T 61500 59000 5 10 1 1 180 0 1
value=220u
T 61800 58600 5 10 1 1 90 0 1
footprint=1210
T 61100 59000 5 10 0 0 90 0 1
device=CAPACITOR
}
C 60900 58700 1 90 0 capacitor.sym
{
T 60600 59300 5 10 1 1 180 2 1
refdes=C1395
T 60600 59000 5 10 1 1 180 0 1
value=220u
T 60900 58600 5 10 1 1 90 0 1
footprint=1210
T 60200 59000 5 10 0 0 90 0 1
device=CAPACITOR
}
N 62500 58700 62500 58400 4
C 62100 59600 1 270 0 capacitor_polar.sym
{
T 62400 59300 5 10 1 1 0 6 1
refdes=C1393
T 62400 59000 5 10 1 1 180 0 1
value=330u
T 62600 58800 5 10 1 1 90 5 1
footprint=2824
T 63300 59400 5 10 0 0 270 0 1
device=POLARIZED_CAPACITOR
}
C 62400 58100 1 0 0 agnd.sym
{
T 62500 58010 5 8 1 1 0 5 1
net=AGND_ADC:1
}
N 70000 67600 73500 67600 4
N 74100 67200 73500 67600 4
N 74100 65800 74100 67200 4
N 70000 65800 74100 65800 4
N 72600 66400 72600 66700 4
N 71700 66400 73500 66400 4
N 71700 66700 71700 66400 4
C 72800 66700 1 90 0 capacitor.sym
{
T 72500 67300 5 10 1 1 180 2 1
refdes=C1344
T 72500 67000 5 10 1 1 180 0 1
value=220u
T 72800 66600 5 10 1 1 90 0 1
footprint=1210
T 72100 67000 5 10 0 0 90 0 1
device=CAPACITOR
}
C 71900 66700 1 90 0 capacitor.sym
{
T 71600 67300 5 10 1 1 180 2 1
refdes=C1345
T 71600 67000 5 10 1 1 180 0 1
value=220u
T 71900 66600 5 10 1 1 90 0 1
footprint=1210
T 71200 67000 5 10 0 0 90 0 1
device=CAPACITOR
}
N 73500 66700 73500 66400 4
C 73100 67600 1 270 0 capacitor_polar.sym
{
T 73400 67300 5 10 1 1 0 6 1
refdes=C1343
T 73400 67000 5 10 1 1 180 0 1
value=330u
T 73600 66800 5 10 1 1 90 5 1
footprint=2824
T 74300 67400 5 10 0 0 270 0 1
device=POLARIZED_CAPACITOR
}
N 81400 66600 84900 66600 4
N 85500 66200 84900 66600 4
N 85500 64800 85500 66200 4
N 81400 64800 85500 64800 4
N 84000 65400 84000 65700 4
N 83100 65400 84900 65400 4
N 83100 65700 83100 65400 4
C 84200 65700 1 90 0 capacitor.sym
{
T 83900 66300 5 10 1 1 180 2 1
refdes=C1354
T 83900 66000 5 10 1 1 180 0 1
value=220u
T 84200 65600 5 10 1 1 90 0 1
footprint=1210
T 83500 66000 5 10 0 0 90 0 1
device=CAPACITOR
}
C 83300 65700 1 90 0 capacitor.sym
{
T 83000 66300 5 10 1 1 180 2 1
refdes=C1355
T 83000 66000 5 10 1 1 180 0 1
value=220u
T 83300 65600 5 10 1 1 90 0 1
footprint=1210
T 82600 66000 5 10 0 0 90 0 1
device=CAPACITOR
}
N 84900 65700 84900 65400 4
C 84500 66600 1 270 0 capacitor_polar.sym
{
T 84800 66300 5 10 1 1 0 6 1
refdes=C1353
T 84800 66000 5 10 1 1 180 0 1
value=330u
T 85000 65800 5 10 1 1 90 5 1
footprint=2824
T 85700 66400 5 10 0 0 270 0 1
device=POLARIZED_CAPACITOR
}
C 84800 65100 1 0 0 dgnd.sym
C 73400 66100 1 0 0 dgnd.sym
C 65800 69200 1 0 0 dvcc.sym
{
T 66050 69520 5 10 1 1 0 3 1
net=VUNREG_12P0:1
}
C 77200 68200 1 0 0 dvcc.sym
{
T 77450 68520 5 10 1 1 0 3 1
net=VUNREG_12P0:1
}
T 61900 77600 9 10 1 0 0 0 3
Tantalum Capacitors
399-4751-1-ND
6.3V rated, 2917 is case
T 54400 79100 9 10 1 0 0 0 3
Tantalum Capacitors
399-9789-1-ND
16V rated, 2917 is the case
T 52700 77900 9 10 1 0 0 0 3
Ceramic Capacitors:
399-5514-1-ND
16V rated
T 63500 76200 9 10 1 0 0 0 3
Ceramic Capacitors:
1276-3375-1-ND
6.3V rated
