v 20130925 2
C 86800 40600 1 0 0 cvstitleblock-1.sym
{
T 87400 41000 5 10 1 1 0 0 1
date=2013-02-12    2013-07-24
T 91300 41000 5 10 1 1 0 0 1
rev=0.2
T 91500 40700 5 10 1 1 0 0 1
auth=Alexei Dorofeev
T 87600 41300 5 10 1 1 0 0 1
fname=drift_accumulator_09_mem1.sch
T 90600 41700 5 14 1 1 0 4 1
title=Drift Accumulator : QDRII Memory, First Bank
T 87700 40700 5 10 1 1 0 0 1
page_number=9
T 89000 40700 5 10 1 1 0 0 1
pages=16
}
C 73700 44600 1 0 0 mem_CY7C1525KV18.sym
{
T 76500 56250 5 22 1 1 0 4 1
device=CY7C1525KV18
T 78700 56300 5 10 1 1 0 0 1
refdes=U900
T 78700 56100 5 10 1 1 0 0 1
footprint=FBG165.fp
}
C 73700 44300 1 0 0 dgnd.sym
N 73100 44600 79000 44600 4
C 86800 47000 1 0 0 XC7K160T_bank12.sym
{
T 89900 56550 5 15 1 1 0 3 1
device=XC7K160T
T 92600 56600 5 10 1 1 0 0 1
refdes=U1
T 92600 56400 5 10 1 1 0 0 1
footprint=FBG676.fp
}
N 71700 54500 73800 54500 4
{
T 72100 54550 5 10 1 1 0 0 1
netname=mem1_addr_o_0
}
N 71700 54300 73800 54300 4
{
T 72100 54350 5 10 1 1 0 0 1
netname=mem1_addr_o_1
}
N 71700 52100 73800 52100 4
{
T 72100 52150 5 10 1 1 0 0 1
netname=mem1_data_o_0
}
N 71700 51900 73800 51900 4
{
T 72100 51950 5 10 1 1 0 0 1
netname=mem1_data_o_1
}
N 71700 51700 73800 51700 4
{
T 72100 51750 5 10 1 1 0 0 1
netname=mem1_data_o_2
}
N 71700 51500 73800 51500 4
{
T 72100 51550 5 10 1 1 0 0 1
netname=mem1_data_o_3
}
N 71700 51300 73800 51300 4
{
T 72100 51350 5 10 1 1 0 0 1
netname=mem1_data_o_4
}
N 71700 51100 73800 51100 4
{
T 72100 51150 5 10 1 1 0 0 1
netname=mem1_data_o_5
}
N 71700 50900 73800 50900 4
{
T 72100 50950 5 10 1 1 0 0 1
netname=mem1_data_o_6
}
N 71700 50700 73800 50700 4
{
T 72100 50750 5 10 1 1 0 0 1
netname=mem1_data_o_7
}
N 71700 50500 73800 50500 4
{
T 72100 50550 5 10 1 1 0 0 1
netname=mem1_data_o_8
}
N 71700 50100 73800 50100 4
{
T 72100 50150 5 10 1 1 0 0 1
netname=mem1_wclk_o_p
}
N 71700 49900 73800 49900 4
{
T 72100 49950 5 10 1 1 0 0 1
netname=mem1_wclk_o_n
}
N 92900 52900 95300 52900 4
{
T 93400 52950 5 10 1 1 0 0 1
netname=mem1_data_o_0
}
N 92900 54100 95300 54100 4
{
T 93400 54150 5 10 1 1 0 0 1
netname=mem1_data_o_1
}
N 92900 52700 95300 52700 4
{
T 93400 52750 5 10 1 1 0 0 1
netname=mem1_data_o_2
}
N 92900 55100 95300 55100 4
{
T 93400 55150 5 10 1 1 0 0 1
netname=mem1_data_o_3
}
N 92900 52100 95300 52100 4
{
T 93400 52150 5 10 1 1 0 0 1
netname=mem1_data_o_4
}
N 92900 55300 95300 55300 4
{
T 93400 55350 5 10 1 1 0 0 1
netname=mem1_data_o_5
}
N 92900 53900 95300 53900 4
{
T 93400 53950 5 10 1 1 0 0 1
netname=mem1_data_o_6
}
N 92900 54500 95300 54500 4
{
T 93400 54550 5 10 1 1 0 0 1
netname=mem1_data_o_7
}
N 92900 52300 95300 52300 4
{
T 93400 52350 5 10 1 1 0 0 1
netname=mem1_data_o_8
}
N 92900 53500 95300 53500 4
{
T 93400 53550 5 10 1 1 0 0 1
netname=mem1_wclk_o_p
}
N 92900 53300 95300 53300 4
{
T 93400 53350 5 10 1 1 0 0 1
netname=mem1_wclk_o_n
}
N 79000 52100 81100 52100 4
{
T 79300 52150 5 10 1 1 0 0 1
netname=mem1_data_i_0
}
N 79000 51900 81100 51900 4
{
T 79300 51950 5 10 1 1 0 0 1
netname=mem1_data_i_1
}
N 79000 51700 81100 51700 4
{
T 79300 51750 5 10 1 1 0 0 1
netname=mem1_data_i_2
}
N 79000 51500 81100 51500 4
{
T 79300 51550 5 10 1 1 0 0 1
netname=mem1_data_i_3
}
N 79000 51300 81100 51300 4
{
T 79300 51350 5 10 1 1 0 0 1
netname=mem1_data_i_4
}
N 79000 51100 81100 51100 4
{
T 79300 51150 5 10 1 1 0 0 1
netname=mem1_data_i_5
}
N 79000 50900 81100 50900 4
{
T 79300 50950 5 10 1 1 0 0 1
netname=mem1_data_i_6
}
N 79000 50700 81100 50700 4
{
T 79300 50750 5 10 1 1 0 0 1
netname=mem1_data_i_7
}
N 79000 50500 81100 50500 4
{
T 79300 50550 5 10 1 1 0 0 1
netname=mem1_data_i_8
}
N 84500 55300 86900 55300 4
{
T 85000 55350 5 10 1 1 0 0 1
netname=mem1_data_i_0
}
N 84500 55100 86900 55100 4
{
T 85000 55150 5 10 1 1 0 0 1
netname=mem1_data_i_1
}
N 84500 54700 86900 54700 4
{
T 85000 54750 5 10 1 1 0 0 1
netname=mem1_data_i_2
}
N 84500 54500 86900 54500 4
{
T 85000 54550 5 10 1 1 0 0 1
netname=mem1_data_i_3
}
N 84500 53500 86900 53500 4
{
T 85000 53550 5 10 1 1 0 0 1
netname=mem1_data_i_4
}
N 84500 53300 86900 53300 4
{
T 85000 53350 5 10 1 1 0 0 1
netname=mem1_data_i_5
}
N 84500 52900 86900 52900 4
{
T 85000 52950 5 10 1 1 0 0 1
netname=mem1_data_i_6
}
N 84500 52700 86900 52700 4
{
T 85000 52750 5 10 1 1 0 0 1
netname=mem1_data_i_7
}
N 84500 52300 86900 52300 4
{
T 85000 52350 5 10 1 1 0 0 1
netname=mem1_data_i_8
}
N 79000 49500 81100 49500 4
{
T 79300 49550 5 10 1 1 0 0 1
netname=mem1_rclk_i_p
}
N 79000 49300 81100 49300 4
{
T 79300 49350 5 10 1 1 0 0 1
netname=mem1_rclk_i_n
}
N 79000 50100 81100 50100 4
{
T 79300 50150 5 10 1 1 0 0 1
netname=mem1_rclk_o_p
}
N 79000 49900 81100 49900 4
{
T 79300 49950 5 10 1 1 0 0 1
netname=mem1_rclk_o_n
}
N 92900 49100 95300 49100 4
{
T 93400 49150 5 10 1 1 0 0 1
netname=mem1_addr_o_0
}
N 92900 51500 95300 51500 4
{
T 93400 51550 5 10 1 1 0 0 1
netname=mem1_addr_o_1
}
N 84500 50300 86900 50300 4
{
T 85000 50350 5 10 1 1 0 0 1
netname=mem1_addr_o_2
}
N 84500 50500 86900 50500 4
{
T 85000 50550 5 10 1 1 0 0 1
netname=mem1_addr_o_3
}
N 92900 50900 95300 50900 4
{
T 93400 50950 5 10 1 1 0 0 1
netname=mem1_addr_o_4
}
N 92900 50300 95300 50300 4
{
T 93400 50350 5 10 1 1 0 0 1
netname=mem1_addr_o_5
}
N 92900 50500 95300 50500 4
{
T 93400 50550 5 10 1 1 0 0 1
netname=mem1_addr_o_6
}
N 92900 49300 95300 49300 4
{
T 93400 49350 5 10 1 1 0 0 1
netname=mem1_addr_o_7
}
N 92900 51700 95300 51700 4
{
T 93400 51750 5 10 1 1 0 0 1
netname=mem1_addr_o_8
}
N 92900 49900 95300 49900 4
{
T 93400 49950 5 10 1 1 0 0 1
netname=mem1_addr_o_9
}
N 84500 51100 86900 51100 4
{
T 85000 51150 5 10 1 1 0 0 1
netname=mem1_addr_o_12
}
N 92900 48700 95300 48700 4
{
T 93400 48750 5 10 1 1 0 0 1
netname=mem1_addr_o_13
}
N 84500 50900 86900 50900 4
{
T 85000 50950 5 10 1 1 0 0 1
netname=mem1_addr_o_14
}
N 92900 48500 95300 48500 4
{
T 93400 48550 5 10 1 1 0 0 1
netname=mem1_addr_o_15
}
N 84500 49300 86900 49300 4
{
T 85000 49350 5 10 1 1 0 0 1
netname=mem1_addr_o_16
}
N 92900 51100 95300 51100 4
{
T 93400 51150 5 10 1 1 0 0 1
netname=mem1_addr_o_17
}
N 84500 51500 86900 51500 4
{
T 85000 51550 5 10 1 1 0 0 1
netname=mem1_addr_o_18
}
N 84500 51700 86900 51700 4
{
T 85000 51750 5 10 1 1 0 0 1
netname=mem1_addr_o_19
}
N 84500 49700 86900 49700 4
{
T 85000 49750 5 10 1 1 0 0 1
netname=mem1_addr_o_20
}
N 84500 49100 86900 49100 4
{
T 85000 49150 5 10 1 1 0 0 1
netname=mem1_addr_o_21
}
N 84500 49900 86900 49900 4
{
T 85000 49950 5 10 1 1 0 0 1
netname=mem1_addr_o_10
}
N 92900 49700 95300 49700 4
{
T 93400 49750 5 10 1 1 0 0 1
netname=mem1_addr_o_11
}
N 79000 44600 79000 46700 4
N 73800 46700 73800 44600 4
N 71700 48900 73800 48900 4
{
T 72100 48950 5 10 1 1 0 0 1
netname=mem1_wps_o
}
N 92900 54700 95300 54700 4
{
T 93400 54750 5 10 1 1 0 0 1
netname=mem1_wps_o
}
N 71700 54100 73800 54100 4
{
T 72100 54150 5 10 1 1 0 0 1
netname=mem1_addr_o_2
}
N 71700 53900 73800 53900 4
{
T 72100 53950 5 10 1 1 0 0 1
netname=mem1_addr_o_3
}
N 71700 53700 73800 53700 4
{
T 72100 53750 5 10 1 1 0 0 1
netname=mem1_addr_o_4
}
N 71700 53500 73800 53500 4
{
T 72100 53550 5 10 1 1 0 0 1
netname=mem1_addr_o_5
}
N 71700 53300 73800 53300 4
{
T 72100 53350 5 10 1 1 0 0 1
netname=mem1_addr_o_6
}
N 71700 53100 73800 53100 4
{
T 72100 53150 5 10 1 1 0 0 1
netname=mem1_addr_o_7
}
N 71700 52900 73800 52900 4
{
T 72100 52950 5 10 1 1 0 0 1
netname=mem1_addr_o_8
}
N 71700 52700 73800 52700 4
{
T 72100 52750 5 10 1 1 0 0 1
netname=mem1_addr_o_9
}
N 71700 52500 73800 52500 4
{
T 72100 52550 5 10 1 1 0 0 1
netname=mem1_addr_o_10
}
N 79000 54500 81100 54500 4
{
T 79300 54550 5 10 1 1 0 0 1
netname=mem1_addr_o_11
}
N 79000 54300 81100 54300 4
{
T 79300 54350 5 10 1 1 0 0 1
netname=mem1_addr_o_12
}
N 79000 54100 81100 54100 4
{
T 79300 54150 5 10 1 1 0 0 1
netname=mem1_addr_o_13
}
N 79000 53900 81100 53900 4
{
T 79300 53950 5 10 1 1 0 0 1
netname=mem1_addr_o_14
}
N 79000 53700 81100 53700 4
{
T 79300 53750 5 10 1 1 0 0 1
netname=mem1_addr_o_15
}
N 79000 53500 81100 53500 4
{
T 79300 53550 5 10 1 1 0 0 1
netname=mem1_addr_o_16
}
N 79000 53300 81100 53300 4
{
T 79300 53350 5 10 1 1 0 0 1
netname=mem1_addr_o_17
}
N 79000 53100 81100 53100 4
{
T 79300 53150 5 10 1 1 0 0 1
netname=mem1_addr_o_18
}
N 79000 52900 81100 52900 4
{
T 79300 52950 5 10 1 1 0 0 1
netname=mem1_addr_o_19
}
N 79000 52700 81100 52700 4
{
T 79300 52750 5 10 1 1 0 0 1
netname=mem1_addr_o_20
}
N 79000 52500 81100 52500 4
{
T 79300 52550 5 10 1 1 0 0 1
netname=mem1_addr_o_21
}
N 79000 48900 81100 48900 4
{
T 79300 48950 5 10 1 1 0 0 1
netname=mem1_rps_o
}
N 84500 52100 86900 52100 4
{
T 85000 52150 5 10 1 1 0 0 1
netname=mem1_rps_o
}
N 79000 59000 79000 56700 4
N 73800 56700 73800 58500 4
N 89000 47000 91000 47000 4
C 88900 46700 1 0 0 dgnd.sym
N 84500 48700 86900 48700 4
{
T 85000 48750 5 10 1 1 0 0 1
netname=mem1_rclk_i_p
}
N 84500 48500 86900 48500 4
{
T 85000 48550 5 10 1 1 0 0 1
netname=mem1_rclk_i_n
}
N 84500 54100 86900 54100 4
{
T 85000 54150 5 10 1 1 0 0 1
netname=mem1_rclk_o_p
}
N 84500 53900 86900 53900 4
{
T 85000 53950 5 10 1 1 0 0 1
netname=mem1_rclk_o_n
}
N 71700 49300 73800 49300 4
{
T 72100 49350 5 10 1 1 0 0 1
netname=mem1_bws_o
}
N 70500 48500 73800 48500 4
{
T 72100 48550 5 10 1 1 0 0 1
netname=mem1_doff_o
}
N 84500 48100 86900 48100 4
{
T 85000 48150 5 10 1 1 0 0 1
netname=mem1_doff_o
}
N 92900 48100 95300 48100 4
{
T 93400 48150 5 10 1 1 0 0 1
netname=mem1_bws_o
}
N 61500 53000 63600 53000 4
{
T 61800 53050 5 10 1 1 0 0 1
netname=mem1_addr_o_0
}
T 57000 54900 9 10 1 0 0 0 3
Termination Resistors should be placed
close to the memory chip in a Fly-By
Configuration
N 61500 52600 63600 52600 4
{
T 61800 52650 5 10 1 1 0 0 1
netname=mem1_addr_o_1
}
N 61500 52200 63600 52200 4
{
T 61800 52250 5 10 1 1 0 0 1
netname=mem1_addr_o_2
}
N 61500 53400 63600 53400 4
{
T 61800 53450 5 10 1 1 0 0 1
netname=mem1_addr_o_3
}
N 56900 47000 59000 47000 4
{
T 57200 47050 5 10 1 1 0 0 1
netname=mem1_addr_o_4
}
N 56900 53400 59000 53400 4
{
T 57200 53450 5 10 1 1 0 0 1
netname=mem1_addr_o_5
}
N 56900 50000 59000 50000 4
{
T 57200 50050 5 10 1 1 0 0 1
netname=mem1_addr_o_6
}
N 56900 49600 59000 49600 4
{
T 57200 49650 5 10 1 1 0 0 1
netname=mem1_addr_o_7
}
N 56900 53000 59000 53000 4
{
T 57200 53050 5 10 1 1 0 0 1
netname=mem1_addr_o_8
}
N 66100 52200 68200 52200 4
{
T 66400 52250 5 10 1 1 0 0 1
netname=mem1_addr_o_9
}
N 61500 48200 63600 48200 4
{
T 61800 48250 5 10 1 1 0 0 1
netname=mem1_addr_o_10
}
N 66100 52600 68200 52600 4
{
T 66400 52650 5 10 1 1 0 0 1
netname=mem1_addr_o_11
}
N 61500 47400 63600 47400 4
{
T 61800 47450 5 10 1 1 0 0 1
netname=mem1_addr_o_12
}
N 66100 53000 68200 53000 4
{
T 66400 53050 5 10 1 1 0 0 1
netname=mem1_addr_o_13
}
N 66100 53400 68200 53400 4
{
T 66400 53450 5 10 1 1 0 0 1
netname=mem1_addr_o_14
}
N 66100 49600 68200 49600 4
{
T 66400 49650 5 10 1 1 0 0 1
netname=mem1_addr_o_15
}
N 69200 41800 71300 41800 4
{
T 69500 41850 5 10 1 1 0 0 1
netname=mem1_addr_o_16
}
N 66100 47000 68200 47000 4
{
T 66400 47050 5 10 1 1 0 0 1
netname=mem1_addr_o_17
}
N 66100 50800 68200 50800 4
{
T 66400 50850 5 10 1 1 0 0 1
netname=mem1_addr_o_18
}
N 66100 47800 68200 47800 4
{
T 66400 47850 5 10 1 1 0 0 1
netname=mem1_addr_o_19
}
N 66100 47400 68200 47400 4
{
T 66400 47450 5 10 1 1 0 0 1
netname=mem1_addr_o_20
}
N 66100 48200 68200 48200 4
{
T 66400 48250 5 10 1 1 0 0 1
netname=mem1_addr_o_21
}
N 69200 42200 71300 42200 4
{
T 69500 42250 5 10 1 1 0 0 1
netname=mem1_data_o_0
}
N 69200 42600 71300 42600 4
{
T 69500 42650 5 10 1 1 0 0 1
netname=mem1_data_o_1
}
N 69200 43000 71300 43000 4
{
T 69500 43050 5 10 1 1 0 0 1
netname=mem1_data_o_2
}
N 56900 52600 59000 52600 4
{
T 57200 52650 5 10 1 1 0 0 1
netname=mem1_data_o_3
}
N 56900 52200 59000 52200 4
{
T 57200 52250 5 10 1 1 0 0 1
netname=mem1_data_o_4
}
N 61500 49600 63600 49600 4
{
T 61800 49650 5 10 1 1 0 0 1
netname=mem1_data_o_5
}
N 61500 50000 63600 50000 4
{
T 61800 50050 5 10 1 1 0 0 1
netname=mem1_data_o_6
}
N 61500 47000 63600 47000 4
{
T 61800 47050 5 10 1 1 0 0 1
netname=mem1_data_o_7
}
N 61500 47800 63600 47800 4
{
T 61800 47850 5 10 1 1 0 0 1
netname=mem1_data_o_8
}
C 79800 47800 1 0 0 resistor.sym
{
T 80100 48200 5 10 0 0 0 0 1
device=RESISTOR
T 80100 48300 5 10 1 1 0 6 1
refdes=R920
T 80400 48300 5 10 1 1 0 0 1
value=250
T 80000 47800 5 10 1 1 0 0 1
footprint=0603
}
C 80600 47800 1 0 0 dgnd.sym
N 79000 48100 79800 48100 4
N 79400 47500 79400 47700 4
N 79000 47700 79400 47700 4
N 73800 47500 73100 47500 4
N 73100 47500 73100 44600 4
T 71700 47400 9 10 1 0 0 0 1
Disabling JTAG
C 61600 42200 1 0 0 voltage_reg-TPS51206.sym
{
T 62500 45150 5 12 1 1 0 4 1
device=TPS51206
T 61800 45700 5 10 1 1 0 0 1
refdes=U901
T 61800 45500 5 10 1 1 0 0 1
footprint=PWSON10_EPT.fp
}
C 62400 41900 1 0 0 dgnd.sym
N 57900 42500 60500 42500 4
{
T 59400 42550 5 10 1 1 0 6 1
netname=mem1_cntrl_s3_o
}
N 57900 42300 60700 42300 4
{
T 59400 42350 5 10 1 1 0 6 1
netname=mem1_cntrl_s5_o
}
T 59300 40900 9 10 1 0 0 0 2
S3 and S5 are power state
Controls with 3.3 V logic
N 61600 44300 61000 44300 4
N 61000 44300 61000 44100 4
C 58700 43200 1 90 0 capacitor.sym
{
T 58000 43500 5 10 0 0 90 0 1
device=CAPACITOR
T 58400 43800 5 10 1 1 180 2 1
refdes=C910
T 58400 43500 5 10 1 1 180 0 1
value=10.0u
T 58700 43100 5 10 1 1 90 0 1
footprint=0603
}
C 58400 42900 1 0 0 dgnd.sym
C 63700 43400 1 90 0 dgnd.sym
C 66900 43400 1 90 0 capacitor.sym
{
T 66200 43700 5 10 0 0 90 0 1
device=CAPACITOR
T 66600 44000 5 10 1 1 180 2 1
refdes=C913
T 66600 43700 5 10 1 1 180 0 1
value=10.0u
T 66900 43300 5 10 1 1 90 0 1
footprint=0603
}
C 66600 43100 1 0 0 dgnd.sym
N 63400 44100 65500 44100 4
N 65500 44100 66700 44300 4
C 65300 42400 1 90 0 capacitor.sym
{
T 64600 42700 5 10 0 0 90 0 1
device=CAPACITOR
T 65000 43000 5 10 1 1 180 2 1
refdes=C912
T 65000 42700 5 10 1 1 180 0 1
value=0.22u
T 65300 42300 5 10 1 1 90 0 1
footprint=0603
}
C 63700 42600 1 90 0 dgnd.sym
C 65000 42100 1 0 0 dgnd.sym
C 58700 40700 1 90 0 capacitor.sym
{
T 58000 41000 5 10 0 0 90 0 1
device=CAPACITOR
T 58400 41300 5 10 1 1 180 2 1
refdes=C911
T 58400 41000 5 10 1 1 180 0 1
value=0.1u
T 58700 40600 5 10 1 1 90 0 1
footprint=0603
}
C 58400 40400 1 0 0 dgnd.sym
C 62500 58100 1 90 0 capacitor.sym
{
T 61800 58400 5 10 0 0 90 0 1
device=CAPACITOR
T 62200 58700 5 10 1 1 180 2 1
refdes=C920
T 62200 58400 5 10 1 1 180 0 1
value=100u
T 62500 58000 5 10 1 1 90 0 1
footprint=1210
}
C 63400 58100 1 90 0 capacitor.sym
{
T 62700 58400 5 10 0 0 90 0 1
device=CAPACITOR
T 63100 58700 5 10 1 1 180 2 1
refdes=C921
T 63100 58400 5 10 1 1 180 0 1
value=4.7u
T 63400 58000 5 10 1 1 90 0 1
footprint=0603
}
C 64300 58100 1 90 0 capacitor.sym
{
T 63600 58400 5 10 0 0 90 0 1
device=CAPACITOR
T 64000 58700 5 10 1 1 180 2 1
refdes=C922
T 64000 58400 5 10 1 1 180 0 1
value=4.7u
T 64300 58000 5 10 1 1 90 0 1
footprint=0603
}
C 65200 58100 1 90 0 capacitor.sym
{
T 64500 58400 5 10 0 0 90 0 1
device=CAPACITOR
T 64900 58700 5 10 1 1 180 2 1
refdes=C923
T 64900 58400 5 10 1 1 180 0 1
value=0.47u
T 65200 58000 5 10 1 1 90 0 1
footprint=0603
}
N 62300 58100 62300 57900 4
N 63200 58100 63200 57900 4
N 64100 58100 64100 57900 4
N 65000 58100 65000 57900 4
C 62200 57600 1 0 0 dgnd.sym
C 62500 55800 1 90 0 capacitor.sym
{
T 61800 56100 5 10 0 0 90 0 1
device=CAPACITOR
T 62200 56400 5 10 1 1 180 2 1
refdes=C940
T 62200 56100 5 10 1 1 180 0 1
value=100u
T 62500 55700 5 10 1 1 90 0 1
footprint=1210
}
C 63400 55800 1 90 0 capacitor.sym
{
T 62700 56100 5 10 0 0 90 0 1
device=CAPACITOR
T 63100 56400 5 10 1 1 180 2 1
refdes=C941
T 63100 56100 5 10 1 1 180 0 1
value=4.7u
T 63400 55700 5 10 1 1 90 0 1
footprint=0603
}
C 64300 55800 1 90 0 capacitor.sym
{
T 63600 56100 5 10 0 0 90 0 1
device=CAPACITOR
T 64000 56400 5 10 1 1 180 2 1
refdes=C942
T 64000 56100 5 10 1 1 180 0 1
value=4.7u
T 64300 55700 5 10 1 1 90 0 1
footprint=0603
}
C 65200 55800 1 90 0 capacitor.sym
{
T 64500 56100 5 10 0 0 90 0 1
device=CAPACITOR
T 64900 56400 5 10 1 1 180 2 1
refdes=C943
T 64900 56100 5 10 1 1 180 0 1
value=0.47u
T 65200 55700 5 10 1 1 90 0 1
footprint=0603
}
N 62300 55800 62300 55600 4
N 63200 55800 63200 55600 4
N 64100 55800 64100 55600 4
N 65000 55800 65000 55600 4
C 62200 55300 1 0 0 dgnd.sym
T 64000 57200 9 10 1 0 0 0 2
Place Decoupling capacitors evenly
through VDD and VDDQ
C 86500 57300 1 90 0 capacitor.sym
{
T 85800 57600 5 10 0 0 90 0 1
device=CAPACITOR
T 86200 57900 5 10 1 1 180 2 1
refdes=C900
T 86200 57600 5 10 1 1 180 0 1
value=100u
T 86500 57200 5 10 1 1 90 0 1
footprint=1210
}
N 86300 58200 91200 58200 4
C 86200 57000 1 0 0 dgnd.sym
C 59000 51800 1 0 0 resistor_pack_04_03.sym
{
T 59200 53800 5 10 0 0 0 0 1
device=RESP
T 59400 53600 5 10 1 1 0 6 1
refdes=R910
T 59500 53600 5 10 1 1 0 0 1
value=49.9
T 59500 51900 5 10 1 1 0 3 1
footprint=CRA06E.fp
}
C 59000 49200 1 0 0 resistor_pack_04_03.sym
{
T 59200 51200 5 10 0 0 0 0 1
device=RESP
T 59400 51000 5 10 1 1 0 6 1
refdes=R911
T 59500 51000 5 10 1 1 0 0 1
value=49.9
T 59400 49300 5 10 1 1 0 3 1
footprint=CRA06E.fp
}
C 59000 46600 1 0 0 resistor_pack_04_03.sym
{
T 59200 48600 5 10 0 0 0 0 1
device=RESP
T 59400 48400 5 10 1 1 0 6 1
refdes=R912
T 59500 48400 5 10 1 1 0 0 1
value=49.9
T 59400 46700 5 10 1 1 0 3 1
footprint=CRA06E.fp
}
C 63600 49200 1 0 0 resistor_pack_04_03.sym
{
T 63800 51200 5 10 0 0 0 0 1
device=RESP
T 64000 51000 5 10 1 1 0 6 1
refdes=R914
T 64100 51000 5 10 1 1 0 0 1
value=49.9
T 64000 49300 5 10 1 1 0 3 1
footprint=CRA06E.fp
}
C 63600 46600 1 0 0 resistor_pack_04_03.sym
{
T 63800 48600 5 10 0 0 0 0 1
device=RESP
T 64000 48400 5 10 1 1 0 6 1
refdes=R915
T 64100 48400 5 10 1 1 0 0 1
value=49.9
T 64100 46700 5 10 1 1 0 3 1
footprint=CRA06E.fp
}
C 68200 51800 1 0 0 resistor_pack_04_03.sym
{
T 68400 53800 5 10 0 0 0 0 1
device=RESP
T 68600 53600 5 10 1 1 0 6 1
refdes=R916
T 68700 53600 5 10 1 1 0 0 1
value=49.9
T 68600 51900 5 10 1 1 0 3 1
footprint=CRA06E.fp
}
C 68200 49200 1 0 0 resistor_pack_04_03.sym
{
T 68400 51200 5 10 0 0 0 0 1
device=RESP
T 68600 51000 5 10 1 1 0 6 1
refdes=R917
T 68700 51000 5 10 1 1 0 0 1
value=49.9
T 68600 49300 5 10 1 1 0 3 1
footprint=CRA06E.fp
}
C 68200 46600 1 0 0 resistor_pack_04_03.sym
{
T 68400 48600 5 10 0 0 0 0 1
device=RESP
T 68600 48400 5 10 1 1 0 6 1
refdes=R918
T 68700 48400 5 10 1 1 0 0 1
value=49.9
T 68600 46700 5 10 1 1 0 3 1
footprint=CRA06E.fp
}
N 79000 47500 81900 47500 4
N 63400 43300 65800 43300 4
C 57100 42400 1 0 0 input-1.sym
{
T 57400 42500 5 10 1 1 0 4 1
value=12
}
C 57100 42200 1 0 0 input-1.sym
{
T 57400 42300 5 10 1 1 0 4 1
value=12
}
N 58500 44100 61600 44100 4
C 57700 44000 1 0 0 input-1.sym
{
T 58000 44100 5 10 1 1 0 4 1
value=13
}
N 60500 42500 60500 43300 4
N 60500 43300 61600 43300 4
N 61600 43100 60700 43100 4
N 60700 43100 60700 42300 4
C 57700 41500 1 0 0 input-1.sym
{
T 58000 41600 5 10 1 1 0 4 1
value=13
}
C 58300 41600 1 0 0 dvcc.sym
{
T 58550 41920 5 10 1 1 0 3 1
net=VCCO_3P3:1
}
N 58500 41600 61400 41600 4
N 61400 41600 61400 42700 4
N 61400 42700 61600 42700 4
C 85500 58100 1 0 0 input-1.sym
{
T 85800 58200 5 10 1 1 0 4 1
value=13
}
T 58900 57200 9 10 1 0 0 0 4
Powering On Sequence:
1st  -> VDD	(Core)
2nd -> VDDQ  (Output)
3rd  -> VREF	(Logic Ref)
N 62300 59000 79000 59000 4
C 62100 59000 1 0 0 dvcc.sym
{
T 62350 59320 5 10 1 1 0 3 1
net=VCCO_1P8:1
}
C 61500 58900 1 0 0 input-1.sym
{
T 61800 59000 5 10 1 1 0 4 1
value=13
}
T 65500 42600 9 10 1 0 0 0 1
VREF provides 10mA
N 63400 44300 67500 44300 4
T 67200 43900 9 10 1 0 0 0 1
VTT provides 2A
C 86100 58200 1 0 0 dvcc.sym
{
T 86350 58520 5 10 1 1 0 3 1
net=VCCO_1P8:1
}
C 58300 44100 1 0 0 dvcc.sym
{
T 58550 44420 5 10 1 1 0 3 1
net=VCCO_1P8:1
}
C 66100 58100 1 90 0 capacitor.sym
{
T 65400 58400 5 10 0 0 90 0 1
device=CAPACITOR
T 65800 58700 5 10 1 1 180 2 1
refdes=C924
T 65800 58400 5 10 1 1 180 0 1
value=0.47u
T 66100 58000 5 10 1 1 90 0 1
footprint=0603
}
C 67000 58100 1 90 0 capacitor.sym
{
T 66300 58400 5 10 0 0 90 0 1
device=CAPACITOR
T 66700 58700 5 10 1 1 180 2 1
refdes=C925
T 66700 58400 5 10 1 1 180 0 1
value=0.47u
T 67000 58000 5 10 1 1 90 0 1
footprint=0603
}
C 67900 58100 1 90 0 capacitor.sym
{
T 67200 58400 5 10 0 0 90 0 1
device=CAPACITOR
T 67600 58700 5 10 1 1 180 2 1
refdes=C926
T 67600 58400 5 10 1 1 180 0 1
value=0.47u
T 67900 58000 5 10 1 1 90 0 1
footprint=0603
}
N 65900 58100 65900 57900 4
N 66800 58100 66800 57900 4
N 67700 58100 67700 57900 4
N 62300 57900 71300 57900 4
N 62300 56700 73800 56700 4
C 66100 55800 1 90 0 capacitor.sym
{
T 65400 56100 5 10 0 0 90 0 1
device=CAPACITOR
T 65800 56400 5 10 1 1 180 2 1
refdes=C944
T 65800 56100 5 10 1 1 180 0 1
value=0.47u
T 66100 55700 5 10 1 1 90 0 1
footprint=0603
}
C 67000 55800 1 90 0 capacitor.sym
{
T 66300 56100 5 10 0 0 90 0 1
device=CAPACITOR
T 66700 56400 5 10 1 1 180 2 1
refdes=C945
T 66700 56100 5 10 1 1 180 0 1
value=0.47u
T 67000 55700 5 10 1 1 90 0 1
footprint=0603
}
C 67900 55800 1 90 0 capacitor.sym
{
T 67200 56100 5 10 0 0 90 0 1
device=CAPACITOR
T 67600 56400 5 10 1 1 180 2 1
refdes=C946
T 67600 56100 5 10 1 1 180 0 1
value=0.47u
T 67900 55700 5 10 1 1 90 0 1
footprint=0603
}
N 65900 55800 65900 55600 4
N 66800 55800 66800 55600 4
N 67700 55800 67700 55600 4
N 62300 55600 71300 55600 4
T 59300 45000 9 10 1 0 0 0 1
For Layout: Use Datasheet 
C 61500 56600 1 0 0 input-1.sym
{
T 61800 56700 5 10 1 1 0 4 1
value=13
}
C 62100 56700 1 0 0 dvcc.sym
{
T 62350 57020 5 10 1 1 0 3 1
net=VCCO_1P8:1
}
T 87100 42200 9 10 1 0 0 0 3
Input and Outputs to other Pages:
Page 13 (Power): 2
Page 14 (Power Control): 2
T 92700 43800 9 10 1 0 0 0 1
Current: 234mA
T 92700 42900 9 10 1 0 0 0 1
Current: 85mA
C 91700 43600 1 0 0 dvcc.sym
{
T 91950 43920 5 10 1 1 0 3 1
net=VCCO_1P8:1
}
C 91700 42800 1 0 0 dvcc.sym
{
T 91950 43120 5 10 1 1 0 3 1
net=VCCO_3P3:1
}
C 66500 44300 1 0 0 dvcc.sym
{
T 66750 44620 5 10 1 1 0 3 1
net=VTT_MEM1_0P9:1
}
C 64300 48400 1 0 0 dvcc.sym
{
T 64550 48720 5 10 1 1 0 3 1
net=VTT_MEM1_0P9:1
}
N 64500 48400 64500 47000 4
C 59700 53600 1 0 0 dvcc.sym
{
T 59950 53920 5 10 1 1 0 3 1
net=VTT_MEM1_0P9:1
}
N 59900 53600 59900 52200 4
C 68900 53600 1 0 0 dvcc.sym
{
T 69150 53920 5 10 1 1 0 3 1
net=VTT_MEM1_0P9:1
}
N 69100 53600 69100 52200 4
C 59700 51000 1 0 0 dvcc.sym
{
T 59950 51320 5 10 1 1 0 3 1
net=VTT_MEM1_0P9:1
}
N 59900 51000 59900 49600 4
C 68900 51000 1 0 0 dvcc.sym
{
T 69150 51320 5 10 1 1 0 3 1
net=VTT_MEM1_0P9:1
}
N 69100 51000 69100 49600 4
C 59700 48400 1 0 0 dvcc.sym
{
T 59950 48720 5 10 1 1 0 3 1
net=VTT_MEM1_0P9:1
}
N 59900 48400 59900 47000 4
C 68900 48400 1 0 0 dvcc.sym
{
T 69150 48720 5 10 1 1 0 3 1
net=VTT_MEM1_0P9:1
}
N 69100 47000 69100 48400 4
C 64300 51200 1 0 0 dvcc.sym
{
T 64550 51520 5 10 1 1 0 3 1
net=VTT_MEM1_0P9:1
}
N 64500 51200 64500 49600 4
C 64900 43300 1 0 0 dvcc.sym
{
T 65150 43620 5 10 1 1 0 3 1
net=VREF_MEM1_0P9:1
}
C 81700 47500 1 0 0 dvcc.sym
{
T 81950 47820 5 10 1 1 0 3 1
net=VREF_MEM1_0P9:1
}
N 56900 50400 59000 50400 4
{
T 57200 50450 5 10 1 1 0 0 1
netname=mem1_rps_o
}
N 56900 50800 59000 50800 4
{
T 57200 50850 5 10 1 1 0 0 1
netname=mem1_bws_o
}
N 56900 48200 59000 48200 4
{
T 57200 48250 5 10 1 1 0 0 1
netname=mem1_wps_o
}
C 63600 51800 1 0 0 resistor_pack_04_03.sym
{
T 63800 53800 5 10 0 0 0 0 1
device=RESP
T 64000 53600 5 10 1 1 0 6 1
refdes=R913
T 64000 51900 5 10 1 1 0 3 1
footprint=CRA06E.fp
T 64100 53600 5 10 1 1 0 0 1
value=49.9
}
N 64500 53600 64500 52200 4
C 64300 53600 1 0 0 dvcc.sym
{
T 64550 53920 5 10 1 1 0 3 1
net=VTT_MEM1_0P9:1
}
C 70800 49400 1 0 0 dvcc.sym
{
T 71050 49720 5 10 1 1 0 3 1
net=VCCO_1P8:1
}
C 71300 48500 1 90 0 resistor.sym
{
T 70900 48800 5 10 0 0 90 0 1
device=RESISTOR
T 70900 49200 5 10 1 1 180 0 1
refdes=R921
T 70900 48900 5 10 1 1 180 0 1
value=4.7K
T 71300 48800 5 10 1 1 90 0 1
footprint=0603
}
C 71300 41400 1 0 0 resistor_pack_04_03.sym
{
T 71500 43400 5 10 0 0 0 0 1
device=RESP
T 71700 43200 5 10 1 1 0 6 1
refdes=R919
T 71800 43200 5 10 1 1 0 0 1
value=49.9
T 71700 41500 5 10 1 1 0 3 1
footprint=CRA06E.fp
}
C 72000 43200 1 0 0 dvcc.sym
{
T 72250 43520 5 10 1 1 0 3 1
net=VTT_MEM1_0P9:1
}
N 72200 41800 72200 43200 4
N 56900 47800 59000 47800 4
{
T 57200 47850 5 10 1 1 0 0 1
netname=mem1_wclk_o_p
}
N 56900 47400 59000 47400 4
{
T 57200 47450 5 10 1 1 0 0 1
netname=mem1_wclk_o_n
}
N 66100 50400 68200 50400 4
{
T 66400 50450 5 10 1 1 0 0 1
netname=mem1_rclk_o_p
}
N 66100 50000 68200 50000 4
{
T 66400 50050 5 10 1 1 0 0 1
netname=mem1_rclk_o_n
}
C 68800 58100 1 90 0 capacitor.sym
{
T 68100 58400 5 10 0 0 90 0 1
device=CAPACITOR
T 68500 58700 5 10 1 1 180 2 1
refdes=C927
T 68500 58400 5 10 1 1 180 0 1
value=0.047u
T 68800 58000 5 10 1 1 90 0 1
footprint=0603
}
C 69700 58100 1 90 0 capacitor.sym
{
T 69000 58400 5 10 0 0 90 0 1
device=CAPACITOR
T 69400 58700 5 10 1 1 180 2 1
refdes=C928
T 69400 58400 5 10 1 1 180 0 1
value=0.047u
T 69700 58000 5 10 1 1 90 0 1
footprint=0603
}
C 70600 58100 1 90 0 capacitor.sym
{
T 69900 58400 5 10 0 0 90 0 1
device=CAPACITOR
T 70300 58700 5 10 1 1 180 2 1
refdes=C929
T 70300 58400 5 10 1 1 180 0 1
value=0.047u
T 70600 58000 5 10 1 1 90 0 1
footprint=0603
}
C 71500 58100 1 90 0 capacitor.sym
{
T 70800 58400 5 10 0 0 90 0 1
device=CAPACITOR
T 71200 58700 5 10 1 1 180 2 1
refdes=C930
T 71200 58400 5 10 1 1 180 0 1
value=0.047u
T 71500 58000 5 10 1 1 90 0 1
footprint=0603
}
N 71300 58100 71300 57900 4
N 68600 58100 68600 57900 4
N 69500 58100 69500 57900 4
N 70400 58100 70400 57900 4
C 68800 55800 1 90 0 capacitor.sym
{
T 68100 56100 5 10 0 0 90 0 1
device=CAPACITOR
T 68500 56400 5 10 1 1 180 2 1
refdes=C947
T 68500 56100 5 10 1 1 180 0 1
value=0.047u
T 68800 55700 5 10 1 1 90 0 1
footprint=0603
}
C 69700 55800 1 90 0 capacitor.sym
{
T 69000 56100 5 10 0 0 90 0 1
device=CAPACITOR
T 69400 56400 5 10 1 1 180 2 1
refdes=C948
T 69400 56100 5 10 1 1 180 0 1
value=0.047u
T 69700 55700 5 10 1 1 90 0 1
footprint=0603
}
C 70600 55800 1 90 0 capacitor.sym
{
T 69900 56100 5 10 0 0 90 0 1
device=CAPACITOR
T 70300 56400 5 10 1 1 180 2 1
refdes=C949
T 70300 56100 5 10 1 1 180 0 1
value=0.047u
T 70600 55700 5 10 1 1 90 0 1
footprint=0603
}
C 71500 55800 1 90 0 capacitor.sym
{
T 70800 56100 5 10 0 0 90 0 1
device=CAPACITOR
T 71200 56400 5 10 1 1 180 2 1
refdes=C950
T 71200 56100 5 10 1 1 180 0 1
value=0.047u
T 71500 55700 5 10 1 1 90 0 1
footprint=0603
}
N 71300 55800 71300 55600 4
N 68600 55800 68600 55600 4
N 69500 55800 69500 55600 4
N 70400 55800 70400 55600 4
T 95500 49000 9 10 1 0 0 0 1
TL: 1737mil
T 95500 51400 9 10 1 0 0 0 1
TL: 1783mil
T 95500 52600 9 10 1 0 0 0 1
TL: 1753mil
T 83300 50500 9 10 1 0 0 0 1
TL: 1723mil
T 87100 45500 9 20 1 0 0 0 2
TL: Means trace length. The average
pulse delay is roughly 165 ps/inch
C 73300 47600 1 0 0 nc-left-1.sym
{
T 73300 48000 5 10 0 0 0 0 1
value=NoConnection
T 73300 48400 5 10 0 0 0 0 1
device=DRC_Directive
}
C 73300 47200 1 0 0 nc-left-1.sym
{
T 73300 47600 5 10 0 0 0 0 1
value=NoConnection
T 73300 48000 5 10 0 0 0 0 1
device=DRC_Directive
}
C 73300 47000 1 0 0 nc-left-1.sym
{
T 73300 47400 5 10 0 0 0 0 1
value=NoConnection
T 73300 47800 5 10 0 0 0 0 1
device=DRC_Directive
}
N 64500 51200 62900 51200 4
N 62900 51200 62900 50400 4
N 62900 50400 63600 50400 4
N 62900 50800 63600 50800 4
T 64200 43900 9 10 1 0 0 0 1
S5 high turns on VREF
T 65900 45000 9 10 1 0 0 0 1
S3 high turns on VTT
T 63600 45400 9 10 1 0 0 0 1
On Power-On first dhould go s5, then s3
