v 20121123 2
C 92300 39100 1 0 0 cvstitleblock-1.sym
{
T 92900 39500 5 10 1 1 0 0 1
date=2013-05-23     2013-07-23
T 97000 39500 5 10 1 1 0 0 1
rev=0.2
T 97000 39200 5 10 1 1 0 0 1
auth=Alexei Dorofeev
T 93100 39800 5 10 1 1 0 0 1
fname=drift_accumulator_07_analog_feconnector.sch
T 96100 40200 5 14 1 1 0 4 1
title=Drift Accumulator :Analog Part Connectors
T 93200 39200 5 10 1 1 0 0 1
page_number=7
T 94600 39200 5 10 1 1 0 0 1
pages=16
}
C 80100 41400 1 0 0 connector-RJ45_2by4.sym
{
T 81700 55400 5 10 1 1 0 0 1
refdes=J2
T 82500 55700 5 15 0 1 180 4 1
device=CONNECTOR RJ45_2by4
T 81700 55200 5 10 1 1 0 0 1
footprint=RJ45_2by4.fp
}
C 82400 41100 1 0 0 shield.sym
C 68100 41400 1 0 0 connector-RJ45_2by4.sym
{
T 70500 55700 5 15 0 1 180 4 1
device=CONNECTOR RJ45_2by4
T 69700 55400 5 10 1 1 0 0 1
refdes=J1
T 69700 55200 5 10 1 1 0 0 1
footprint=RJ45_2by4.fp
}
N 66000 44900 68300 44900 4
{
T 66100 45000 5 10 1 1 0 0 1
netname=ADC1_inp4_p
}
C 70400 41100 1 0 0 shield.sym
N 66000 44500 68300 44500 4
{
T 66100 44600 5 10 1 1 0 0 1
netname=ADC1_inp4_n
}
N 66000 43300 68300 43300 4
{
T 66100 43400 5 10 1 1 0 0 1
netname=ADC1_inp3_p
}
N 66000 42900 68300 42900 4
{
T 66100 43000 5 10 1 1 0 0 1
netname=ADC1_inp3_n
}
N 72800 44900 75100 44900 4
{
T 73800 45000 5 10 1 1 0 0 1
netname=ADC1_inp2_p
}
N 72800 44500 75100 44500 4
{
T 73800 44600 5 10 1 1 0 0 1
netname=ADC1_inp2_n
}
N 72800 43300 75100 43300 4
{
T 73800 43400 5 10 1 1 0 0 1
netname=ADC1_inp1_p
}
N 72800 42900 75100 42900 4
{
T 73800 43000 5 10 1 1 0 0 1
netname=ADC1_inp1_n
}
N 72800 48200 75100 48200 4
{
T 73800 48300 5 10 1 1 0 0 1
netname=ADC1_inp6_p
}
N 72800 47800 75100 47800 4
{
T 73800 47900 5 10 1 1 0 0 1
netname=ADC1_inp6_n
}
N 72800 46600 75100 46600 4
{
T 73800 46700 5 10 1 1 0 0 1
netname=ADC1_inp5_p
}
N 72800 46200 75100 46200 4
{
T 73800 46300 5 10 1 1 0 0 1
netname=ADC1_inp5_n
}
N 66000 48200 68300 48200 4
{
T 66000 48300 5 10 1 1 0 0 1
netname=ADC1_inp8_p
}
N 66000 47800 68300 47800 4
{
T 66000 47900 5 10 1 1 0 0 1
netname=ADC1_inp8_n
}
N 66000 46600 68300 46600 4
{
T 66000 46700 5 10 1 1 0 0 1
netname=ADC1_inp7_p
}
N 66000 46200 68300 46200 4
{
T 66000 46300 5 10 1 1 0 0 1
netname=ADC1_inp7_n
}
C 92100 41400 1 0 0 connector-RJ45_2by4.sym
{
T 94500 55700 5 15 0 1 180 4 1
device=CONNECTOR RJ45_2by4
T 93700 55400 5 10 1 1 0 0 1
refdes=J3
T 93700 55200 5 10 1 1 0 0 1
footprint=RJ45_2by4.fp
}
C 94400 41100 1 0 0 shield.sym
C 74900 42100 1 0 0 avcc.sym
{
T 75450 42500 5 10 1 1 0 3 1
net=ADC1_VG1_5P0:1
}
C 75900 42000 1 0 1 input-1.sym
{
T 75600 42100 5 10 1 1 0 4 1
value=1
}
N 72800 42100 75100 42100 4
N 72800 44100 74500 44100 4
{
T 73300 44200 5 10 1 1 0 0 1
netname=ADC1_Vref_G1
}
C 75300 44000 1 0 1 input-1.sym
{
T 75000 44100 5 10 1 1 0 4 1
value=1
}
C 75100 43200 1 0 0 output-1.sym
{
T 75600 43300 5 10 1 1 0 4 1
value=1
}
C 75100 42800 1 0 0 output-1.sym
{
T 75600 42900 5 10 1 1 0 4 1
value=1
}
C 75100 44800 1 0 0 output-1.sym
{
T 75600 44900 5 10 1 1 0 4 1
value=1
}
C 75100 44400 1 0 0 output-1.sym
{
T 75600 44500 5 10 1 1 0 4 1
value=1
}
C 65800 42100 1 0 0 avcc.sym
{
T 65550 42500 5 10 1 1 0 3 1
net=ADC1_VG2_5P0:1
}
C 65200 42000 1 0 0 input-1.sym
{
T 65500 42100 5 10 1 1 0 4 1
value=1
}
N 66000 42100 68300 42100 4
C 66000 43200 1 0 1 output-1.sym
{
T 65500 43300 5 10 1 1 0 4 1
value=1
}
C 66000 42800 1 0 1 output-1.sym
{
T 65500 42900 5 10 1 1 0 4 1
value=1
}
N 66600 44100 68300 44100 4
{
T 66600 44200 5 10 1 1 0 0 1
netname=ADC1_Vref_G2
}
C 65800 44000 1 0 0 input-1.sym
{
T 66100 44100 5 10 1 1 0 4 1
value=1
}
C 66000 44800 1 0 1 output-1.sym
{
T 65500 44900 5 10 1 1 0 4 1
value=1
}
C 66000 44400 1 0 1 output-1.sym
{
T 65500 44500 5 10 1 1 0 4 1
value=1
}
C 65800 45400 1 0 0 avcc.sym
{
T 65550 45800 5 10 1 1 0 3 1
net=ADC1_VG4_5P0:1
}
N 66000 45400 68300 45400 4
C 65200 45300 1 0 0 input-1.sym
{
T 65500 45400 5 10 1 1 0 4 1
value=1
}
C 75900 45300 1 0 1 input-1.sym
{
T 75600 45400 5 10 1 1 0 4 1
value=1
}
C 74900 45400 1 0 0 avcc.sym
{
T 75450 45800 5 10 1 1 0 3 1
net=ADC1_VG3_5P0:1
}
N 72800 45400 75100 45400 4
N 72800 47400 74500 47400 4
{
T 73300 47500 5 10 1 1 0 0 1
netname=ADC1_Vref_G3
}
C 75300 47300 1 0 1 input-1.sym
{
T 75000 47400 5 10 1 1 0 4 1
value=1
}
N 66600 47400 68300 47400 4
{
T 66600 47500 5 10 1 1 0 0 1
netname=ADC1_Vref_G4
}
C 65800 47300 1 0 0 input-1.sym
{
T 66100 47400 5 10 1 1 0 4 1
value=1
}
C 75100 46500 1 0 0 output-1.sym
{
T 75600 46600 5 10 1 1 0 4 1
value=1
}
C 75100 46100 1 0 0 output-1.sym
{
T 75600 46200 5 10 1 1 0 4 1
value=1
}
C 75100 48100 1 0 0 output-1.sym
{
T 75600 48200 5 10 1 1 0 4 1
value=1
}
C 75100 47700 1 0 0 output-1.sym
{
T 75600 47800 5 10 1 1 0 4 1
value=1
}
C 66000 46500 1 0 1 output-1.sym
{
T 65500 46600 5 10 1 1 0 4 1
value=1
}
C 66000 46100 1 0 1 output-1.sym
{
T 65500 46200 5 10 1 1 0 4 1
value=1
}
C 66000 48100 1 0 1 output-1.sym
{
T 65500 48200 5 10 1 1 0 4 1
value=1
}
C 66000 47700 1 0 1 output-1.sym
{
T 65500 47800 5 10 1 1 0 4 1
value=1
}
N 72800 51500 75100 51500 4
{
T 73800 51600 5 10 1 1 0 0 1
netname=ADC2_inp2_p
}
N 72800 51100 75100 51100 4
{
T 73800 51200 5 10 1 1 0 0 1
netname=ADC2_inp2_n
}
N 72800 49900 75100 49900 4
{
T 73800 50000 5 10 1 1 0 0 1
netname=ADC2_inp1_p
}
N 72800 49500 75100 49500 4
{
T 73800 49600 5 10 1 1 0 0 1
netname=ADC2_inp1_n
}
N 72800 54800 75100 54800 4
{
T 73800 54900 5 10 1 1 0 0 1
netname=ADC2_inp6_p
}
N 72800 54400 75100 54400 4
{
T 73800 54500 5 10 1 1 0 0 1
netname=ADC2_inp6_n
}
N 72800 53200 75100 53200 4
{
T 73800 53300 5 10 1 1 0 0 1
netname=ADC2_inp5_p
}
N 72800 52800 75100 52800 4
{
T 73800 52900 5 10 1 1 0 0 1
netname=ADC2_inp5_n
}
C 74900 48700 1 0 0 avcc.sym
{
T 75450 49100 5 10 1 1 0 3 1
net=ADC2_VG1_5P0:1
}
C 75900 48600 1 0 1 input-1.sym
{
T 75600 48700 5 10 1 1 0 4 1
value=2
}
N 72800 48700 75100 48700 4
N 72800 50700 74500 50700 4
{
T 73300 50800 5 10 1 1 0 0 1
netname=ADC2_Vref_G1
}
C 75300 50600 1 0 1 input-1.sym
{
T 75000 50700 5 10 1 1 0 4 1
value=2
}
C 75100 49800 1 0 0 output-1.sym
{
T 75600 49900 5 10 1 1 0 4 1
value=2
}
C 75100 49400 1 0 0 output-1.sym
{
T 75600 49500 5 10 1 1 0 4 1
value=2
}
C 75100 51400 1 0 0 output-1.sym
{
T 75600 51500 5 10 1 1 0 4 1
value=2
}
C 75100 51000 1 0 0 output-1.sym
{
T 75600 51100 5 10 1 1 0 4 1
value=2
}
C 75900 51900 1 0 1 input-1.sym
{
T 75600 52000 5 10 1 1 0 4 1
value=2
}
C 74900 52000 1 0 0 avcc.sym
{
T 75450 52400 5 10 1 1 0 3 1
net=ADC2_VG3_5P0:1
}
N 72800 52000 75100 52000 4
N 72800 54000 74500 54000 4
{
T 73300 54100 5 10 1 1 0 0 1
netname=ADC2_Vref_G3
}
C 75300 53900 1 0 1 input-1.sym
{
T 75000 54000 5 10 1 1 0 4 1
value=2
}
C 75100 53100 1 0 0 output-1.sym
{
T 75600 53200 5 10 1 1 0 4 1
value=2
}
C 75100 52700 1 0 0 output-1.sym
{
T 75600 52800 5 10 1 1 0 4 1
value=2
}
C 75100 54700 1 0 0 output-1.sym
{
T 75600 54800 5 10 1 1 0 4 1
value=2
}
C 75100 54300 1 0 0 output-1.sym
{
T 75600 54400 5 10 1 1 0 4 1
value=2
}
N 66000 51500 68300 51500 4
{
T 66100 51600 5 10 1 1 0 0 1
netname=ADC2_inp4_p
}
N 66000 51100 68300 51100 4
{
T 66100 51200 5 10 1 1 0 0 1
netname=ADC2_inp4_n
}
N 66000 49900 68300 49900 4
{
T 66100 50000 5 10 1 1 0 0 1
netname=ADC2_inp3_p
}
N 66000 49500 68300 49500 4
{
T 66100 49600 5 10 1 1 0 0 1
netname=ADC2_inp3_n
}
N 66000 54800 68300 54800 4
{
T 66000 54900 5 10 1 1 0 0 1
netname=ADC2_inp8_p
}
N 66000 54400 68300 54400 4
{
T 66000 54500 5 10 1 1 0 0 1
netname=ADC2_inp8_n
}
N 66000 53200 68300 53200 4
{
T 66000 53300 5 10 1 1 0 0 1
netname=ADC2_inp7_p
}
N 66000 52800 68300 52800 4
{
T 66000 52900 5 10 1 1 0 0 1
netname=ADC2_inp7_n
}
C 65800 48700 1 0 0 avcc.sym
{
T 65550 49100 5 10 1 1 0 3 1
net=ADC2_VG2_5P0:1
}
C 65200 48600 1 0 0 input-1.sym
{
T 65500 48700 5 10 1 1 0 4 1
value=2
}
N 66000 48700 68300 48700 4
C 66000 49800 1 0 1 output-1.sym
{
T 65500 49900 5 10 1 1 0 4 1
value=2
}
C 66000 49400 1 0 1 output-1.sym
{
T 65500 49500 5 10 1 1 0 4 1
value=2
}
N 66600 50700 68300 50700 4
{
T 66600 50800 5 10 1 1 0 0 1
netname=ADC2_Vref_G2
}
C 65800 50600 1 0 0 input-1.sym
{
T 66100 50700 5 10 1 1 0 4 1
value=2
}
C 66000 51400 1 0 1 output-1.sym
{
T 65500 51500 5 10 1 1 0 4 1
value=2
}
C 66000 51000 1 0 1 output-1.sym
{
T 65500 51100 5 10 1 1 0 4 1
value=2
}
C 65800 52000 1 0 0 avcc.sym
{
T 65550 52400 5 10 1 1 0 3 1
net=ADC2_VG4_5P0:1
}
N 66000 52000 68300 52000 4
C 65200 51900 1 0 0 input-1.sym
{
T 65500 52000 5 10 1 1 0 4 1
value=2
}
N 66600 54000 68300 54000 4
{
T 66600 54100 5 10 1 1 0 0 1
netname=ADC2_Vref_G4
}
C 65800 53900 1 0 0 input-1.sym
{
T 66100 54000 5 10 1 1 0 4 1
value=2
}
C 66000 53100 1 0 1 output-1.sym
{
T 65500 53200 5 10 1 1 0 4 1
value=2
}
C 66000 52700 1 0 1 output-1.sym
{
T 65500 52800 5 10 1 1 0 4 1
value=2
}
C 66000 54700 1 0 1 output-1.sym
{
T 65500 54800 5 10 1 1 0 4 1
value=2
}
C 66000 54300 1 0 1 output-1.sym
{
T 65500 54400 5 10 1 1 0 4 1
value=2
}
N 78000 44900 80300 44900 4
{
T 78100 45000 5 10 1 1 0 0 1
netname=ADC3_inp4_p
}
N 78000 44500 80300 44500 4
{
T 78100 44600 5 10 1 1 0 0 1
netname=ADC3_inp4_n
}
N 78000 43300 80300 43300 4
{
T 78100 43400 5 10 1 1 0 0 1
netname=ADC3_inp3_p
}
N 78000 42900 80300 42900 4
{
T 78100 43000 5 10 1 1 0 0 1
netname=ADC3_inp3_n
}
N 78000 48200 80300 48200 4
{
T 78000 48300 5 10 1 1 0 0 1
netname=ADC3_inp8_p
}
N 78000 47800 80300 47800 4
{
T 78000 47900 5 10 1 1 0 0 1
netname=ADC3_inp8_n
}
N 78000 46600 80300 46600 4
{
T 78000 46700 5 10 1 1 0 0 1
netname=ADC3_inp7_p
}
N 78000 46200 80300 46200 4
{
T 78000 46300 5 10 1 1 0 0 1
netname=ADC3_inp7_n
}
C 77800 42100 1 0 0 avcc.sym
{
T 77650 42500 5 10 1 1 0 3 1
net=ADC3_VG2_5P0:1
}
C 77200 42000 1 0 0 input-1.sym
{
T 77500 42100 5 10 1 1 0 4 1
value=3
}
N 78000 42100 80300 42100 4
C 78000 43200 1 0 1 output-1.sym
{
T 77500 43300 5 10 1 1 0 4 1
value=3
}
C 78000 42800 1 0 1 output-1.sym
{
T 77500 42900 5 10 1 1 0 4 1
value=3
}
N 78600 44100 80300 44100 4
{
T 78600 44200 5 10 1 1 0 0 1
netname=ADC3_Vref_G2
}
C 77800 44000 1 0 0 input-1.sym
{
T 78100 44100 5 10 1 1 0 4 1
value=3
}
C 78000 44800 1 0 1 output-1.sym
{
T 77500 44900 5 10 1 1 0 4 1
value=3
}
C 78000 44400 1 0 1 output-1.sym
{
T 77500 44500 5 10 1 1 0 4 1
value=3
}
C 77800 45400 1 0 0 avcc.sym
{
T 77650 45800 5 10 1 1 0 3 1
net=ADC3_VG4_5P0:1
}
N 78000 45400 80300 45400 4
C 77200 45300 1 0 0 input-1.sym
{
T 77500 45400 5 10 1 1 0 4 1
value=3
}
N 78600 47400 80300 47400 4
{
T 78600 47500 5 10 1 1 0 0 1
netname=ADC3_Vref_G4
}
C 77800 47300 1 0 0 input-1.sym
{
T 78100 47400 5 10 1 1 0 4 1
value=3
}
C 78000 46500 1 0 1 output-1.sym
{
T 77500 46600 5 10 1 1 0 4 1
value=3
}
C 78000 46100 1 0 1 output-1.sym
{
T 77500 46200 5 10 1 1 0 4 1
value=3
}
C 78000 48100 1 0 1 output-1.sym
{
T 77500 48200 5 10 1 1 0 4 1
value=3
}
C 78000 47700 1 0 1 output-1.sym
{
T 77500 47800 5 10 1 1 0 4 1
value=3
}
N 78000 51500 80300 51500 4
{
T 78100 51600 5 10 1 1 0 0 1
netname=ADC4_inp4_p
}
N 78000 51100 80300 51100 4
{
T 78100 51200 5 10 1 1 0 0 1
netname=ADC4_inp4_n
}
N 78000 49900 80300 49900 4
{
T 78100 50000 5 10 1 1 0 0 1
netname=ADC4_inp3_p
}
N 78000 49500 80300 49500 4
{
T 78100 49600 5 10 1 1 0 0 1
netname=ADC4_inp3_n
}
N 78000 54800 80300 54800 4
{
T 78000 54900 5 10 1 1 0 0 1
netname=ADC4_inp8_p
}
N 78000 54400 80300 54400 4
{
T 78000 54500 5 10 1 1 0 0 1
netname=ADC4_inp8_n
}
N 78000 53200 80300 53200 4
{
T 78000 53300 5 10 1 1 0 0 1
netname=ADC4_inp7_p
}
N 78000 52800 80300 52800 4
{
T 78000 52900 5 10 1 1 0 0 1
netname=ADC4_inp7_n
}
C 77800 48700 1 0 0 avcc.sym
{
T 77650 49100 5 10 1 1 0 3 1
net=ADC4_VG2_5P0:1
}
C 77200 48600 1 0 0 input-1.sym
{
T 77500 48700 5 10 1 1 0 4 1
value=4
}
N 78000 48700 80300 48700 4
C 78000 49800 1 0 1 output-1.sym
{
T 77500 49900 5 10 1 1 0 4 1
value=4
}
C 78000 49400 1 0 1 output-1.sym
{
T 77500 49500 5 10 1 1 0 4 1
value=4
}
N 78600 50700 80300 50700 4
{
T 78600 50800 5 10 1 1 0 0 1
netname=ADC4_Vref_G2
}
C 77800 50600 1 0 0 input-1.sym
{
T 78100 50700 5 10 1 1 0 4 1
value=4
}
C 78000 51400 1 0 1 output-1.sym
{
T 77500 51500 5 10 1 1 0 4 1
value=4
}
C 78000 51000 1 0 1 output-1.sym
{
T 77500 51100 5 10 1 1 0 4 1
value=4
}
C 77800 52000 1 0 0 avcc.sym
{
T 77650 52400 5 10 1 1 0 3 1
net=ADC4_VG4_5P0:1
}
N 78000 52000 80300 52000 4
C 77200 51900 1 0 0 input-1.sym
{
T 77500 52000 5 10 1 1 0 4 1
value=4
}
N 78600 54000 80300 54000 4
{
T 78600 54100 5 10 1 1 0 0 1
netname=ADC4_Vref_G4
}
C 77800 53900 1 0 0 input-1.sym
{
T 78100 54000 5 10 1 1 0 4 1
value=4
}
C 78000 53100 1 0 1 output-1.sym
{
T 77500 53200 5 10 1 1 0 4 1
value=4
}
C 78000 52700 1 0 1 output-1.sym
{
T 77500 52800 5 10 1 1 0 4 1
value=4
}
C 78000 54700 1 0 1 output-1.sym
{
T 77500 54800 5 10 1 1 0 4 1
value=4
}
C 78000 54300 1 0 1 output-1.sym
{
T 77500 54400 5 10 1 1 0 4 1
value=4
}
N 84800 44900 87100 44900 4
{
T 85800 45000 5 10 1 1 0 0 1
netname=ADC3_inp2_p
}
N 84800 44500 87100 44500 4
{
T 85800 44600 5 10 1 1 0 0 1
netname=ADC3_inp2_n
}
N 84800 43300 87100 43300 4
{
T 85800 43400 5 10 1 1 0 0 1
netname=ADC3_inp1_p
}
N 84800 42900 87100 42900 4
{
T 85800 43000 5 10 1 1 0 0 1
netname=ADC3_inp1_n
}
N 84800 48200 87100 48200 4
{
T 85800 48300 5 10 1 1 0 0 1
netname=ADC3_inp6_p
}
N 84800 47800 87100 47800 4
{
T 85800 47900 5 10 1 1 0 0 1
netname=ADC3_inp6_n
}
N 84800 46600 87100 46600 4
{
T 85800 46700 5 10 1 1 0 0 1
netname=ADC3_inp5_p
}
N 84800 46200 87100 46200 4
{
T 85800 46300 5 10 1 1 0 0 1
netname=ADC3_inp5_n
}
C 86900 42100 1 0 0 avcc.sym
{
T 87450 42500 5 10 1 1 0 3 1
net=ADC3_VG1_5P0:1
}
C 87900 42000 1 0 1 input-1.sym
{
T 87600 42100 5 10 1 1 0 4 1
value=3
}
N 84800 42100 87100 42100 4
N 84800 44100 86500 44100 4
{
T 85300 44200 5 10 1 1 0 0 1
netname=ADC3_Vref_G1
}
C 87300 44000 1 0 1 input-1.sym
{
T 87000 44100 5 10 1 1 0 4 1
value=3
}
C 87100 43200 1 0 0 output-1.sym
{
T 87600 43300 5 10 1 1 0 4 1
value=3
}
C 87100 42800 1 0 0 output-1.sym
{
T 87600 42900 5 10 1 1 0 4 1
value=3
}
C 87100 44800 1 0 0 output-1.sym
{
T 87600 44900 5 10 1 1 0 4 1
value=3
}
C 87100 44400 1 0 0 output-1.sym
{
T 87600 44500 5 10 1 1 0 4 1
value=3
}
C 87900 45300 1 0 1 input-1.sym
{
T 87600 45400 5 10 1 1 0 4 1
value=3
}
C 86900 45400 1 0 0 avcc.sym
{
T 87450 45800 5 10 1 1 0 3 1
net=ADC3_VG3_5P0:1
}
N 84800 45400 87100 45400 4
N 84800 47400 86500 47400 4
{
T 85300 47500 5 10 1 1 0 0 1
netname=ADC3_Vref_G3
}
C 87300 47300 1 0 1 input-1.sym
{
T 87000 47400 5 10 1 1 0 4 1
value=3
}
C 87100 46500 1 0 0 output-1.sym
{
T 87600 46600 5 10 1 1 0 4 1
value=3
}
C 87100 46100 1 0 0 output-1.sym
{
T 87600 46200 5 10 1 1 0 4 1
value=3
}
C 87100 48100 1 0 0 output-1.sym
{
T 87600 48200 5 10 1 1 0 4 1
value=3
}
C 87100 47700 1 0 0 output-1.sym
{
T 87600 47800 5 10 1 1 0 4 1
value=3
}
N 84800 51500 87100 51500 4
{
T 85800 51600 5 10 1 1 0 0 1
netname=ADC4_inp2_p
}
N 84800 51100 87100 51100 4
{
T 85800 51200 5 10 1 1 0 0 1
netname=ADC4_inp2_n
}
N 84800 49900 87100 49900 4
{
T 85800 50000 5 10 1 1 0 0 1
netname=ADC4_inp1_p
}
N 84800 49500 87100 49500 4
{
T 85800 49600 5 10 1 1 0 0 1
netname=ADC4_inp1_n
}
N 84800 54800 87200 54800 4
{
T 85800 54900 5 10 1 1 0 0 1
netname=ADC4_inp6_p
}
N 84800 54400 87200 54400 4
{
T 85800 54500 5 10 1 1 0 0 1
netname=ADC4_inp6_n
}
N 84800 53200 87200 53200 4
{
T 85800 53300 5 10 1 1 0 0 1
netname=ADC4_inp5_p
}
N 84800 52800 87200 52800 4
{
T 85800 52900 5 10 1 1 0 0 1
netname=ADC4_inp5_n
}
C 86900 48700 1 0 0 avcc.sym
{
T 87450 49100 5 10 1 1 0 3 1
net=ADC4_VG1_5P0:1
}
C 87900 48600 1 0 1 input-1.sym
{
T 87600 48700 5 10 1 1 0 4 1
value=4
}
N 84800 48700 87100 48700 4
N 84800 50700 86500 50700 4
{
T 85300 50800 5 10 1 1 0 0 1
netname=ADC4_Vref_G1
}
C 87300 50600 1 0 1 input-1.sym
{
T 87000 50700 5 10 1 1 0 4 1
value=4
}
C 87100 49800 1 0 0 output-1.sym
{
T 87600 49900 5 10 1 1 0 4 1
value=4
}
C 87100 49400 1 0 0 output-1.sym
{
T 87600 49500 5 10 1 1 0 4 1
value=4
}
C 87100 51400 1 0 0 output-1.sym
{
T 87600 51500 5 10 1 1 0 4 1
value=4
}
C 87100 51000 1 0 0 output-1.sym
{
T 87600 51100 5 10 1 1 0 4 1
value=4
}
C 87900 51900 1 0 1 input-1.sym
{
T 87600 52000 5 10 1 1 0 4 1
value=4
}
C 86900 52000 1 0 0 avcc.sym
{
T 87450 52400 5 10 1 1 0 3 1
net=ADC4_VG3_5P0:1
}
N 84800 52000 87100 52000 4
N 84800 54000 86500 54000 4
{
T 85300 54100 5 10 1 1 0 0 1
netname=ADC4_Vref_G3
}
C 87300 53900 1 0 1 input-1.sym
{
T 87000 54000 5 10 1 1 0 4 1
value=4
}
C 87200 53100 1 0 0 output-1.sym
{
T 87700 53200 5 10 1 1 0 4 1
value=4
}
C 87200 52700 1 0 0 output-1.sym
{
T 87700 52800 5 10 1 1 0 4 1
value=4
}
C 87200 54700 1 0 0 output-1.sym
{
T 87700 54800 5 10 1 1 0 4 1
value=4
}
C 87200 54300 1 0 0 output-1.sym
{
T 87700 54400 5 10 1 1 0 4 1
value=4
}
N 90000 44900 92300 44900 4
{
T 90100 45000 5 10 1 1 0 0 1
netname=ADC5_inp4_p
}
N 90000 44500 92300 44500 4
{
T 90100 44600 5 10 1 1 0 0 1
netname=ADC5_inp4_n
}
N 90000 43300 92300 43300 4
{
T 90100 43400 5 10 1 1 0 0 1
netname=ADC5_inp3_p
}
N 90000 42900 92300 42900 4
{
T 90100 43000 5 10 1 1 0 0 1
netname=ADC5_inp3_n
}
N 90000 48200 92300 48200 4
{
T 90000 48300 5 10 1 1 0 0 1
netname=ADC5_inp8_p
}
N 90000 47800 92300 47800 4
{
T 90000 47900 5 10 1 1 0 0 1
netname=ADC5_inp8_n
}
N 90000 46600 92300 46600 4
{
T 90000 46700 5 10 1 1 0 0 1
netname=ADC5_inp7_p
}
N 90000 46200 92300 46200 4
{
T 90000 46300 5 10 1 1 0 0 1
netname=ADC5_inp7_n
}
C 89800 42100 1 0 0 avcc.sym
{
T 89650 42500 5 10 1 1 0 3 1
net=ADC5_VG2_5P0:1
}
C 89200 42000 1 0 0 input-1.sym
{
T 89500 42100 5 10 1 1 0 4 1
value=5
}
N 90000 42100 92300 42100 4
C 90000 43200 1 0 1 output-1.sym
{
T 89500 43300 5 10 1 1 0 4 1
value=5
}
C 90000 42800 1 0 1 output-1.sym
{
T 89500 42900 5 10 1 1 0 4 1
value=5
}
N 90600 44100 92300 44100 4
{
T 90600 44200 5 10 1 1 0 0 1
netname=ADC5_Vref_G2
}
C 89800 44000 1 0 0 input-1.sym
{
T 90100 44100 5 10 1 1 0 4 1
value=5
}
C 90000 44800 1 0 1 output-1.sym
{
T 89500 44900 5 10 1 1 0 4 1
value=5
}
C 90000 44400 1 0 1 output-1.sym
{
T 89500 44500 5 10 1 1 0 4 1
value=5
}
C 89800 45400 1 0 0 avcc.sym
{
T 89650 45800 5 10 1 1 0 3 1
net=ADC5_VG4_5P0:1
}
N 90000 45400 92300 45400 4
C 89200 45300 1 0 0 input-1.sym
{
T 89500 45400 5 10 1 1 0 4 1
value=5
}
N 90600 47400 92300 47400 4
{
T 90600 47500 5 10 1 1 0 0 1
netname=ADC5_Vref_G4
}
C 89800 47300 1 0 0 input-1.sym
{
T 90100 47400 5 10 1 1 0 4 1
value=5
}
C 90000 46500 1 0 1 output-1.sym
{
T 89500 46600 5 10 1 1 0 4 1
value=5
}
C 90000 46100 1 0 1 output-1.sym
{
T 89500 46200 5 10 1 1 0 4 1
value=5
}
C 90000 48100 1 0 1 output-1.sym
{
T 89500 48200 5 10 1 1 0 4 1
value=5
}
C 90000 47700 1 0 1 output-1.sym
{
T 89500 47800 5 10 1 1 0 4 1
value=5
}
N 90000 51500 92300 51500 4
{
T 90100 51600 5 10 1 1 0 0 1
netname=ADC6_inp4_p
}
N 90000 51100 92300 51100 4
{
T 90100 51200 5 10 1 1 0 0 1
netname=ADC6_inp4_n
}
N 90000 49900 92300 49900 4
{
T 90100 50000 5 10 1 1 0 0 1
netname=ADC6_inp3_p
}
N 90000 49500 92300 49500 4
{
T 90100 49600 5 10 1 1 0 0 1
netname=ADC6_inp3_n
}
N 90000 54800 92300 54800 4
{
T 90000 54900 5 10 1 1 0 0 1
netname=ADC6_inp8_p
}
N 90000 54400 92300 54400 4
{
T 90000 54500 5 10 1 1 0 0 1
netname=ADC6_inp8_n
}
N 90000 53200 92300 53200 4
{
T 90000 53300 5 10 1 1 0 0 1
netname=ADC6_inp7_p
}
N 90000 52800 92300 52800 4
{
T 90000 52900 5 10 1 1 0 0 1
netname=ADC6_inp7_n
}
C 89800 48700 1 0 0 avcc.sym
{
T 89650 49100 5 10 1 1 0 3 1
net=ADC6_VG2_5P0:1
}
C 89200 48600 1 0 0 input-1.sym
{
T 89500 48700 5 10 1 1 0 4 1
value=6
}
N 90000 48700 92300 48700 4
C 90000 49800 1 0 1 output-1.sym
{
T 89500 49900 5 10 1 1 0 4 1
value=6
}
C 90000 49400 1 0 1 output-1.sym
{
T 89500 49500 5 10 1 1 0 4 1
value=6
}
N 90600 50700 92300 50700 4
{
T 90600 50800 5 10 1 1 0 0 1
netname=ADC6_Vref_G2
}
C 89800 50600 1 0 0 input-1.sym
{
T 90100 50700 5 10 1 1 0 4 1
value=6
}
C 90000 51400 1 0 1 output-1.sym
{
T 89500 51500 5 10 1 1 0 4 1
value=6
}
C 90000 51000 1 0 1 output-1.sym
{
T 89500 51100 5 10 1 1 0 4 1
value=6
}
C 89800 52000 1 0 0 avcc.sym
{
T 89650 52400 5 10 1 1 0 3 1
net=ADC6_VG4_5P0:1
}
N 90000 52000 92300 52000 4
C 89200 51900 1 0 0 input-1.sym
{
T 89500 52000 5 10 1 1 0 4 1
value=6
}
N 90600 54000 92300 54000 4
{
T 90600 54100 5 10 1 1 0 0 1
netname=ADC6_Vref_G4
}
C 89800 53900 1 0 0 input-1.sym
{
T 90100 54000 5 10 1 1 0 4 1
value=6
}
C 90000 53100 1 0 1 output-1.sym
{
T 89500 53200 5 10 1 1 0 4 1
value=6
}
C 90000 52700 1 0 1 output-1.sym
{
T 89500 52800 5 10 1 1 0 4 1
value=6
}
C 90000 54700 1 0 1 output-1.sym
{
T 89500 54800 5 10 1 1 0 4 1
value=6
}
C 90000 54300 1 0 1 output-1.sym
{
T 89500 54400 5 10 1 1 0 4 1
value=6
}
N 96800 44900 99100 44900 4
{
T 97800 45000 5 10 1 1 0 0 1
netname=ADC5_inp2_p
}
N 96800 44500 99100 44500 4
{
T 97800 44600 5 10 1 1 0 0 1
netname=ADC5_inp2_n
}
N 96800 43300 99100 43300 4
{
T 97800 43400 5 10 1 1 0 0 1
netname=ADC5_inp1_p
}
N 96800 42900 99100 42900 4
{
T 97800 43000 5 10 1 1 0 0 1
netname=ADC5_inp1_n
}
N 96800 48200 99100 48200 4
{
T 97800 48300 5 10 1 1 0 0 1
netname=ADC5_inp6_p
}
N 96800 47800 99100 47800 4
{
T 97800 47900 5 10 1 1 0 0 1
netname=ADC5_inp6_n
}
N 96800 46600 99100 46600 4
{
T 97800 46700 5 10 1 1 0 0 1
netname=ADC5_inp5_p
}
N 96800 46200 99100 46200 4
{
T 97800 46300 5 10 1 1 0 0 1
netname=ADC5_inp5_n
}
C 98900 42100 1 0 0 avcc.sym
{
T 99350 42500 5 10 1 1 0 3 1
net=ADC5_VG1_5P0:1
}
C 99900 42000 1 0 1 input-1.sym
{
T 99600 42100 5 10 1 1 0 4 1
value=5
}
N 96800 42100 99100 42100 4
N 96800 44100 98500 44100 4
{
T 97300 44200 5 10 1 1 0 0 1
netname=ADC5_Vref_G1
}
C 99300 44000 1 0 1 input-1.sym
{
T 99000 44100 5 10 1 1 0 4 1
value=5
}
C 99100 43200 1 0 0 output-1.sym
{
T 99600 43300 5 10 1 1 0 4 1
value=5
}
C 99100 42800 1 0 0 output-1.sym
{
T 99600 42900 5 10 1 1 0 4 1
value=5
}
C 99100 44800 1 0 0 output-1.sym
{
T 99600 44900 5 10 1 1 0 4 1
value=5
}
C 99100 44400 1 0 0 output-1.sym
{
T 99600 44500 5 10 1 1 0 4 1
value=5
}
C 99900 45300 1 0 1 input-1.sym
{
T 99600 45400 5 10 1 1 0 4 1
value=5
}
C 98900 45400 1 0 0 avcc.sym
{
T 99350 45800 5 10 1 1 0 3 1
net=ADC5_VG3_5P0:1
}
N 96800 45400 99100 45400 4
N 96800 47400 98500 47400 4
{
T 97300 47500 5 10 1 1 0 0 1
netname=ADC5_Vref_G3
}
C 99300 47300 1 0 1 input-1.sym
{
T 99000 47400 5 10 1 1 0 4 1
value=5
}
C 99100 46500 1 0 0 output-1.sym
{
T 99600 46600 5 10 1 1 0 4 1
value=5
}
C 99100 46100 1 0 0 output-1.sym
{
T 99600 46200 5 10 1 1 0 4 1
value=5
}
C 99100 48100 1 0 0 output-1.sym
{
T 99600 48200 5 10 1 1 0 4 1
value=5
}
C 99100 47700 1 0 0 output-1.sym
{
T 99600 47800 5 10 1 1 0 4 1
value=5
}
N 96800 51500 99100 51500 4
{
T 97800 51600 5 10 1 1 0 0 1
netname=ADC6_inp2_p
}
N 96800 51100 99100 51100 4
{
T 97800 51200 5 10 1 1 0 0 1
netname=ADC6_inp2_n
}
N 96800 49900 99100 49900 4
{
T 97800 50000 5 10 1 1 0 0 1
netname=ADC6_inp1_p
}
N 96800 49500 99100 49500 4
{
T 97800 49600 5 10 1 1 0 0 1
netname=ADC6_inp1_n
}
N 96800 54800 99200 54800 4
{
T 97800 54900 5 10 1 1 0 0 1
netname=ADC6_inp6_p
}
N 96800 54400 99200 54400 4
{
T 97800 54500 5 10 1 1 0 0 1
netname=ADC6_inp6_n
}
N 96800 53200 99200 53200 4
{
T 97800 53300 5 10 1 1 0 0 1
netname=ADC6_inp5_p
}
N 96800 52800 99200 52800 4
{
T 97800 52900 5 10 1 1 0 0 1
netname=ADC6_inp5_n
}
C 98900 48700 1 0 0 avcc.sym
{
T 99350 49100 5 10 1 1 0 3 1
net=ADC6_VG1_5P0:1
}
C 99900 48600 1 0 1 input-1.sym
{
T 99600 48700 5 10 1 1 0 4 1
value=6
}
N 96800 48700 99100 48700 4
N 96800 50700 98500 50700 4
{
T 97300 50800 5 10 1 1 0 0 1
netname=ADC6_Vref_G1
}
C 99300 50600 1 0 1 input-1.sym
{
T 99000 50700 5 10 1 1 0 4 1
value=6
}
C 99100 49800 1 0 0 output-1.sym
{
T 99600 49900 5 10 1 1 0 4 1
value=6
}
C 99100 49400 1 0 0 output-1.sym
{
T 99600 49500 5 10 1 1 0 4 1
value=6
}
C 99100 51400 1 0 0 output-1.sym
{
T 99600 51500 5 10 1 1 0 4 1
value=6
}
C 99100 51000 1 0 0 output-1.sym
{
T 99600 51100 5 10 1 1 0 4 1
value=6
}
C 99900 51900 1 0 1 input-1.sym
{
T 99600 52000 5 10 1 1 0 4 1
value=6
}
C 98900 52000 1 0 0 avcc.sym
{
T 99350 52400 5 10 1 1 0 3 1
net=ADC6_VG3_5P0:1
}
N 96800 52000 99100 52000 4
N 96800 54000 98500 54000 4
{
T 97300 54100 5 10 1 1 0 0 1
netname=ADC6_Vref_G3
}
C 99300 53900 1 0 1 input-1.sym
{
T 99000 54000 5 10 1 1 0 4 1
value=6
}
C 99200 53100 1 0 0 output-1.sym
{
T 99700 53200 5 10 1 1 0 4 1
value=6
}
C 99200 52700 1 0 0 output-1.sym
{
T 99700 52800 5 10 1 1 0 4 1
value=6
}
C 99200 54700 1 0 0 output-1.sym
{
T 99700 54800 5 10 1 1 0 4 1
value=6
}
C 99200 54300 1 0 0 output-1.sym
{
T 99700 54400 5 10 1 1 0 4 1
value=6
}
N 97100 53600 96800 53600 4
N 97100 52400 96800 52400 4
N 97100 50300 96800 50300 4
N 97100 49100 96800 49100 4
N 97100 45800 96800 45800 4
N 97100 47000 96800 47000 4
N 97100 43700 96800 43700 4
N 97100 42500 96800 42500 4
N 85100 53600 84800 53600 4
N 85100 52400 84800 52400 4
N 85100 50300 84800 50300 4
N 85100 49100 84800 49100 4
N 80300 53600 80000 53600 4
N 80300 52400 80000 52400 4
N 80300 50300 80000 50300 4
N 80300 49100 80000 49100 4
N 92300 42500 92000 42500 4
N 92300 43700 92000 43700 4
N 92300 45800 92000 45800 4
N 92300 47000 92000 47000 4
N 92300 49100 92000 49100 4
N 92300 50300 92000 50300 4
N 92300 52400 92000 52400 4
N 92300 53600 92000 53600 4
N 68300 53600 68000 53600 4
N 68300 42500 68000 42500 4
N 68300 43700 68000 43700 4
N 68300 45800 68000 45800 4
N 68300 47000 68000 47000 4
N 68300 49100 68000 49100 4
N 68300 50300 68000 50300 4
N 68300 52400 68000 52400 4
N 80300 42500 80000 42500 4
N 80300 43700 80000 43700 4
N 80300 45800 80000 45800 4
N 80300 47000 80000 47000 4
N 85100 47000 84800 47000 4
N 85100 42500 84800 42500 4
N 85100 43700 84800 43700 4
N 85100 45800 84800 45800 4
N 73100 42500 72800 42500 4
N 73100 43700 72800 43700 4
N 73100 45800 72800 45800 4
N 73100 47000 72800 47000 4
N 73100 49100 72800 49100 4
N 73100 50300 72800 50300 4
N 73100 52400 72800 52400 4
N 73100 53600 72800 53600 4
C 88900 40900 1 0 1 terminal-1.sym
{
T 88590 41650 5 10 0 0 0 6 1
device=terminal
T 89590 40700 5 10 1 1 0 6 1
footprint=ACC_MOUNT.fp
T 88650 40950 5 10 1 1 0 0 1
refdes=T701
}
C 87900 40700 1 0 0 shield.sym
C 86000 41300 1 0 0 terminal-1.sym
{
T 86310 42050 5 10 0 0 0 0 1
device=terminal
T 85310 41100 5 10 1 1 0 0 1
footprint=ACC_MOUNT.fp
T 86250 41350 5 10 1 1 0 6 1
refdes=T702
}
C 86800 41100 1 0 0 shield.sym
C 88900 39800 1 0 1 terminal-1.sym
{
T 88590 40550 5 10 0 0 0 6 1
device=terminal
T 89590 39600 5 10 1 1 0 6 1
footprint=ACC_MOUNT.fp
T 88650 39850 5 10 1 1 0 0 1
refdes=T704
}
C 86000 39400 1 0 0 terminal-1.sym
{
T 86310 40150 5 10 0 0 0 0 1
device=terminal
T 85310 39200 5 10 1 1 0 0 1
footprint=ACC_MOUNT.fp
T 86250 39450 5 10 1 1 0 6 1
refdes=T703
}
C 86800 39200 1 0 0 shield.sym
C 87900 39600 1 0 0 shield.sym
T 85200 40200 9 10 1 0 0 0 2
Mounting Holes are Connected
to the FE connectors shielding
C 67700 53700 1 270 0 agnd.sym
{
T 67700 53610 5 8 1 1 0 6 1
net=AGND_ADC:1
}
C 67700 52500 1 270 0 agnd.sym
{
T 67700 52410 5 8 1 1 0 6 1
net=AGND_ADC:1
}
C 67700 50400 1 270 0 agnd.sym
{
T 67700 50310 5 8 1 1 0 6 1
net=AGND_ADC:1
}
C 67700 49200 1 270 0 agnd.sym
{
T 67700 49110 5 8 1 1 0 6 1
net=AGND_ADC:1
}
C 67700 47100 1 270 0 agnd.sym
{
T 67700 47010 5 8 1 1 0 6 1
net=AGND_ADC:1
}
C 67700 45900 1 270 0 agnd.sym
{
T 67700 45810 5 8 1 1 0 6 1
net=AGND_ADC:1
}
C 67700 43800 1 270 0 agnd.sym
{
T 67700 43710 5 8 1 1 0 6 1
net=AGND_ADC:1
}
C 67700 42600 1 270 0 agnd.sym
{
T 67700 42510 5 8 1 1 0 6 1
net=AGND_ADC:1
}
C 79700 53700 1 270 0 agnd.sym
{
T 79700 53610 5 8 1 1 0 6 1
net=AGND_ADC:1
}
C 79700 52500 1 270 0 agnd.sym
{
T 79700 52410 5 8 1 1 0 6 1
net=AGND_ADC:1
}
C 79700 50400 1 270 0 agnd.sym
{
T 79700 50310 5 8 1 1 0 6 1
net=AGND_ADC:1
}
C 79700 49200 1 270 0 agnd.sym
{
T 79700 49110 5 8 1 1 0 6 1
net=AGND_ADC:1
}
C 79700 47100 1 270 0 agnd.sym
{
T 79700 47010 5 8 1 1 0 6 1
net=AGND_ADC:1
}
C 79700 45900 1 270 0 agnd.sym
{
T 79700 45810 5 8 1 1 0 6 1
net=AGND_ADC:1
}
C 79700 43800 1 270 0 agnd.sym
{
T 79700 43710 5 8 1 1 0 6 1
net=AGND_ADC:1
}
C 79700 42600 1 270 0 agnd.sym
{
T 79700 42510 5 8 1 1 0 6 1
net=AGND_ADC:1
}
C 91700 53700 1 270 0 agnd.sym
{
T 91700 53610 5 8 1 1 0 6 1
net=AGND_ADC:1
}
C 91700 52500 1 270 0 agnd.sym
{
T 91700 52410 5 8 1 1 0 6 1
net=AGND_ADC:1
}
C 91700 50400 1 270 0 agnd.sym
{
T 91700 50310 5 8 1 1 0 6 1
net=AGND_ADC:1
}
C 91700 49200 1 270 0 agnd.sym
{
T 91700 49110 5 8 1 1 0 6 1
net=AGND_ADC:1
}
C 91700 47100 1 270 0 agnd.sym
{
T 91700 47010 5 8 1 1 0 6 1
net=AGND_ADC:1
}
C 91700 45900 1 270 0 agnd.sym
{
T 91700 45810 5 8 1 1 0 6 1
net=AGND_ADC:1
}
C 91700 43800 1 270 0 agnd.sym
{
T 91700 43710 5 8 1 1 0 6 1
net=AGND_ADC:1
}
C 91700 42600 1 270 0 agnd.sym
{
T 91700 42510 5 8 1 1 0 6 1
net=AGND_ADC:1
}
C 97400 53700 1 90 1 agnd.sym
{
T 97400 53610 5 8 1 1 0 0 1
net=AGND_ADC:1
}
C 97400 52500 1 90 1 agnd.sym
{
T 97400 52410 5 8 1 1 0 0 1
net=AGND_ADC:1
}
C 97400 50400 1 90 1 agnd.sym
{
T 97400 50310 5 8 1 1 0 0 1
net=AGND_ADC:1
}
C 97400 49200 1 90 1 agnd.sym
{
T 97400 49110 5 8 1 1 0 0 1
net=AGND_ADC:1
}
C 97400 47100 1 90 1 agnd.sym
{
T 97400 47010 5 8 1 1 0 0 1
net=AGND_ADC:1
}
C 97400 45900 1 90 1 agnd.sym
{
T 97400 45810 5 8 1 1 0 0 1
net=AGND_ADC:1
}
C 97400 43800 1 90 1 agnd.sym
{
T 97400 43710 5 8 1 1 0 0 1
net=AGND_ADC:1
}
C 97400 42600 1 90 1 agnd.sym
{
T 97400 42510 5 8 1 1 0 0 1
net=AGND_ADC:1
}
C 85400 42600 1 90 1 agnd.sym
{
T 85400 42510 5 8 1 1 0 0 1
net=AGND_ADC:1
}
C 85400 43800 1 90 1 agnd.sym
{
T 85400 43710 5 8 1 1 0 0 1
net=AGND_ADC:1
}
C 85400 45900 1 90 1 agnd.sym
{
T 85400 45810 5 8 1 1 0 0 1
net=AGND_ADC:1
}
C 85400 47100 1 90 1 agnd.sym
{
T 85400 47010 5 8 1 1 0 0 1
net=AGND_ADC:1
}
C 85400 49200 1 90 1 agnd.sym
{
T 85400 49110 5 8 1 1 0 0 1
net=AGND_ADC:1
}
C 85400 50400 1 90 1 agnd.sym
{
T 85400 50310 5 8 1 1 0 0 1
net=AGND_ADC:1
}
C 85400 52500 1 90 1 agnd.sym
{
T 85400 52410 5 8 1 1 0 0 1
net=AGND_ADC:1
}
C 85400 53700 1 90 1 agnd.sym
{
T 85400 53610 5 8 1 1 0 0 1
net=AGND_ADC:1
}
C 73400 53700 1 90 1 agnd.sym
{
T 73400 53610 5 8 1 1 0 0 1
net=AGND_ADC:1
}
C 73400 52500 1 90 1 agnd.sym
{
T 73400 52410 5 8 1 1 0 0 1
net=AGND_ADC:1
}
C 73400 50400 1 90 1 agnd.sym
{
T 73400 50310 5 8 1 1 0 0 1
net=AGND_ADC:1
}
C 73400 49200 1 90 1 agnd.sym
{
T 73400 49110 5 8 1 1 0 0 1
net=AGND_ADC:1
}
C 73400 47100 1 90 1 agnd.sym
{
T 73400 47010 5 8 1 1 0 0 1
net=AGND_ADC:1
}
C 73400 45900 1 90 1 agnd.sym
{
T 73400 45810 5 8 1 1 0 0 1
net=AGND_ADC:1
}
C 73400 43800 1 90 1 agnd.sym
{
T 73400 43710 5 8 1 1 0 0 1
net=AGND_ADC:1
}
C 73400 42600 1 90 1 agnd.sym
{
T 73400 42510 5 8 1 1 0 0 1
net=AGND_ADC:1
}
