v 20110115 2
C 80600 30400 1 0 0 cvstitleblock-1.sym
{
T 81200 30800 5 10 1 1 0 0 1
date=2012-11-30
T 85100 30800 5 10 1 1 0 0 1
rev=1.0
T 86600 30500 5 10 1 1 0 0 1
auth=Alexei Dorofeev
T 81400 31100 5 10 1 1 0 0 1
fname=drift_knot.sch
T 84400 31500 5 14 1 1 0 4 1
title=DRIFT Knot Board
}
C 47200 63900 1 0 1 connector-drift_fe.sym
{
T 46650 66500 5 10 0 0 0 6 1
device=HEADER_FE
T 46700 66300 5 10 1 1 0 6 1
refdes=DFE_1
T 46305 64000 5 10 1 1 0 4 1
footprint=CON_MEC1-105.fp
}
C 47500 63200 1 0 1 agnd.sym
{
T 47600 63010 5 9 1 1 0 6 1
net=AGnd:1
}
N 47000 66000 47400 66000 4
N 47400 63500 47400 66700 4
N 47000 64400 47400 64400 4
C 42100 66100 1 0 0 capacitor.sym
{
T 42400 66800 5 10 0 0 0 0 1
device=CAPACITOR
T 42400 66400 5 10 1 1 180 2 1
refdes=C1011
T 42700 66400 5 10 1 1 0 0 1
value=470p
T 42700 66000 5 10 1 1 0 0 1
footprint=1812.fp
}
C 39900 65000 1 270 0 capacitor.sym
{
T 40600 64700 5 10 0 0 270 0 1
device=CAPACITOR
T 40000 64700 5 10 1 1 180 2 1
refdes=C1010
T 40000 64400 5 10 1 1 0 8 1
value=2.2n
T 40200 64400 5 10 1 1 90 8 1
footprint=1812.fp
}
N 39600 65000 41900 65000 4
{
T 40000 65100 5 10 1 1 0 0 1
netname=hvg_filtered
}
C 40000 63800 1 0 0 agnd.sym
{
T 39900 63610 5 9 1 1 0 0 1
net=AGnd:1
}
C 42200 65200 1 90 0 resistor.sym
{
T 41800 65500 5 10 0 0 90 0 1
device=RESISTOR
T 41700 65800 5 10 1 1 0 6 1
refdes=R1011
T 41700 65600 5 10 1 1 180 0 1
value=100.0Meg
T 42100 65600 5 10 1 1 90 5 1
footprint=1206
}
N 41900 64800 41900 65200 4
N 41900 66100 41900 66300 4
C 42200 63900 1 90 0 resistor.sym
{
T 41800 64200 5 10 0 0 90 0 1
device=RESISTOR
T 41700 64500 5 10 1 1 0 6 1
refdes=R1012
T 41700 64300 5 10 1 1 180 0 1
value=100.0Meg
T 42100 64300 5 10 1 1 90 5 1
footprint=1206
}
C 42300 63300 1 0 0 capacitor.sym
{
T 42600 64000 5 10 0 0 0 0 1
device=CAPACITOR
T 42600 63600 5 10 1 1 180 2 1
refdes=C1012
T 42900 63600 5 10 1 1 0 0 1
value=470p
T 42900 63200 5 10 1 1 0 0 1
footprint=1812.fp
}
N 41900 63900 41900 63500 4
N 43000 66300 44800 66300 4
{
T 43400 66400 5 10 1 1 0 0 1
netname=fee_input_1_p
}
N 43200 63500 44800 63500 4
{
T 43400 63600 5 10 1 1 0 0 1
netname=fee_input_1_n
}
N 45600 66000 45200 66000 4
N 45200 66000 45200 66700 4
N 45200 66700 47400 66700 4
N 45600 64400 45200 64400 4
N 45200 64400 45200 63700 4
N 45200 63700 47400 63700 4
N 39600 63500 42300 63500 4
{
T 39600 63200 5 10 1 1 0 0 1
netname=wire_group_09
}
N 39600 66300 42100 66300 4
{
T 39600 66000 5 10 1 1 0 0 1
netname=wire_group_01
}
N 44800 66300 44800 65200 4
N 44800 65200 45600 65200 4
N 44800 63500 44800 64800 4
N 44800 64800 45600 64800 4
C 47200 59700 1 0 1 connector-drift_fe.sym
{
T 46650 62300 5 10 0 0 0 6 1
device=HEADER_FE
T 46700 62100 5 10 1 1 0 6 1
refdes=DFE_2
T 46305 59800 5 10 1 1 0 4 1
footprint=CON_MEC1-105.fp
}
C 47500 59000 1 0 1 agnd.sym
{
T 47600 58810 5 9 1 1 0 6 1
net=AGnd:1
}
N 47000 61800 47400 61800 4
N 47400 59300 47400 62500 4
N 47000 60200 47400 60200 4
C 42100 61900 1 0 0 capacitor.sym
{
T 42400 62600 5 10 0 0 0 0 1
device=CAPACITOR
T 42400 62200 5 10 1 1 180 2 1
refdes=C1021
T 42700 62200 5 10 1 1 0 0 1
value=470p
T 42700 61800 5 10 1 1 0 0 1
footprint=1812.fp
}
C 39900 60800 1 270 0 capacitor.sym
{
T 40600 60500 5 10 0 0 270 0 1
device=CAPACITOR
T 40000 60500 5 10 1 1 180 2 1
refdes=C1020
T 40000 60200 5 10 1 1 0 8 1
value=2.2n
T 40200 60200 5 10 1 1 90 8 1
footprint=1812.fp
}
N 39600 60800 41900 60800 4
{
T 40000 60900 5 10 1 1 0 0 1
netname=hvg_filtered
}
C 40000 59600 1 0 0 agnd.sym
{
T 39900 59410 5 9 1 1 0 0 1
net=AGnd:1
}
C 42200 61000 1 90 0 resistor.sym
{
T 41800 61300 5 10 0 0 90 0 1
device=RESISTOR
T 41700 61600 5 10 1 1 0 6 1
refdes=R1021
T 41700 61400 5 10 1 1 180 0 1
value=100.0Meg
T 42100 61400 5 10 1 1 90 5 1
footprint=1206
}
N 41900 60600 41900 61000 4
N 41900 61900 41900 62100 4
C 42200 59700 1 90 0 resistor.sym
{
T 41800 60000 5 10 0 0 90 0 1
device=RESISTOR
T 41700 60300 5 10 1 1 0 6 1
refdes=R1022
T 41700 60100 5 10 1 1 180 0 1
value=100.0Meg
T 42100 60100 5 10 1 1 90 5 1
footprint=1206
}
C 42300 59100 1 0 0 capacitor.sym
{
T 42600 59800 5 10 0 0 0 0 1
device=CAPACITOR
T 42600 59400 5 10 1 1 180 2 1
refdes=C1022
T 42900 59400 5 10 1 1 0 0 1
value=470p
T 42900 59000 5 10 1 1 0 0 1
footprint=1812.fp
}
N 41900 59700 41900 59300 4
N 43000 62100 44800 62100 4
{
T 43400 62200 5 10 1 1 0 0 1
netname=fee_input_2_p
}
N 43200 59300 44800 59300 4
{
T 43400 59400 5 10 1 1 0 0 1
netname=fee_input_2_n
}
N 45600 61800 45200 61800 4
N 45200 61800 45200 62500 4
N 45200 62500 47400 62500 4
N 45600 60200 45200 60200 4
N 45200 60200 45200 59500 4
N 45200 59500 47400 59500 4
N 39600 59300 42300 59300 4
{
T 39600 59000 5 10 1 1 0 0 1
netname=wire_group_10
}
N 39600 62100 42100 62100 4
{
T 39600 61800 5 10 1 1 0 0 1
netname=wire_group_02
}
N 44800 62100 44800 61000 4
N 44800 61000 45600 61000 4
N 44800 59300 44800 60600 4
N 44800 60600 45600 60600 4
C 47300 55500 1 0 1 connector-drift_fe.sym
{
T 46750 58100 5 10 0 0 0 6 1
device=HEADER_FE
T 46800 57900 5 10 1 1 0 6 1
refdes=DFE_3
T 46405 55600 5 10 1 1 0 4 1
footprint=CON_MEC1-105.fp
}
C 47600 54800 1 0 1 agnd.sym
{
T 47700 54610 5 9 1 1 0 6 1
net=AGnd:1
}
N 47100 57600 47500 57600 4
N 47500 55100 47500 58300 4
N 47100 56000 47500 56000 4
C 42200 57700 1 0 0 capacitor.sym
{
T 42500 58400 5 10 0 0 0 0 1
device=CAPACITOR
T 42500 58000 5 10 1 1 180 2 1
refdes=C1031
T 42800 58000 5 10 1 1 0 0 1
value=470p
T 42800 57600 5 10 1 1 0 0 1
footprint=1812.fp
}
C 40000 56600 1 270 0 capacitor.sym
{
T 40700 56300 5 10 0 0 270 0 1
device=CAPACITOR
T 40100 56300 5 10 1 1 180 2 1
refdes=C1030
T 40100 56000 5 10 1 1 0 8 1
value=2.2n
T 40300 56000 5 10 1 1 90 8 1
footprint=1812.fp
}
N 39700 56600 42000 56600 4
{
T 40100 56700 5 10 1 1 0 0 1
netname=hvg_filtered
}
C 40100 55400 1 0 0 agnd.sym
{
T 40000 55210 5 9 1 1 0 0 1
net=AGnd:1
}
C 42300 56800 1 90 0 resistor.sym
{
T 41900 57100 5 10 0 0 90 0 1
device=RESISTOR
T 41800 57400 5 10 1 1 0 6 1
refdes=R1031
T 41800 57200 5 10 1 1 180 0 1
value=100.0Meg
T 42200 57200 5 10 1 1 90 5 1
footprint=1206
}
N 42000 56400 42000 56800 4
N 42000 57700 42000 57900 4
C 42300 55500 1 90 0 resistor.sym
{
T 41900 55800 5 10 0 0 90 0 1
device=RESISTOR
T 41800 56100 5 10 1 1 0 6 1
refdes=R1032
T 41800 55900 5 10 1 1 180 0 1
value=100.0Meg
T 42200 55900 5 10 1 1 90 5 1
footprint=1206
}
C 42400 54900 1 0 0 capacitor.sym
{
T 42700 55600 5 10 0 0 0 0 1
device=CAPACITOR
T 42700 55200 5 10 1 1 180 2 1
refdes=C1032
T 43000 55200 5 10 1 1 0 0 1
value=470p
T 43000 54800 5 10 1 1 0 0 1
footprint=1812.fp
}
N 42000 55500 42000 55100 4
N 43100 57900 44900 57900 4
{
T 43500 58000 5 10 1 1 0 0 1
netname=fee_input_3_p
}
N 43300 55100 44900 55100 4
{
T 43500 55200 5 10 1 1 0 0 1
netname=fee_input_3_n
}
N 45700 57600 45300 57600 4
N 45300 57600 45300 58300 4
N 45300 58300 47500 58300 4
N 45700 56000 45300 56000 4
N 45300 56000 45300 55300 4
N 45300 55300 47500 55300 4
N 39700 55100 42400 55100 4
{
T 39700 54800 5 10 1 1 0 0 1
netname=wire_group_11
}
N 39700 57900 42200 57900 4
{
T 39700 57600 5 10 1 1 0 0 1
netname=wire_group_03
}
N 44900 57900 44900 56800 4
N 44900 56800 45700 56800 4
N 44900 55100 44900 56400 4
N 44900 56400 45700 56400 4
C 47300 51300 1 0 1 connector-drift_fe.sym
{
T 46750 53900 5 10 0 0 0 6 1
device=HEADER_FE
T 46800 53700 5 10 1 1 0 6 1
refdes=DFE_4
T 46405 51400 5 10 1 1 0 4 1
footprint=CON_MEC1-105.fp
}
C 47600 50600 1 0 1 agnd.sym
{
T 47700 50410 5 9 1 1 0 6 1
net=AGnd:1
}
N 47100 53400 47500 53400 4
N 47500 50900 47500 54100 4
N 47100 51800 47500 51800 4
C 42200 53500 1 0 0 capacitor.sym
{
T 42500 54200 5 10 0 0 0 0 1
device=CAPACITOR
T 42500 53800 5 10 1 1 180 2 1
refdes=C1041
T 42800 53800 5 10 1 1 0 0 1
value=470p
T 42800 53400 5 10 1 1 0 0 1
footprint=1812.fp
}
C 40000 52400 1 270 0 capacitor.sym
{
T 40700 52100 5 10 0 0 270 0 1
device=CAPACITOR
T 40100 52100 5 10 1 1 180 2 1
refdes=C1040
T 40100 51800 5 10 1 1 0 8 1
value=2.2n
T 40300 51800 5 10 1 1 90 8 1
footprint=1812.fp
}
N 39700 52400 42000 52400 4
{
T 40100 52500 5 10 1 1 0 0 1
netname=hvg_filtered
}
C 40100 51200 1 0 0 agnd.sym
{
T 40000 51010 5 9 1 1 0 0 1
net=AGnd:1
}
C 42300 52600 1 90 0 resistor.sym
{
T 41900 52900 5 10 0 0 90 0 1
device=RESISTOR
T 41800 53200 5 10 1 1 0 6 1
refdes=R1041
T 41800 53000 5 10 1 1 180 0 1
value=100.0Meg
T 42200 53000 5 10 1 1 90 5 1
footprint=1206
}
N 42000 52200 42000 52600 4
N 42000 53500 42000 53700 4
C 42300 51300 1 90 0 resistor.sym
{
T 41900 51600 5 10 0 0 90 0 1
device=RESISTOR
T 41800 51900 5 10 1 1 0 6 1
refdes=R1042
T 41800 51700 5 10 1 1 180 0 1
value=100.0Meg
T 42200 51700 5 10 1 1 90 5 1
footprint=1206
}
C 42400 50700 1 0 0 capacitor.sym
{
T 42700 51400 5 10 0 0 0 0 1
device=CAPACITOR
T 42700 51000 5 10 1 1 180 2 1
refdes=C1042
T 43000 51000 5 10 1 1 0 0 1
value=470p
T 43000 50600 5 10 1 1 0 0 1
footprint=1812.fp
}
N 42000 51300 42000 50900 4
N 43100 53700 44900 53700 4
{
T 43500 53800 5 10 1 1 0 0 1
netname=fee_input_4_p
}
N 43300 50900 44900 50900 4
{
T 43500 51000 5 10 1 1 0 0 1
netname=fee_input_4_n
}
N 45700 53400 45300 53400 4
N 45300 53400 45300 54100 4
N 45300 54100 47500 54100 4
N 45700 51800 45300 51800 4
N 45300 51800 45300 51100 4
N 45300 51100 47500 51100 4
N 39700 50900 42400 50900 4
{
T 39700 50600 5 10 1 1 0 0 1
netname=wire_group_12
}
N 39700 53700 42200 53700 4
{
T 39700 53400 5 10 1 1 0 0 1
netname=wire_group_04
}
N 44900 53700 44900 52600 4
N 44900 52600 45700 52600 4
N 44900 50900 44900 52200 4
N 44900 52200 45700 52200 4
C 56400 64000 1 0 1 connector-drift_fe.sym
{
T 55850 66600 5 10 0 0 0 6 1
device=HEADER_FE
T 55900 66400 5 10 1 1 0 6 1
refdes=DFE_5
T 55505 64100 5 10 1 1 0 4 1
footprint=CON_MEC1-105.fp
}
C 56700 63300 1 0 1 agnd.sym
{
T 56800 63110 5 9 1 1 0 6 1
net=AGnd:1
}
N 56200 66100 56600 66100 4
N 56600 63600 56600 66800 4
N 56200 64500 56600 64500 4
C 51300 66200 1 0 0 capacitor.sym
{
T 51600 66900 5 10 0 0 0 0 1
device=CAPACITOR
T 51600 66500 5 10 1 1 180 2 1
refdes=C1051
T 51900 66500 5 10 1 1 0 0 1
value=470p
T 51900 66100 5 10 1 1 0 0 1
footprint=1812.fp
}
C 49100 65100 1 270 0 capacitor.sym
{
T 49800 64800 5 10 0 0 270 0 1
device=CAPACITOR
T 49200 64800 5 10 1 1 180 2 1
refdes=C1050
T 49200 64500 5 10 1 1 0 8 1
value=2.2n
T 49400 64500 5 10 1 1 90 8 1
footprint=1812.fp
}
N 48800 65100 51100 65100 4
{
T 49200 65200 5 10 1 1 0 0 1
netname=hvg_filtered
}
C 49200 63900 1 0 0 agnd.sym
{
T 49100 63710 5 9 1 1 0 0 1
net=AGnd:1
}
C 51400 65300 1 90 0 resistor.sym
{
T 51000 65600 5 10 0 0 90 0 1
device=RESISTOR
T 50900 65900 5 10 1 1 0 6 1
refdes=R1051
T 50900 65700 5 10 1 1 180 0 1
value=100.0Meg
T 51300 65700 5 10 1 1 90 5 1
footprint=1206
}
N 51100 64900 51100 65300 4
N 51100 66200 51100 66400 4
C 51400 64000 1 90 0 resistor.sym
{
T 51000 64300 5 10 0 0 90 0 1
device=RESISTOR
T 50900 64600 5 10 1 1 0 6 1
refdes=R1052
T 50900 64400 5 10 1 1 180 0 1
value=100.0Meg
T 51300 64400 5 10 1 1 90 5 1
footprint=1206
}
C 51500 63400 1 0 0 capacitor.sym
{
T 51800 64100 5 10 0 0 0 0 1
device=CAPACITOR
T 51800 63700 5 10 1 1 180 2 1
refdes=C1052
T 52100 63700 5 10 1 1 0 0 1
value=470p
T 52100 63300 5 10 1 1 0 0 1
footprint=1812.fp
}
N 51100 64000 51100 63600 4
N 52200 66400 54000 66400 4
{
T 52600 66500 5 10 1 1 0 0 1
netname=fee_input_5_p
}
N 52400 63600 54000 63600 4
{
T 52600 63700 5 10 1 1 0 0 1
netname=fee_input_5_n
}
N 54800 66100 54400 66100 4
N 54400 66100 54400 66800 4
N 54400 66800 56600 66800 4
N 54800 64500 54400 64500 4
N 54400 64500 54400 63800 4
N 54400 63800 56600 63800 4
N 48800 63600 51500 63600 4
{
T 48800 63300 5 10 1 1 0 0 1
netname=wire_group_13
}
N 48800 66400 51300 66400 4
{
T 48800 66100 5 10 1 1 0 0 1
netname=wire_group_05
}
N 54000 66400 54000 65300 4
N 54000 65300 54800 65300 4
N 54000 63600 54000 64900 4
N 54000 64900 54800 64900 4
C 56400 59800 1 0 1 connector-drift_fe.sym
{
T 55850 62400 5 10 0 0 0 6 1
device=HEADER_FE
T 55900 62200 5 10 1 1 0 6 1
refdes=DFE_6
T 55505 59900 5 10 1 1 0 4 1
footprint=CON_MEC1-105.fp
}
C 56700 59100 1 0 1 agnd.sym
{
T 56800 58910 5 9 1 1 0 6 1
net=AGnd:1
}
N 56200 61900 56600 61900 4
N 56600 59400 56600 62600 4
N 56200 60300 56600 60300 4
C 51300 62000 1 0 0 capacitor.sym
{
T 51600 62700 5 10 0 0 0 0 1
device=CAPACITOR
T 51600 62300 5 10 1 1 180 2 1
refdes=C1061
T 51900 62300 5 10 1 1 0 0 1
value=470p
T 51900 61900 5 10 1 1 0 0 1
footprint=1812.fp
}
C 49100 60900 1 270 0 capacitor.sym
{
T 49800 60600 5 10 0 0 270 0 1
device=CAPACITOR
T 49200 60600 5 10 1 1 180 2 1
refdes=C1060
T 49200 60300 5 10 1 1 0 8 1
value=2.2n
T 49400 60300 5 10 1 1 90 8 1
footprint=1812.fp
}
N 48800 60900 51100 60900 4
{
T 49200 61000 5 10 1 1 0 0 1
netname=hvg_filtered
}
C 49200 59700 1 0 0 agnd.sym
{
T 49100 59510 5 9 1 1 0 0 1
net=AGnd:1
}
C 51400 61100 1 90 0 resistor.sym
{
T 51000 61400 5 10 0 0 90 0 1
device=RESISTOR
T 50900 61700 5 10 1 1 0 6 1
refdes=R1061
T 50900 61500 5 10 1 1 180 0 1
value=100.0Meg
T 51300 61500 5 10 1 1 90 5 1
footprint=1206
}
N 51100 60700 51100 61100 4
N 51100 62000 51100 62200 4
C 51400 59800 1 90 0 resistor.sym
{
T 51000 60100 5 10 0 0 90 0 1
device=RESISTOR
T 50900 60400 5 10 1 1 0 6 1
refdes=R1062
T 50900 60200 5 10 1 1 180 0 1
value=100.0Meg
T 51300 60200 5 10 1 1 90 5 1
footprint=1206
}
C 51500 59200 1 0 0 capacitor.sym
{
T 51800 59900 5 10 0 0 0 0 1
device=CAPACITOR
T 51800 59500 5 10 1 1 180 2 1
refdes=C1062
T 52100 59500 5 10 1 1 0 0 1
value=470p
T 52100 59100 5 10 1 1 0 0 1
footprint=1812.fp
}
N 51100 59800 51100 59400 4
N 52200 62200 54000 62200 4
{
T 52600 62300 5 10 1 1 0 0 1
netname=fee_input_6_p
}
N 52400 59400 54000 59400 4
{
T 52600 59500 5 10 1 1 0 0 1
netname=fee_input_6_n
}
N 54800 61900 54400 61900 4
N 54400 61900 54400 62600 4
N 54400 62600 56600 62600 4
N 54800 60300 54400 60300 4
N 54400 60300 54400 59600 4
N 54400 59600 56600 59600 4
N 48800 59400 51500 59400 4
{
T 48800 59100 5 10 1 1 0 0 1
netname=wire_group_14
}
N 48800 62200 51300 62200 4
{
T 48800 61900 5 10 1 1 0 0 1
netname=wire_group_06
}
N 54000 62200 54000 61100 4
N 54000 61100 54800 61100 4
N 54000 59400 54000 60700 4
N 54000 60700 54800 60700 4
C 56500 55600 1 0 1 connector-drift_fe.sym
{
T 55950 58200 5 10 0 0 0 6 1
device=HEADER_FE
T 56000 58000 5 10 1 1 0 6 1
refdes=DFE_7
T 55605 55700 5 10 1 1 0 4 1
footprint=CON_MEC1-105.fp
}
C 56800 54900 1 0 1 agnd.sym
{
T 56900 54710 5 9 1 1 0 6 1
net=AGnd:1
}
N 56300 57700 56700 57700 4
N 56700 55200 56700 58400 4
N 56300 56100 56700 56100 4
C 51400 57800 1 0 0 capacitor.sym
{
T 51700 58500 5 10 0 0 0 0 1
device=CAPACITOR
T 51700 58100 5 10 1 1 180 2 1
refdes=C1071
T 52000 58100 5 10 1 1 0 0 1
value=470p
T 52000 57700 5 10 1 1 0 0 1
footprint=1812.fp
}
C 49200 56700 1 270 0 capacitor.sym
{
T 49900 56400 5 10 0 0 270 0 1
device=CAPACITOR
T 49300 56400 5 10 1 1 180 2 1
refdes=C1070
T 49300 56100 5 10 1 1 0 8 1
value=2.2n
T 49500 56100 5 10 1 1 90 8 1
footprint=1812.fp
}
N 48900 56700 51200 56700 4
{
T 49300 56800 5 10 1 1 0 0 1
netname=hvg_filtered
}
C 49300 55500 1 0 0 agnd.sym
{
T 49200 55310 5 9 1 1 0 0 1
net=AGnd:1
}
C 51500 56900 1 90 0 resistor.sym
{
T 51100 57200 5 10 0 0 90 0 1
device=RESISTOR
T 51000 57500 5 10 1 1 0 6 1
refdes=R1071
T 51000 57300 5 10 1 1 180 0 1
value=100.0Meg
T 51400 57300 5 10 1 1 90 5 1
footprint=1206
}
N 51200 56500 51200 56900 4
N 51200 57800 51200 58000 4
C 51500 55600 1 90 0 resistor.sym
{
T 51100 55900 5 10 0 0 90 0 1
device=RESISTOR
T 51000 56200 5 10 1 1 0 6 1
refdes=R1072
T 51000 56000 5 10 1 1 180 0 1
value=100.0Meg
T 51400 56000 5 10 1 1 90 5 1
footprint=1206
}
C 51600 55000 1 0 0 capacitor.sym
{
T 51900 55700 5 10 0 0 0 0 1
device=CAPACITOR
T 51900 55300 5 10 1 1 180 2 1
refdes=C1072
T 52200 55300 5 10 1 1 0 0 1
value=470p
T 52200 54900 5 10 1 1 0 0 1
footprint=1812.fp
}
N 51200 55600 51200 55200 4
N 52300 58000 54100 58000 4
{
T 52700 58100 5 10 1 1 0 0 1
netname=fee_input_7_p
}
N 52500 55200 54100 55200 4
{
T 52700 55300 5 10 1 1 0 0 1
netname=fee_input_7_n
}
N 54900 57700 54500 57700 4
N 54500 57700 54500 58400 4
N 54500 58400 56700 58400 4
N 54900 56100 54500 56100 4
N 54500 56100 54500 55400 4
N 54500 55400 56700 55400 4
N 48900 55200 51600 55200 4
{
T 48900 54900 5 10 1 1 0 0 1
netname=wire_group_15
}
N 48900 58000 51400 58000 4
{
T 48900 57700 5 10 1 1 0 0 1
netname=wire_group_07
}
N 54100 58000 54100 56900 4
N 54100 56900 54900 56900 4
N 54100 55200 54100 56500 4
N 54100 56500 54900 56500 4
C 56500 51400 1 0 1 connector-drift_fe.sym
{
T 55950 54000 5 10 0 0 0 6 1
device=HEADER_FE
T 56000 53800 5 10 1 1 0 6 1
refdes=DFE_8
T 55605 51500 5 10 1 1 0 4 1
footprint=CON_MEC1-105.fp
}
C 56800 50700 1 0 1 agnd.sym
{
T 56900 50510 5 9 1 1 0 6 1
net=AGnd:1
}
N 56300 53500 56700 53500 4
N 56700 51000 56700 54200 4
N 56300 51900 56700 51900 4
C 51400 53600 1 0 0 capacitor.sym
{
T 51700 54300 5 10 0 0 0 0 1
device=CAPACITOR
T 51700 53900 5 10 1 1 180 2 1
refdes=C1081
T 52000 53900 5 10 1 1 0 0 1
value=470p
T 52000 53500 5 10 1 1 0 0 1
footprint=1812.fp
}
C 49200 52500 1 270 0 capacitor.sym
{
T 49900 52200 5 10 0 0 270 0 1
device=CAPACITOR
T 49300 52200 5 10 1 1 180 2 1
refdes=C1080
T 49300 51900 5 10 1 1 0 8 1
value=2.2n
T 49500 51900 5 10 1 1 90 8 1
footprint=1812.fp
}
N 48900 52500 51200 52500 4
{
T 49300 52600 5 10 1 1 0 0 1
netname=hvg_filtered
}
C 49300 51300 1 0 0 agnd.sym
{
T 49200 51110 5 9 1 1 0 0 1
net=AGnd:1
}
C 51500 52700 1 90 0 resistor.sym
{
T 51100 53000 5 10 0 0 90 0 1
device=RESISTOR
T 51000 53300 5 10 1 1 0 6 1
refdes=R1081
T 51000 53100 5 10 1 1 180 0 1
value=100.0Meg
T 51400 53100 5 10 1 1 90 5 1
footprint=1206
}
N 51200 52300 51200 52700 4
N 51200 53600 51200 53800 4
C 51500 51400 1 90 0 resistor.sym
{
T 51100 51700 5 10 0 0 90 0 1
device=RESISTOR
T 51000 52000 5 10 1 1 0 6 1
refdes=R1082
T 51000 51800 5 10 1 1 180 0 1
value=100.0Meg
T 51400 51800 5 10 1 1 90 5 1
footprint=1206
}
C 51600 50800 1 0 0 capacitor.sym
{
T 51900 51500 5 10 0 0 0 0 1
device=CAPACITOR
T 51900 51100 5 10 1 1 180 2 1
refdes=C1082
T 52200 51100 5 10 1 1 0 0 1
value=470p
T 52200 50700 5 10 1 1 0 0 1
footprint=1812.fp
}
N 51200 51400 51200 51000 4
N 52300 53800 54100 53800 4
{
T 52700 53900 5 10 1 1 0 0 1
netname=fee_input_8_p
}
N 52500 51000 54100 51000 4
{
T 52700 51100 5 10 1 1 0 0 1
netname=fee_input_8_n
}
N 54900 53500 54500 53500 4
N 54500 53500 54500 54200 4
N 54500 54200 56700 54200 4
N 54900 51900 54500 51900 4
N 54500 51900 54500 51200 4
N 54500 51200 56700 51200 4
N 48900 51000 51600 51000 4
{
T 48900 50700 5 10 1 1 0 0 1
netname=wire_group_16
}
N 48900 53800 51400 53800 4
{
T 48900 53500 5 10 1 1 0 0 1
netname=wire_group_08
}
N 54100 53800 54100 52700 4
N 54100 52700 54900 52700 4
N 54100 51000 54100 52300 4
N 54100 52300 54900 52300 4
N 58400 66800 60900 66800 4
{
T 58500 66900 5 10 1 1 0 0 1
netname=wire_group_01
}
C 61900 65300 1 0 1 resistor_switch.sym
{
T 61500 65900 5 10 0 0 0 6 1
device=RESISTOR
T 61200 66000 5 10 1 1 0 6 1
refdes=R017
T 61600 66000 5 10 1 1 0 6 1
value=0
T 61300 65400 5 10 1 1 0 4 1
footprint=1_5_0603.fp
}
N 61800 65800 63000 65800 4
{
T 62100 65900 5 10 1 1 0 0 1
netname=wire_017
}
N 61800 66800 63000 66800 4
{
T 62100 66900 5 10 1 1 0 0 1
netname=wire_001
}
C 61900 66300 1 0 1 resistor_switch.sym
{
T 61500 66900 5 10 0 0 0 6 1
device=RESISTOR
T 61200 67000 5 10 1 1 0 6 1
refdes=R001
T 61600 67000 5 10 1 1 0 6 1
value=0
T 61300 66400 5 10 1 1 0 4 1
footprint=1_5_0603.fp
}
C 61900 64300 1 0 1 resistor_switch.sym
{
T 61500 64900 5 10 0 0 0 6 1
device=RESISTOR
T 61200 65000 5 10 1 1 0 6 1
refdes=R033
T 61600 65000 5 10 1 1 0 6 1
value=0
T 61300 64400 5 10 1 1 0 4 1
footprint=1_5_0603.fp
}
N 61800 64800 63000 64800 4
{
T 62100 64900 5 10 1 1 0 0 1
netname=wire_033
}
C 61900 63300 1 0 1 resistor_switch.sym
{
T 61500 63900 5 10 0 0 0 6 1
device=RESISTOR
T 61200 64000 5 10 1 1 0 6 1
refdes=R049
T 61600 64000 5 10 1 1 0 6 1
value=0
T 61300 63400 5 10 1 1 0 4 1
footprint=1_5_0603.fp
}
N 61800 63800 63000 63800 4
{
T 62100 63900 5 10 1 1 0 0 1
netname=wire_049
}
C 61900 62300 1 0 1 resistor_switch.sym
{
T 61500 62900 5 10 0 0 0 6 1
device=RESISTOR
T 61200 63000 5 10 1 1 0 6 1
refdes=R065
T 61600 63000 5 10 1 1 0 6 1
value=0
T 61300 62400 5 10 1 1 0 4 1
footprint=1_5_0603.fp
}
N 61800 62800 63000 62800 4
{
T 62100 62900 5 10 1 1 0 0 1
netname=wire_065
}
C 61900 61300 1 0 1 resistor_switch.sym
{
T 61500 61900 5 10 0 0 0 6 1
device=RESISTOR
T 61200 62000 5 10 1 1 0 6 1
refdes=R081
T 61600 62000 5 10 1 1 0 6 1
value=0
T 61300 61400 5 10 1 1 0 4 1
footprint=1_5_0603.fp
}
N 61800 61800 63000 61800 4
{
T 62100 61900 5 10 1 1 0 0 1
netname=wire_081
}
C 61900 60400 1 0 1 resistor_switch.sym
{
T 61500 61000 5 10 0 0 0 6 1
device=RESISTOR
T 61200 61100 5 10 1 1 0 6 1
refdes=R097
T 61600 61100 5 10 1 1 0 6 1
value=0
T 61300 60500 5 10 1 1 0 4 1
footprint=1_5_0603.fp
}
N 61800 60900 63000 60900 4
{
T 62100 61000 5 10 1 1 0 0 1
netname=wire_097
}
C 61900 59500 1 0 1 resistor_switch.sym
{
T 61500 60100 5 10 0 0 0 6 1
device=RESISTOR
T 61200 60200 5 10 1 1 0 6 1
refdes=R113
T 61600 60200 5 10 1 1 0 6 1
value=0
T 61300 59600 5 10 1 1 0 4 1
footprint=1_5_0603.fp
}
N 61800 60000 63000 60000 4
{
T 62100 60100 5 10 1 1 0 0 1
netname=wire_113
}
N 60900 60000 60400 60000 4
N 60400 60000 60400 66800 4
N 60900 65800 60400 65800 4
N 60900 64800 60400 64800 4
N 60900 63800 60400 63800 4
N 60900 62800 60400 62800 4
N 60900 61800 60400 61800 4
N 60900 60900 60400 60900 4
N 60900 66600 59700 66600 4
N 59700 66600 59700 59800 4
N 58400 59800 60900 59800 4
{
T 58800 59500 5 10 1 1 0 0 1
netname=hvg_filtered
}
N 60900 60700 59700 60700 4
N 60900 61600 59700 61600 4
N 60900 62600 59700 62600 4
N 60900 63600 59700 63600 4
N 60900 64600 59700 64600 4
N 60900 65600 59700 65600 4
N 64600 66800 67100 66800 4
{
T 64700 66900 5 10 1 1 0 0 1
netname=wire_group_02
}
C 68100 65300 1 0 1 resistor_switch.sym
{
T 67700 65900 5 10 0 0 0 6 1
device=RESISTOR
T 67400 66000 5 10 1 1 0 6 1
refdes=R018
T 67800 66000 5 10 1 1 0 6 1
value=0
T 67500 65400 5 10 1 1 0 4 1
footprint=1_5_0603.fp
}
N 68000 65800 69200 65800 4
{
T 68300 65900 5 10 1 1 0 0 1
netname=wire_018
}
N 68000 66800 69200 66800 4
{
T 68300 66900 5 10 1 1 0 0 1
netname=wire_002
}
C 68100 66300 1 0 1 resistor_switch.sym
{
T 67700 66900 5 10 0 0 0 6 1
device=RESISTOR
T 67400 67000 5 10 1 1 0 6 1
refdes=R002
T 67800 67000 5 10 1 1 0 6 1
value=0
T 67500 66400 5 10 1 1 0 4 1
footprint=1_5_0603.fp
}
C 68100 64300 1 0 1 resistor_switch.sym
{
T 67700 64900 5 10 0 0 0 6 1
device=RESISTOR
T 67400 65000 5 10 1 1 0 6 1
refdes=R034
T 67800 65000 5 10 1 1 0 6 1
value=0
T 67500 64400 5 10 1 1 0 4 1
footprint=1_5_0603.fp
}
N 68000 64800 69200 64800 4
{
T 68300 64900 5 10 1 1 0 0 1
netname=wire_034
}
C 68100 63300 1 0 1 resistor_switch.sym
{
T 67700 63900 5 10 0 0 0 6 1
device=RESISTOR
T 67400 64000 5 10 1 1 0 6 1
refdes=R050
T 67800 64000 5 10 1 1 0 6 1
value=0
T 67500 63400 5 10 1 1 0 4 1
footprint=1_5_0603.fp
}
N 68000 63800 69200 63800 4
{
T 68300 63900 5 10 1 1 0 0 1
netname=wire_050
}
C 68100 62300 1 0 1 resistor_switch.sym
{
T 67700 62900 5 10 0 0 0 6 1
device=RESISTOR
T 67400 63000 5 10 1 1 0 6 1
refdes=R066
T 67800 63000 5 10 1 1 0 6 1
value=0
T 67500 62400 5 10 1 1 0 4 1
footprint=1_5_0603.fp
}
N 68000 62800 69200 62800 4
{
T 68300 62900 5 10 1 1 0 0 1
netname=wire_066
}
C 68100 61300 1 0 1 resistor_switch.sym
{
T 67700 61900 5 10 0 0 0 6 1
device=RESISTOR
T 67400 62000 5 10 1 1 0 6 1
refdes=R082
T 67800 62000 5 10 1 1 0 6 1
value=0
T 67500 61400 5 10 1 1 0 4 1
footprint=1_5_0603.fp
}
N 68000 61800 69200 61800 4
{
T 68300 61900 5 10 1 1 0 0 1
netname=wire_082
}
C 68100 60400 1 0 1 resistor_switch.sym
{
T 67700 61000 5 10 0 0 0 6 1
device=RESISTOR
T 67400 61100 5 10 1 1 0 6 1
refdes=R098
T 67800 61100 5 10 1 1 0 6 1
value=0
T 67500 60500 5 10 1 1 0 4 1
footprint=1_5_0603.fp
}
N 68000 60900 69200 60900 4
{
T 68300 61000 5 10 1 1 0 0 1
netname=wire_098
}
C 68100 59500 1 0 1 resistor_switch.sym
{
T 67700 60100 5 10 0 0 0 6 1
device=RESISTOR
T 67400 60200 5 10 1 1 0 6 1
refdes=R114
T 67800 60200 5 10 1 1 0 6 1
value=0
T 67500 59600 5 10 1 1 0 4 1
footprint=1_5_0603.fp
}
N 68000 60000 69200 60000 4
{
T 68300 60100 5 10 1 1 0 0 1
netname=wire_114
}
N 67100 60000 66600 60000 4
N 66600 60000 66600 66800 4
N 67100 65800 66600 65800 4
N 67100 64800 66600 64800 4
N 67100 63800 66600 63800 4
N 67100 62800 66600 62800 4
N 67100 61800 66600 61800 4
N 67100 60900 66600 60900 4
N 67100 66600 65900 66600 4
N 65900 66600 65900 59800 4
N 64600 59800 67100 59800 4
{
T 65000 59500 5 10 1 1 0 0 1
netname=hvg_filtered
}
N 67100 60700 65900 60700 4
N 67100 61600 65900 61600 4
N 67100 62600 65900 62600 4
N 67100 63600 65900 63600 4
N 67100 64600 65900 64600 4
N 67100 65600 65900 65600 4
N 64600 57900 67100 57900 4
{
T 64700 58000 5 10 1 1 0 0 1
netname=wire_group_06
}
C 68100 56400 1 0 1 resistor_switch.sym
{
T 67700 57000 5 10 0 0 0 6 1
device=RESISTOR
T 67400 57100 5 10 1 1 0 6 1
refdes=R022
T 67800 57100 5 10 1 1 0 6 1
value=0
T 67500 56500 5 10 1 1 0 4 1
footprint=1_5_0603.fp
}
N 68000 56900 69200 56900 4
{
T 68300 57000 5 10 1 1 0 0 1
netname=wire_022
}
N 68000 57900 69200 57900 4
{
T 68300 58000 5 10 1 1 0 0 1
netname=wire_006
}
C 68100 57400 1 0 1 resistor_switch.sym
{
T 67700 58000 5 10 0 0 0 6 1
device=RESISTOR
T 67400 58100 5 10 1 1 0 6 1
refdes=R006
T 67800 58100 5 10 1 1 0 6 1
value=0
T 67500 57500 5 10 1 1 0 4 1
footprint=1_5_0603.fp
}
C 68100 55400 1 0 1 resistor_switch.sym
{
T 67700 56000 5 10 0 0 0 6 1
device=RESISTOR
T 67400 56100 5 10 1 1 0 6 1
refdes=R038
T 67800 56100 5 10 1 1 0 6 1
value=0
T 67500 55500 5 10 1 1 0 4 1
footprint=1_5_0603.fp
}
N 68000 55900 69200 55900 4
{
T 68300 56000 5 10 1 1 0 0 1
netname=wire_038
}
C 68100 54400 1 0 1 resistor_switch.sym
{
T 67700 55000 5 10 0 0 0 6 1
device=RESISTOR
T 67400 55100 5 10 1 1 0 6 1
refdes=R054
T 67800 55100 5 10 1 1 0 6 1
value=0
T 67500 54500 5 10 1 1 0 4 1
footprint=1_5_0603.fp
}
N 68000 54900 69200 54900 4
{
T 68300 55000 5 10 1 1 0 0 1
netname=wire_054
}
C 68100 53400 1 0 1 resistor_switch.sym
{
T 67700 54000 5 10 0 0 0 6 1
device=RESISTOR
T 67400 54100 5 10 1 1 0 6 1
refdes=R070
T 67800 54100 5 10 1 1 0 6 1
value=0
T 67500 53500 5 10 1 1 0 4 1
footprint=1_5_0603.fp
}
N 68000 53900 69200 53900 4
{
T 68300 54000 5 10 1 1 0 0 1
netname=wire_070
}
C 68100 52400 1 0 1 resistor_switch.sym
{
T 67700 53000 5 10 0 0 0 6 1
device=RESISTOR
T 67400 53100 5 10 1 1 0 6 1
refdes=R086
T 67800 53100 5 10 1 1 0 6 1
value=0
T 67500 52500 5 10 1 1 0 4 1
footprint=1_5_0603.fp
}
N 68000 52900 69200 52900 4
{
T 68300 53000 5 10 1 1 0 0 1
netname=wire_086
}
C 68100 51500 1 0 1 resistor_switch.sym
{
T 67700 52100 5 10 0 0 0 6 1
device=RESISTOR
T 67400 52200 5 10 1 1 0 6 1
refdes=R102
T 67800 52200 5 10 1 1 0 6 1
value=0
T 67500 51600 5 10 1 1 0 4 1
footprint=1_5_0603.fp
}
N 68000 52000 69200 52000 4
{
T 68300 52100 5 10 1 1 0 0 1
netname=wire_102
}
C 68100 50600 1 0 1 resistor_switch.sym
{
T 67700 51200 5 10 0 0 0 6 1
device=RESISTOR
T 67400 51300 5 10 1 1 0 6 1
refdes=R118
T 67800 51300 5 10 1 1 0 6 1
value=0
T 67500 50700 5 10 1 1 0 4 1
footprint=1_5_0603.fp
}
N 68000 51100 69200 51100 4
{
T 68300 51200 5 10 1 1 0 0 1
netname=wire_118
}
N 67100 51100 66600 51100 4
N 66600 51100 66600 57900 4
N 67100 56900 66600 56900 4
N 67100 55900 66600 55900 4
N 67100 54900 66600 54900 4
N 67100 53900 66600 53900 4
N 67100 52900 66600 52900 4
N 67100 52000 66600 52000 4
N 67100 57700 65900 57700 4
N 65900 57700 65900 50900 4
N 64600 50900 67100 50900 4
{
T 65000 50600 5 10 1 1 0 0 1
netname=hvg_filtered
}
N 67100 51800 65900 51800 4
N 67100 52700 65900 52700 4
N 67100 53700 65900 53700 4
N 67100 54700 65900 54700 4
N 67100 55700 65900 55700 4
N 67100 56700 65900 56700 4
N 70600 66800 73100 66800 4
{
T 70700 66900 5 10 1 1 0 0 1
netname=wire_group_03
}
C 74100 65300 1 0 1 resistor_switch.sym
{
T 73700 65900 5 10 0 0 0 6 1
device=RESISTOR
T 73400 66000 5 10 1 1 0 6 1
refdes=R019
T 73800 66000 5 10 1 1 0 6 1
value=0
T 73500 65400 5 10 1 1 0 4 1
footprint=1_5_0603.fp
}
N 74000 65800 75200 65800 4
{
T 74300 65900 5 10 1 1 0 0 1
netname=wire_019
}
N 74000 66800 75200 66800 4
{
T 74300 66900 5 10 1 1 0 0 1
netname=wire_003
}
C 74100 66300 1 0 1 resistor_switch.sym
{
T 73700 66900 5 10 0 0 0 6 1
device=RESISTOR
T 73400 67000 5 10 1 1 0 6 1
refdes=R003
T 73800 67000 5 10 1 1 0 6 1
value=0
T 73500 66400 5 10 1 1 0 4 1
footprint=1_5_0603.fp
}
C 74100 64300 1 0 1 resistor_switch.sym
{
T 73700 64900 5 10 0 0 0 6 1
device=RESISTOR
T 73400 65000 5 10 1 1 0 6 1
refdes=R035
T 73800 65000 5 10 1 1 0 6 1
value=0
T 73500 64400 5 10 1 1 0 4 1
footprint=1_5_0603.fp
}
N 74000 64800 75200 64800 4
{
T 74300 64900 5 10 1 1 0 0 1
netname=wire_035
}
C 74100 63300 1 0 1 resistor_switch.sym
{
T 73700 63900 5 10 0 0 0 6 1
device=RESISTOR
T 73400 64000 5 10 1 1 0 6 1
refdes=R051
T 73800 64000 5 10 1 1 0 6 1
value=0
T 73500 63400 5 10 1 1 0 4 1
footprint=1_5_0603.fp
}
N 74000 63800 75200 63800 4
{
T 74300 63900 5 10 1 1 0 0 1
netname=wire_051
}
C 74100 62300 1 0 1 resistor_switch.sym
{
T 73700 62900 5 10 0 0 0 6 1
device=RESISTOR
T 73400 63000 5 10 1 1 0 6 1
refdes=R067
T 73800 63000 5 10 1 1 0 6 1
value=0
T 73500 62400 5 10 1 1 0 4 1
footprint=1_5_0603.fp
}
N 74000 62800 75200 62800 4
{
T 74300 62900 5 10 1 1 0 0 1
netname=wire_067
}
C 74100 61300 1 0 1 resistor_switch.sym
{
T 73700 61900 5 10 0 0 0 6 1
device=RESISTOR
T 73400 62000 5 10 1 1 0 6 1
refdes=R083
T 73800 62000 5 10 1 1 0 6 1
value=0
T 73500 61400 5 10 1 1 0 4 1
footprint=1_5_0603.fp
}
N 74000 61800 75200 61800 4
{
T 74300 61900 5 10 1 1 0 0 1
netname=wire_083
}
C 74100 60400 1 0 1 resistor_switch.sym
{
T 73700 61000 5 10 0 0 0 6 1
device=RESISTOR
T 73400 61100 5 10 1 1 0 6 1
refdes=R099
T 73800 61100 5 10 1 1 0 6 1
value=0
T 73500 60500 5 10 1 1 0 4 1
footprint=1_5_0603.fp
}
N 74000 60900 75200 60900 4
{
T 74300 61000 5 10 1 1 0 0 1
netname=wire_099
}
C 74100 59500 1 0 1 resistor_switch.sym
{
T 73700 60100 5 10 0 0 0 6 1
device=RESISTOR
T 73400 60200 5 10 1 1 0 6 1
refdes=R115
T 73800 60200 5 10 1 1 0 6 1
value=0
T 73500 59600 5 10 1 1 0 4 1
footprint=1_5_0603.fp
}
N 74000 60000 75200 60000 4
{
T 74300 60100 5 10 1 1 0 0 1
netname=wire_115
}
N 73100 60000 72600 60000 4
N 72600 60000 72600 66800 4
N 73100 65800 72600 65800 4
N 73100 64800 72600 64800 4
N 73100 63800 72600 63800 4
N 73100 62800 72600 62800 4
N 73100 61800 72600 61800 4
N 73100 60900 72600 60900 4
N 73100 66600 71900 66600 4
N 71900 66600 71900 59800 4
N 70600 59800 73100 59800 4
{
T 71000 59500 5 10 1 1 0 0 1
netname=hvg_filtered
}
N 73100 60700 71900 60700 4
N 73100 61600 71900 61600 4
N 73100 62600 71900 62600 4
N 73100 63600 71900 63600 4
N 73100 64600 71900 64600 4
N 73100 65600 71900 65600 4
N 76800 66800 79300 66800 4
{
T 76900 66900 5 10 1 1 0 0 1
netname=wire_group_04
}
C 80300 65300 1 0 1 resistor_switch.sym
{
T 79900 65900 5 10 0 0 0 6 1
device=RESISTOR
T 79600 66000 5 10 1 1 0 6 1
refdes=R020
T 80000 66000 5 10 1 1 0 6 1
value=0
T 79700 65400 5 10 1 1 0 4 1
footprint=1_5_0603.fp
}
N 80200 65800 81400 65800 4
{
T 80500 65900 5 10 1 1 0 0 1
netname=wire_020
}
N 80200 66800 81400 66800 4
{
T 80500 66900 5 10 1 1 0 0 1
netname=wire_004
}
C 80300 66300 1 0 1 resistor_switch.sym
{
T 79900 66900 5 10 0 0 0 6 1
device=RESISTOR
T 79600 67000 5 10 1 1 0 6 1
refdes=R004
T 80000 67000 5 10 1 1 0 6 1
value=0
T 79700 66400 5 10 1 1 0 4 1
footprint=1_5_0603.fp
}
C 80300 64300 1 0 1 resistor_switch.sym
{
T 79900 64900 5 10 0 0 0 6 1
device=RESISTOR
T 79600 65000 5 10 1 1 0 6 1
refdes=R036
T 80000 65000 5 10 1 1 0 6 1
value=0
T 79700 64400 5 10 1 1 0 4 1
footprint=1_5_0603.fp
}
N 80200 64800 81400 64800 4
{
T 80500 64900 5 10 1 1 0 0 1
netname=wire_036
}
C 80300 63300 1 0 1 resistor_switch.sym
{
T 79900 63900 5 10 0 0 0 6 1
device=RESISTOR
T 79600 64000 5 10 1 1 0 6 1
refdes=R052
T 80000 64000 5 10 1 1 0 6 1
value=0
T 79700 63400 5 10 1 1 0 4 1
footprint=1_5_0603.fp
}
N 80200 63800 81400 63800 4
{
T 80500 63900 5 10 1 1 0 0 1
netname=wire_052
}
C 80300 62300 1 0 1 resistor_switch.sym
{
T 79900 62900 5 10 0 0 0 6 1
device=RESISTOR
T 79600 63000 5 10 1 1 0 6 1
refdes=R068
T 80000 63000 5 10 1 1 0 6 1
value=0
T 79700 62400 5 10 1 1 0 4 1
footprint=1_5_0603.fp
}
N 80200 62800 81400 62800 4
{
T 80500 62900 5 10 1 1 0 0 1
netname=wire_068
}
C 80300 61300 1 0 1 resistor_switch.sym
{
T 79900 61900 5 10 0 0 0 6 1
device=RESISTOR
T 79600 62000 5 10 1 1 0 6 1
refdes=R084
T 80000 62000 5 10 1 1 0 6 1
value=0
T 79700 61400 5 10 1 1 0 4 1
footprint=1_5_0603.fp
}
N 80200 61800 81400 61800 4
{
T 80500 61900 5 10 1 1 0 0 1
netname=wire_084
}
C 80300 60400 1 0 1 resistor_switch.sym
{
T 79900 61000 5 10 0 0 0 6 1
device=RESISTOR
T 79600 61100 5 10 1 1 0 6 1
refdes=R100
T 80000 61100 5 10 1 1 0 6 1
value=0
T 79700 60500 5 10 1 1 0 4 1
footprint=1_5_0603.fp
}
N 80200 60900 81400 60900 4
{
T 80500 61000 5 10 1 1 0 0 1
netname=wire_100
}
C 80300 59500 1 0 1 resistor_switch.sym
{
T 79900 60100 5 10 0 0 0 6 1
device=RESISTOR
T 79600 60200 5 10 1 1 0 6 1
refdes=R116
T 80000 60200 5 10 1 1 0 6 1
value=0
T 79700 59600 5 10 1 1 0 4 1
footprint=1_5_0603.fp
}
N 80200 60000 81400 60000 4
{
T 80500 60100 5 10 1 1 0 0 1
netname=wire_116
}
N 79300 60000 78800 60000 4
N 78800 60000 78800 66800 4
N 79300 65800 78800 65800 4
N 79300 64800 78800 64800 4
N 79300 63800 78800 63800 4
N 79300 62800 78800 62800 4
N 79300 61800 78800 61800 4
N 79300 60900 78800 60900 4
N 79300 66600 78100 66600 4
N 78100 66600 78100 59800 4
N 76800 59800 79300 59800 4
{
T 77200 59500 5 10 1 1 0 0 1
netname=hvg_filtered
}
N 79300 60700 78100 60700 4
N 79300 61600 78100 61600 4
N 79300 62600 78100 62600 4
N 79300 63600 78100 63600 4
N 79300 64600 78100 64600 4
N 79300 65600 78100 65600 4
N 70600 57900 73100 57900 4
{
T 70700 58000 5 10 1 1 0 0 1
netname=wire_group_07
}
C 74100 56400 1 0 1 resistor_switch.sym
{
T 73700 57000 5 10 0 0 0 6 1
device=RESISTOR
T 73400 57100 5 10 1 1 0 6 1
refdes=R023
T 73800 57100 5 10 1 1 0 6 1
value=0
T 73500 56500 5 10 1 1 0 4 1
footprint=1_5_0603.fp
}
N 74000 56900 75200 56900 4
{
T 74300 57000 5 10 1 1 0 0 1
netname=wire_023
}
N 74000 57900 75200 57900 4
{
T 74300 58000 5 10 1 1 0 0 1
netname=wire_007
}
C 74100 57400 1 0 1 resistor_switch.sym
{
T 73700 58000 5 10 0 0 0 6 1
device=RESISTOR
T 73400 58100 5 10 1 1 0 6 1
refdes=R007
T 73800 58100 5 10 1 1 0 6 1
value=0
T 73500 57500 5 10 1 1 0 4 1
footprint=1_5_0603.fp
}
C 74100 55400 1 0 1 resistor_switch.sym
{
T 73700 56000 5 10 0 0 0 6 1
device=RESISTOR
T 73400 56100 5 10 1 1 0 6 1
refdes=R039
T 73800 56100 5 10 1 1 0 6 1
value=0
T 73500 55500 5 10 1 1 0 4 1
footprint=1_5_0603.fp
}
N 74000 55900 75200 55900 4
{
T 74300 56000 5 10 1 1 0 0 1
netname=wire_039
}
C 74100 54400 1 0 1 resistor_switch.sym
{
T 73700 55000 5 10 0 0 0 6 1
device=RESISTOR
T 73400 55100 5 10 1 1 0 6 1
refdes=R055
T 73800 55100 5 10 1 1 0 6 1
value=0
T 73500 54500 5 10 1 1 0 4 1
footprint=1_5_0603.fp
}
N 74000 54900 75200 54900 4
{
T 74300 55000 5 10 1 1 0 0 1
netname=wire_055
}
C 74100 53400 1 0 1 resistor_switch.sym
{
T 73700 54000 5 10 0 0 0 6 1
device=RESISTOR
T 73400 54100 5 10 1 1 0 6 1
refdes=R071
T 73800 54100 5 10 1 1 0 6 1
value=0
T 73500 53500 5 10 1 1 0 4 1
footprint=1_5_0603.fp
}
N 74000 53900 75200 53900 4
{
T 74300 54000 5 10 1 1 0 0 1
netname=wire_071
}
C 74100 52400 1 0 1 resistor_switch.sym
{
T 73700 53000 5 10 0 0 0 6 1
device=RESISTOR
T 73400 53100 5 10 1 1 0 6 1
refdes=R087
T 73800 53100 5 10 1 1 0 6 1
value=0
T 73500 52500 5 10 1 1 0 4 1
footprint=1_5_0603.fp
}
N 74000 52900 75200 52900 4
{
T 74300 53000 5 10 1 1 0 0 1
netname=wire_087
}
C 74100 51500 1 0 1 resistor_switch.sym
{
T 73700 52100 5 10 0 0 0 6 1
device=RESISTOR
T 73400 52200 5 10 1 1 0 6 1
refdes=R103
T 73800 52200 5 10 1 1 0 6 1
value=0
T 73500 51600 5 10 1 1 0 4 1
footprint=1_5_0603.fp
}
N 74000 52000 75200 52000 4
{
T 74300 52100 5 10 1 1 0 0 1
netname=wire_103
}
C 74100 50600 1 0 1 resistor_switch.sym
{
T 73700 51200 5 10 0 0 0 6 1
device=RESISTOR
T 73400 51300 5 10 1 1 0 6 1
refdes=R119
T 73800 51300 5 10 1 1 0 6 1
value=0
T 73500 50700 5 10 1 1 0 4 1
footprint=1_5_0603.fp
}
N 74000 51100 75200 51100 4
{
T 74300 51200 5 10 1 1 0 0 1
netname=wire_119
}
N 73100 51100 72600 51100 4
N 72600 51100 72600 57900 4
N 73100 56900 72600 56900 4
N 73100 55900 72600 55900 4
N 73100 54900 72600 54900 4
N 73100 53900 72600 53900 4
N 73100 52900 72600 52900 4
N 73100 52000 72600 52000 4
N 73100 57700 71900 57700 4
N 71900 57700 71900 50900 4
N 70600 50900 73100 50900 4
{
T 71000 50600 5 10 1 1 0 0 1
netname=hvg_filtered
}
N 73100 51800 71900 51800 4
N 73100 52700 71900 52700 4
N 73100 53700 71900 53700 4
N 73100 54700 71900 54700 4
N 73100 55700 71900 55700 4
N 73100 56700 71900 56700 4
N 76800 57900 79300 57900 4
{
T 76900 58000 5 10 1 1 0 0 1
netname=wire_group_08
}
C 80300 56400 1 0 1 resistor_switch.sym
{
T 79900 57000 5 10 0 0 0 6 1
device=RESISTOR
T 79600 57100 5 10 1 1 0 6 1
refdes=R024
T 80000 57100 5 10 1 1 0 6 1
value=0
T 79700 56500 5 10 1 1 0 4 1
footprint=1_5_0603.fp
}
N 80200 56900 81400 56900 4
{
T 80500 57000 5 10 1 1 0 0 1
netname=wire_024
}
N 80200 57900 81400 57900 4
{
T 80500 58000 5 10 1 1 0 0 1
netname=wire_008
}
C 80300 57400 1 0 1 resistor_switch.sym
{
T 79900 58000 5 10 0 0 0 6 1
device=RESISTOR
T 79600 58100 5 10 1 1 0 6 1
refdes=R008
T 80000 58100 5 10 1 1 0 6 1
value=0
T 79700 57500 5 10 1 1 0 4 1
footprint=1_5_0603.fp
}
C 80300 55400 1 0 1 resistor_switch.sym
{
T 79900 56000 5 10 0 0 0 6 1
device=RESISTOR
T 79600 56100 5 10 1 1 0 6 1
refdes=R040
T 80000 56100 5 10 1 1 0 6 1
value=0
T 79700 55500 5 10 1 1 0 4 1
footprint=1_5_0603.fp
}
N 80200 55900 81400 55900 4
{
T 80500 56000 5 10 1 1 0 0 1
netname=wire_040
}
C 80300 54400 1 0 1 resistor_switch.sym
{
T 79900 55000 5 10 0 0 0 6 1
device=RESISTOR
T 79600 55100 5 10 1 1 0 6 1
refdes=R056
T 80000 55100 5 10 1 1 0 6 1
value=0
T 79700 54500 5 10 1 1 0 4 1
footprint=1_5_0603.fp
}
N 80200 54900 81400 54900 4
{
T 80500 55000 5 10 1 1 0 0 1
netname=wire_056
}
C 80300 53400 1 0 1 resistor_switch.sym
{
T 79900 54000 5 10 0 0 0 6 1
device=RESISTOR
T 79600 54100 5 10 1 1 0 6 1
refdes=R072
T 80000 54100 5 10 1 1 0 6 1
value=0
T 79700 53500 5 10 1 1 0 4 1
footprint=1_5_0603.fp
}
N 80200 53900 81400 53900 4
{
T 80500 54000 5 10 1 1 0 0 1
netname=wire_072
}
C 80300 52400 1 0 1 resistor_switch.sym
{
T 79900 53000 5 10 0 0 0 6 1
device=RESISTOR
T 79600 53100 5 10 1 1 0 6 1
refdes=R088
T 80000 53100 5 10 1 1 0 6 1
value=0
T 79700 52500 5 10 1 1 0 4 1
footprint=1_5_0603.fp
}
N 80200 52900 81400 52900 4
{
T 80500 53000 5 10 1 1 0 0 1
netname=wire_088
}
C 80300 51500 1 0 1 resistor_switch.sym
{
T 79900 52100 5 10 0 0 0 6 1
device=RESISTOR
T 79600 52200 5 10 1 1 0 6 1
refdes=R104
T 80000 52200 5 10 1 1 0 6 1
value=0
T 79700 51600 5 10 1 1 0 4 1
footprint=1_5_0603.fp
}
N 80200 52000 81400 52000 4
{
T 80500 52100 5 10 1 1 0 0 1
netname=wire_104
}
C 80300 50600 1 0 1 resistor_switch.sym
{
T 79900 51200 5 10 0 0 0 6 1
device=RESISTOR
T 79600 51300 5 10 1 1 0 6 1
refdes=R120
T 80000 51300 5 10 1 1 0 6 1
value=0
T 79700 50700 5 10 1 1 0 4 1
footprint=1_5_0603.fp
}
N 80200 51100 81400 51100 4
{
T 80500 51200 5 10 1 1 0 0 1
netname=wire_120
}
N 79300 51100 78800 51100 4
N 78800 51100 78800 57900 4
N 79300 56900 78800 56900 4
N 79300 55900 78800 55900 4
N 79300 54900 78800 54900 4
N 79300 53900 78800 53900 4
N 79300 52900 78800 52900 4
N 79300 52000 78800 52000 4
N 79300 57700 78100 57700 4
N 78100 57700 78100 50900 4
N 76800 50900 79300 50900 4
{
T 77200 50600 5 10 1 1 0 0 1
netname=hvg_filtered
}
N 79300 51800 78100 51800 4
N 79300 52700 78100 52700 4
N 79300 53700 78100 53700 4
N 79300 54700 78100 54700 4
N 79300 55700 78100 55700 4
N 79300 56700 78100 56700 4
N 64600 48800 67100 48800 4
{
T 64700 48900 5 10 1 1 0 0 1
netname=wire_group_10
}
C 68100 47300 1 0 1 resistor_switch.sym
{
T 67700 47900 5 10 0 0 0 6 1
device=RESISTOR
T 67400 48000 5 10 1 1 0 6 1
refdes=R026
T 67800 48000 5 10 1 1 0 6 1
value=0
T 67500 47400 5 10 1 1 0 4 1
footprint=1_5_0603.fp
}
N 68000 47800 69200 47800 4
{
T 68300 47900 5 10 1 1 0 0 1
netname=wire_026
}
N 68000 48800 69200 48800 4
{
T 68300 48900 5 10 1 1 0 0 1
netname=wire_010
}
C 68100 48300 1 0 1 resistor_switch.sym
{
T 67700 48900 5 10 0 0 0 6 1
device=RESISTOR
T 67400 49000 5 10 1 1 0 6 1
refdes=R010
T 67800 49000 5 10 1 1 0 6 1
value=0
T 67500 48400 5 10 1 1 0 4 1
footprint=1_5_0603.fp
}
C 68100 46300 1 0 1 resistor_switch.sym
{
T 67700 46900 5 10 0 0 0 6 1
device=RESISTOR
T 67400 47000 5 10 1 1 0 6 1
refdes=R042
T 67800 47000 5 10 1 1 0 6 1
value=0
T 67500 46400 5 10 1 1 0 4 1
footprint=1_5_0603.fp
}
N 68000 46800 69200 46800 4
{
T 68300 46900 5 10 1 1 0 0 1
netname=wire_042
}
C 68100 45300 1 0 1 resistor_switch.sym
{
T 67700 45900 5 10 0 0 0 6 1
device=RESISTOR
T 67400 46000 5 10 1 1 0 6 1
refdes=R058
T 67800 46000 5 10 1 1 0 6 1
value=0
T 67500 45400 5 10 1 1 0 4 1
footprint=1_5_0603.fp
}
N 68000 45800 69200 45800 4
{
T 68300 45900 5 10 1 1 0 0 1
netname=wire_058
}
C 68100 44300 1 0 1 resistor_switch.sym
{
T 67700 44900 5 10 0 0 0 6 1
device=RESISTOR
T 67400 45000 5 10 1 1 0 6 1
refdes=R074
T 67800 45000 5 10 1 1 0 6 1
value=0
T 67500 44400 5 10 1 1 0 4 1
footprint=1_5_0603.fp
}
N 68000 44800 69200 44800 4
{
T 68300 44900 5 10 1 1 0 0 1
netname=wire_074
}
C 68100 43300 1 0 1 resistor_switch.sym
{
T 67700 43900 5 10 0 0 0 6 1
device=RESISTOR
T 67400 44000 5 10 1 1 0 6 1
refdes=R090
T 67800 44000 5 10 1 1 0 6 1
value=0
T 67500 43400 5 10 1 1 0 4 1
footprint=1_5_0603.fp
}
N 68000 43800 69200 43800 4
{
T 68300 43900 5 10 1 1 0 0 1
netname=wire_090
}
C 68100 42400 1 0 1 resistor_switch.sym
{
T 67700 43000 5 10 0 0 0 6 1
device=RESISTOR
T 67400 43100 5 10 1 1 0 6 1
refdes=R106
T 67800 43100 5 10 1 1 0 6 1
value=0
T 67500 42500 5 10 1 1 0 4 1
footprint=1_5_0603.fp
}
N 68000 42900 69200 42900 4
{
T 68300 43000 5 10 1 1 0 0 1
netname=wire_106
}
N 66600 42900 66600 48800 4
N 67100 47800 66600 47800 4
N 67100 46800 66600 46800 4
N 67100 45800 66600 45800 4
N 67100 44800 66600 44800 4
N 67100 43800 66600 43800 4
N 67100 48600 65900 48600 4
N 65900 48600 65900 42700 4
N 67100 43600 65900 43600 4
N 67100 44600 65900 44600 4
N 67100 45600 65900 45600 4
N 67100 46600 65900 46600 4
N 67100 47600 65900 47600 4
N 64600 39900 67100 39900 4
{
T 64700 40000 5 10 1 1 0 0 1
netname=wire_group_14
}
C 68100 38400 1 0 1 resistor_switch.sym
{
T 67700 39000 5 10 0 0 0 6 1
device=RESISTOR
T 67400 39100 5 10 1 1 0 6 1
refdes=R030
T 67800 39100 5 10 1 1 0 6 1
value=0
T 67500 38500 5 10 1 1 0 4 1
footprint=1_5_0603.fp
}
N 68000 38900 69200 38900 4
{
T 68300 39000 5 10 1 1 0 0 1
netname=wire_030
}
N 68000 39900 69200 39900 4
{
T 68300 40000 5 10 1 1 0 0 1
netname=wire_014
}
C 68100 39400 1 0 1 resistor_switch.sym
{
T 67700 40000 5 10 0 0 0 6 1
device=RESISTOR
T 67400 40100 5 10 1 1 0 6 1
refdes=R014
T 67800 40100 5 10 1 1 0 6 1
value=0
T 67500 39500 5 10 1 1 0 4 1
footprint=1_5_0603.fp
}
C 68100 37400 1 0 1 resistor_switch.sym
{
T 67700 38000 5 10 0 0 0 6 1
device=RESISTOR
T 67400 38100 5 10 1 1 0 6 1
refdes=R046
T 67800 38100 5 10 1 1 0 6 1
value=0
T 67500 37500 5 10 1 1 0 4 1
footprint=1_5_0603.fp
}
N 68000 37900 69200 37900 4
{
T 68300 38000 5 10 1 1 0 0 1
netname=wire_046
}
C 68100 36400 1 0 1 resistor_switch.sym
{
T 67700 37000 5 10 0 0 0 6 1
device=RESISTOR
T 67400 37100 5 10 1 1 0 6 1
refdes=R062
T 67800 37100 5 10 1 1 0 6 1
value=0
T 67500 36500 5 10 1 1 0 4 1
footprint=1_5_0603.fp
}
N 68000 36900 69200 36900 4
{
T 68300 37000 5 10 1 1 0 0 1
netname=wire_062
}
C 68100 35400 1 0 1 resistor_switch.sym
{
T 67700 36000 5 10 0 0 0 6 1
device=RESISTOR
T 67400 36100 5 10 1 1 0 6 1
refdes=R078
T 67800 36100 5 10 1 1 0 6 1
value=0
T 67500 35500 5 10 1 1 0 4 1
footprint=1_5_0603.fp
}
N 68000 35900 69200 35900 4
{
T 68300 36000 5 10 1 1 0 0 1
netname=wire_078
}
C 68100 34400 1 0 1 resistor_switch.sym
{
T 67700 35000 5 10 0 0 0 6 1
device=RESISTOR
T 67400 35100 5 10 1 1 0 6 1
refdes=R094
T 67800 35100 5 10 1 1 0 6 1
value=0
T 67500 34500 5 10 1 1 0 4 1
footprint=1_5_0603.fp
}
N 68000 34900 69200 34900 4
{
T 68300 35000 5 10 1 1 0 0 1
netname=wire_094
}
C 68100 33500 1 0 1 resistor_switch.sym
{
T 67700 34100 5 10 0 0 0 6 1
device=RESISTOR
T 67400 34200 5 10 1 1 0 6 1
refdes=R110
T 67800 34200 5 10 1 1 0 6 1
value=0
T 67500 33600 5 10 1 1 0 4 1
footprint=1_5_0603.fp
}
N 68000 34000 69200 34000 4
{
T 68300 34100 5 10 1 1 0 0 1
netname=wire_110
}
N 66600 34000 66600 39900 4
N 67100 38900 66600 38900 4
N 67100 37900 66600 37900 4
N 67100 36900 66600 36900 4
N 67100 35900 66600 35900 4
N 67100 34900 66600 34900 4
N 67100 34000 66600 34000 4
N 67100 39700 65900 39700 4
N 65900 39700 65900 33800 4
N 64600 33800 67100 33800 4
{
T 65000 33500 5 10 1 1 0 0 1
netname=hvg_filtered
}
N 67100 34700 65900 34700 4
N 67100 35700 65900 35700 4
N 67100 36700 65900 36700 4
N 67100 37700 65900 37700 4
N 67100 38700 65900 38700 4
N 70600 48800 73100 48800 4
{
T 70700 48900 5 10 1 1 0 0 1
netname=wire_group_11
}
C 74100 47300 1 0 1 resistor_switch.sym
{
T 73700 47900 5 10 0 0 0 6 1
device=RESISTOR
T 73400 48000 5 10 1 1 0 6 1
refdes=R027
T 73800 48000 5 10 1 1 0 6 1
value=0
T 73500 47400 5 10 1 1 0 4 1
footprint=1_5_0603.fp
}
N 74000 47800 75200 47800 4
{
T 74300 47900 5 10 1 1 0 0 1
netname=wire_027
}
N 74000 48800 75200 48800 4
{
T 74300 48900 5 10 1 1 0 0 1
netname=wire_011
}
C 74100 48300 1 0 1 resistor_switch.sym
{
T 73700 48900 5 10 0 0 0 6 1
device=RESISTOR
T 73400 49000 5 10 1 1 0 6 1
refdes=R011
T 73800 49000 5 10 1 1 0 6 1
value=0
T 73500 48400 5 10 1 1 0 4 1
footprint=1_5_0603.fp
}
C 74100 46300 1 0 1 resistor_switch.sym
{
T 73700 46900 5 10 0 0 0 6 1
device=RESISTOR
T 73400 47000 5 10 1 1 0 6 1
refdes=R043
T 73800 47000 5 10 1 1 0 6 1
value=0
T 73500 46400 5 10 1 1 0 4 1
footprint=1_5_0603.fp
}
N 74000 46800 75200 46800 4
{
T 74300 46900 5 10 1 1 0 0 1
netname=wire_043
}
C 74100 45300 1 0 1 resistor_switch.sym
{
T 73700 45900 5 10 0 0 0 6 1
device=RESISTOR
T 73400 46000 5 10 1 1 0 6 1
refdes=R059
T 73800 46000 5 10 1 1 0 6 1
value=0
T 73500 45400 5 10 1 1 0 4 1
footprint=1_5_0603.fp
}
N 74000 45800 75200 45800 4
{
T 74300 45900 5 10 1 1 0 0 1
netname=wire_059
}
C 74100 44300 1 0 1 resistor_switch.sym
{
T 73700 44900 5 10 0 0 0 6 1
device=RESISTOR
T 73400 45000 5 10 1 1 0 6 1
refdes=R075
T 73800 45000 5 10 1 1 0 6 1
value=0
T 73500 44400 5 10 1 1 0 4 1
footprint=1_5_0603.fp
}
N 74000 44800 75200 44800 4
{
T 74300 44900 5 10 1 1 0 0 1
netname=wire_075
}
C 74100 43300 1 0 1 resistor_switch.sym
{
T 73700 43900 5 10 0 0 0 6 1
device=RESISTOR
T 73400 44000 5 10 1 1 0 6 1
refdes=R091
T 73800 44000 5 10 1 1 0 6 1
value=0
T 73500 43400 5 10 1 1 0 4 1
footprint=1_5_0603.fp
}
N 74000 43800 75200 43800 4
{
T 74300 43900 5 10 1 1 0 0 1
netname=wire_091
}
C 74100 42400 1 0 1 resistor_switch.sym
{
T 73700 43000 5 10 0 0 0 6 1
device=RESISTOR
T 73400 43100 5 10 1 1 0 6 1
refdes=R107
T 73800 43100 5 10 1 1 0 6 1
value=0
T 73500 42500 5 10 1 1 0 4 1
footprint=1_5_0603.fp
}
N 74000 42900 75200 42900 4
{
T 74300 43000 5 10 1 1 0 0 1
netname=wire_107
}
N 72600 42900 72600 48800 4
N 73100 47800 72600 47800 4
N 73100 46800 72600 46800 4
N 73100 45800 72600 45800 4
N 73100 44800 72600 44800 4
N 73100 43800 72600 43800 4
N 73100 42900 72600 42900 4
N 73100 48600 71900 48600 4
N 71900 48600 71900 42700 4
N 73100 43600 71900 43600 4
N 73100 44600 71900 44600 4
N 73100 45600 71900 45600 4
N 73100 46600 71900 46600 4
N 73100 47600 71900 47600 4
N 76800 48800 79300 48800 4
{
T 76900 48900 5 10 1 1 0 0 1
netname=wire_group_12
}
C 80300 47300 1 0 1 resistor_switch.sym
{
T 79900 47900 5 10 0 0 0 6 1
device=RESISTOR
T 79600 48000 5 10 1 1 0 6 1
refdes=R028
T 80000 48000 5 10 1 1 0 6 1
value=0
T 79700 47400 5 10 1 1 0 4 1
footprint=1_5_0603.fp
}
N 80200 47800 81400 47800 4
{
T 80500 47900 5 10 1 1 0 0 1
netname=wire_028
}
N 80200 48800 81400 48800 4
{
T 80500 48900 5 10 1 1 0 0 1
netname=wire_012
}
C 80300 48300 1 0 1 resistor_switch.sym
{
T 79900 48900 5 10 0 0 0 6 1
device=RESISTOR
T 79600 49000 5 10 1 1 0 6 1
refdes=R012
T 80000 49000 5 10 1 1 0 6 1
value=0
T 79700 48400 5 10 1 1 0 4 1
footprint=1_5_0603.fp
}
C 80300 46300 1 0 1 resistor_switch.sym
{
T 79900 46900 5 10 0 0 0 6 1
device=RESISTOR
T 79600 47000 5 10 1 1 0 6 1
refdes=R044
T 80000 47000 5 10 1 1 0 6 1
value=0
T 79700 46400 5 10 1 1 0 4 1
footprint=1_5_0603.fp
}
N 80200 46800 81400 46800 4
{
T 80500 46900 5 10 1 1 0 0 1
netname=wire_044
}
C 80300 45300 1 0 1 resistor_switch.sym
{
T 79900 45900 5 10 0 0 0 6 1
device=RESISTOR
T 79600 46000 5 10 1 1 0 6 1
refdes=R060
T 80000 46000 5 10 1 1 0 6 1
value=0
T 79700 45400 5 10 1 1 0 4 1
footprint=1_5_0603.fp
}
N 80200 45800 81400 45800 4
{
T 80500 45900 5 10 1 1 0 0 1
netname=wire_060
}
C 80300 44300 1 0 1 resistor_switch.sym
{
T 79900 44900 5 10 0 0 0 6 1
device=RESISTOR
T 79600 45000 5 10 1 1 0 6 1
refdes=R076
T 80000 45000 5 10 1 1 0 6 1
value=0
T 79700 44400 5 10 1 1 0 4 1
footprint=1_5_0603.fp
}
N 80200 44800 81400 44800 4
{
T 80500 44900 5 10 1 1 0 0 1
netname=wire_076
}
C 80300 43300 1 0 1 resistor_switch.sym
{
T 79900 43900 5 10 0 0 0 6 1
device=RESISTOR
T 79600 44000 5 10 1 1 0 6 1
refdes=R092
T 80000 44000 5 10 1 1 0 6 1
value=0
T 79700 43400 5 10 1 1 0 4 1
footprint=1_5_0603.fp
}
N 80200 43800 81400 43800 4
{
T 80500 43900 5 10 1 1 0 0 1
netname=wire_092
}
C 80300 42400 1 0 1 resistor_switch.sym
{
T 79900 43000 5 10 0 0 0 6 1
device=RESISTOR
T 79600 43100 5 10 1 1 0 6 1
refdes=R108
T 80000 43100 5 10 1 1 0 6 1
value=0
T 79700 42500 5 10 1 1 0 4 1
footprint=1_5_0603.fp
}
N 80200 42900 81400 42900 4
{
T 80500 43000 5 10 1 1 0 0 1
netname=wire_108
}
N 78800 42900 78800 48800 4
N 79300 47800 78800 47800 4
N 79300 46800 78800 46800 4
N 79300 45800 78800 45800 4
N 79300 44800 78800 44800 4
N 79300 43800 78800 43800 4
N 79300 42900 78800 42900 4
N 79300 48600 78100 48600 4
N 78100 48600 78100 42700 4
N 76800 42700 79300 42700 4
{
T 77200 42400 5 10 1 1 0 0 1
netname=hvg_filtered
}
N 79300 43600 78100 43600 4
N 79300 44600 78100 44600 4
N 79300 45600 78100 45600 4
N 79300 46600 78100 46600 4
N 79300 47600 78100 47600 4
N 70600 39900 73100 39900 4
{
T 70700 40000 5 10 1 1 0 0 1
netname=wire_group_15
}
C 74100 38400 1 0 1 resistor_switch.sym
{
T 73700 39000 5 10 0 0 0 6 1
device=RESISTOR
T 73400 39100 5 10 1 1 0 6 1
refdes=R031
T 73800 39100 5 10 1 1 0 6 1
value=0
T 73500 38500 5 10 1 1 0 4 1
footprint=1_5_0603.fp
}
N 74000 38900 75200 38900 4
{
T 74300 39000 5 10 1 1 0 0 1
netname=wire_031
}
N 74000 39900 75200 39900 4
{
T 74300 40000 5 10 1 1 0 0 1
netname=wire_015
}
C 74100 39400 1 0 1 resistor_switch.sym
{
T 73700 40000 5 10 0 0 0 6 1
device=RESISTOR
T 73400 40100 5 10 1 1 0 6 1
refdes=R015
T 73800 40100 5 10 1 1 0 6 1
value=0
T 73500 39500 5 10 1 1 0 4 1
footprint=1_5_0603.fp
}
C 74100 37400 1 0 1 resistor_switch.sym
{
T 73700 38000 5 10 0 0 0 6 1
device=RESISTOR
T 73400 38100 5 10 1 1 0 6 1
refdes=R047
T 73800 38100 5 10 1 1 0 6 1
value=0
T 73500 37500 5 10 1 1 0 4 1
footprint=1_5_0603.fp
}
N 74000 37900 75200 37900 4
{
T 74300 38000 5 10 1 1 0 0 1
netname=wire_047
}
C 74100 36400 1 0 1 resistor_switch.sym
{
T 73700 37000 5 10 0 0 0 6 1
device=RESISTOR
T 73400 37100 5 10 1 1 0 6 1
refdes=R063
T 73800 37100 5 10 1 1 0 6 1
value=0
T 73500 36500 5 10 1 1 0 4 1
footprint=1_5_0603.fp
}
N 74000 36900 75200 36900 4
{
T 74300 37000 5 10 1 1 0 0 1
netname=wire_063
}
C 74100 35400 1 0 1 resistor_switch.sym
{
T 73700 36000 5 10 0 0 0 6 1
device=RESISTOR
T 73400 36100 5 10 1 1 0 6 1
refdes=R079
T 73800 36100 5 10 1 1 0 6 1
value=0
T 73500 35500 5 10 1 1 0 4 1
footprint=1_5_0603.fp
}
N 74000 35900 75200 35900 4
{
T 74300 36000 5 10 1 1 0 0 1
netname=wire_079
}
C 74100 34400 1 0 1 resistor_switch.sym
{
T 73700 35000 5 10 0 0 0 6 1
device=RESISTOR
T 73400 35100 5 10 1 1 0 6 1
refdes=R095
T 73800 35100 5 10 1 1 0 6 1
value=0
T 73500 34500 5 10 1 1 0 4 1
footprint=1_5_0603.fp
}
N 74000 34900 75200 34900 4
{
T 74300 35000 5 10 1 1 0 0 1
netname=wire_095
}
C 74100 33500 1 0 1 resistor_switch.sym
{
T 73700 34100 5 10 0 0 0 6 1
device=RESISTOR
T 73400 34200 5 10 1 1 0 6 1
refdes=R111
T 73800 34200 5 10 1 1 0 6 1
value=0
T 73500 33600 5 10 1 1 0 4 1
footprint=1_5_0603.fp
}
N 74000 34000 75200 34000 4
{
T 74300 34100 5 10 1 1 0 0 1
netname=wire_111
}
N 72600 34000 72600 39900 4
N 73100 38900 72600 38900 4
N 73100 37900 72600 37900 4
N 73100 36900 72600 36900 4
N 73100 35900 72600 35900 4
N 73100 34900 72600 34900 4
N 73100 34000 72600 34000 4
N 73100 39700 71900 39700 4
N 71900 39700 71900 33800 4
N 70600 33800 73100 33800 4
{
T 71000 33500 5 10 1 1 0 0 1
netname=hvg_filtered
}
N 73100 34700 71900 34700 4
N 73100 35700 71900 35700 4
N 73100 36700 71900 36700 4
N 73100 37700 71900 37700 4
N 73100 38700 71900 38700 4
N 76800 39900 79300 39900 4
{
T 76900 40000 5 10 1 1 0 0 1
netname=wire_group_16
}
C 80300 38400 1 0 1 resistor_switch.sym
{
T 79900 39000 5 10 0 0 0 6 1
device=RESISTOR
T 79600 39100 5 10 1 1 0 6 1
refdes=R032
T 80000 39100 5 10 1 1 0 6 1
value=0
T 79700 38500 5 10 1 1 0 4 1
footprint=1_5_0603.fp
}
N 80200 38900 81400 38900 4
{
T 80500 39000 5 10 1 1 0 0 1
netname=wire_032
}
N 80200 39900 81400 39900 4
{
T 80500 40000 5 10 1 1 0 0 1
netname=wire_016
}
C 80300 39400 1 0 1 resistor_switch.sym
{
T 79900 40000 5 10 0 0 0 6 1
device=RESISTOR
T 79600 40100 5 10 1 1 0 6 1
refdes=R016
T 80000 40100 5 10 1 1 0 6 1
value=0
T 79700 39500 5 10 1 1 0 4 1
footprint=1_5_0603.fp
}
C 80300 37400 1 0 1 resistor_switch.sym
{
T 79900 38000 5 10 0 0 0 6 1
device=RESISTOR
T 79600 38100 5 10 1 1 0 6 1
refdes=R048
T 80000 38100 5 10 1 1 0 6 1
value=0
T 79700 37500 5 10 1 1 0 4 1
footprint=1_5_0603.fp
}
N 80200 37900 81400 37900 4
{
T 80500 38000 5 10 1 1 0 0 1
netname=wire_048
}
C 80300 36400 1 0 1 resistor_switch.sym
{
T 79900 37000 5 10 0 0 0 6 1
device=RESISTOR
T 79600 37100 5 10 1 1 0 6 1
refdes=R064
T 80000 37100 5 10 1 1 0 6 1
value=0
T 79700 36500 5 10 1 1 0 4 1
footprint=1_5_0603.fp
}
N 80200 36900 81400 36900 4
{
T 80500 37000 5 10 1 1 0 0 1
netname=wire_064
}
C 80300 35400 1 0 1 resistor_switch.sym
{
T 79900 36000 5 10 0 0 0 6 1
device=RESISTOR
T 79600 36100 5 10 1 1 0 6 1
refdes=R080
T 80000 36100 5 10 1 1 0 6 1
value=0
T 79700 35500 5 10 1 1 0 4 1
footprint=1_5_0603.fp
}
N 80200 35900 81400 35900 4
{
T 80500 36000 5 10 1 1 0 0 1
netname=wire_080
}
C 80300 34400 1 0 1 resistor_switch.sym
{
T 79900 35000 5 10 0 0 0 6 1
device=RESISTOR
T 79600 35100 5 10 1 1 0 6 1
refdes=R096
T 80000 35100 5 10 1 1 0 6 1
value=0
T 79700 34500 5 10 1 1 0 4 1
footprint=1_5_0603.fp
}
N 80200 34900 81400 34900 4
{
T 80500 35000 5 10 1 1 0 0 1
netname=wire_096
}
C 80300 33500 1 0 1 resistor_switch.sym
{
T 79900 34100 5 10 0 0 0 6 1
device=RESISTOR
T 79600 34200 5 10 1 1 0 6 1
refdes=R112
T 80000 34200 5 10 1 1 0 6 1
value=0
T 79700 33600 5 10 1 1 0 4 1
footprint=1_5_0603.fp
}
N 80200 34000 81400 34000 4
{
T 80500 34100 5 10 1 1 0 0 1
netname=wire_112
}
N 78800 34000 78800 39900 4
N 79300 38900 78800 38900 4
N 79300 37900 78800 37900 4
N 79300 36900 78800 36900 4
N 79300 35900 78800 35900 4
N 79300 34900 78800 34900 4
N 79300 34000 78800 34000 4
N 79300 39700 78100 39700 4
N 78100 39700 78100 33800 4
N 76800 33800 79300 33800 4
{
T 77200 33500 5 10 1 1 0 0 1
netname=hvg_filtered
}
N 79300 34700 78100 34700 4
N 79300 35700 78100 35700 4
N 79300 36700 78100 36700 4
N 79300 37700 78100 37700 4
N 79300 38700 78100 38700 4
N 58400 57900 60900 57900 4
{
T 58500 58000 5 10 1 1 0 0 1
netname=wire_group_05
}
C 61900 56400 1 0 1 resistor_switch.sym
{
T 61500 57000 5 10 0 0 0 6 1
device=RESISTOR
T 61200 57100 5 10 1 1 0 6 1
refdes=R021
T 61600 57100 5 10 1 1 0 6 1
value=0
T 61300 56500 5 10 1 1 0 4 1
footprint=1_5_0603.fp
}
N 61800 56900 63000 56900 4
{
T 62100 57000 5 10 1 1 0 0 1
netname=wire_021
}
N 61800 57900 63000 57900 4
{
T 62100 58000 5 10 1 1 0 0 1
netname=wire_005
}
C 61900 57400 1 0 1 resistor_switch.sym
{
T 61500 58000 5 10 0 0 0 6 1
device=RESISTOR
T 61200 58100 5 10 1 1 0 6 1
refdes=R005
T 61600 58100 5 10 1 1 0 6 1
value=0
T 61300 57500 5 10 1 1 0 4 1
footprint=1_5_0603.fp
}
C 61900 55400 1 0 1 resistor_switch.sym
{
T 61500 56000 5 10 0 0 0 6 1
device=RESISTOR
T 61200 56100 5 10 1 1 0 6 1
refdes=R037
T 61600 56100 5 10 1 1 0 6 1
value=0
T 61300 55500 5 10 1 1 0 4 1
footprint=1_5_0603.fp
}
N 61800 55900 63000 55900 4
{
T 62100 56000 5 10 1 1 0 0 1
netname=wire_037
}
C 61900 54400 1 0 1 resistor_switch.sym
{
T 61500 55000 5 10 0 0 0 6 1
device=RESISTOR
T 61200 55100 5 10 1 1 0 6 1
refdes=R053
T 61600 55100 5 10 1 1 0 6 1
value=0
T 61300 54500 5 10 1 1 0 4 1
footprint=1_5_0603.fp
}
N 61800 54900 63000 54900 4
{
T 62100 55000 5 10 1 1 0 0 1
netname=wire_053
}
C 61900 53400 1 0 1 resistor_switch.sym
{
T 61500 54000 5 10 0 0 0 6 1
device=RESISTOR
T 61200 54100 5 10 1 1 0 6 1
refdes=R069
T 61600 54100 5 10 1 1 0 6 1
value=0
T 61300 53500 5 10 1 1 0 4 1
footprint=1_5_0603.fp
}
N 61800 53900 63000 53900 4
{
T 62100 54000 5 10 1 1 0 0 1
netname=wire_069
}
C 61900 52400 1 0 1 resistor_switch.sym
{
T 61500 53000 5 10 0 0 0 6 1
device=RESISTOR
T 61200 53100 5 10 1 1 0 6 1
refdes=R085
T 61600 53100 5 10 1 1 0 6 1
value=0
T 61300 52500 5 10 1 1 0 4 1
footprint=1_5_0603.fp
}
N 61800 52900 63000 52900 4
{
T 62100 53000 5 10 1 1 0 0 1
netname=wire_085
}
C 61900 51500 1 0 1 resistor_switch.sym
{
T 61500 52100 5 10 0 0 0 6 1
device=RESISTOR
T 61200 52200 5 10 1 1 0 6 1
refdes=R101
T 61600 52200 5 10 1 1 0 6 1
value=0
T 61300 51600 5 10 1 1 0 4 1
footprint=1_5_0603.fp
}
N 61800 52000 63000 52000 4
{
T 62100 52100 5 10 1 1 0 0 1
netname=wire_101
}
C 61900 50600 1 0 1 resistor_switch.sym
{
T 61500 51200 5 10 0 0 0 6 1
device=RESISTOR
T 61200 51300 5 10 1 1 0 6 1
refdes=R117
T 61600 51300 5 10 1 1 0 6 1
value=0
T 61300 50700 5 10 1 1 0 4 1
footprint=1_5_0603.fp
}
N 61800 51100 63000 51100 4
{
T 62100 51200 5 10 1 1 0 0 1
netname=wire_117
}
N 60900 51100 60400 51100 4
N 60400 51100 60400 57900 4
N 60900 56900 60400 56900 4
N 60900 55900 60400 55900 4
N 60900 54900 60400 54900 4
N 60900 53900 60400 53900 4
N 60900 52900 60400 52900 4
N 60900 52000 60400 52000 4
N 60900 57700 59700 57700 4
N 59700 57700 59700 50900 4
N 58400 50900 60900 50900 4
{
T 58800 50600 5 10 1 1 0 0 1
netname=hvg_filtered
}
N 60900 51800 59700 51800 4
N 60900 52700 59700 52700 4
N 60900 53700 59700 53700 4
N 60900 54700 59700 54700 4
N 60900 55700 59700 55700 4
N 60900 56700 59700 56700 4
N 58400 48800 60900 48800 4
{
T 58500 48900 5 10 1 1 0 0 1
netname=wire_group_09
}
C 61900 47300 1 0 1 resistor_switch.sym
{
T 61500 47900 5 10 0 0 0 6 1
device=RESISTOR
T 61200 48000 5 10 1 1 0 6 1
refdes=R025
T 61600 48000 5 10 1 1 0 6 1
value=0
T 61300 47400 5 10 1 1 0 4 1
footprint=1_5_0603.fp
}
N 61800 47800 63000 47800 4
{
T 62100 47900 5 10 1 1 0 0 1
netname=wire_025
}
N 61800 48800 63000 48800 4
{
T 62100 48900 5 10 1 1 0 0 1
netname=wire_009
}
C 61900 48300 1 0 1 resistor_switch.sym
{
T 61500 48900 5 10 0 0 0 6 1
device=RESISTOR
T 61200 49000 5 10 1 1 0 6 1
refdes=R009
T 61600 49000 5 10 1 1 0 6 1
value=0
T 61300 48400 5 10 1 1 0 4 1
footprint=1_5_0603.fp
}
C 61900 46300 1 0 1 resistor_switch.sym
{
T 61500 46900 5 10 0 0 0 6 1
device=RESISTOR
T 61200 47000 5 10 1 1 0 6 1
refdes=R041
T 61600 47000 5 10 1 1 0 6 1
value=0
T 61300 46400 5 10 1 1 0 4 1
footprint=1_5_0603.fp
}
N 61800 46800 63000 46800 4
{
T 62100 46900 5 10 1 1 0 0 1
netname=wire_041
}
C 61900 45300 1 0 1 resistor_switch.sym
{
T 61500 45900 5 10 0 0 0 6 1
device=RESISTOR
T 61200 46000 5 10 1 1 0 6 1
refdes=R057
T 61600 46000 5 10 1 1 0 6 1
value=0
T 61300 45400 5 10 1 1 0 4 1
footprint=1_5_0603.fp
}
N 61800 45800 63000 45800 4
{
T 62100 45900 5 10 1 1 0 0 1
netname=wire_057
}
C 61900 44300 1 0 1 resistor_switch.sym
{
T 61500 44900 5 10 0 0 0 6 1
device=RESISTOR
T 61200 45000 5 10 1 1 0 6 1
refdes=R073
T 61600 45000 5 10 1 1 0 6 1
value=0
T 61300 44400 5 10 1 1 0 4 1
footprint=1_5_0603.fp
}
N 61800 44800 63000 44800 4
{
T 62100 44900 5 10 1 1 0 0 1
netname=wire_073
}
C 61900 43300 1 0 1 resistor_switch.sym
{
T 61500 43900 5 10 0 0 0 6 1
device=RESISTOR
T 61200 44000 5 10 1 1 0 6 1
refdes=R089
T 61600 44000 5 10 1 1 0 6 1
value=0
T 61300 43400 5 10 1 1 0 4 1
footprint=1_5_0603.fp
}
N 61800 43800 63000 43800 4
{
T 62100 43900 5 10 1 1 0 0 1
netname=wire_089
}
C 61900 42400 1 0 1 resistor_switch.sym
{
T 61500 43000 5 10 0 0 0 6 1
device=RESISTOR
T 61200 43100 5 10 1 1 0 6 1
refdes=R105
T 61600 43100 5 10 1 1 0 6 1
value=0
T 61300 42500 5 10 1 1 0 4 1
footprint=1_5_0603.fp
}
N 61800 42900 63000 42900 4
{
T 62100 43000 5 10 1 1 0 0 1
netname=wire_105
}
N 60400 42900 60400 48800 4
N 60900 47800 60400 47800 4
N 60900 46800 60400 46800 4
N 60900 45800 60400 45800 4
N 60900 44800 60400 44800 4
N 60900 43800 60400 43800 4
N 60900 42900 60400 42900 4
N 60900 48600 59700 48600 4
N 59700 48600 59700 42700 4
N 58400 42700 60900 42700 4
{
T 58800 42400 5 10 1 1 0 0 1
netname=hvg_filtered
}
N 60900 43600 59700 43600 4
N 60900 44600 59700 44600 4
N 60900 45600 59700 45600 4
N 60900 46600 59700 46600 4
N 60900 47600 59700 47600 4
N 64600 42700 67100 42700 4
{
T 65000 42400 5 10 1 1 0 0 1
netname=hvg_filtered
}
N 67100 42900 66600 42900 4
N 70600 42700 73100 42700 4
{
T 71000 42400 5 10 1 1 0 0 1
netname=hvg_filtered
}
N 58400 39900 60900 39900 4
{
T 58500 40000 5 10 1 1 0 0 1
netname=wire_group_13
}
C 61900 38400 1 0 1 resistor_switch.sym
{
T 61500 39000 5 10 0 0 0 6 1
device=RESISTOR
T 61200 39100 5 10 1 1 0 6 1
refdes=R029
T 61600 39100 5 10 1 1 0 6 1
value=0
T 61300 38500 5 10 1 1 0 4 1
footprint=1_5_0603.fp
}
N 61800 38900 63000 38900 4
{
T 62100 39000 5 10 1 1 0 0 1
netname=wire_029
}
N 61800 39900 63000 39900 4
{
T 62100 40000 5 10 1 1 0 0 1
netname=wire_013
}
C 61900 39400 1 0 1 resistor_switch.sym
{
T 61500 40000 5 10 0 0 0 6 1
device=RESISTOR
T 61200 40100 5 10 1 1 0 6 1
refdes=R013
T 61600 40100 5 10 1 1 0 6 1
value=0
T 61300 39500 5 10 1 1 0 4 1
footprint=1_5_0603.fp
}
C 61900 37400 1 0 1 resistor_switch.sym
{
T 61500 38000 5 10 0 0 0 6 1
device=RESISTOR
T 61200 38100 5 10 1 1 0 6 1
refdes=R045
T 61600 38100 5 10 1 1 0 6 1
value=0
T 61300 37500 5 10 1 1 0 4 1
footprint=1_5_0603.fp
}
N 61800 37900 63000 37900 4
{
T 62100 38000 5 10 1 1 0 0 1
netname=wire_045
}
C 61900 36400 1 0 1 resistor_switch.sym
{
T 61500 37000 5 10 0 0 0 6 1
device=RESISTOR
T 61200 37100 5 10 1 1 0 6 1
refdes=R061
T 61600 37100 5 10 1 1 0 6 1
value=0
T 61300 36500 5 10 1 1 0 4 1
footprint=1_5_0603.fp
}
N 61800 36900 63000 36900 4
{
T 62100 37000 5 10 1 1 0 0 1
netname=wire_061
}
C 61900 35400 1 0 1 resistor_switch.sym
{
T 61500 36000 5 10 0 0 0 6 1
device=RESISTOR
T 61200 36100 5 10 1 1 0 6 1
refdes=R077
T 61600 36100 5 10 1 1 0 6 1
value=0
T 61300 35500 5 10 1 1 0 4 1
footprint=1_5_0603.fp
}
N 61800 35900 63000 35900 4
{
T 62100 36000 5 10 1 1 0 0 1
netname=wire_077
}
C 61900 34400 1 0 1 resistor_switch.sym
{
T 61500 35000 5 10 0 0 0 6 1
device=RESISTOR
T 61200 35100 5 10 1 1 0 6 1
refdes=R093
T 61600 35100 5 10 1 1 0 6 1
value=0
T 61300 34500 5 10 1 1 0 4 1
footprint=1_5_0603.fp
}
N 61800 34900 63000 34900 4
{
T 62100 35000 5 10 1 1 0 0 1
netname=wire_093
}
C 61900 33500 1 0 1 resistor_switch.sym
{
T 61500 34100 5 10 0 0 0 6 1
device=RESISTOR
T 61200 34200 5 10 1 1 0 6 1
refdes=R109
T 61600 34200 5 10 1 1 0 6 1
value=0
T 61300 33600 5 10 1 1 0 4 1
footprint=1_5_0603.fp
}
N 61800 34000 63000 34000 4
{
T 62100 34100 5 10 1 1 0 0 1
netname=wire_109
}
N 60400 34000 60400 39900 4
N 60900 38900 60400 38900 4
N 60900 37900 60400 37900 4
N 60900 36900 60400 36900 4
N 60900 35900 60400 35900 4
N 60900 34900 60400 34900 4
N 60900 34000 60400 34000 4
N 60900 39700 59700 39700 4
N 59700 39700 59700 33800 4
N 58400 33800 60900 33800 4
{
T 58800 33500 5 10 1 1 0 0 1
netname=hvg_filtered
}
N 60900 34700 59700 34700 4
N 60900 35700 59700 35700 4
N 60900 36700 59700 36700 4
N 60900 37700 59700 37700 4
N 60900 38700 59700 38700 4
C 85800 39100 1 0 0 connector-120pins.sym
{
T 86150 55700 5 10 0 0 0 0 1
device=HEADER120
T 86500 63300 5 10 1 1 0 4 1
refdes=WIRES
T 85500 38800 5 10 1 1 0 0 1
footprint=DRIFT_ANCHOR_120.fp
}
N 84600 62900 85800 62900 4
{
T 84900 63000 5 10 1 1 0 0 1
netname=wire_001
}
N 84600 62500 85800 62500 4
{
T 84900 62600 5 10 1 1 0 0 1
netname=wire_003
}
N 84600 62100 85800 62100 4
{
T 84900 62200 5 10 1 1 0 0 1
netname=wire_005
}
N 84600 61700 85800 61700 4
{
T 84900 61800 5 10 1 1 0 0 1
netname=wire_007
}
N 84600 61300 85800 61300 4
{
T 84900 61400 5 10 1 1 0 0 1
netname=wire_009
}
N 84600 60900 85800 60900 4
{
T 84900 61000 5 10 1 1 0 0 1
netname=wire_011
}
N 84600 60500 85800 60500 4
{
T 84900 60600 5 10 1 1 0 0 1
netname=wire_013
}
N 84600 60100 85800 60100 4
{
T 84900 60200 5 10 1 1 0 0 1
netname=wire_015
}
N 84600 59700 85800 59700 4
{
T 84900 59800 5 10 1 1 0 0 1
netname=wire_017
}
N 84600 59300 85800 59300 4
{
T 84900 59400 5 10 1 1 0 0 1
netname=wire_019
}
N 84600 58900 85800 58900 4
{
T 84900 59000 5 10 1 1 0 0 1
netname=wire_021
}
N 84600 58500 85800 58500 4
{
T 84900 58600 5 10 1 1 0 0 1
netname=wire_023
}
N 84600 58100 85800 58100 4
{
T 84900 58200 5 10 1 1 0 0 1
netname=wire_025
}
N 84600 57700 85800 57700 4
{
T 84900 57800 5 10 1 1 0 0 1
netname=wire_027
}
N 84600 57300 85800 57300 4
{
T 84900 57400 5 10 1 1 0 0 1
netname=wire_029
}
N 84600 56900 85800 56900 4
{
T 84900 57000 5 10 1 1 0 0 1
netname=wire_031
}
N 87200 62900 88400 62900 4
{
T 87500 63000 5 10 1 1 0 0 1
netname=wire_002
}
N 87200 62500 88400 62500 4
{
T 87500 62600 5 10 1 1 0 0 1
netname=wire_004
}
N 87200 62100 88400 62100 4
{
T 87500 62200 5 10 1 1 0 0 1
netname=wire_006
}
N 87200 61700 88400 61700 4
{
T 87500 61800 5 10 1 1 0 0 1
netname=wire_008
}
N 87200 61300 88400 61300 4
{
T 87500 61400 5 10 1 1 0 0 1
netname=wire_010
}
N 87200 60900 88400 60900 4
{
T 87500 61000 5 10 1 1 0 0 1
netname=wire_012
}
N 87200 60500 88400 60500 4
{
T 87500 60600 5 10 1 1 0 0 1
netname=wire_014
}
N 87200 60100 88400 60100 4
{
T 87500 60200 5 10 1 1 0 0 1
netname=wire_016
}
N 87200 59700 88400 59700 4
{
T 87500 59800 5 10 1 1 0 0 1
netname=wire_018
}
N 87200 59300 88400 59300 4
{
T 87500 59400 5 10 1 1 0 0 1
netname=wire_020
}
N 87200 58900 88400 58900 4
{
T 87500 59000 5 10 1 1 0 0 1
netname=wire_022
}
N 87200 58500 88400 58500 4
{
T 87500 58600 5 10 1 1 0 0 1
netname=wire_024
}
N 87200 58100 88400 58100 4
{
T 87500 58200 5 10 1 1 0 0 1
netname=wire_026
}
N 87200 57700 88400 57700 4
{
T 87500 57800 5 10 1 1 0 0 1
netname=wire_028
}
N 87200 57300 88400 57300 4
{
T 87500 57400 5 10 1 1 0 0 1
netname=wire_030
}
N 87200 56900 88400 56900 4
{
T 87500 57000 5 10 1 1 0 0 1
netname=wire_032
}
N 87200 56500 88400 56500 4
{
T 87500 56600 5 10 1 1 0 0 1
netname=wire_034
}
N 87200 56100 88400 56100 4
{
T 87500 56200 5 10 1 1 0 0 1
netname=wire_036
}
N 87200 55700 88400 55700 4
{
T 87500 55800 5 10 1 1 0 0 1
netname=wire_038
}
N 87200 55300 88400 55300 4
{
T 87500 55400 5 10 1 1 0 0 1
netname=wire_040
}
N 87200 54900 88400 54900 4
{
T 87500 55000 5 10 1 1 0 0 1
netname=wire_042
}
N 87200 54500 88400 54500 4
{
T 87500 54600 5 10 1 1 0 0 1
netname=wire_044
}
N 87200 54100 88400 54100 4
{
T 87500 54200 5 10 1 1 0 0 1
netname=wire_046
}
N 87200 53700 88400 53700 4
{
T 87500 53800 5 10 1 1 0 0 1
netname=wire_048
}
N 84600 56500 85800 56500 4
{
T 84900 56600 5 10 1 1 0 0 1
netname=wire_033
}
N 84600 56100 85800 56100 4
{
T 84900 56200 5 10 1 1 0 0 1
netname=wire_035
}
N 84600 55700 85800 55700 4
{
T 84900 55800 5 10 1 1 0 0 1
netname=wire_037
}
N 84600 55300 85800 55300 4
{
T 84900 55400 5 10 1 1 0 0 1
netname=wire_039
}
N 84600 54900 85800 54900 4
{
T 84900 55000 5 10 1 1 0 0 1
netname=wire_041
}
N 84600 54500 85800 54500 4
{
T 84900 54600 5 10 1 1 0 0 1
netname=wire_043
}
N 84600 54100 85800 54100 4
{
T 84900 54200 5 10 1 1 0 0 1
netname=wire_045
}
N 84600 53700 85800 53700 4
{
T 84900 53800 5 10 1 1 0 0 1
netname=wire_047
}
N 87200 53300 88400 53300 4
{
T 87500 53400 5 10 1 1 0 0 1
netname=wire_050
}
N 87200 52900 88400 52900 4
{
T 87500 53000 5 10 1 1 0 0 1
netname=wire_052
}
N 87200 52500 88400 52500 4
{
T 87500 52600 5 10 1 1 0 0 1
netname=wire_054
}
N 87200 52100 88400 52100 4
{
T 87500 52200 5 10 1 1 0 0 1
netname=wire_056
}
N 87200 51700 88400 51700 4
{
T 87500 51800 5 10 1 1 0 0 1
netname=wire_058
}
N 87200 51300 88400 51300 4
{
T 87500 51400 5 10 1 1 0 0 1
netname=wire_060
}
N 87200 50900 88400 50900 4
{
T 87500 51000 5 10 1 1 0 0 1
netname=wire_062
}
N 87200 50500 88400 50500 4
{
T 87500 50600 5 10 1 1 0 0 1
netname=wire_064
}
N 84600 53300 85800 53300 4
{
T 84900 53400 5 10 1 1 0 0 1
netname=wire_049
}
N 84600 52900 85800 52900 4
{
T 84900 53000 5 10 1 1 0 0 1
netname=wire_051
}
N 84600 52500 85800 52500 4
{
T 84900 52600 5 10 1 1 0 0 1
netname=wire_053
}
N 84600 52100 85800 52100 4
{
T 84900 52200 5 10 1 1 0 0 1
netname=wire_055
}
N 84600 51700 85800 51700 4
{
T 84900 51800 5 10 1 1 0 0 1
netname=wire_057
}
N 84600 51300 85800 51300 4
{
T 84900 51400 5 10 1 1 0 0 1
netname=wire_059
}
N 84600 50900 85800 50900 4
{
T 84900 51000 5 10 1 1 0 0 1
netname=wire_061
}
N 84600 50500 85800 50500 4
{
T 84900 50600 5 10 1 1 0 0 1
netname=wire_063
}
N 87200 50100 88400 50100 4
{
T 87500 50200 5 10 1 1 0 0 1
netname=wire_066
}
N 87200 49700 88400 49700 4
{
T 87500 49800 5 10 1 1 0 0 1
netname=wire_068
}
N 87200 49300 88400 49300 4
{
T 87500 49400 5 10 1 1 0 0 1
netname=wire_070
}
N 87200 48900 88400 48900 4
{
T 87500 49000 5 10 1 1 0 0 1
netname=wire_072
}
N 87200 48500 88400 48500 4
{
T 87500 48600 5 10 1 1 0 0 1
netname=wire_074
}
N 87200 48100 88400 48100 4
{
T 87500 48200 5 10 1 1 0 0 1
netname=wire_076
}
N 87200 47700 88400 47700 4
{
T 87500 47800 5 10 1 1 0 0 1
netname=wire_078
}
N 87200 47300 88400 47300 4
{
T 87500 47400 5 10 1 1 0 0 1
netname=wire_080
}
N 84600 50100 85800 50100 4
{
T 84900 50200 5 10 1 1 0 0 1
netname=wire_065
}
N 84600 49700 85800 49700 4
{
T 84900 49800 5 10 1 1 0 0 1
netname=wire_067
}
N 84600 49300 85800 49300 4
{
T 84900 49400 5 10 1 1 0 0 1
netname=wire_069
}
N 84600 48900 85800 48900 4
{
T 84900 49000 5 10 1 1 0 0 1
netname=wire_071
}
N 84600 48500 85800 48500 4
{
T 84900 48600 5 10 1 1 0 0 1
netname=wire_073
}
N 84600 48100 85800 48100 4
{
T 84900 48200 5 10 1 1 0 0 1
netname=wire_075
}
N 84600 47700 85800 47700 4
{
T 84900 47800 5 10 1 1 0 0 1
netname=wire_077
}
N 84600 47300 85800 47300 4
{
T 84900 47400 5 10 1 1 0 0 1
netname=wire_079
}
N 87200 46900 88400 46900 4
{
T 87500 47000 5 10 1 1 0 0 1
netname=wire_082
}
N 87200 46500 88400 46500 4
{
T 87500 46600 5 10 1 1 0 0 1
netname=wire_084
}
N 87200 46100 88400 46100 4
{
T 87500 46200 5 10 1 1 0 0 1
netname=wire_086
}
N 87200 45700 88400 45700 4
{
T 87500 45800 5 10 1 1 0 0 1
netname=wire_088
}
N 87200 45300 88400 45300 4
{
T 87500 45400 5 10 1 1 0 0 1
netname=wire_090
}
N 87200 44900 88400 44900 4
{
T 87500 45000 5 10 1 1 0 0 1
netname=wire_092
}
N 87200 44500 88400 44500 4
{
T 87500 44600 5 10 1 1 0 0 1
netname=wire_094
}
N 87200 44100 88400 44100 4
{
T 87500 44200 5 10 1 1 0 0 1
netname=wire_096
}
N 84600 46900 85800 46900 4
{
T 84900 47000 5 10 1 1 0 0 1
netname=wire_081
}
N 84600 46500 85800 46500 4
{
T 84900 46600 5 10 1 1 0 0 1
netname=wire_083
}
N 84600 46100 85800 46100 4
{
T 84900 46200 5 10 1 1 0 0 1
netname=wire_085
}
N 84600 45700 85800 45700 4
{
T 84900 45800 5 10 1 1 0 0 1
netname=wire_087
}
N 84600 45300 85800 45300 4
{
T 84900 45400 5 10 1 1 0 0 1
netname=wire_089
}
N 84600 44900 85800 44900 4
{
T 84900 45000 5 10 1 1 0 0 1
netname=wire_091
}
N 84600 44500 85800 44500 4
{
T 84900 44600 5 10 1 1 0 0 1
netname=wire_093
}
N 84600 44100 85800 44100 4
{
T 84900 44200 5 10 1 1 0 0 1
netname=wire_095
}
N 87200 43700 88400 43700 4
{
T 87500 43800 5 10 1 1 0 0 1
netname=wire_098
}
N 87200 43300 88400 43300 4
{
T 87500 43400 5 10 1 1 0 0 1
netname=wire_100
}
N 87200 42900 88400 42900 4
{
T 87500 43000 5 10 1 1 0 0 1
netname=wire_102
}
N 87200 42500 88400 42500 4
{
T 87500 42600 5 10 1 1 0 0 1
netname=wire_104
}
N 87200 42100 88400 42100 4
{
T 87500 42200 5 10 1 1 0 0 1
netname=wire_106
}
N 87200 41700 88400 41700 4
{
T 87500 41800 5 10 1 1 0 0 1
netname=wire_108
}
N 87200 41300 88400 41300 4
{
T 87500 41400 5 10 1 1 0 0 1
netname=wire_110
}
N 87200 40900 88400 40900 4
{
T 87500 41000 5 10 1 1 0 0 1
netname=wire_112
}
N 84600 43700 85800 43700 4
{
T 84900 43800 5 10 1 1 0 0 1
netname=wire_097
}
N 84600 43300 85800 43300 4
{
T 84900 43400 5 10 1 1 0 0 1
netname=wire_099
}
N 84600 42900 85800 42900 4
{
T 84900 43000 5 10 1 1 0 0 1
netname=wire_101
}
N 84600 42500 85800 42500 4
{
T 84900 42600 5 10 1 1 0 0 1
netname=wire_103
}
N 84600 42100 85800 42100 4
{
T 84900 42200 5 10 1 1 0 0 1
netname=wire_105
}
N 84600 41700 85800 41700 4
{
T 84900 41800 5 10 1 1 0 0 1
netname=wire_107
}
N 84600 41300 85800 41300 4
{
T 84900 41400 5 10 1 1 0 0 1
netname=wire_109
}
N 84600 40900 85800 40900 4
{
T 84900 41000 5 10 1 1 0 0 1
netname=wire_111
}
N 87200 40500 88400 40500 4
{
T 87500 40600 5 10 1 1 0 0 1
netname=wire_114
}
N 87200 40100 88400 40100 4
{
T 87500 40200 5 10 1 1 0 0 1
netname=wire_116
}
N 87200 39700 88400 39700 4
{
T 87500 39800 5 10 1 1 0 0 1
netname=wire_118
}
N 87200 39300 88400 39300 4
{
T 87500 39400 5 10 1 1 0 0 1
netname=wire_120
}
N 84600 40500 85800 40500 4
{
T 84900 40600 5 10 1 1 0 0 1
netname=wire_113
}
N 84600 40100 85800 40100 4
{
T 84900 40200 5 10 1 1 0 0 1
netname=wire_115
}
N 84600 39700 85800 39700 4
{
T 84900 39800 5 10 1 1 0 0 1
netname=wire_117
}
N 84600 39300 85800 39300 4
{
T 84900 39400 5 10 1 1 0 0 1
netname=wire_119
}
