v 20130925 2
C 99900 36300 1 0 0 cvstitleblock-1.sym
{
T 100500 36700 5 10 1 1 0 0 1
date=2011-04-28
T 104400 36700 5 10 1 1 0 0 1
rev=1.2
T 105900 36400 5 10 1 1 0 0 1
auth=Alexei Dorofeev
T 100700 37000 5 10 1 1 0 0 1
fname=drift_frontend.sch
T 103700 37400 5 14 1 1 0 4 1
title=Drift Differential Front-End
}
N 76900 58400 79800 58400 4
{
T 79200 58500 5 10 1 1 0 0 1
netname=wire_p
}
N 76900 58800 79800 58800 4
{
T 79200 58900 5 10 1 1 0 0 1
netname=wire_n
}
C 80100 46800 1 90 0 resistor.sym
{
T 79700 47100 5 10 0 0 90 0 1
device=RESISTOR
T 79700 47500 5 10 1 1 180 0 1
refdes=R3
T 79700 47200 5 10 1 1 180 0 1
value=100.0K
T 80100 47000 5 10 1 1 90 0 1
footprint=0603
}
C 81000 46800 1 90 0 capacitor.sym
{
T 80300 47100 5 10 0 0 90 0 1
device=CAPACITOR
T 80700 47400 5 10 1 1 180 2 1
refdes=C4
T 80700 47100 5 10 1 1 180 0 1
value=22.0p
T 81000 46700 5 10 1 1 90 0 1
footprint=0603
}
N 71400 50100 73100 50100 4
{
T 71400 50200 5 10 1 1 0 0 1
netname=wire_p
}
N 82200 48000 84000 48000 4
{
T 82800 48100 5 10 1 1 0 0 1
netname=wire_n
}
C 77800 46100 1 0 0 agnd.sym
{
T 77700 45910 5 9 1 1 0 0 1
net=AGnd:1
}
C 81300 49600 1 0 0 resistor.sym
{
T 81600 50000 5 10 0 0 0 0 1
device=RESISTOR
T 81600 50100 5 10 1 1 0 6 1
refdes=R10
T 81900 50100 5 10 1 1 0 0 1
value=0
T 81500 49600 5 10 1 1 0 0 1
footprint=0603
}
C 75900 42600 1 0 0 resistor.sym
{
T 76200 43000 5 10 0 0 0 0 1
device=RESISTOR
T 76200 43100 5 10 1 1 0 6 1
refdes=R11
T 76500 43100 5 10 1 1 0 0 1
value=0
T 76100 42600 5 10 1 1 0 0 1
footprint=0603
}
C 95500 46500 1 0 0 difopamp-ADA4930.sym
{
T 97000 48900 5 10 1 1 0 4 1
device=ADA4930
T 95700 50100 5 10 1 1 0 0 1
refdes=U3
T 95692 49900 5 10 1 1 0 0 1
footprint=QFN16_3_EP
T 97995 51195 5 10 0 0 0 0 1
model-name=ADA4930
}
C 95300 49500 1 90 0 resistor.sym
{
T 94900 49800 5 10 0 0 90 0 1
device=RESISTOR
T 94900 50200 5 10 1 1 180 0 1
refdes=R19
T 94900 49900 5 10 1 1 180 0 1
value=330
T 95300 49700 5 10 1 1 90 0 1
footprint=0603
}
C 95300 47300 1 90 0 resistor.sym
{
T 94900 47600 5 10 0 0 90 0 1
device=RESISTOR
T 94900 48000 5 10 1 1 180 0 1
refdes=R22
T 94900 47700 5 10 1 1 180 0 1
value=330
T 95300 47500 5 10 1 1 90 0 1
footprint=0603
}
N 95000 47300 95000 47100 4
N 93900 47100 95500 47100 4
N 95000 50400 95000 50700 4
N 93900 50700 95500 50700 4
C 94100 49600 1 90 0 capacitor.sym
{
T 93400 49900 5 10 0 0 90 0 1
device=CAPACITOR
T 93800 50200 5 10 1 1 180 2 1
refdes=C15
T 93800 49900 5 10 1 1 180 0 1
value=DNP
T 94100 49500 5 10 1 1 90 0 1
footprint=0603
}
N 93900 50500 93900 50700 4
N 93900 47300 93900 47100 4
C 94100 47300 1 90 0 capacitor.sym
{
T 93400 47600 5 10 0 0 90 0 1
device=CAPACITOR
T 93800 47900 5 10 1 1 180 2 1
refdes=C18
T 93800 47600 5 10 1 1 180 0 1
value=DNP
T 94100 47200 5 10 1 1 90 0 1
footprint=0603
}
N 86000 50500 89900 50500 4
{
T 86000 50600 5 10 1 1 0 0 1
netname=stage1_out_n
}
N 86000 47500 89900 47500 4
{
T 86000 47600 5 10 1 1 0 0 1
netname=stage1_out_p
}
C 96800 46200 1 0 0 agnd.sym
{
T 96700 46010 5 9 1 1 0 0 1
net=AGnd:1
}
C 96700 51300 1 0 0 avcc.sym
{
T 96650 51700 5 9 1 1 0 0 1
net=AVcc:1
}
N 96900 51300 97500 51300 4
N 96900 46500 97500 46500 4
C 98400 49000 1 0 0 resistor.sym
{
T 98700 49400 5 10 0 0 0 0 1
device=RESISTOR
T 98700 49500 5 10 1 1 0 6 1
refdes=R24
T 99000 49500 5 10 1 1 0 0 1
value=49.9
T 98600 49000 5 10 1 1 0 0 1
footprint=0603
}
C 98400 48200 1 0 0 resistor.sym
{
T 98700 48600 5 10 0 0 0 0 1
device=RESISTOR
T 98700 48700 5 10 1 1 0 6 1
refdes=R25
T 99000 48700 5 10 1 1 0 0 1
value=49.9
T 98600 48200 5 10 1 1 0 0 1
footprint=0603
}
N 97900 49300 98400 49300 4
N 97900 48500 98400 48500 4
C 100500 48400 1 90 0 resistor.sym
{
T 100100 48700 5 10 0 0 90 0 1
device=RESISTOR
T 100100 49100 5 10 1 1 180 0 1
refdes=R26
T 100100 48800 5 10 1 1 180 0 1
value=100
T 100500 48600 5 10 1 1 90 0 1
footprint=0603
}
N 99300 49300 99500 49300 4
N 99500 49300 99500 49600 4
N 99500 49600 103500 49600 4
{
T 102400 49700 5 10 1 1 0 0 1
netname=stage2_out_n
}
N 99300 48500 99500 48500 4
N 99500 48500 99500 48200 4
N 99500 48200 103500 48200 4
{
T 102400 48300 5 10 1 1 0 0 1
netname=stage2_out_p
}
N 100200 48400 100200 48200 4
N 100200 49300 100200 49600 4
C 92300 49000 1 0 0 resistor.sym
{
T 92600 49400 5 10 0 0 0 0 1
device=RESISTOR
T 92600 49500 5 10 1 1 0 6 1
refdes=R16
T 92900 49500 5 10 1 1 0 0 1
value=10.0
T 92500 49000 5 10 1 1 0 0 1
footprint=0603
}
C 92300 48200 1 0 0 resistor.sym
{
T 92600 48600 5 10 0 0 0 0 1
device=RESISTOR
T 92600 48700 5 10 1 1 0 6 1
refdes=R17
T 92900 48700 5 10 1 1 0 0 1
value=10.0
T 92500 48200 5 10 1 1 0 0 1
footprint=0603
}
N 93200 49300 95500 49300 4
N 93200 48500 95500 48500 4
N 95000 48200 95000 48500 4
N 95000 49500 95000 49300 4
N 93900 49600 93900 49300 4
N 93900 48200 93900 48500 4
C 89700 38700 1 0 0 difopamp-ADA4930.sym
{
T 91200 41100 5 10 1 1 0 4 1
device=ADA4930
T 89900 42300 5 10 1 1 0 0 1
refdes=U4
T 89892 42100 5 10 1 1 0 0 1
footprint=QFN16_3_EP
T 92195 43395 5 10 0 0 0 0 1
model-name=ADA4930
}
C 89500 41700 1 90 0 resistor.sym
{
T 89100 42000 5 10 0 0 90 0 1
device=RESISTOR
T 89100 42400 5 10 1 1 180 0 1
refdes=R29
T 89100 42100 5 10 1 1 180 0 1
value=330
T 89500 41900 5 10 1 1 90 0 1
footprint=0603
}
C 89500 39500 1 90 0 resistor.sym
{
T 89100 39800 5 10 0 0 90 0 1
device=RESISTOR
T 89100 40200 5 10 1 1 180 0 1
refdes=R31
T 89100 39900 5 10 1 1 180 0 1
value=330
T 89500 39700 5 10 1 1 90 0 1
footprint=0603
}
N 89200 39500 89200 39300 4
N 88100 39300 89700 39300 4
N 89200 42600 89200 42900 4
N 88100 42900 89700 42900 4
C 88300 41800 1 90 0 capacitor.sym
{
T 87600 42100 5 10 0 0 90 0 1
device=CAPACITOR
T 88000 42400 5 10 1 1 180 2 1
refdes=C23
T 88000 42100 5 10 1 1 180 0 1
value=DNP
T 88300 41700 5 10 1 1 90 0 1
footprint=0603
}
N 88100 42700 88100 42900 4
N 88100 39500 88100 39300 4
C 88300 39500 1 90 0 capacitor.sym
{
T 87600 39800 5 10 0 0 90 0 1
device=CAPACITOR
T 88000 40100 5 10 1 1 180 2 1
refdes=C26
T 88000 39800 5 10 1 1 180 0 1
value=DNP
T 88300 39400 5 10 1 1 90 0 1
footprint=0603
}
C 91000 38400 1 0 0 agnd.sym
{
T 90900 38210 5 9 1 1 0 0 1
net=AGnd:1
}
C 90900 43500 1 0 0 avcc.sym
{
T 90850 43900 5 9 1 1 0 0 1
net=AVcc:1
}
N 91100 43500 91700 43500 4
N 91100 38700 91700 38700 4
C 92800 41200 1 0 0 resistor.sym
{
T 93100 41600 5 10 0 0 0 0 1
device=RESISTOR
T 93100 41700 5 10 1 1 0 6 1
refdes=R33
T 93400 41700 5 10 1 1 0 0 1
value=49.9
T 93000 41200 5 10 1 1 0 0 1
footprint=0603
}
C 92800 40400 1 0 0 resistor.sym
{
T 93100 40800 5 10 0 0 0 0 1
device=RESISTOR
T 93100 40900 5 10 1 1 0 6 1
refdes=R34
T 93400 40900 5 10 1 1 0 0 1
value=49.9
T 93000 40400 5 10 1 1 0 0 1
footprint=0603
}
N 92100 41500 92800 41500 4
N 92100 40700 92800 40700 4
N 93700 41500 96600 41500 4
{
T 95500 41600 5 10 1 1 0 0 1
netname=high_gain_p
}
N 93700 40700 96600 40700 4
{
T 95500 40800 5 10 1 1 0 0 1
netname=high_gain_n
}
C 86500 41200 1 0 0 resistor.sym
{
T 86800 41600 5 10 0 0 0 0 1
device=RESISTOR
T 86800 41700 5 10 1 1 0 6 1
refdes=R27
T 87100 41700 5 10 1 1 0 0 1
value=330
T 86700 41200 5 10 1 1 0 0 1
footprint=0603
}
C 86500 40400 1 0 0 resistor.sym
{
T 86800 40800 5 10 0 0 0 0 1
device=RESISTOR
T 86800 40900 5 10 1 1 0 6 1
refdes=R28
T 87100 40900 5 10 1 1 0 0 1
value=330
T 86700 40400 5 10 1 1 0 0 1
footprint=0603
}
N 87400 41500 89700 41500 4
N 87400 40700 89700 40700 4
N 89200 40400 89200 40700 4
N 89200 41700 89200 41500 4
N 88100 41800 88100 41500 4
N 88100 40400 88100 40700 4
C 90900 56100 1 0 0 difopamp-ADA4930.sym
{
T 92400 58500 5 10 1 1 0 4 1
device=ADA4930
T 91100 59700 5 10 1 1 0 0 1
refdes=U2
T 91092 59500 5 10 1 1 0 0 1
footprint=QFN16_3_EP
T 93395 60795 5 10 0 0 0 0 1
model-name=ADA4930
}
C 90700 59100 1 90 0 resistor.sym
{
T 90300 59400 5 10 0 0 90 0 1
device=RESISTOR
T 90300 59800 5 10 1 1 180 0 1
refdes=R6
T 90300 59500 5 10 1 1 180 0 1
value=330.0
T 90700 59300 5 10 1 1 90 0 1
footprint=0603
}
C 90700 56900 1 90 0 resistor.sym
{
T 90300 57200 5 10 0 0 90 0 1
device=RESISTOR
T 90300 57600 5 10 1 1 180 0 1
refdes=R9
T 90300 57300 5 10 1 1 180 0 1
value=330
T 90700 57100 5 10 1 1 90 0 1
footprint=0603
}
N 90400 56900 90400 56700 4
N 89300 56700 90900 56700 4
N 90400 60000 90400 60300 4
N 89300 60300 90900 60300 4
C 89500 59200 1 90 0 capacitor.sym
{
T 88800 59500 5 10 0 0 90 0 1
device=CAPACITOR
T 89200 59800 5 10 1 1 180 2 1
refdes=C5
T 89200 59500 5 10 1 1 180 0 1
value=DNP
T 89500 59100 5 10 1 1 90 0 1
footprint=0603
}
N 89300 60100 89300 60300 4
N 89300 56900 89300 56700 4
C 89500 56900 1 90 0 capacitor.sym
{
T 88800 57200 5 10 0 0 90 0 1
device=CAPACITOR
T 89200 57500 5 10 1 1 180 2 1
refdes=C7
T 89200 57200 5 10 1 1 180 0 1
value=DNP
T 89500 56800 5 10 1 1 90 0 1
footprint=0603
}
C 92200 55800 1 0 0 agnd.sym
{
T 92100 55610 5 9 1 1 0 0 1
net=AGnd:1
}
C 92100 60900 1 0 0 avcc.sym
{
T 92050 61300 5 9 1 1 0 0 1
net=AVcc:1
}
N 92300 60900 92900 60900 4
N 92300 56100 92900 56100 4
C 94000 58600 1 0 0 resistor.sym
{
T 94300 59000 5 10 0 0 0 0 1
device=RESISTOR
T 94300 59100 5 10 1 1 0 6 1
refdes=R12
T 94600 59100 5 10 1 1 0 0 1
value=49.9
T 94200 58600 5 10 1 1 0 0 1
footprint=0603
}
C 94000 57800 1 0 0 resistor.sym
{
T 94300 58200 5 10 0 0 0 0 1
device=RESISTOR
T 94300 58300 5 10 1 1 0 6 1
refdes=R13
T 94600 58300 5 10 1 1 0 0 1
value=49.9
T 94200 57800 5 10 1 1 0 0 1
footprint=0603
}
N 93300 58900 94000 58900 4
N 93300 58100 94000 58100 4
N 94900 58900 96700 58900 4
{
T 95700 59000 5 10 1 1 0 0 1
netname=low_gain_p
}
N 94900 58100 96700 58100 4
{
T 95700 58200 5 10 1 1 0 0 1
netname=low_gain_n
}
C 87500 58600 1 0 0 resistor.sym
{
T 87800 59000 5 10 0 0 0 0 1
device=RESISTOR
T 87800 59100 5 10 1 1 0 6 1
refdes=R2
T 88100 59100 5 10 1 1 0 0 1
value=10.0
T 87700 58600 5 10 1 1 0 0 1
footprint=0603
}
C 87500 57800 1 0 0 resistor.sym
{
T 87800 58200 5 10 0 0 0 0 1
device=RESISTOR
T 87800 58300 5 10 1 1 0 6 1
refdes=R4
T 88100 58300 5 10 1 1 0 0 1
value=10.0
T 87700 57800 5 10 1 1 0 0 1
footprint=0603
}
N 88400 58900 90900 58900 4
N 88400 58100 90900 58100 4
N 90400 57800 90400 58100 4
N 90400 59100 90400 58900 4
N 89300 59200 89300 58900 4
N 89300 57800 89300 58100 4
C 90500 49100 1 0 0 capacitor.sym
{
T 90800 49800 5 10 0 0 0 0 1
device=CAPACITOR
T 90800 49400 5 10 1 1 180 2 1
refdes=C12
T 91100 49400 5 10 1 1 0 0 1
value=2.2u
T 91100 49000 5 10 1 1 0 0 1
footprint=0612.fp
}
C 90500 48300 1 0 0 capacitor.sym
{
T 90800 49000 5 10 0 0 0 0 1
device=CAPACITOR
T 90800 48600 5 10 1 1 180 2 1
refdes=C14
T 91100 48600 5 10 1 1 0 0 1
value=2.2u
T 91100 48200 5 10 1 1 0 0 1
footprint=0612.fp
}
N 91400 49300 92300 49300 4
N 91400 48500 92300 48500 4
N 83700 58900 85700 58900 4
{
T 83700 59000 5 10 1 1 0 0 1
netname=stage2_out_n
}
C 85700 58700 1 0 0 capacitor.sym
{
T 86000 59400 5 10 0 0 0 0 1
device=CAPACITOR
T 86000 59000 5 10 1 1 180 2 1
refdes=C2
T 86300 59000 5 10 1 1 0 0 1
value=2.2u
T 86300 58600 5 10 1 1 0 0 1
footprint=0612.fp
}
C 85700 57900 1 0 0 capacitor.sym
{
T 86000 58600 5 10 0 0 0 0 1
device=CAPACITOR
T 86000 58200 5 10 1 1 180 2 1
refdes=C3
T 86300 58200 5 10 1 1 0 0 1
value=2.2u
T 86300 57800 5 10 1 1 0 0 1
footprint=0612.fp
}
N 86600 58900 87500 58900 4
N 86600 58100 87500 58100 4
N 84500 41500 86500 41500 4
{
T 84500 41600 5 10 1 1 0 0 1
netname=stage2_out_n
}
N 84500 40700 86500 40700 4
{
T 84500 40800 5 10 1 1 0 0 1
netname=stage2_out_p
}
N 83700 58100 85700 58100 4
{
T 83700 58200 5 10 1 1 0 0 1
netname=stage2_out_p
}
C 75100 57300 1 0 0 shield.sym
C 97900 50300 1 270 0 avcc.sym
{
T 98300 50350 5 9 1 1 270 0 1
net=AVcc:1
}
N 97900 47700 98200 47700 4
N 98200 47700 98200 45800 4
N 98200 45800 98600 45800 4
C 100800 44700 1 90 0 capacitor.sym
{
T 100100 45000 5 10 0 0 90 0 1
device=CAPACITOR
T 100500 45300 5 10 1 1 180 2 1
refdes=C25
T 100500 45000 5 10 1 1 180 0 1
value=0.1u
T 100800 44600 5 10 1 1 90 0 1
footprint=0603
}
C 98600 45500 1 0 0 resistor.sym
{
T 98900 45900 5 10 0 0 0 0 1
device=RESISTOR
T 98900 46000 5 10 1 1 0 6 1
refdes=R30
T 99200 46000 5 10 1 1 0 0 1
value=0
T 98800 45500 5 10 1 1 0 0 1
footprint=0603
}
C 101000 44200 1 0 0 agnd.sym
{
T 100900 44010 5 9 1 1 0 0 1
net=AGnd:1
}
N 101600 45800 104000 45800 4
{
T 102100 45900 5 10 1 1 0 0 1
netname=common_mode_voltage
}
C 100800 46000 1 90 0 capacitor.sym
{
T 100100 46300 5 10 0 0 90 0 1
device=CAPACITOR
T 100500 46600 5 10 1 1 180 2 1
refdes=C20
T 100500 46300 5 10 1 1 180 0 1
value=0.1u
T 100800 45900 5 10 1 1 90 0 1
footprint=0603
}
C 100900 46900 1 0 0 avcc.sym
{
T 100850 47300 5 9 1 1 0 0 1
net=AVcc:1
}
N 100600 46000 100600 45600 4
C 93300 59900 1 270 0 avcc.sym
{
T 93700 59950 5 9 1 1 270 0 1
net=AVcc:1
}
C 92100 42500 1 270 0 avcc.sym
{
T 92500 42550 5 9 1 1 270 0 1
net=AVcc:1
}
N 92100 39900 92400 39900 4
N 92400 39900 92400 38000 4
N 92400 38000 93400 38000 4
N 93300 57300 93600 57300 4
N 93600 57300 93600 55400 4
N 93600 55400 94600 55400 4
N 75500 58000 75200 58000 4
N 75200 57600 75200 59600 4
N 75500 59600 75200 59600 4
C 77000 57300 1 0 0 shield.sym
N 76900 59600 77100 59600 4
N 77100 59600 77100 57600 4
N 76900 58000 77100 58000 4
C 103600 57300 1 0 0 connector-RJ45.sym
{
T 104900 61200 5 10 1 1 0 0 1
refdes=J1
T 106100 59300 5 15 1 1 90 4 1
device=CONNECTOR RJ45
T 104900 61000 5 10 1 1 0 0 1
footprint=RJ45.fp
}
C 101700 39700 1 0 0 voltage_reg-LT1763.sym
{
T 102500 42350 5 12 1 1 0 4 1
device=LT1763
T 102800 42900 5 10 1 1 0 0 1
refdes=U5
T 102800 42700 5 10 1 1 0 0 1
footprint=SO8
}
C 102400 57200 1 0 0 agnd.sym
{
T 102100 57010 5 9 1 1 0 0 1
net=GndUnreg:1
}
N 103600 58200 102500 58200 4
N 102500 57500 102500 58200 4
C 102900 61600 1 0 0 avcc.sym
{
T 102850 62000 5 10 1 1 0 0 1
net=Vunreg:1
}
N 103100 57800 103100 61600 4
N 103100 57800 103600 57800 4
N 99400 59800 103600 59800 4
{
T 99500 59900 5 10 1 1 0 0 1
netname=common_mode_voltage
}
N 101600 59400 103600 59400 4
N 99400 59000 103600 59000 4
{
T 99500 59100 5 10 1 1 0 0 1
netname=low_gain_p
}
N 99400 58600 103600 58600 4
{
T 99500 58700 5 10 1 1 0 0 1
netname=low_gain_n
}
C 101500 56600 1 0 0 agnd.sym
{
T 101400 56410 5 9 1 1 0 0 1
net=AGnd:1
}
N 99400 60600 103600 60600 4
{
T 99500 60700 5 10 1 1 0 0 1
netname=high_gain_p
}
N 99400 60200 103600 60200 4
{
T 99500 60300 5 10 1 1 0 0 1
netname=high_gain_n
}
C 105800 57000 1 0 0 shield.sym
C 75300 57500 1 0 0 connector-drift_fe.sym
{
T 75850 60100 5 10 0 0 0 0 1
device=HEADER_FE
T 75800 60200 5 10 1 1 0 0 1
refdes=TO_KNOT
T 76295 60000 5 10 1 1 0 4 1
footprint=BOARD_EDGE_MEC1-105-02-S-D-A.fp
}
C 101600 57900 1 0 0 ferrite_bead.sym
{
T 101800 58800 5 10 0 0 0 0 1
device=INDUCTOR
T 101800 58300 5 10 1 1 0 0 1
refdes=L1
T 101800 58646 5 10 0 0 0 0 1
value=0 H
T 101800 57881 5 10 1 1 0 0 1
footprint=1206
}
N 101600 59400 101600 56900 4
C 100800 41800 1 0 0 avcc.sym
{
T 101050 42200 5 10 1 1 0 3 1
net=Vunreg:1
}
N 101000 40900 101000 41800 4
N 101000 41500 101700 41500 4
C 102400 39400 1 0 0 agnd.sym
{
T 102300 39210 5 9 1 1 0 0 1
net=AGnd:1
}
N 101000 39700 102800 39700 4
N 101700 41100 101000 41100 4
N 103300 41500 106100 41500 4
N 103300 41100 104700 41100 4
N 104700 40900 104700 41500 4
C 104900 40000 1 90 0 capacitor.sym
{
T 104200 40300 5 10 0 0 90 0 1
device=CAPACITOR
T 104600 40600 5 10 1 1 180 2 1
refdes=C32
T 104600 40300 5 10 1 1 180 0 1
value=0.01u
T 104900 39900 5 10 1 1 90 0 1
footprint=0603
}
N 104700 40000 104700 39600 4
N 104700 39600 103800 39600 4
N 103800 39600 103800 40300 4
N 103800 40300 103300 40300 4
C 100600 40900 1 270 0 capacitor_polar.sym
{
T 101800 40700 5 10 0 0 270 0 1
device=POLARIZED_CAPACITOR
T 100900 40700 5 10 1 1 0 6 1
refdes=C31
T 101400 39900 5 10 1 1 90 0 1
footprint=TANT_C_N.fp
T 100900 40300 5 10 1 1 180 0 1
value=10u
}
N 101000 40000 101000 39700 4
C 105700 40800 1 270 0 capacitor_polar.sym
{
T 106900 40600 5 10 0 0 270 0 1
device=POLARIZED_CAPACITOR
T 106000 40600 5 10 1 1 0 6 1
refdes=C33
T 106500 39800 5 10 1 1 90 0 1
footprint=TANT_C_N.fp
T 106000 40200 5 10 1 1 180 0 1
value=10u
}
C 106000 39600 1 0 0 agnd.sym
{
T 105900 39410 5 9 1 1 0 0 1
net=AGnd:1
}
N 106100 40800 106100 41500 4
C 105900 41500 1 0 0 avcc.sym
{
T 105850 41900 5 9 1 1 0 0 1
net=AVcc:1
}
C 101700 53700 1 0 0 terminal-1.sym
{
T 102010 54450 5 10 0 0 0 0 1
device=terminal
T 102010 54300 5 10 0 0 0 0 1
footprint=DRIFT-FE_SHIELD.fp
T 101950 53750 5 10 1 1 0 6 1
refdes=T1
}
C 102900 52200 1 0 0 shield.sym
N 103000 52500 103000 53800 4
N 103000 52900 102600 52900 4
N 102600 53800 103000 53800 4
C 101700 52800 1 0 0 terminal-1.sym
{
T 102010 53550 5 10 0 0 0 0 1
device=terminal
T 102010 53400 5 10 0 0 0 0 1
footprint=DRIFT-FE_SHIELD.fp
T 101950 52850 5 10 1 1 0 6 1
refdes=T2
}
C 76500 46400 1 0 0 opamp-ADA4817-2.sym
{
T 77600 49100 5 11 1 1 90 4 1
device=ADA4817-2
T 78100 51600 5 10 1 1 0 0 1
refdes=U1
T 78092 51400 5 10 1 1 0 0 1
footprint=QFN16_4_EP_rot.fp
}
C 75000 50300 1 90 0 capacitor.sym
{
T 74300 50600 5 10 0 0 90 0 1
device=CAPACITOR
T 74700 50900 5 10 1 1 180 2 1
refdes=C1
T 74700 50600 5 10 1 1 180 0 1
value=22.0p
T 75000 50200 5 10 1 1 90 0 1
footprint=0603
}
C 76000 50300 1 90 0 resistor.sym
{
T 75600 50600 5 10 0 0 90 0 1
device=RESISTOR
T 75600 51000 5 10 1 1 180 0 1
refdes=R1
T 75600 50700 5 10 1 1 180 0 1
value=100.0K
T 76000 50500 5 10 1 1 90 0 1
footprint=0603
}
N 76500 50100 74000 50100 4
N 74800 50300 74800 50100 4
N 75700 50300 75700 50100 4
N 76500 50900 76300 50900 4
N 76300 50900 76300 51500 4
N 76300 51500 74800 51500 4
N 74800 51500 74800 51200 4
N 75700 51200 75700 51500 4
C 77000 51700 1 0 0 avcc.sym
{
T 76950 52100 5 9 1 1 0 0 1
net=AVcc:1
}
C 73100 49800 1 0 0 resistor.sym
{
T 73400 50200 5 10 0 0 0 0 1
device=RESISTOR
T 73400 50300 5 10 1 1 0 6 1
refdes=R5
T 73700 50300 5 10 1 1 0 0 1
value=49.9
T 73300 49800 5 10 1 1 0 0 1
footprint=0603
}
C 77000 46100 1 0 0 agnd.sym
{
T 76900 45910 5 9 1 1 0 0 1
net=AGnd:1
}
C 76500 47400 1 90 0 avcc.sym
{
T 76100 47350 5 9 1 1 90 0 1
net=AVcc:1
}
C 78600 50700 1 270 0 avcc.sym
{
T 79000 50750 5 9 1 1 270 0 1
net=AVcc:1
}
C 76200 49000 1 270 0 agnd.sym
{
T 76090 48600 5 9 1 1 90 0 1
net=AGnd:1
}
N 76500 49700 75500 49700 4
N 75500 42900 75500 49700 4
N 75500 42900 75900 42900 4
N 78600 48000 81300 48000 4
N 80800 48000 80800 47700 4
N 79800 47700 79800 48000 4
N 80800 46800 80800 46500 4
N 80800 46500 79000 46500 4
N 79000 46500 79000 47200 4
N 79000 47200 78600 47200 4
N 79800 46800 79800 46500 4
C 81300 47700 1 0 0 resistor.sym
{
T 81600 48100 5 10 0 0 0 0 1
device=RESISTOR
T 81600 48200 5 10 1 1 0 6 1
refdes=R14
T 81900 48200 5 10 1 1 0 0 1
value=49.9
T 81500 47700 5 10 1 1 0 0 1
footprint=0603
}
C 78600 49300 1 270 0 avcc.sym
{
T 79000 49350 5 9 1 1 270 0 1
net=AVcc:1
}
N 76800 42900 82200 42900 4
{
T 80200 43000 5 10 1 1 0 0 1
netname=common_mode_voltage
}
C 78600 43100 1 90 0 capacitor.sym
{
T 77900 43400 5 10 0 0 90 0 1
device=CAPACITOR
T 78300 43700 5 10 1 1 180 2 1
refdes=C13
T 78300 43400 5 10 1 1 180 0 1
value=10.0u
T 78600 43000 5 10 1 1 90 0 1
footprint=1206
}
C 77800 43100 1 90 0 capacitor.sym
{
T 77100 43400 5 10 0 0 90 0 1
device=CAPACITOR
T 77500 43700 5 10 1 1 180 2 1
refdes=C11
T 77500 43400 5 10 1 1 180 0 1
value=0.1u
T 77800 43000 5 10 1 1 90 0 1
footprint=0603
}
N 77600 43100 77600 42900 4
N 78400 43100 78400 42900 4
N 77600 44200 78400 44200 4
N 77600 44000 77600 44200 4
N 78400 44000 78400 44200 4
C 77800 44200 1 0 0 avcc.sym
{
T 77750 44600 5 9 1 1 0 0 1
net=AVcc:1
}
C 77800 41800 1 90 0 capacitor.sym
{
T 77100 42100 5 10 0 0 90 0 1
device=CAPACITOR
T 77500 42400 5 10 1 1 180 2 1
refdes=C16
T 77500 42100 5 10 1 1 180 0 1
value=0.1u
T 77800 41700 5 10 1 1 90 0 1
footprint=0603
}
C 78600 41800 1 90 0 capacitor.sym
{
T 77900 42100 5 10 0 0 90 0 1
device=CAPACITOR
T 78300 42400 5 10 1 1 180 2 1
refdes=C17
T 78300 42100 5 10 1 1 180 0 1
value=10.0u
T 78600 41700 5 10 1 1 90 0 1
footprint=1206
}
C 77900 41200 1 0 0 agnd.sym
{
T 77800 41010 5 9 1 1 0 0 1
net=AGnd:1
}
N 77600 41500 78400 41500 4
N 77600 42900 77600 42700 4
N 78400 42900 78400 42700 4
N 77600 41800 77600 41500 4
N 78400 41500 78400 41800 4
C 80400 53700 1 0 0 resistor.sym
{
T 80700 54100 5 10 0 0 0 0 1
device=RESISTOR
T 80700 54200 5 10 1 1 0 6 1
refdes=R8
T 81000 54200 5 10 1 1 0 0 1
value=0
T 80600 53700 5 10 1 1 0 0 1
footprint=0603
}
N 79800 54000 80400 54000 4
N 81300 54000 85600 54000 4
{
T 83600 54100 5 10 1 1 0 0 1
netname=common_mode_voltage
}
C 83100 54200 1 90 0 capacitor.sym
{
T 82400 54500 5 10 0 0 90 0 1
device=CAPACITOR
T 82800 54800 5 10 1 1 180 2 1
refdes=C8
T 82800 54500 5 10 1 1 180 0 1
value=10.0u
T 83100 54100 5 10 1 1 90 0 1
footprint=1206
}
C 82300 54200 1 90 0 capacitor.sym
{
T 81600 54500 5 10 0 0 90 0 1
device=CAPACITOR
T 82000 54800 5 10 1 1 180 2 1
refdes=C6
T 82000 54500 5 10 1 1 180 0 1
value=0.1u
T 82300 54100 5 10 1 1 90 0 1
footprint=0603
}
N 82100 54200 82100 54000 4
N 82900 54200 82900 54000 4
N 82100 55300 82900 55300 4
N 82100 55100 82100 55300 4
N 82900 55100 82900 55300 4
C 82300 55300 1 0 0 avcc.sym
{
T 82250 55700 5 9 1 1 0 0 1
net=AVcc:1
}
C 82300 52800 1 90 0 capacitor.sym
{
T 81600 53100 5 10 0 0 90 0 1
device=CAPACITOR
T 82000 53400 5 10 1 1 180 2 1
refdes=C9
T 82000 53100 5 10 1 1 180 0 1
value=0.1u
T 82300 52700 5 10 1 1 90 0 1
footprint=0603
}
C 83100 52800 1 90 0 capacitor.sym
{
T 82400 53100 5 10 0 0 90 0 1
device=CAPACITOR
T 82800 53400 5 10 1 1 180 2 1
refdes=C10
T 82800 53100 5 10 1 1 180 0 1
value=10.0u
T 83100 52700 5 10 1 1 90 0 1
footprint=1206
}
C 82400 52200 1 0 0 agnd.sym
N 82100 52500 82900 52500 4
N 82100 54000 82100 53700 4
N 82900 54000 82900 53700 4
N 82100 52800 82100 52500 4
N 82900 52500 82900 52800 4
N 79800 54000 79800 48400 4
N 79800 48400 78600 48400 4
N 78600 49900 81300 49900 4
C 73100 47900 1 0 0 resistor.sym
{
T 73400 48300 5 10 0 0 0 0 1
device=RESISTOR
T 73400 48400 5 10 1 1 0 6 1
refdes=R7
T 73700 48400 5 10 1 1 0 0 1
value=0
T 73300 47900 5 10 1 1 0 0 1
footprint=0603
}
N 76500 48200 74000 48200 4
N 82200 49900 84000 49900 4
{
T 82800 50000 5 10 1 1 0 0 1
netname=stage1_out_n
}
N 71400 48200 73100 48200 4
{
T 71400 48300 5 10 1 1 0 0 1
netname=stage1_out_p
}
C 88300 49300 1 90 0 resistor.sym
{
T 87900 49600 5 10 0 0 90 0 1
device=RESISTOR
T 87900 50000 5 10 1 1 180 0 1
refdes=R15
T 87900 49700 5 10 1 1 180 0 1
value=DNP
T 88300 49500 5 10 1 1 90 0 1
footprint=0603
}
C 88300 47800 1 90 0 resistor.sym
{
T 87900 48100 5 10 0 0 90 0 1
device=RESISTOR
T 87900 48500 5 10 1 1 180 0 1
refdes=R20
T 87900 48200 5 10 1 1 180 0 1
value=DNP
T 88300 48000 5 10 1 1 90 0 1
footprint=0603
}
N 88000 50500 88000 50200 4
N 88000 49300 88000 48700 4
N 88000 47800 88000 47500 4
C 86700 48400 1 0 0 agnd.sym
{
T 86600 48210 5 9 1 1 0 0 1
net=AGnd:1
}
N 86800 48700 86800 49000 4
N 86800 49000 88000 49000 4
C 89300 48600 1 90 0 capacitor.sym
{
T 88600 48900 5 10 0 0 90 0 1
device=CAPACITOR
T 89000 49200 5 10 1 1 180 2 1
refdes=C21
T 89000 48900 5 10 1 1 180 0 1
value=DNP
T 89300 48500 5 10 1 1 90 0 1
footprint=0603
}
N 89100 49500 89100 50500 4
N 89100 48600 89100 47500 4
N 89900 50500 89900 49300 4
N 89900 49300 90500 49300 4
N 89900 47500 89900 48500 4
N 89900 48500 90500 48500 4
C 101800 46000 1 90 0 capacitor.sym
{
T 101100 46300 5 10 0 0 90 0 1
device=CAPACITOR
T 101500 46600 5 10 1 1 180 2 1
refdes=C19
T 101500 46300 5 10 1 1 180 0 1
value=10.0u
T 101800 45900 5 10 1 1 90 0 1
footprint=1206
}
C 101800 44700 1 90 0 capacitor.sym
{
T 101100 45000 5 10 0 0 90 0 1
device=CAPACITOR
T 101500 45300 5 10 1 1 180 2 1
refdes=C24
T 101500 45000 5 10 1 1 180 0 1
value=10.0u
T 101800 44600 5 10 1 1 90 0 1
footprint=1206
}
N 99500 45800 100600 45800 4
N 101600 46000 101600 45600 4
N 100600 44500 101600 44500 4
N 100600 44500 100600 44700 4
N 101600 44500 101600 44700 4
N 100600 46900 101600 46900 4
N 100600 45800 101600 45800 4
C 101500 48400 1 90 0 capacitor.sym
{
T 100800 48700 5 10 0 0 90 0 1
device=CAPACITOR
T 101200 49000 5 10 1 1 180 2 1
refdes=C30
T 101200 48700 5 10 1 1 180 0 1
value=10p
T 101500 48300 5 10 1 1 90 0 1
footprint=0603
}
N 101300 49300 101300 49600 4
N 101300 48400 101300 48200 4
C 95600 36900 1 90 0 capacitor.sym
{
T 94900 37200 5 10 0 0 90 0 1
device=CAPACITOR
T 95300 37500 5 10 1 1 180 2 1
refdes=C36
T 95300 37200 5 10 1 1 180 0 1
value=0.1u
T 95600 36800 5 10 1 1 90 0 1
footprint=0603
}
C 93400 37700 1 0 0 resistor.sym
{
T 93700 38100 5 10 0 0 0 0 1
device=RESISTOR
T 93700 38200 5 10 1 1 0 6 1
refdes=R21
T 94000 38200 5 10 1 1 0 0 1
value=0
T 93600 37700 5 10 1 1 0 0 1
footprint=0603
}
C 95800 36400 1 0 0 agnd.sym
{
T 95700 36210 5 9 1 1 0 0 1
net=AGnd:1
}
N 96400 38000 98800 38000 4
{
T 96900 38100 5 10 1 1 0 0 1
netname=common_mode_voltage
}
C 95600 38200 1 90 0 capacitor.sym
{
T 94900 38500 5 10 0 0 90 0 1
device=CAPACITOR
T 95300 38800 5 10 1 1 180 2 1
refdes=C34
T 95300 38500 5 10 1 1 180 0 1
value=0.1u
T 95600 38100 5 10 1 1 90 0 1
footprint=0603
}
C 95700 39100 1 0 0 avcc.sym
{
T 95650 39500 5 9 1 1 0 0 1
net=AVcc:1
}
N 95400 38200 95400 37800 4
C 96600 38200 1 90 0 capacitor.sym
{
T 95900 38500 5 10 0 0 90 0 1
device=CAPACITOR
T 96300 38800 5 10 1 1 180 2 1
refdes=C35
T 96300 38500 5 10 1 1 180 0 1
value=10.0u
T 96600 38100 5 10 1 1 90 0 1
footprint=1206
}
C 96600 36900 1 90 0 capacitor.sym
{
T 95900 37200 5 10 0 0 90 0 1
device=CAPACITOR
T 96300 37500 5 10 1 1 180 2 1
refdes=C37
T 96300 37200 5 10 1 1 180 0 1
value=10.0u
T 96600 36800 5 10 1 1 90 0 1
footprint=1206
}
N 94300 38000 95400 38000 4
N 96400 38200 96400 37800 4
N 95400 36700 96400 36700 4
N 95400 36700 95400 36900 4
N 96400 36700 96400 36900 4
N 95400 39100 96400 39100 4
N 95400 38000 96400 38000 4
C 96800 54300 1 90 0 capacitor.sym
{
T 96100 54600 5 10 0 0 90 0 1
device=CAPACITOR
T 96500 54900 5 10 1 1 180 2 1
refdes=C28
T 96500 54600 5 10 1 1 180 0 1
value=0.1u
T 96800 54200 5 10 1 1 90 0 1
footprint=0603
}
C 94600 55100 1 0 0 resistor.sym
{
T 94900 55500 5 10 0 0 0 0 1
device=RESISTOR
T 94900 55600 5 10 1 1 0 6 1
refdes=R18
T 95200 55600 5 10 1 1 0 0 1
value=0
T 94800 55100 5 10 1 1 0 0 1
footprint=0603
}
C 97000 53800 1 0 0 agnd.sym
{
T 96900 53610 5 9 1 1 0 0 1
net=AGnd:1
}
N 97600 55400 100000 55400 4
{
T 98100 55500 5 10 1 1 0 0 1
netname=common_mode_voltage
}
C 96800 55600 1 90 0 capacitor.sym
{
T 96100 55900 5 10 0 0 90 0 1
device=CAPACITOR
T 96500 56200 5 10 1 1 180 2 1
refdes=C22
T 96500 55900 5 10 1 1 180 0 1
value=0.1u
T 96800 55500 5 10 1 1 90 0 1
footprint=0603
}
C 96900 56500 1 0 0 avcc.sym
{
T 96850 56900 5 9 1 1 0 0 1
net=AVcc:1
}
N 96600 55600 96600 55200 4
C 97800 55600 1 90 0 capacitor.sym
{
T 97100 55900 5 10 0 0 90 0 1
device=CAPACITOR
T 97500 56200 5 10 1 1 180 2 1
refdes=C27
T 97500 55900 5 10 1 1 180 0 1
value=10.0u
T 97800 55500 5 10 1 1 90 0 1
footprint=1206
}
C 97800 54300 1 90 0 capacitor.sym
{
T 97100 54600 5 10 0 0 90 0 1
device=CAPACITOR
T 97500 54900 5 10 1 1 180 2 1
refdes=C29
T 97500 54600 5 10 1 1 180 0 1
value=10.0u
T 97800 54200 5 10 1 1 90 0 1
footprint=1206
}
N 95500 55400 96600 55400 4
N 97600 55600 97600 55200 4
N 96600 54100 97600 54100 4
N 96600 54100 96600 54300 4
N 97600 54100 97600 54300 4
N 96600 56500 97600 56500 4
N 96600 55400 97600 55400 4
C 77500 57700 1 0 0 ferrite_bead.sym
{
T 77700 58600 5 10 0 0 0 0 1
device=INDUCTOR
T 77700 58100 5 10 1 1 0 0 1
refdes=L2
T 77700 58446 5 10 0 0 0 0 1
value=0 H
T 77700 57681 5 10 1 1 0 0 1
footprint=0603
}
C 78700 57300 1 0 0 agnd.sym
{
T 78600 57110 5 9 1 1 0 0 1
net=AGnd:1
}
N 77100 58000 77500 58000 4
N 78400 58000 78800 58000 4
N 78800 58000 78800 57600 4
C 72400 48900 1 0 0 shield.sym
C 72800 49200 1 90 0 resistor.sym
{
T 72400 49500 5 10 0 0 90 0 1
device=RESISTOR
T 72400 49900 5 10 1 1 180 0 1
refdes=R23
T 72400 49600 5 10 1 1 180 0 1
value=DNP
T 72800 49400 5 10 1 1 90 0 1
footprint=0603
}
C 83000 47100 1 90 0 resistor.sym
{
T 82600 47400 5 10 0 0 90 0 1
device=RESISTOR
T 82600 47800 5 10 1 1 180 0 1
refdes=R32
T 82600 47500 5 10 1 1 180 0 1
value=DNP
T 83000 47300 5 10 1 1 90 0 1
footprint=0603
}
C 82600 46800 1 0 0 shield.sym
T 99100 61500 9 10 1 0 0 0 1
In reality high and low gains are switched
