G04 start of page 10 for group 8 idx 8 *
G04 Title: DRIFT Accumulator, outline *
G04 Creator: pcb 20110918 *
G04 CreationDate: Wed Dec  4 16:22:16 2013 UTC *
G04 For: aldorof *
G04 Format: Gerber/RS-274X *
G04 PCB-Dimensions: 800000 900000 *
G04 PCB-Coordinate-Origin: lower left *
%MOIN*%
%FSLAX25Y25*%
%LNOUTLINE*%
%ADD320C,0.0060*%
G54D320*X750000Y722500D02*Y245500D01*
X597500Y765000D02*Y895000D01*
X718000Y245500D02*X750000D01*
X640000Y722500D02*X650000D01*
X750000D01*
X202500Y895000D02*X597500D01*
X202500Y825000D02*Y895000D01*
X77500Y200000D02*X5000D01*
Y700000D01*
X77500D02*X5000D01*
X597500Y5000D02*X202500D01*
X597500Y135000D02*Y5000D01*
X202500Y75000D02*Y5000D01*
X650000Y177500D02*X640000D01*
X650000D02*G75*G03X692500Y220000I0J42500D01*G01*
X117500Y160000D02*G75*G03X160000Y117500I42500J0D01*G01*
X202500Y75000D02*G75*G03X160000Y117500I-42500J0D01*G01*
X640000Y177500D02*G75*G03X597500Y135000I0J-42500D01*G01*
X160000Y782500D02*G75*G03X117500Y740000I0J-42500D01*G01*
X160000Y782500D02*G75*G03X202500Y825000I0J42500D01*G01*
X718000Y245500D02*G75*G03X692500Y220000I0J-25500D01*G01*
X597500Y765000D02*G75*G03X640000Y722500I42500J0D01*G01*
X117500Y160000D02*G75*G03X77500Y200000I-40000J0D01*G01*
X117500Y740000D02*G75*G02X77500Y700000I-40000J0D01*G01*
M02*
